%!PS-Adobe-2.0 EPSF-1.2
%%Creator: MATLAB, The Mathworks, Inc. Version 7.9.0.529 (R2009b). Operating System: Darwin 10.8.0 Darwin Kernel Version 10.8.0: Tue Jun  7 16:33:36 PDT 2011; root:xnu-1504.15.3~1/RELEASE_I386 i386.
%%Title: ./testea.eps
%%CreationDate: 08/17/2011  02:39:51
%%DocumentNeededFonts: Helvetica
%%DocumentProcessColors: Cyan Magenta Yellow Black
%%Extensions: CMYK
%%Pages: 1
%%BoundingBox:    60   199   546   602
%%EndComments

%%BeginProlog
% MathWorks dictionary
/MathWorks 160 dict begin
% definition operators
/bdef {bind def} bind def
/ldef {load def} bind def
/xdef {exch def} bdef
/xstore {exch store} bdef
% operator abbreviations
/c  /clip ldef
/cc /concat ldef
/cp /closepath ldef
/gr /grestore ldef
/gs /gsave ldef
/mt /moveto ldef
/np /newpath ldef
/cm /currentmatrix ldef
/sm /setmatrix ldef
/rm /rmoveto ldef
/rl /rlineto ldef
/s {show newpath} bdef
/sc {setcmykcolor} bdef
/sr /setrgbcolor ldef
/sg /setgray ldef
/w /setlinewidth ldef
/j /setlinejoin ldef
/cap /setlinecap ldef
/rc {rectclip} bdef
/rf {rectfill} bdef
% page state control
/pgsv () def
/bpage {/pgsv save def} bdef
/epage {pgsv restore} bdef
/bplot /gsave ldef
/eplot {stroke grestore} bdef
% orientation switch
/portraitMode 0 def /landscapeMode 1 def /rotateMode 2 def
% coordinate system mappings
/dpi2point 0 def
% font control
/FontSize 0 def
/FMS {/FontSize xstore findfont [FontSize 0 0 FontSize neg 0 0]
  makefont setfont} bdef
/reencode {exch dup where {pop load} {pop StandardEncoding} ifelse
  exch dup 3 1 roll findfont dup length dict begin
  { 1 index /FID ne {def}{pop pop} ifelse } forall
  /Encoding exch def currentdict end definefont pop} bdef
/isroman {findfont /CharStrings get /Agrave known} bdef
/FMSR {3 1 roll 1 index dup isroman {reencode} {pop pop} ifelse
  exch FMS} bdef
/csm {1 dpi2point div -1 dpi2point div scale neg translate
 dup landscapeMode eq {pop -90 rotate}
  {rotateMode eq {90 rotate} if} ifelse} bdef
% line types: solid, dotted, dashed, dotdash
/SO { [] 0 setdash } bdef
/DO { [.5 dpi2point mul 4 dpi2point mul] 0 setdash } bdef
/DA { [6 dpi2point mul] 0 setdash } bdef
/DD { [.5 dpi2point mul 4 dpi2point mul 6 dpi2point mul 4
  dpi2point mul] 0 setdash } bdef
% macros for lines and objects
/L {lineto stroke} bdef
/MP {3 1 roll moveto 1 sub {rlineto} repeat} bdef
/AP {{rlineto} repeat} bdef
/PDlw -1 def
/W {/PDlw currentlinewidth def setlinewidth} def
/PP {closepath eofill} bdef
/DP {closepath stroke} bdef
/MR {4 -2 roll moveto dup  0 exch rlineto exch 0 rlineto
  neg 0 exch rlineto closepath} bdef
/FR {MR stroke} bdef
/PR {MR fill} bdef
/L1i {{currentfile picstr readhexstring pop} image} bdef
/tMatrix matrix def
/MakeOval {newpath tMatrix currentmatrix pop translate scale
0 0 1 0 360 arc tMatrix setmatrix} bdef
/FO {MakeOval stroke} bdef
/PO {MakeOval fill} bdef
/PD {currentlinewidth 2 div 0 360 arc fill
   PDlw -1 eq not {PDlw w /PDlw -1 def} if} def
/FA {newpath tMatrix currentmatrix pop translate scale
  0 0 1 5 -2 roll arc tMatrix setmatrix stroke} bdef
/PA {newpath tMatrix currentmatrix pop	translate 0 0 moveto scale
  0 0 1 5 -2 roll arc closepath tMatrix setmatrix fill} bdef
/FAn {newpath tMatrix currentmatrix pop translate scale
  0 0 1 5 -2 roll arcn tMatrix setmatrix stroke} bdef
/PAn {newpath tMatrix currentmatrix pop translate 0 0 moveto scale
  0 0 1 5 -2 roll arcn closepath tMatrix setmatrix fill} bdef
/vradius 0 def /hradius 0 def /lry 0 def
/lrx 0 def /uly 0 def /ulx 0 def /rad 0 def
/MRR {/vradius xdef /hradius xdef /lry xdef /lrx xdef /uly xdef
  /ulx xdef newpath tMatrix currentmatrix pop ulx hradius add uly
  vradius add translate hradius vradius scale 0 0 1 180 270 arc 
  tMatrix setmatrix lrx hradius sub uly vradius add translate
  hradius vradius scale 0 0 1 270 360 arc tMatrix setmatrix
  lrx hradius sub lry vradius sub translate hradius vradius scale
  0 0 1 0 90 arc tMatrix setmatrix ulx hradius add lry vradius sub
  translate hradius vradius scale 0 0 1 90 180 arc tMatrix setmatrix
  closepath} bdef
/FRR {MRR stroke } bdef
/PRR {MRR fill } bdef
/MlrRR {/lry xdef /lrx xdef /uly xdef /ulx xdef /rad lry uly sub 2 div def
  newpath tMatrix currentmatrix pop ulx rad add uly rad add translate
  rad rad scale 0 0 1 90 270 arc tMatrix setmatrix lrx rad sub lry rad
  sub translate rad rad scale 0 0 1 270 90 arc tMatrix setmatrix
  closepath} bdef
/FlrRR {MlrRR stroke } bdef
/PlrRR {MlrRR fill } bdef
/MtbRR {/lry xdef /lrx xdef /uly xdef /ulx xdef /rad lrx ulx sub 2 div def
  newpath tMatrix currentmatrix pop ulx rad add uly rad add translate
  rad rad scale 0 0 1 180 360 arc tMatrix setmatrix lrx rad sub lry rad
  sub translate rad rad scale 0 0 1 0 180 arc tMatrix setmatrix
  closepath} bdef
/FtbRR {MtbRR stroke } bdef
/PtbRR {MtbRR fill } bdef
/stri 6 array def /dtri 6 array def
/smat 6 array def /dmat 6 array def
/tmat1 6 array def /tmat2 6 array def /dif 3 array def
/asub {/ind2 exch def /ind1 exch def dup dup
  ind1 get exch ind2 get sub exch } bdef
/tri_to_matrix {
  2 0 asub 3 1 asub 4 0 asub 5 1 asub
  dup 0 get exch 1 get 7 -1 roll astore } bdef
/compute_transform {
  dmat dtri tri_to_matrix tmat1 invertmatrix 
  smat stri tri_to_matrix tmat2 concatmatrix } bdef
/ds {stri astore pop} bdef
/dt {dtri astore pop} bdef
/db {2 copy /cols xdef /rows xdef mul dup 3 mul string
  currentfile exch readhexstring pop
  dup 0 3 index getinterval /rbmap xdef
  dup 2 index dup getinterval /gbmap xdef
  1 index dup 2 mul exch getinterval /bbmap xdef pop pop}bdef
/it {gs np dtri aload pop moveto lineto lineto cp c
  cols rows 8 compute_transform 
  rbmap gbmap bbmap true 3 colorimage gr}bdef
/il {newpath moveto lineto stroke}bdef
currentdict end def
%%EndProlog

%%BeginSetup
MathWorks begin

0 cap

end
%%EndSetup

%%Page: 1 1
%%BeginPageSetup
%%PageBoundingBox:    60   199   546   602
MathWorks begin
bpage
%%EndPageSetup

%%BeginObject: obj1
bplot

/dpi2point 12 def
portraitMode 0216 7344 csm

  513   109  5832  4846 MR c np
85 dict begin %Colortable dictionary
/c0 { 0.000000 0.000000 0.000000 sr} bdef
/c1 { 1.000000 1.000000 1.000000 sr} bdef
/c2 { 0.900000 0.000000 0.000000 sr} bdef
/c3 { 0.000000 0.820000 0.000000 sr} bdef
/c4 { 0.000000 0.000000 0.800000 sr} bdef
/c5 { 0.910000 0.820000 0.320000 sr} bdef
/c6 { 1.000000 0.260000 0.820000 sr} bdef
/c7 { 0.000000 0.820000 0.820000 sr} bdef
c0
1 j
1 sg
   0    0 6913 5186 PR
6 w
0 4226 5356 0 0 -4226 899 4614 4 MP
PP
-5356 0 0 4226 5356 0 0 -4226 899 4614 5 MP stroke
4 w
DO
0 sg
1116 4614 mt 1116  388 L
1116  388 mt 1116  388 L
1766 4614 mt 1766  388 L
1766  388 mt 1766  388 L
2415 4614 mt 2415  388 L
2415  388 mt 2415  388 L
3065 4614 mt 3065  388 L
3065  388 mt 3065  388 L
3715 4614 mt 3715  388 L
3715  388 mt 3715  388 L
4365 4614 mt 4365  388 L
4365  388 mt 4365  388 L
5014 4614 mt 5014  388 L
5014  388 mt 5014  388 L
5664 4614 mt 5664  388 L
5664  388 mt 5664  388 L
 899 4077 mt 6255 4077 L
6255 4077 mt 6255 4077 L
 899 3415 mt 6255 3415 L
6255 3415 mt 6255 3415 L
 899 2753 mt 6255 2753 L
6255 2753 mt 6255 2753 L
 899 2090 mt 6255 2090 L
6255 2090 mt 6255 2090 L
 899 1428 mt 6255 1428 L
6255 1428 mt 6255 1428 L
 899  766 mt 6255  766 L
6255  766 mt 6255  766 L
SO
6 w
 899 4614 mt 6255 4614 L
 899  388 mt 6255  388 L
 899 4614 mt  899  388 L
6255 4614 mt 6255  388 L
 899 4614 mt 6255 4614 L
 899 4614 mt  899  388 L
1116 4614 mt 1116 4561 L
1116  388 mt 1116  442 L
%%IncludeResource: font Helvetica
/Helvetica /ISOLatin1Encoding 120 FMSR

 933 4760 mt 
(28.021) s
1766 4614 mt 1766 4561 L
1766  388 mt 1766  442 L
1583 4760 mt 
(28.022) s
2415 4614 mt 2415 4561 L
2415  388 mt 2415  442 L
2232 4760 mt 
(28.023) s
3065 4614 mt 3065 4561 L
3065  388 mt 3065  442 L
2882 4760 mt 
(28.024) s
3715 4614 mt 3715 4561 L
3715  388 mt 3715  442 L
3532 4760 mt 
(28.025) s
4365 4614 mt 4365 4561 L
4365  388 mt 4365  442 L
4182 4760 mt 
(28.026) s
5014 4614 mt 5014 4561 L
5014  388 mt 5014  442 L
4831 4760 mt 
(28.027) s
5664 4614 mt 5664 4561 L
5664  388 mt 5664  442 L
5481 4760 mt 
(28.028) s
 899 4077 mt  952 4077 L
6255 4077 mt 6201 4077 L
 731 4121 mt 
(30) s
 899 3415 mt  952 3415 L
6255 3415 mt 6201 3415 L
 731 3459 mt 
(31) s
 899 2753 mt  952 2753 L
6255 2753 mt 6201 2753 L
 731 2797 mt 
(32) s
 899 2090 mt  952 2090 L
6255 2090 mt 6201 2090 L
 731 2134 mt 
(33) s
 899 1428 mt  952 1428 L
6255 1428 mt 6201 1428 L
 731 1472 mt 
(34) s
 899  766 mt  952  766 L
6255  766 mt 6201  766 L
 731  810 mt 
(35) s
 899 4614 mt 6255 4614 L
 899  388 mt 6255  388 L
 899 4614 mt  899  388 L
6255 4614 mt 6255  388 L
gs 899 388 5357 4227 MR c np
24 w
gr

24 w
/c8 { 1.000000 0.000000 0.000000 sr} bdef
c8
1080 2215 mt 1152 2215 L
1116 2179 mt 1116 2251 L
1730 2215 mt 1802 2215 L
1766 2179 mt 1766 2251 L
2379 2215 mt 2451 2215 L
2415 2179 mt 2415 2251 L
3029 2215 mt 3101 2215 L
3065 2179 mt 3065 2251 L
3679 2215 mt 3751 2215 L
3715 2179 mt 3715 2251 L
4329 2215 mt 4401 2215 L
4365 2179 mt 4365 2251 L
4978 2215 mt 5050 2215 L
5014 2179 mt 5014 2251 L
5628 2215 mt 5700 2215 L
5664 2179 mt 5664 2251 L
gs 899 388 5357 4227 MR c np
gr

/c9 { 0.000000 0.000000 1.000000 sr} bdef
c9
  36   36 1766 4414 FO
  36   36 2415 3453 FO
  36   36 3065 2493 FO
  36   36 3715 1533 FO
  36   36 4365  572 FO
gs 899 388 5357 4227 MR c np
gr

0 sg
3316 4903 mt 
(Tempo [s]) s
 649 3269 mt  -90 rotate
(Dist\342ncia ao Mergulhador[m]) s
90 rotate
2223  293 mt 
(Intersec\347\343o de uma onda ac\372stica com um Ve\355culo) s
 882 4657 mt 
( ) s
6239  430 mt 
( ) s
6 w
1 sg
0 361 1281 0 0 -361 4667 4440 4 MP
PP
-1281 0 0 361 1281 0 0 -361 4667 4440 5 MP stroke
4 w
DO
SO
6 w
0 sg
4667 4440 mt 5948 4440 L
4667 4079 mt 5948 4079 L
4667 4440 mt 4667 4079 L
5948 4440 mt 5948 4079 L
4667 4440 mt 5948 4440 L
4667 4440 mt 4667 4079 L
4667 4440 mt 5948 4440 L
4667 4079 mt 5948 4079 L
4667 4440 mt 4667 4079 L
5948 4440 mt 5948 4079 L
5135 4222 mt 
(Ve\355culo) s
gs 4667 4079 1282 362 MR c np
24 w
gs 4820 4081 197 197 MR c np
c8
4882 4179 mt 4954 4179 L
4918 4143 mt 4918 4215 L
gr

c8
gr

24 w
c8
0 sg
5135 4382 mt 
(Onda ac\372stica) s
gs 4667 4079 1282 362 MR c np
gs 4820 4241 197 197 MR c np
c9
  36   36 4918 4339 FO
gr

c9
6 w
gr

6 w
c9

end %%Color Dict

eplot
%%EndObject

epage
end

showpage

%%Trailer
%%EOF
