\relax 
\citation{Taraldsen:2011fk}
\citation{http://www.punaridge.org/:1998zr}
\@writefile{toc}{\contentsline {chapter}{\numberline {3}Sistema de Comunica\IeC {\c c}\IeC {\~o}es}{9}{chapter.3}}
\@writefile{lof}{\addvspace {10\p@ }}
\@writefile{lot}{\addvspace {10\p@ }}
\newlabel{chap:communication-system}{{3}{9}{Sistema de Comunicações\relax }{chapter.3}{}}
\@writefile{toc}{\contentsline {section}{\numberline {3.1}An\IeC {\'a}lise de Sinais e Aproxima\IeC {\c c}\IeC {\~o}es}{9}{section.3.1}}
\@writefile{brf}{\backcite{Taraldsen:2011fk}{{9}{3.1}{section.3.1}}}
\@writefile{brf}{\backcite{http://www.punaridge.org/:1998zr}{{9}{3.1}{section.3.1}}}
\@writefile{lof}{\contentsline {figure}{\numberline {3.1}{\ignorespaces Varia\IeC {\c c}\IeC {\~a}o da velocidade do som na \IeC {\'a}gua do mar com a profundidade\relax }}{10}{figure.caption.12}}
\newlabel{fig: som_na_agua}{{3.1}{10}{Variação da velocidade do som na água do mar com a profundidade\relax \relax }{figure.caption.12}{}}
\@writefile{lof}{\contentsline {figure}{\numberline {3.2}{\ignorespaces Comunica\IeC {\c c}\IeC {\~o}es ac\IeC {\'u}sticas no tempo\relax }}{11}{figure.caption.13}}
\newlabel{fig: communications_in_time}{{3.2}{11}{Comunicações acústicas no tempo\relax \relax }{figure.caption.13}{}}
\@writefile{lof}{\contentsline {figure}{\numberline {3.3}{\ignorespaces Dist\IeC {\^a}ncias durante um ciclo de troca de mensagens\relax }}{12}{figure.caption.14}}
\newlabel{fig: time-propagation-movement}{{3.3}{12}{Distâncias durante um ciclo de troca de mensagens\relax \relax }{figure.caption.14}{}}
\newlabel{eq:d3-d1}{{3.1}{12}{Análise de Sinais e Aproximações\relax }{equation.3.1.1}{}}
\newlabel{fig:time-propagation-distance}{{3.4a}{13}{Subfigure 3 3.4a\relax }{subfigure.3.4.1}{}}
\newlabel{sub@fig:time-propagation-distance}{{(a)}{a}{Subfigure 3 3.4a\relax }{subfigure.3.4.1}{}}
\newlabel{fig:time-propagation-distance-triangle}{{3.4b}{13}{Subfigure 3 3.4b\relax }{subfigure.3.4.2}{}}
\newlabel{sub@fig:time-propagation-distance-triangle}{{(b)}{b}{Subfigure 3 3.4b\relax }{subfigure.3.4.2}{}}
\@writefile{lof}{\contentsline {figure}{\numberline {3.4}{\ignorespaces Pior cen\IeC {\'a}rio de movimento de ve\IeC {\'\i }culo e mergulhador\relax }}{13}{figure.caption.15}}
\@writefile{lof}{\contentsline {subfigure}{\numberline{(a)}{\ignorespaces {Dist\IeC {\^a}ncias m\IeC {\'a}ximas}}}{13}{subfigure.3.4.1}}
\@writefile{lof}{\contentsline {subfigure}{\numberline{(b)}{\ignorespaces {Equivalente geom\IeC {\'e}trico}}}{13}{subfigure.3.4.2}}
\newlabel{fig:msg}{{3.4}{13}{Pior cenário de movimento de veículo e mergulhador\relax \relax }{figure.caption.15}{}}
\@writefile{toc}{\contentsline {section}{\numberline {3.2}Estrat\IeC {\'e}gia de Troca de Mensagens Sem Rel\IeC {\'o}gios S\IeC {\'\i }ncronos}{14}{section.3.2}}
\newlabel{sec:sem-relogios-sincronos}{{3.2}{14}{Estratégia de Troca de Mensagens Sem Relógios Síncronos\relax }{section.3.2}{}}
\newlabel{msg-chain-ping-alert}{{1}{14}{Estratégia de Troca de Mensagens Sem Relógios Síncronos\relax }{Item.1}{}}
\newlabel{msg-chain-ping}{{2}{14}{Estratégia de Troca de Mensagens Sem Relógios Síncronos\relax }{Item.2}{}}
\newlabel{msg-chain-pong-from-diver}{{4}{14}{Estratégia de Troca de Mensagens Sem Relógios Síncronos\relax }{Item.4}{}}
\newlabel{msg-chain-diver-pos}{{6}{14}{Estratégia de Troca de Mensagens Sem Relógios Síncronos\relax }{Item.6}{}}
\newlabel{fig:comm-without-ntp-radio}{{3.5a}{15}{Subfigure 3 3.5a\relax }{subfigure.3.5.1}{}}
\newlabel{sub@fig:comm-without-ntp-radio}{{(a)}{a}{Subfigure 3 3.5a\relax }{subfigure.3.5.1}{}}
\newlabel{fig:comm-without-ntp-acustic}{{3.5b}{15}{Subfigure 3 3.5b\relax }{subfigure.3.5.2}{}}
\newlabel{sub@fig:comm-without-ntp-acustic}{{(b)}{b}{Subfigure 3 3.5b\relax }{subfigure.3.5.2}{}}
\@writefile{lof}{\contentsline {figure}{\numberline {3.5}{\ignorespaces Troca de mensagens sem rel\IeC {\'o}gios s\IeC {\'\i }ncronos\relax }}{15}{figure.caption.16}}
\@writefile{lof}{\contentsline {subfigure}{\numberline{(a)}{\ignorespaces {R\IeC {\'a}dio}}}{15}{subfigure.3.5.1}}
\@writefile{lof}{\contentsline {subfigure}{\numberline{(b)}{\ignorespaces {Ac\IeC {\'u}sticas}}}{15}{subfigure.3.5.2}}
\newlabel{fig:comm-without-ntp}{{3.5}{15}{Troca de mensagens sem relógios síncronos\relax \relax }{figure.caption.16}{}}
\newlabel{eq:distance_between_diver_maste_assincronosr}{{3.2}{15}{Estratégia de Troca de Mensagens Sem Relógios Síncronos\relax }{equation.3.2.2}{}}
\newlabel{eq:delta_t_envio_diver_recepcao_veiculo}{{3.3}{15}{Estratégia de Troca de Mensagens Sem Relógios Síncronos\relax }{equation.3.2.3}{}}
\newlabel{eq:distance_between_diver_vehicle}{{3.4}{15}{Estratégia de Troca de Mensagens Sem Relógios Síncronos\relax }{equation.3.2.4}{}}
\newlabel{eq:distances}{{3.5}{15}{Estratégia de Troca de Mensagens Sem Relógios Síncronos\relax }{equation.3.2.5}{}}
\citation{Fan:2011kx}
\citation{Ruiqing:2010fk}
\citation{He:2009fk}
\@writefile{toc}{\contentsline {section}{\numberline {3.3}Estrat\IeC {\'e}gia de Troca de Mensagens Com Rel\IeC {\'o}gios S\IeC {\'\i }ncronos}{16}{section.3.3}}
\newlabel{sec:com_relogios_sincronos}{{3.3}{16}{Estratégia de Troca de Mensagens Com Relógios Síncronos\relax }{section.3.3}{}}
\@writefile{brf}{\backcite{Fan:2011kx}{{16}{3.3}{section.3.3}}}
\@writefile{brf}{\backcite{Ruiqing:2010fk}{{16}{3.3}{section.3.3}}}
\@writefile{brf}{\backcite{He:2009fk}{{16}{3.3}{section.3.3}}}
\newlabel{eq:distance_between_diver_master_sincronos}{{3.6}{16}{Estratégia de Troca de Mensagens Com Relógios Síncronos\relax }{equation.3.3.6}{}}
\newlabel{eq:delta_t_envio_diver_recepcao_veiculo}{{3.7}{16}{Estratégia de Troca de Mensagens Com Relógios Síncronos\relax }{equation.3.3.7}{}}
\newlabel{eq:distance_between_diver_vehicle}{{3.8}{16}{Estratégia de Troca de Mensagens Com Relógios Síncronos\relax }{equation.3.3.8}{}}
\newlabel{fig:comm-with-ntp-radio}{{3.6a}{17}{Subfigure 3 3.6a\relax }{subfigure.3.6.1}{}}
\newlabel{sub@fig:comm-with-ntp-radio}{{(a)}{a}{Subfigure 3 3.6a\relax }{subfigure.3.6.1}{}}
\newlabel{fig:}{{3.6b}{17}{Subfigure 3 3.6b\relax }{subfigure.3.6.2}{}}
\newlabel{sub@fig:}{{(b)}{b}{Subfigure 3 3.6b\relax }{subfigure.3.6.2}{}}
\@writefile{lof}{\contentsline {figure}{\numberline {3.6}{\ignorespaces Troca de mensagens com rel\IeC {\'o}gios s\IeC {\'\i }ncronos\relax }}{17}{figure.caption.17}}
\@writefile{lof}{\contentsline {subfigure}{\numberline{(a)}{\ignorespaces {R\IeC {\'a}dio}}}{17}{subfigure.3.6.1}}
\@writefile{lof}{\contentsline {subfigure}{\numberline{(b)}{\ignorespaces {Ac\IeC {\'u}sticas}}}{17}{subfigure.3.6.2}}
\newlabel{fig:msg_com_relogio_sincrono}{{3.6}{17}{Troca de mensagens com relógios síncronos\relax \relax }{figure.caption.17}{}}
\newlabel{eq:distances}{{3.9}{17}{Estratégia de Troca de Mensagens Com Relógios Síncronos\relax }{equation.3.3.9}{}}
\@writefile{toc}{\contentsline {section}{\numberline {3.4}Falhas de Comunica\IeC {\c c}\IeC {\~o}es}{17}{section.3.4}}
\newlabel{sec:falhas_comunicacao}{{3.4}{17}{Falhas de Comunicações\relax }{section.3.4}{}}
\@writefile{toc}{\contentsline {section}{\numberline {3.5}Comunica\IeC {\c c}\IeC {\~o}es Aplicadas ao Projecto}{18}{section.3.5}}
\newlabel{fig:comm-fail-diver}{{3.7a}{19}{Subfigure 3 3.7a\relax }{subfigure.3.7.1}{}}
\newlabel{sub@fig:comm-fail-diver}{{(a)}{a}{Subfigure 3 3.7a\relax }{subfigure.3.7.1}{}}
\newlabel{fig:comm-fail-master}{{3.7b}{19}{Subfigure 3 3.7b\relax }{subfigure.3.7.2}{}}
\newlabel{sub@fig:comm-fail-master}{{(b)}{b}{Subfigure 3 3.7b\relax }{subfigure.3.7.2}{}}
\newlabel{fig:comm-fail-vehicle}{{3.7c}{19}{Subfigure 3 3.7c\relax }{subfigure.3.7.3}{}}
\newlabel{sub@fig:comm-fail-vehicle}{{(c)}{c}{Subfigure 3 3.7c\relax }{subfigure.3.7.3}{}}
\@writefile{lof}{\contentsline {figure}{\numberline {3.7}{\ignorespaces Falhas nas comunica\IeC {\c c}\IeC {\~o}es ac\IeC {\'u}sticas\relax }}{19}{figure.caption.18}}
\@writefile{lof}{\contentsline {subfigure}{\numberline{(a)}{\ignorespaces {Mergulhador}}}{19}{subfigure.3.7.1}}
\@writefile{lof}{\contentsline {subfigure}{\numberline{(b)}{\ignorespaces {Ve\IeC {\'\i }culo Principal}}}{19}{subfigure.3.7.2}}
\@writefile{lof}{\contentsline {subfigure}{\numberline{(c)}{\ignorespaces {Ve\IeC {\'\i }culo Comum}}}{19}{subfigure.3.7.3}}
\newlabel{fig:msg_perdas_geral}{{3.7}{19}{Falhas nas comunicações acústicas\relax \relax }{figure.caption.18}{}}
\@writefile{lof}{\contentsline {figure}{\numberline {3.8}{\ignorespaces Atraso nas comunica\IeC {\c c}\IeC {\~o}es ac\IeC {\'u}sticas\relax }}{20}{figure.caption.19}}
\newlabel{fig:comm-fail-delay}{{3.8}{20}{Atraso nas comunicações acústicas\relax \relax }{figure.caption.19}{}}
\@setckpt{Chapters/Comunicacoes}{
\setcounter{page}{21}
\setcounter{equation}{9}
\setcounter{enumi}{7}
\setcounter{enumii}{0}
\setcounter{enumiii}{0}
\setcounter{enumiv}{0}
\setcounter{footnote}{0}
\setcounter{mpfootnote}{0}
\setcounter{part}{0}
\setcounter{chapter}{3}
\setcounter{section}{5}
\setcounter{subsection}{0}
\setcounter{subsubsection}{0}
\setcounter{paragraph}{0}
\setcounter{subparagraph}{0}
\setcounter{figure}{8}
\setcounter{table}{0}
\setcounter{parentequation}{0}
\setcounter{NAT@ctr}{0}
\setcounter{Item}{7}
\setcounter{Hfootnote}{0}
\setcounter{bookmark@seq@number}{17}
\setcounter{@todonotes@numberoftodonotes}{0}
\setcounter{defin}{0}
\setcounter{prob}{0}
\setcounter{theo}{0}
\setcounter{prop}{0}
\setcounter{ContinuedFloat}{0}
\setcounter{KVtest}{0}
\setcounter{subfigure}{0}
\setcounter{subfigure@save}{3}
\setcounter{lofdepth}{1}
\setcounter{subtable}{0}
\setcounter{subtable@save}{0}
\setcounter{lotdepth}{1}
\setcounter{section@level}{1}
}
