\relax 
\@writefile{toc}{\contentsline {chapter}{\numberline {5}Filtro de Kalman}{27}{chapter.5}}
\@writefile{lof}{\addvspace {10\p@ }}
\@writefile{lot}{\addvspace {10\p@ }}
\newlabel{chap:kalman}{{5}{27}{Filtro de Kalman\relax }{chapter.5}{}}
\@writefile{lof}{\contentsline {figure}{\numberline {5.1}{\ignorespaces Esquema Geral do Filtro de Kalman\relax }}{30}{figure.caption.23}}
\newlabel{fig: kalman_filter}{{5.1}{30}{Esquema Geral do Filtro de Kalman\relax \relax }{figure.caption.23}{}}
\@writefile{toc}{\contentsline {section}{\numberline {5.1}Filtro de Kalman}{31}{section.5.1}}
\newlabel{subeq:espaco_estados}{{5.1}{31}{Filtro de Kalman\relax }{equation.5.1.1}{}}
\newlabel{subeq:medidas_discreto}{{5.2}{31}{Filtro de Kalman\relax }{equation.5.1.2}{}}
\citation{Greg-Welch:2001zr}
\newlabel{subeq:ruido_processo}{{5.3}{32}{Filtro de Kalman\relax }{equation.5.1.3}{}}
\newlabel{subeq:ruido_medida}{{5.4}{32}{Filtro de Kalman\relax }{equation.5.1.4}{}}
\@writefile{brf}{\backcite{Greg-Welch:2001zr}{{32}{5.1}{equation.5.1.4}}}
\newlabel{subeq:erro_a_priori}{{5.5b}{32}{Origem computacional do Filtro\relax }{equation.5.1.5b}{}}
\newlabel{subeq:covariancia_a_priori}{{5.6b}{33}{Origem computacional do Filtro\relax }{equation.5.1.6b}{}}
\newlabel{eq:x_a_postriori}{{5.7}{33}{Origem computacional do Filtro\relax }{equation.5.1.7}{}}
\newlabel{eq:melhor_k}{{5.8}{33}{Origem computacional do Filtro\relax }{equation.5.1.8}{}}
\@writefile{lof}{\contentsline {figure}{\numberline {5.2}{\ignorespaces Ciclo do Filtro de Kalman discreto\relax }}{35}{figure.caption.28}}
\newlabel{kalman_filter_cycle}{{5.2}{35}{Ciclo do Filtro de Kalman discreto\relax \relax }{figure.caption.28}{}}
\newlabel{subeq:actualizacao_tempo}{{5.11}{35}{O Algoritmo do Filtro\relax }{equation.5.1.11}{}}
\newlabel{subeq:actualizacao_medidas}{{5.12}{35}{O Algoritmo do Filtro\relax }{equation.5.1.12}{}}
\@writefile{toc}{\contentsline {section}{\numberline {5.2}Filtro de Kalman-Bucy}{36}{section.5.2}}
\newlabel{eq:espaco_estados_continuo}{{5.13}{36}{Filtro de Kalman-Bucy\relax }{equation.5.2.13}{}}
\newlabel{eq:medidas_continuo}{{5.14}{36}{Filtro de Kalman-Bucy\relax }{equation.5.2.14}{}}
\newlabel{subeq:eq_kalman_continuo_x}{{5.15a}{36}{Filtro de Kalman-Bucy\relax }{equation.5.2.15a}{}}
\newlabel{subeq:eq_kalman_continuo_y}{{5.15b}{36}{Filtro de Kalman-Bucy\relax }{equation.5.2.15b}{}}
\newlabel{eq:covariancia_continuo}{{5.18}{37}{Filtro de Kalman-Bucy\relax }{equation.5.2.18}{}}
\newlabel{eq:derivada_intermedia_covariancia_continuo}{{5.19}{37}{Filtro de Kalman-Bucy\relax }{equation.5.2.19}{}}
\newlabel{eq:k_continuo}{{5.20}{37}{Filtro de Kalman-Bucy\relax }{equation.5.2.20}{}}
\newlabel{eq:derivada_covariancia_continuo}{{5.21}{37}{Filtro de Kalman-Bucy\relax }{equation.5.2.21}{}}
\newlabel{eq:derivada_covariancia_continuo}{{5.22}{37}{Filtro de Kalman-Bucy\relax }{equation.5.2.22}{}}
\@writefile{toc}{\contentsline {section}{\numberline {5.3}Filtro de Kalman H\IeC {\'\i }brido}{38}{section.5.3}}
\newlabel{subeq:espaco_estados_hibrido}{{5.23}{38}{Filtro de Kalman Híbrido\relax }{equation.5.3.23}{}}
\newlabel{subeq:medidas_hibrido}{{5.24}{38}{Filtro de Kalman Híbrido\relax }{equation.5.3.24}{}}
\newlabel{subeq:actualizacao_tempo}{{5.25}{38}{Filtro de Kalman Híbrido\relax }{equation.5.3.25}{}}
\newlabel{subeq:actualizacao_tempo}{{5.26}{38}{Filtro de Kalman Híbrido\relax }{equation.5.3.26}{}}
\newlabel{subeq:actualizacao_medidas}{{5.27}{38}{Filtro de Kalman Híbrido\relax }{equation.5.3.27}{}}
\@writefile{toc}{\contentsline {section}{\numberline {5.4}Simula\IeC {\c c}\IeC {\~o}es sobre o Filtro de Kalman}{40}{section.5.4}}
\newlabel{eq:continuos_Kalman_filter}{{5.29}{41}{Filtro Contínuo\relax }{equation.5.4.29}{}}
\newlabel{eq:continuos_Kalman_filter_matrix}{{5.32}{42}{Filtro Contínuo\relax }{equation.5.4.32}{}}
\@writefile{lof}{\contentsline {figure}{\numberline {5.3}{\ignorespaces Fun\IeC {\c c}\IeC {\~o}es de Transfer\IeC {\^e}ncia\relax }}{43}{figure.caption.30}}
\newlabel{fig: funcao_transferencia}{{5.3}{43}{Funções de Transferência\relax \relax }{figure.caption.30}{}}
\@writefile{lof}{\contentsline {figure}{\numberline {5.4}{\ignorespaces Estima\IeC {\c c}\IeC {\~a}o da posi\IeC {\c c}\IeC {\~a}o utilizando o filtro de Kalman-Bucy\relax }}{44}{figure.caption.31}}
\newlabel{fig:kalman_continuo}{{5.4}{44}{Estimação da posição utilizando o filtro de Kalman-Bucy\relax \relax }{figure.caption.31}{}}
\@writefile{lof}{\contentsline {figure}{\numberline {5.5}{\ignorespaces Erro da estima\IeC {\c c}\IeC {\~a}o da posi\IeC {\c c}\IeC {\~a}o utilizando o filtro de Kalman-Bucy\relax }}{45}{figure.caption.32}}
\newlabel{fig:kalman_continuo_erro}{{5.5}{45}{Erro da estimação da posição utilizando o filtro de Kalman-Bucy\relax \relax }{figure.caption.32}{}}
\@writefile{lof}{\contentsline {figure}{\numberline {5.6}{\ignorespaces Estima\IeC {\c c}\IeC {\~a}o da posi\IeC {\c c}\IeC {\~a}o utilizando o filtro de Kalman Discretizado\relax }}{46}{figure.caption.34}}
\newlabel{fig:kalman_discretizado}{{5.6}{46}{Estimação da posição utilizando o filtro de Kalman Discretizado\relax \relax }{figure.caption.34}{}}
\@writefile{lof}{\contentsline {figure}{\numberline {5.7}{\ignorespaces Estima\IeC {\c c}\IeC {\~a}o da posi\IeC {\c c}\IeC {\~a}o utilizando o filtro de Kalman Discretizado em fun\IeC {\c c}\IeC {\~a}o do tempo\relax }}{47}{figure.caption.35}}
\newlabel{fig:kalman_discretizado_tempo}{{5.7}{47}{Estimação da posição utilizando o filtro de Kalman Discretizado em função do tempo\relax \relax }{figure.caption.35}{}}
\@writefile{lof}{\contentsline {figure}{\numberline {5.8}{\ignorespaces Erro da estima\IeC {\c c}\IeC {\~a}o da posi\IeC {\c c}\IeC {\~a}o utilizando o filtro de Kalman Discretizado\relax }}{47}{figure.caption.36}}
\newlabel{fig:kalman_discretizado_erro}{{5.8}{47}{Erro da estimação da posição utilizando o filtro de Kalman Discretizado\relax \relax }{figure.caption.36}{}}
\@writefile{lof}{\contentsline {figure}{\numberline {5.9}{\ignorespaces Estima\IeC {\c c}\IeC {\~a}o da posi\IeC {\c c}\IeC {\~a}o utilizando o filtro de Kalman Discreto\relax }}{48}{figure.caption.38}}
\newlabel{fig:kalman_discreto}{{5.9}{48}{Estimação da posição utilizando o filtro de Kalman Discreto\relax \relax }{figure.caption.38}{}}
\@writefile{lof}{\contentsline {figure}{\numberline {5.10}{\ignorespaces Estima\IeC {\c c}\IeC {\~a}o da posi\IeC {\c c}\IeC {\~a}o utilizando o filtro de Kalman Discreto em fun\IeC {\c c}\IeC {\~a}o do tempo\relax }}{49}{figure.caption.39}}
\newlabel{fig:kalman_discreto_tempo}{{5.10}{49}{Estimação da posição utilizando o filtro de Kalman Discreto em função do tempo\relax \relax }{figure.caption.39}{}}
\@writefile{lof}{\contentsline {figure}{\numberline {5.11}{\ignorespaces Erro da estima\IeC {\c c}\IeC {\~a}o da posi\IeC {\c c}\IeC {\~a}o utilizando o filtro de Kalman Discreto\relax }}{49}{figure.caption.40}}
\newlabel{fig:kalman_discreto_erro}{{5.11}{49}{Erro da estimação da posição utilizando o filtro de Kalman Discreto\relax \relax }{figure.caption.40}{}}
\@writefile{lof}{\contentsline {figure}{\numberline {5.12}{\ignorespaces Tra\IeC {\c c}o da covari\IeC {\^a}ncia do erro da estimativa usando o filtro de Kalman Discreto\relax }}{50}{figure.caption.41}}
\newlabel{fig:kalman_discreto_covariancia}{{5.12}{50}{Traço da covariância do erro da estimativa usando o filtro de Kalman Discreto\relax \relax }{figure.caption.41}{}}
\@writefile{lof}{\contentsline {figure}{\numberline {5.13}{\ignorespaces Estima\IeC {\c c}\IeC {\~a}o da posi\IeC {\c c}\IeC {\~a}o utilizando o filtro de Kalman H\IeC {\'\i }brido\relax }}{51}{figure.caption.43}}
\newlabel{fig:kalman_hibrido}{{5.13}{51}{Estimação da posição utilizando o filtro de Kalman Híbrido\relax \relax }{figure.caption.43}{}}
\@writefile{lof}{\contentsline {figure}{\numberline {5.14}{\ignorespaces Estima\IeC {\c c}\IeC {\~a}o da posi\IeC {\c c}\IeC {\~a}o utilizando o filtro de Kalman H\IeC {\'\i }brido em fun\IeC {\c c}\IeC {\~a}o do tempo\relax }}{52}{figure.caption.44}}
\newlabel{fig:kalman_hibrido_tempo}{{5.14}{52}{Estimação da posição utilizando o filtro de Kalman Híbrido em função do tempo\relax \relax }{figure.caption.44}{}}
\@writefile{lof}{\contentsline {figure}{\numberline {5.15}{\ignorespaces Erro da estima\IeC {\c c}\IeC {\~a}o da posi\IeC {\c c}\IeC {\~a}o utilizando o filtro de Kalman H\IeC {\'\i }brido\relax }}{52}{figure.caption.45}}
\newlabel{fig:kalman_hibrido_erro}{{5.15}{52}{Erro da estimação da posição utilizando o filtro de Kalman Híbrido\relax \relax }{figure.caption.45}{}}
\@writefile{lof}{\contentsline {figure}{\numberline {5.16}{\ignorespaces Tra\IeC {\c c}o da covari\IeC {\^a}ncia do erro da estimativa usando o filtro de Kalman H\IeC {\'\i }brido\relax }}{53}{figure.caption.46}}
\newlabel{fig:kalman_hibrido_covariancia}{{5.16}{53}{Traço da covariância do erro da estimativa usando o filtro de Kalman Híbrido\relax \relax }{figure.caption.46}{}}
\citation{Greg-Welch:2001zr}
\@writefile{toc}{\contentsline {section}{\numberline {5.5}Filtro Aplicado ao Projecto}{54}{section.5.5}}
\@writefile{brf}{\backcite{Greg-Welch:2001zr}{{54}{5.5}{section.5.5}}}
\citation{Maxwell:2005uq}
\citation{Gil:2002kx}
\citation{Renata-Libonati:fk}
\citation{Takahisa-Kobayashi:2006uq}
\citation{Kleeman:kx}
\citation{Reis:2008vn}
\citation{Ribeiro:2004ys}
\@writefile{brf}{\backcite{Maxwell:2005uq}{{55}{5.5}{equation.5.5.40}}}
\@writefile{brf}{\backcite{Gil:2002kx}{{55}{5.5}{equation.5.5.40}}}
\@writefile{brf}{\backcite{Renata-Libonati:fk}{{55}{5.5}{equation.5.5.40}}}
\@writefile{brf}{\backcite{Takahisa-Kobayashi:2006uq}{{55}{5.5}{equation.5.5.40}}}
\@writefile{brf}{\backcite{Kleeman:kx}{{55}{5.5}{equation.5.5.40}}}
\@writefile{brf}{\backcite{Reis:2008vn}{{55}{5.5}{equation.5.5.40}}}
\@writefile{brf}{\backcite{Ribeiro:2004ys}{{55}{5.5}{equation.5.5.40}}}
\@setckpt{Chapters/Filtro_Kalman}{
\setcounter{page}{57}
\setcounter{equation}{40}
\setcounter{enumi}{7}
\setcounter{enumii}{0}
\setcounter{enumiii}{0}
\setcounter{enumiv}{0}
\setcounter{footnote}{0}
\setcounter{mpfootnote}{0}
\setcounter{part}{0}
\setcounter{chapter}{5}
\setcounter{section}{5}
\setcounter{subsection}{0}
\setcounter{subsubsection}{0}
\setcounter{paragraph}{0}
\setcounter{subparagraph}{0}
\setcounter{figure}{16}
\setcounter{table}{0}
\setcounter{parentequation}{40}
\setcounter{NAT@ctr}{0}
\setcounter{Item}{7}
\setcounter{Hfootnote}{0}
\setcounter{bookmark@seq@number}{24}
\setcounter{@todonotes@numberoftodonotes}{0}
\setcounter{defin}{0}
\setcounter{prob}{0}
\setcounter{theo}{0}
\setcounter{prop}{0}
\setcounter{ContinuedFloat}{0}
\setcounter{KVtest}{0}
\setcounter{subfigure}{0}
\setcounter{subfigure@save}{3}
\setcounter{lofdepth}{1}
\setcounter{subtable}{0}
\setcounter{subtable@save}{0}
\setcounter{lotdepth}{1}
\setcounter{section@level}{1}
}
