\relax 
\@writefile{toc}{\contentsline {chapter}{\numberline {1}Introdu\IeC {\c c}\IeC {\~a}o}{1}{chapter.1}}
\@writefile{lof}{\addvspace {10\p@ }}
\@writefile{lot}{\addvspace {10\p@ }}
\newlabel{chap:introducao}{{1}{1}{Introdução\relax }{chapter.1}{}}
\@writefile{toc}{\contentsline {section}{\numberline {1.1}Objectivos}{1}{section.1.1}}
\@writefile{toc}{\contentsline {section}{\numberline {1.2}Estado de Arte}{1}{section.1.2}}
\@writefile{toc}{\contentsline {subsection}{\numberline {1.2.1}Sistemas de Localiza\IeC {\c c}\IeC {\~a}o Terrestres}{2}{subsection.1.2.1}}
\citation{Almeida:2010fk}
\@writefile{toc}{\contentsline {subsection}{\numberline {1.2.2}Comunica\IeC {\c c}\IeC {\~o}es Subaqu\IeC {\'a}ticas}{3}{subsection.1.2.2}}
\@writefile{brf}{\backcite{Almeida:2010fk}{{3}{1.2.2}{subsection.1.2.2}}}
\@writefile{toc}{\contentsline {subsection}{\numberline {1.2.3}Sistemas de Localiza\IeC {\c c}\IeC {\~a}o Subaqu\IeC {\'a}ticos}{3}{subsection.1.2.3}}
\citation{A.-Alcocer:2006uq}
\@writefile{brf}{\backcite{A.-Alcocer:2006uq}{{5}{1.2.3}{subsection.1.2.3}}}
\@writefile{toc}{\contentsline {section}{\numberline {1.3}Principais Contribui\IeC {\c c}\IeC {\~o}es}{5}{section.1.3}}
\@writefile{toc}{\contentsline {section}{\numberline {1.4}Organiza\IeC {\c c}\IeC {\~a}o}{5}{section.1.4}}
\@setckpt{Chapters/Introducao}{
\setcounter{page}{7}
\setcounter{equation}{0}
\setcounter{enumi}{0}
\setcounter{enumii}{0}
\setcounter{enumiii}{0}
\setcounter{enumiv}{0}
\setcounter{footnote}{0}
\setcounter{mpfootnote}{0}
\setcounter{part}{0}
\setcounter{chapter}{1}
\setcounter{section}{4}
\setcounter{subsection}{0}
\setcounter{subsubsection}{0}
\setcounter{paragraph}{0}
\setcounter{subparagraph}{0}
\setcounter{figure}{0}
\setcounter{table}{0}
\setcounter{parentequation}{0}
\setcounter{NAT@ctr}{0}
\setcounter{Item}{0}
\setcounter{Hfootnote}{0}
\setcounter{bookmark@seq@number}{10}
\setcounter{@todonotes@numberoftodonotes}{0}
\setcounter{defin}{0}
\setcounter{prob}{0}
\setcounter{theo}{0}
\setcounter{prop}{0}
\setcounter{ContinuedFloat}{0}
\setcounter{KVtest}{0}
\setcounter{subfigure}{0}
\setcounter{subfigure@save}{0}
\setcounter{lofdepth}{1}
\setcounter{subtable}{0}
\setcounter{subtable@save}{0}
\setcounter{lotdepth}{1}
\setcounter{section@level}{1}
}
