\relax 
\@writefile{toc}{\contentsline {chapter}{\numberline {2}Arquitectura do Sistema de Posicionamento}{7}{chapter.2}}
\@writefile{lof}{\addvspace {10\p@ }}
\@writefile{lot}{\addvspace {10\p@ }}
\newlabel{chap:posicionamento}{{2}{7}{Arquitectura do Sistema de Posicionamento\relax }{chapter.2}{}}
\@writefile{lof}{\contentsline {figure}{\numberline {2.1}{\ignorespaces Cen\IeC {\'a}rio Simples ao longo do tempo\relax }}{7}{figure.caption.10}}
\providecommand*\caption@xref[2]{\@setref\relax\@undefined{#1}}
\newlabel{fig:simple_scenario}{{2.1}{7}{Cenário Simples ao longo do tempo\relax \relax }{figure.caption.10}{}}
\@writefile{lof}{\contentsline {figure}{\numberline {2.2}{\ignorespaces Estrat\IeC {\'e}gia de Localiza\IeC {\c c}\IeC {\~a}o\relax }}{8}{figure.caption.11}}
\newlabel{fig: positioning_general_ideia}{{2.2}{8}{Estratégia de Localização\relax \relax }{figure.caption.11}{}}
\@setckpt{Chapters/Posicionamento}{
\setcounter{page}{9}
\setcounter{equation}{0}
\setcounter{enumi}{0}
\setcounter{enumii}{0}
\setcounter{enumiii}{0}
\setcounter{enumiv}{0}
\setcounter{footnote}{0}
\setcounter{mpfootnote}{0}
\setcounter{part}{0}
\setcounter{chapter}{2}
\setcounter{section}{0}
\setcounter{subsection}{0}
\setcounter{subsubsection}{0}
\setcounter{paragraph}{0}
\setcounter{subparagraph}{0}
\setcounter{figure}{2}
\setcounter{table}{0}
\setcounter{parentequation}{0}
\setcounter{NAT@ctr}{0}
\setcounter{Item}{0}
\setcounter{Hfootnote}{0}
\setcounter{bookmark@seq@number}{11}
\setcounter{@todonotes@numberoftodonotes}{0}
\setcounter{defin}{0}
\setcounter{prob}{0}
\setcounter{theo}{0}
\setcounter{prop}{0}
\setcounter{ContinuedFloat}{0}
\setcounter{KVtest}{0}
\setcounter{subfigure}{0}
\setcounter{subfigure@save}{0}
\setcounter{lofdepth}{1}
\setcounter{subtable}{0}
\setcounter{subtable@save}{0}
\setcounter{lotdepth}{1}
\setcounter{section@level}{1}
}
