\relax 
\@writefile{toc}{\contentsline {chapter}{\numberline {7}Resultados de Simula\IeC {\c c}\IeC {\~a}o}{65}{chapter.7}}
\@writefile{lof}{\addvspace {10\p@ }}
\@writefile{lot}{\addvspace {10\p@ }}
\newlabel{chap:resultados}{{7}{65}{Resultados de Simulação\relax }{chapter.7}{}}
\@writefile{toc}{\contentsline {section}{\numberline {7.1}Simula\IeC {\c c}\IeC {\~a}o com Ve\IeC {\'\i }culos Estacionados}{65}{section.7.1}}
\@writefile{lot}{\contentsline {table}{\numberline {7.1}{\ignorespaces Par\IeC {\^a}metros de Simula\IeC {\c c}\IeC {\~a}o com Ve\IeC {\'\i }culos Estacionados\relax }}{66}{table.caption.49}}
\newlabel{tab:vD_tabela}{{7.1}{66}{Parâmetros de Simulação com Veículos Estacionados\relax \relax }{table.caption.49}{}}
\@writefile{lof}{\contentsline {figure}{\numberline {7.1}{\ignorespaces Mensagens recebidas e enviadas pela B\IeC {\'o}ia e pelo Mergulhador\relax }}{67}{figure.caption.50}}
\newlabel{fig: vD_tempos_boia_diver_zoom}{{7.1}{67}{Mensagens recebidas e enviadas pela Bóia e pelo Mergulhador\relax \relax }{figure.caption.50}{}}
\@writefile{lof}{\contentsline {figure}{\numberline {7.2}{\ignorespaces Mensagens recebidas e enviadas pelos Ve\IeC {\'\i }culos\relax }}{67}{figure.caption.51}}
\newlabel{fig: vD_tempos_veiculos_zoom}{{7.2}{67}{Mensagens recebidas e enviadas pelos Veículos\relax \relax }{figure.caption.51}{}}
\@writefile{lof}{\contentsline {figure}{\numberline {7.3}{\ignorespaces Dist\IeC {\^a}ncias entre o Mergulhador e cada um dos Ve\IeC {\'\i }culos incluindo a B\IeC {\'o}ia\relax }}{68}{figure.caption.52}}
\newlabel{fig: vD_distancias}{{7.3}{68}{Distâncias entre o Mergulhador e cada um dos Veículos incluindo a Bóia\relax \relax }{figure.caption.52}{}}
\@writefile{lof}{\contentsline {figure}{\numberline {7.4}{\ignorespaces Traject\IeC {\'o}ria em x com o Mergulhador em movimento e os Ve\IeC {\'\i }culos estacionados\relax }}{68}{figure.caption.53}}
\newlabel{fig: vD_trajectoria_x}{{7.4}{68}{Trajectória em x com o Mergulhador em movimento e os Veículos estacionados\relax \relax }{figure.caption.53}{}}
\@writefile{lof}{\contentsline {figure}{\numberline {7.5}{\ignorespaces Traject\IeC {\'o}ria em y com o Mergulhador em movimento e os Ve\IeC {\'\i }culos estacionados\relax }}{69}{figure.caption.54}}
\newlabel{fig: vD_trajectoria_y}{{7.5}{69}{Trajectória em y com o Mergulhador em movimento e os Veículos estacionados\relax \relax }{figure.caption.54}{}}
\@writefile{lof}{\contentsline {figure}{\numberline {7.6}{\ignorespaces Traject\IeC {\'o}ria em z com o Mergulhador em movimento e os Ve\IeC {\'\i }culos estacionados\relax }}{69}{figure.caption.55}}
\newlabel{fig: vD_trajectoria_z}{{7.6}{69}{Trajectória em z com o Mergulhador em movimento e os Veículos estacionados\relax \relax }{figure.caption.55}{}}
\@writefile{lof}{\contentsline {figure}{\numberline {7.7}{\ignorespaces Erro da estimativa da Posi\IeC {\c c}\IeC {\~a}o do Mergulhador, com o Mergulhador em movimento e os Ve\IeC {\'\i }culos estacionados\relax }}{70}{figure.caption.56}}
\newlabel{fig: vD_erro_posicao}{{7.7}{70}{Erro da estimativa da Posição do Mergulhador, com o Mergulhador em movimento e os Veículos estacionados\relax \relax }{figure.caption.56}{}}
\@writefile{lof}{\contentsline {figure}{\numberline {7.8}{\ignorespaces Erro da estimativa da Velocidade do Mergulhador, com o Mergulhador em movimento e os Ve\IeC {\'\i }culos estacionados\relax }}{70}{figure.caption.57}}
\newlabel{fig: vD_erro_velocidade}{{7.8}{70}{Erro da estimativa da Velocidade do Mergulhador, com o Mergulhador em movimento e os Veículos estacionados\relax \relax }{figure.caption.57}{}}
\@writefile{lof}{\contentsline {figure}{\numberline {7.9}{\ignorespaces Tra\IeC {\c c}o da covari\IeC {\^a}ncia do erro da estimativa ampliado, com o Mergulhador em movimento e os Ve\IeC {\'\i }culos estacionados\relax }}{71}{figure.caption.58}}
\newlabel{fig: vD_erro_covariancia_zoom}{{7.9}{71}{Traço da covariância do erro da estimativa ampliado, com o Mergulhador em movimento e os Veículos estacionados\relax \relax }{figure.caption.58}{}}
\@writefile{lof}{\contentsline {figure}{\numberline {7.10}{\ignorespaces Traject\IeC {\'o}ria do Mergulhador em 3D com o Mergulhador em movimento e os Ve\IeC {\'\i }culos estacionados\relax }}{71}{figure.caption.59}}
\newlabel{fig: vD_trajectoria_3D}{{7.10}{71}{Trajectória do Mergulhador em 3D com o Mergulhador em movimento e os Veículos estacionados\relax \relax }{figure.caption.59}{}}
\@writefile{toc}{\contentsline {section}{\numberline {7.2}Simula\IeC {\c c}\IeC {\~a}o com Ve\IeC {\'\i }culos em Movimento}{72}{section.7.2}}
\@writefile{lot}{\contentsline {table}{\numberline {7.2}{\ignorespaces Par\IeC {\^a}metros de Simula\IeC {\c c}\IeC {\~a}o com Ve\IeC {\'\i }culos em Movimento\relax }}{72}{table.caption.60}}
\newlabel{tab:vD_vV_tabela}{{7.2}{72}{Parâmetros de Simulação com Veículos em Movimento\relax \relax }{table.caption.60}{}}
\@writefile{lof}{\contentsline {figure}{\numberline {7.11}{\ignorespaces Dist\IeC {\^a}ncias entre o Mergulhador e cada um dos Ve\IeC {\'\i }culos incluindo a B\IeC {\'o}ia\relax }}{73}{figure.caption.61}}
\newlabel{fig: vD_vV_distancias}{{7.11}{73}{Distâncias entre o Mergulhador e cada um dos Veículos incluindo a Bóia\relax \relax }{figure.caption.61}{}}
\@writefile{lof}{\contentsline {figure}{\numberline {7.12}{\ignorespaces Traject\IeC {\'o}ria em x com o Mergulhador e os Ve\IeC {\'\i }culos em movimento\relax }}{73}{figure.caption.62}}
\newlabel{fig: vD_vV_trajectoria_x}{{7.12}{73}{Trajectória em x com o Mergulhador e os Veículos em movimento\relax \relax }{figure.caption.62}{}}
\@writefile{lof}{\contentsline {figure}{\numberline {7.13}{\ignorespaces Traject\IeC {\'o}ria em y com o Mergulhador e os Ve\IeC {\'\i }culos em movimento\relax }}{74}{figure.caption.63}}
\newlabel{fig: vD_vV_trajectoria_y}{{7.13}{74}{Trajectória em y com o Mergulhador e os Veículos em movimento\relax \relax }{figure.caption.63}{}}
\@writefile{lof}{\contentsline {figure}{\numberline {7.14}{\ignorespaces Traject\IeC {\'o}ria em z com o Mergulhador e os Ve\IeC {\'\i }culos em movimento\relax }}{74}{figure.caption.64}}
\newlabel{fig: vD_vV_trajectoria_z}{{7.14}{74}{Trajectória em z com o Mergulhador e os Veículos em movimento\relax \relax }{figure.caption.64}{}}
\@writefile{lof}{\contentsline {figure}{\numberline {7.15}{\ignorespaces Erro da estimativa da Posi\IeC {\c c}\IeC {\~a}o do Mergulhador, com o Mergulhador e os Ve\IeC {\'\i }culos em movimento\relax }}{75}{figure.caption.65}}
\newlabel{fig: vD_vV_erro_posicao}{{7.15}{75}{Erro da estimativa da Posição do Mergulhador, com o Mergulhador e os Veículos em movimento\relax \relax }{figure.caption.65}{}}
\@writefile{lof}{\contentsline {figure}{\numberline {7.16}{\ignorespaces Tra\IeC {\c c}o da covari\IeC {\^a}ncia do erro da estimativa ampliado, com o Mergulhador e os Ve\IeC {\'\i }culos em movimento\relax }}{75}{figure.caption.66}}
\newlabel{fig: vD_vV_erro_covariancia_zoom}{{7.16}{75}{Traço da covariância do erro da estimativa ampliado, com o Mergulhador e os Veículos em movimento\relax \relax }{figure.caption.66}{}}
\@writefile{lof}{\contentsline {figure}{\numberline {7.17}{\ignorespaces Traject\IeC {\'o}ria do Mergulhador em 3D com o Mergulhador e os Ve\IeC {\'\i }culos em movimento\relax }}{76}{figure.caption.67}}
\newlabel{fig: vD_vV_trajectoria_3D}{{7.17}{76}{Trajectória do Mergulhador em 3D com o Mergulhador e os Veículos em movimento\relax \relax }{figure.caption.67}{}}
\@writefile{toc}{\contentsline {section}{\numberline {7.3}Simula\IeC {\c c}\IeC {\~a}o com Falhas de Comunica\IeC {\c c}\IeC {\~a}o}{77}{section.7.3}}
\@writefile{lot}{\contentsline {table}{\numberline {7.3}{\ignorespaces Par\IeC {\^a}metros de Simula\IeC {\c c}\IeC {\~a}o na presen\IeC {\c c}a de Falhas de Comunica\IeC {\c c}\IeC {\~a}o\relax }}{77}{table.caption.68}}
\newlabel{tab:vD_vV_falhas_tabela}{{7.3}{77}{Parâmetros de Simulação na presença de Falhas de Comunicação\relax \relax }{table.caption.68}{}}
\@writefile{lof}{\contentsline {figure}{\numberline {7.18}{\ignorespaces Dist\IeC {\^a}ncias entre Mergulhador e Ve\IeC {\'\i }culos\relax }}{78}{figure.caption.69}}
\newlabel{fig: vD_vV_falhas_distancias}{{7.18}{78}{Distâncias entre Mergulhador e Veículos\relax \relax }{figure.caption.69}{}}
\@writefile{lof}{\contentsline {figure}{\numberline {7.19}{\ignorespaces \textit  {Threshold} da fun\IeC {\c c}\IeC {\~a}o que simula a perda de mensagens\relax }}{78}{figure.caption.70}}
\newlabel{fig: vD_vV_falhas_threshold}{{7.19}{78}{\textit {Threshold} da função que simula a perda de mensagens\relax \relax }{figure.caption.70}{}}
\@writefile{lof}{\contentsline {figure}{\numberline {7.20}{\ignorespaces Instantes em que houve perda de mensagens\relax }}{79}{figure.caption.71}}
\newlabel{fig: vD_vV_falhas_aleatorias_zoom}{{7.20}{79}{Instantes em que houve perda de mensagens\relax \relax }{figure.caption.71}{}}
\@writefile{lof}{\contentsline {figure}{\numberline {7.21}{\ignorespaces Mensagens recebidas e enviadas pela B\IeC {\'o}ia e pelo Mergulhador, com evid\IeC {\^e}ncia das falhas de comunica\IeC {\c c}\IeC {\~a}o\relax }}{79}{figure.caption.72}}
\newlabel{fig: vD_vV_falhas_tempos_boia_diver_zoom}{{7.21}{79}{Mensagens recebidas e enviadas pela Bóia e pelo Mergulhador, com evidência das falhas de comunicação\relax \relax }{figure.caption.72}{}}
\@writefile{lof}{\contentsline {figure}{\numberline {7.22}{\ignorespaces Mensagens recebidas e enviadas pelos Ve\IeC {\'\i }culos, com evid\IeC {\^e}ncia das falhas na comunica\IeC {\c c}\IeC {\~a}o\relax }}{80}{figure.caption.73}}
\newlabel{fig: vD_vV_falhas_tempos_veiculos_zoom}{{7.22}{80}{Mensagens recebidas e enviadas pelos Veículos, com evidência das falhas na comunicação\relax \relax }{figure.caption.73}{}}
\@writefile{lof}{\contentsline {figure}{\numberline {7.23}{\ignorespaces Traject\IeC {\'o}ria em x na presen\IeC {\c c}a de falhas na comunica\IeC {\c c}\IeC {\~a}o\relax }}{80}{figure.caption.74}}
\newlabel{fig: vD_vV_falhas_trajectoria_x_zoom}{{7.23}{80}{Trajectória em x na presença de falhas na comunicação\relax \relax }{figure.caption.74}{}}
\@writefile{lof}{\contentsline {figure}{\numberline {7.24}{\ignorespaces Erro da estimativa da Posi\IeC {\c c}\IeC {\~a}o do Mergulhador\relax }}{81}{figure.caption.75}}
\newlabel{fig: vD_vV_falhas_erro_posicao}{{7.24}{81}{Erro da estimativa da Posição do Mergulhador\relax \relax }{figure.caption.75}{}}
\@writefile{lof}{\contentsline {figure}{\numberline {7.25}{\ignorespaces Tra\IeC {\c c}o da covari\IeC {\^a}ncia do erro da estimativa, na presen\IeC {\c c}a de falhas na comunica\IeC {\c c}\IeC {\~a}o\relax }}{81}{figure.caption.76}}
\newlabel{fig: vD_vV_falhas_erro_covariancia}{{7.25}{81}{Traço da covariância do erro da estimativa, na presença de falhas na comunicação\relax \relax }{figure.caption.76}{}}
\@writefile{lof}{\contentsline {figure}{\numberline {7.26}{\ignorespaces Tra\IeC {\c c}o da covari\IeC {\^a}ncia do erro da estimativa, na presen\IeC {\c c}a de falhas na comunica\IeC {\c c}\IeC {\~a}o\relax }}{82}{figure.caption.77}}
\newlabel{fig: vD_vV_falhas_erro_covariancia_zoom}{{7.26}{82}{Traço da covariância do erro da estimativa, na presença de falhas na comunicação\relax \relax }{figure.caption.77}{}}
\@writefile{lof}{\contentsline {figure}{\numberline {7.27}{\ignorespaces Instantes de falhas da comunica\IeC {\c c}\IeC {\~a}o\relax }}{82}{figure.caption.78}}
\newlabel{fig: vD_vV_falhas_tempos_falhas_veiculos_zoom}{{7.27}{82}{Instantes de falhas da comunicação\relax \relax }{figure.caption.78}{}}
\@writefile{lof}{\contentsline {figure}{\numberline {7.28}{\ignorespaces Traject\IeC {\'o}ria do Mergulhador em 3D\relax }}{83}{figure.caption.79}}
\newlabel{fig: vD_vV_falhas_trajectoria_3D}{{7.28}{83}{Trajectória do Mergulhador em 3D\relax \relax }{figure.caption.79}{}}
\@setckpt{Chapters/Resultados}{
\setcounter{page}{84}
\setcounter{equation}{0}
\setcounter{enumi}{7}
\setcounter{enumii}{0}
\setcounter{enumiii}{0}
\setcounter{enumiv}{0}
\setcounter{footnote}{0}
\setcounter{mpfootnote}{0}
\setcounter{part}{0}
\setcounter{chapter}{7}
\setcounter{section}{3}
\setcounter{subsection}{0}
\setcounter{subsubsection}{0}
\setcounter{paragraph}{0}
\setcounter{subparagraph}{0}
\setcounter{figure}{28}
\setcounter{table}{3}
\setcounter{parentequation}{4}
\setcounter{NAT@ctr}{0}
\setcounter{Item}{7}
\setcounter{Hfootnote}{0}
\setcounter{bookmark@seq@number}{31}
\setcounter{@todonotes@numberoftodonotes}{0}
\setcounter{defin}{0}
\setcounter{prob}{0}
\setcounter{theo}{0}
\setcounter{prop}{0}
\setcounter{ContinuedFloat}{0}
\setcounter{KVtest}{0}
\setcounter{subfigure}{0}
\setcounter{subfigure@save}{3}
\setcounter{lofdepth}{1}
\setcounter{subtable}{0}
\setcounter{subtable@save}{0}
\setcounter{lotdepth}{1}
\setcounter{section@level}{1}
}
