\relax 
\@writefile{toc}{\contentsline {chapter}{\numberline {6}Simulador}{57}{chapter.6}}
\@writefile{lof}{\addvspace {10\p@ }}
\@writefile{lot}{\addvspace {10\p@ }}
\newlabel{chap:simulador}{{6}{57}{Simulador\relax }{chapter.6}{}}
\@writefile{lof}{\contentsline {figure}{\numberline {6.1}{\ignorespaces Esquema do simulador\relax }}{58}{figure.caption.47}}
\newlabel{fig: scheme}{{6.1}{58}{Esquema do simulador\relax \relax }{figure.caption.47}{}}
\@writefile{toc}{\contentsline {section}{\numberline {6.1}Componentes do Simulador}{58}{section.6.1}}
\@writefile{toc}{\contentsline {section}{\numberline {6.2}Pormenores de Implementa\IeC {\c c}\IeC {\~a}o}{61}{section.6.2}}
\newlabel{sec:Pormenores_implementacao}{{6.2}{61}{Pormenores de Implementação\relax }{section.6.2}{}}
\@writefile{lof}{\contentsline {figure}{\numberline {6.2}{\ignorespaces C\IeC {\'a}lculo do instante de intersec\IeC {\c c}\IeC {\~a}o entre uma onda ac\IeC {\'u}stica e um ve\IeC {\'\i }culo\relax }}{61}{figure.caption.48}}
\newlabel{fig: dist_diver_vs_tempo}{{6.2}{61}{Cálculo do instante de intersecção entre uma onda acústica e um veículo\relax \relax }{figure.caption.48}{}}
\@setckpt{Chapters/Simulador}{
\setcounter{page}{64}
\setcounter{equation}{4}
\setcounter{enumi}{7}
\setcounter{enumii}{0}
\setcounter{enumiii}{0}
\setcounter{enumiv}{0}
\setcounter{footnote}{0}
\setcounter{mpfootnote}{0}
\setcounter{part}{0}
\setcounter{chapter}{6}
\setcounter{section}{2}
\setcounter{subsection}{0}
\setcounter{subsubsection}{0}
\setcounter{paragraph}{0}
\setcounter{subparagraph}{0}
\setcounter{figure}{2}
\setcounter{table}{0}
\setcounter{parentequation}{4}
\setcounter{NAT@ctr}{0}
\setcounter{Item}{7}
\setcounter{Hfootnote}{0}
\setcounter{bookmark@seq@number}{27}
\setcounter{@todonotes@numberoftodonotes}{0}
\setcounter{defin}{0}
\setcounter{prob}{0}
\setcounter{theo}{0}
\setcounter{prop}{0}
\setcounter{ContinuedFloat}{0}
\setcounter{KVtest}{0}
\setcounter{subfigure}{0}
\setcounter{subfigure@save}{3}
\setcounter{lofdepth}{1}
\setcounter{subtable}{0}
\setcounter{subtable@save}{0}
\setcounter{lotdepth}{1}
\setcounter{section@level}{1}
}
