\relax 
\@writefile{toc}{\contentsline {chapter}{\numberline {4}Trilatera\IeC {\c c}\IeC {\~a}o}{21}{chapter.4}}
\@writefile{lof}{\addvspace {10\p@ }}
\@writefile{lot}{\addvspace {10\p@ }}
\newlabel{chap:trilateracao}{{4}{21}{Trilateração\relax }{chapter.4}{}}
\citation{Penas:2009uq}
\@writefile{brf}{\backcite{Penas:2009uq}{{22}{4}{chapter.4}}}
\citation{MatrixAnalysis}
\newlabel{eq: distancia}{{4.2}{23}{Trilateração\relax }{equation.4.0.2}{}}
\newlabel{eq: distancia_calculo}{{4.3}{23}{Trilateração\relax }{equation.4.0.3}{}}
\newlabel{eq: distancia_compacta}{{4.4}{23}{Trilateração\relax }{equation.4.0.4}{}}
\newlabel{eq: matriz_M}{{4.5}{23}{Trilateração\relax }{equation.4.0.5}{}}
\citation{Penas:2009uq}
\citation{Thomas:2005vn}
\@writefile{brf}{\backcite{MatrixAnalysis}{{24}{4}{equation.4.0.5}}}
\@writefile{brf}{\backcite{Penas:2009uq}{{24}{4}{equation.4.0.7}}}
\newlabel{eq: trilateration}{{4.8}{24}{Trilateração\relax }{equation.4.0.8}{}}
\@writefile{brf}{\backcite{Thomas:2005vn}{{24}{4}{equation.4.0.8}}}
\@setckpt{Chapters/Trilateracao}{
\setcounter{page}{26}
\setcounter{equation}{8}
\setcounter{enumi}{7}
\setcounter{enumii}{0}
\setcounter{enumiii}{0}
\setcounter{enumiv}{0}
\setcounter{footnote}{0}
\setcounter{mpfootnote}{0}
\setcounter{part}{0}
\setcounter{chapter}{4}
\setcounter{section}{0}
\setcounter{subsection}{0}
\setcounter{subsubsection}{0}
\setcounter{paragraph}{0}
\setcounter{subparagraph}{0}
\setcounter{figure}{0}
\setcounter{table}{0}
\setcounter{parentequation}{0}
\setcounter{NAT@ctr}{0}
\setcounter{Item}{7}
\setcounter{Hfootnote}{0}
\setcounter{bookmark@seq@number}{18}
\setcounter{@todonotes@numberoftodonotes}{0}
\setcounter{defin}{0}
\setcounter{prob}{0}
\setcounter{theo}{0}
\setcounter{prop}{0}
\setcounter{ContinuedFloat}{0}
\setcounter{KVtest}{0}
\setcounter{subfigure}{0}
\setcounter{subfigure@save}{3}
\setcounter{lofdepth}{1}
\setcounter{subtable}{0}
\setcounter{subtable@save}{0}
\setcounter{lotdepth}{1}
\setcounter{section@level}{1}
}
