%!PS-Adobe-2.0 EPSF-1.2
%%Creator: MATLAB, The Mathworks, Inc. Version 7.9.0.529 (R2009b). Operating System: Darwin 10.8.0 Darwin Kernel Version 10.8.0: Tue Jun  7 16:33:36 PDT 2011; root:xnu-1504.15.3~1/RELEASE_I386 i386.
%%Title: ./vD_erro_covariancia_zoom.eps
%%CreationDate: 10/23/2011  01:43:23
%%DocumentNeededFonts: Helvetica
%%DocumentProcessColors: Cyan Magenta Yellow Black
%%Extensions: CMYK
%%Pages: 1
%%BoundingBox:    58   199   543   602
%%EndComments

%%BeginProlog
% MathWorks dictionary
/MathWorks 160 dict begin
% definition operators
/bdef {bind def} bind def
/ldef {load def} bind def
/xdef {exch def} bdef
/xstore {exch store} bdef
% operator abbreviations
/c  /clip ldef
/cc /concat ldef
/cp /closepath ldef
/gr /grestore ldef
/gs /gsave ldef
/mt /moveto ldef
/np /newpath ldef
/cm /currentmatrix ldef
/sm /setmatrix ldef
/rm /rmoveto ldef
/rl /rlineto ldef
/s {show newpath} bdef
/sc {setcmykcolor} bdef
/sr /setrgbcolor ldef
/sg /setgray ldef
/w /setlinewidth ldef
/j /setlinejoin ldef
/cap /setlinecap ldef
/rc {rectclip} bdef
/rf {rectfill} bdef
% page state control
/pgsv () def
/bpage {/pgsv save def} bdef
/epage {pgsv restore} bdef
/bplot /gsave ldef
/eplot {stroke grestore} bdef
% orientation switch
/portraitMode 0 def /landscapeMode 1 def /rotateMode 2 def
% coordinate system mappings
/dpi2point 0 def
% font control
/FontSize 0 def
/FMS {/FontSize xstore findfont [FontSize 0 0 FontSize neg 0 0]
  makefont setfont} bdef
/reencode {exch dup where {pop load} {pop StandardEncoding} ifelse
  exch dup 3 1 roll findfont dup length dict begin
  { 1 index /FID ne {def}{pop pop} ifelse } forall
  /Encoding exch def currentdict end definefont pop} bdef
/isroman {findfont /CharStrings get /Agrave known} bdef
/FMSR {3 1 roll 1 index dup isroman {reencode} {pop pop} ifelse
  exch FMS} bdef
/csm {1 dpi2point div -1 dpi2point div scale neg translate
 dup landscapeMode eq {pop -90 rotate}
  {rotateMode eq {90 rotate} if} ifelse} bdef
% line types: solid, dotted, dashed, dotdash
/SO { [] 0 setdash } bdef
/DO { [.5 dpi2point mul 4 dpi2point mul] 0 setdash } bdef
/DA { [6 dpi2point mul] 0 setdash } bdef
/DD { [.5 dpi2point mul 4 dpi2point mul 6 dpi2point mul 4
  dpi2point mul] 0 setdash } bdef
% macros for lines and objects
/L {lineto stroke} bdef
/MP {3 1 roll moveto 1 sub {rlineto} repeat} bdef
/AP {{rlineto} repeat} bdef
/PDlw -1 def
/W {/PDlw currentlinewidth def setlinewidth} def
/PP {closepath eofill} bdef
/DP {closepath stroke} bdef
/MR {4 -2 roll moveto dup  0 exch rlineto exch 0 rlineto
  neg 0 exch rlineto closepath} bdef
/FR {MR stroke} bdef
/PR {MR fill} bdef
/L1i {{currentfile picstr readhexstring pop} image} bdef
/tMatrix matrix def
/MakeOval {newpath tMatrix currentmatrix pop translate scale
0 0 1 0 360 arc tMatrix setmatrix} bdef
/FO {MakeOval stroke} bdef
/PO {MakeOval fill} bdef
/PD {currentlinewidth 2 div 0 360 arc fill
   PDlw -1 eq not {PDlw w /PDlw -1 def} if} def
/FA {newpath tMatrix currentmatrix pop translate scale
  0 0 1 5 -2 roll arc tMatrix setmatrix stroke} bdef
/PA {newpath tMatrix currentmatrix pop	translate 0 0 moveto scale
  0 0 1 5 -2 roll arc closepath tMatrix setmatrix fill} bdef
/FAn {newpath tMatrix currentmatrix pop translate scale
  0 0 1 5 -2 roll arcn tMatrix setmatrix stroke} bdef
/PAn {newpath tMatrix currentmatrix pop translate 0 0 moveto scale
  0 0 1 5 -2 roll arcn closepath tMatrix setmatrix fill} bdef
/vradius 0 def /hradius 0 def /lry 0 def
/lrx 0 def /uly 0 def /ulx 0 def /rad 0 def
/MRR {/vradius xdef /hradius xdef /lry xdef /lrx xdef /uly xdef
  /ulx xdef newpath tMatrix currentmatrix pop ulx hradius add uly
  vradius add translate hradius vradius scale 0 0 1 180 270 arc 
  tMatrix setmatrix lrx hradius sub uly vradius add translate
  hradius vradius scale 0 0 1 270 360 arc tMatrix setmatrix
  lrx hradius sub lry vradius sub translate hradius vradius scale
  0 0 1 0 90 arc tMatrix setmatrix ulx hradius add lry vradius sub
  translate hradius vradius scale 0 0 1 90 180 arc tMatrix setmatrix
  closepath} bdef
/FRR {MRR stroke } bdef
/PRR {MRR fill } bdef
/MlrRR {/lry xdef /lrx xdef /uly xdef /ulx xdef /rad lry uly sub 2 div def
  newpath tMatrix currentmatrix pop ulx rad add uly rad add translate
  rad rad scale 0 0 1 90 270 arc tMatrix setmatrix lrx rad sub lry rad
  sub translate rad rad scale 0 0 1 270 90 arc tMatrix setmatrix
  closepath} bdef
/FlrRR {MlrRR stroke } bdef
/PlrRR {MlrRR fill } bdef
/MtbRR {/lry xdef /lrx xdef /uly xdef /ulx xdef /rad lrx ulx sub 2 div def
  newpath tMatrix currentmatrix pop ulx rad add uly rad add translate
  rad rad scale 0 0 1 180 360 arc tMatrix setmatrix lrx rad sub lry rad
  sub translate rad rad scale 0 0 1 0 180 arc tMatrix setmatrix
  closepath} bdef
/FtbRR {MtbRR stroke } bdef
/PtbRR {MtbRR fill } bdef
/stri 6 array def /dtri 6 array def
/smat 6 array def /dmat 6 array def
/tmat1 6 array def /tmat2 6 array def /dif 3 array def
/asub {/ind2 exch def /ind1 exch def dup dup
  ind1 get exch ind2 get sub exch } bdef
/tri_to_matrix {
  2 0 asub 3 1 asub 4 0 asub 5 1 asub
  dup 0 get exch 1 get 7 -1 roll astore } bdef
/compute_transform {
  dmat dtri tri_to_matrix tmat1 invertmatrix 
  smat stri tri_to_matrix tmat2 concatmatrix } bdef
/ds {stri astore pop} bdef
/dt {dtri astore pop} bdef
/db {2 copy /cols xdef /rows xdef mul dup 3 mul string
  currentfile exch readhexstring pop
  dup 0 3 index getinterval /rbmap xdef
  dup 2 index dup getinterval /gbmap xdef
  1 index dup 2 mul exch getinterval /bbmap xdef pop pop}bdef
/it {gs np dtri aload pop moveto lineto lineto cp c
  cols rows 8 compute_transform 
  rbmap gbmap bbmap true 3 colorimage gr}bdef
/il {newpath moveto lineto stroke}bdef
currentdict end def
%%EndProlog

%%BeginSetup
MathWorks begin

0 cap

end
%%EndSetup

%%Page: 1 1
%%BeginPageSetup
%%PageBoundingBox:    58   199   543   602
MathWorks begin
bpage
%%EndPageSetup

%%BeginObject: obj1
bplot

/dpi2point 12 def
portraitMode 0216 7344 csm

  480   109  5825  4846 MR c np
85 dict begin %Colortable dictionary
/c0 { 0.000000 0.000000 0.000000 sr} bdef
/c1 { 1.000000 1.000000 1.000000 sr} bdef
/c2 { 0.900000 0.000000 0.000000 sr} bdef
/c3 { 0.000000 0.820000 0.000000 sr} bdef
/c4 { 0.000000 0.000000 0.800000 sr} bdef
/c5 { 0.910000 0.820000 0.320000 sr} bdef
/c6 { 1.000000 0.260000 0.820000 sr} bdef
/c7 { 0.000000 0.820000 0.820000 sr} bdef
c0
1 j
1 sg
   0    0 6913 5186 PR
6 w
0 4226 5355 0 0 -4226 899 4615 4 MP
PP
-5355 0 0 4226 5355 0 0 -4226 899 4615 5 MP stroke
4 w
DO
0 sg
 922 4615 mt  922  389 L
 922  389 mt  922  389 L
1596 4615 mt 1596  389 L
1596  389 mt 1596  389 L
2270 4615 mt 2270  389 L
2270  389 mt 2270  389 L
2944 4615 mt 2944  389 L
2944  389 mt 2944  389 L
3619 4615 mt 3619  389 L
3619  389 mt 3619  389 L
4293 4615 mt 4293  389 L
4293  389 mt 4293  389 L
4967 4615 mt 4967  389 L
4967  389 mt 4967  389 L
5641 4615 mt 5641  389 L
5641  389 mt 5641  389 L
 899 4592 mt 6255 4592 L
6255 4592 mt 6255 4592 L
 899 3993 mt 6255 3993 L
6255 3993 mt 6255 3993 L
 899 3394 mt 6255 3394 L
6255 3394 mt 6255 3394 L
 899 2794 mt 6255 2794 L
6255 2794 mt 6255 2794 L
 899 2195 mt 6255 2195 L
6255 2195 mt 6255 2195 L
 899 1596 mt 6255 1596 L
6255 1596 mt 6255 1596 L
 899  997 mt 6255  997 L
6255  997 mt 6255  997 L
 899  397 mt 6255  397 L
6255  397 mt 6255  397 L
SO
6 w
 899 4615 mt 6254 4615 L
 899 4615 mt  899  389 L
 922 4615 mt  922 4561 L
%%IncludeResource: font Helvetica
/Helvetica /ISOLatin1Encoding 120 FMSR

 889 4760 mt 
(0) s
1596 4615 mt 1596 4561 L
1563 4760 mt 
(1) s
2270 4615 mt 2270 4561 L
2237 4760 mt 
(2) s
2944 4615 mt 2944 4561 L
2911 4760 mt 
(3) s
3619 4615 mt 3619 4561 L
3586 4760 mt 
(4) s
4293 4615 mt 4293 4561 L
4260 4760 mt 
(5) s
4967 4615 mt 4967 4561 L
4934 4760 mt 
(6) s
5641 4615 mt 5641 4561 L
5608 4760 mt 
(7) s
 899 4592 mt  952 4592 L
 698 4636 mt 
(0.6) s
 899 3993 mt  952 3993 L
 698 4037 mt 
(0.8) s
 899 3394 mt  952 3394 L
 798 3438 mt 
(1) s
 899 2794 mt  952 2794 L
 698 2838 mt 
(1.2) s
 899 2195 mt  952 2195 L
 698 2239 mt 
(1.4) s
 899 1596 mt  952 1596 L
 698 1640 mt 
(1.6) s
 899  997 mt  952  997 L
 698 1041 mt 
(1.8) s
 899  397 mt  952  397 L
 798  441 mt 
(2) s
gs 899 388 5357 4228 MR c np
/c8 { 0.000000 0.000000 1.000000 sr} bdef
c8
2 -7 6 983 7 -49 7 -48 7 -47 6 -48 7 -47 7 -46 
7 -47 6 -46 7 -45 7 -45 7 -45 6 -45 7 -44 7 -43 
6 -44 7 -43 7 -43 7 -42 6 -42 7 -42 7 -41 7 -41 
6 983 7 -48 7 -49 7 -47 6 -48 7 -47 7 -46 7 -47 
6 -46 7 -45 7 -45 7 -45 6 -45 7 -44 7 -43 7 -44 
6 -43 7 -43 7 -42 7 -42 6 -42 7 -41 7 -41 6 983 
7 -48 7 -48 7 -48 6 -48 7 -47 7 -46 7 -46 6 -46 
7 -46 7 -45 7 -45 6 -44 7 -44 7 -44 7 -44 6 -43 
7 -42 7 -43 7 -42 6 -41 7 -42 7 -41 7 983 6 -48 
7 -48 7 -48 6 -47 7 -47 7 -47 7 -46 6 -46 7 -46 
7 -45 7 -45 6 -44 7 -44 7 -44 7 -43 6 -44 7 -42 
7 -43 7 -42 6 -41 7 -42 7 -41 7 984 6 -49 7 -48 
7 -48 7 -47 6 -47 5594 1655 100 MP stroke
7 -47 7 -46 6 -46 7 -45 7 -46 7 -44 6 -45 7 -44 
7 -44 7 -43 6 -43 7 -43 7 -42 7 -42 6 -42 7 -41 
7 -41 7 983 6 -48 7 -48 7 -48 7 -48 6 -47 7 -46 
7 -46 7 -46 6 -46 7 -45 7 -45 7 -44 6 -45 7 -43 
7 -44 6 -43 7 -43 7 -42 7 -42 6 -42 7 -41 7 -41 
7 984 6 -49 7 -48 7 -47 7 -48 6 -47 7 -47 7 -46 
7 -46 6 -45 7 -46 7 -44 7 -45 6 -44 7 -44 7 -43 
7 -43 6 -43 7 -42 7 -42 6 -42 7 -41 7 -41 7 984 
6 -49 7 -48 7 -48 7 -47 6 -47 7 -47 7 -46 7 -46 
6 -46 7 -45 7 -45 7 -44 6 -44 7 -44 7 -43 7 -43 
6 -43 7 -43 7 -42 7 -41 6 -42 7 -41 7 985 6 -49 
7 -48 7 -48 7 -47 6 -47 7 -47 7 -46 7 -46 6 -45 
7 -46 7 -45 7 -44 4926 1971 100 MP stroke
6 -44 7 -44 7 -43 7 -44 6 -42 7 -43 7 -42 7 -41 
6 -42 7 -41 7 985 7 -48 6 -48 7 -48 7 -48 7 -47 
6 -46 7 -47 7 -46 6 -45 7 -45 7 -45 7 -45 6 -44 
7 -44 7 -43 7 -43 6 -43 7 -42 7 -42 7 -42 6 -42 
7 -41 7 986 7 -48 6 -49 7 -47 7 -48 7 -47 6 -47 
7 -46 7 -46 7 -45 6 -46 7 -45 7 -44 6 -44 7 -44 
7 -44 7 -43 6 -42 7 -43 7 -42 7 -42 6 -41 7 -41 
7 986 7 -48 6 -48 7 -48 7 -48 7 -47 6 -46 7 -47 
7 -46 7 -45 6 -46 7 -45 7 -44 7 -44 6 -44 7 -44 
7 -43 7 -43 6 -42 7 -42 7 -42 6 -41 7 -41 7 987 
7 -48 6 -49 7 -48 7 -47 7 -47 6 -47 7 -46 7 -46 
7 -46 6 -45 7 -45 7 -45 7 -44 6 -44 7 -43 7 -44 
7 -42 6 -43 7 -42 4259 2266 100 MP stroke
7 -42 7 -41 6 -41 7 988 7 -48 6 -49 7 -48 7 -47 
7 -47 6 -47 7 -46 7 -46 7 -46 6 -45 7 -45 7 -45 
7 -44 6 -44 7 -44 7 -43 7 -43 6 -42 7 -42 7 -42 
7 -42 6 -41 7 990 7 -49 7 -48 6 -48 7 -48 7 -47 
6 -47 7 -46 7 -46 7 -46 6 -45 7 -45 7 -45 7 -44 
6 -44 7 -44 7 -43 7 -43 6 -42 7 -42 7 -42 7 -42 
6 -41 7 991 7 -49 7 -48 6 -48 7 -48 7 -47 7 -47 
6 -47 7 -46 7 -45 7 -46 6 -45 7 -44 7 -45 6 -44 
7 -43 7 -44 7 -42 6 -43 7 -42 7 -42 7 -41 6 -42 
7 992 7 -49 7 -49 6 -48 7 -47 7 -47 7 -47 6 -47 
7 -46 7 -46 7 -45 6 -45 7 -45 7 -44 7 -44 6 -44 
7 -43 7 -43 6 -42 7 -43 7 -42 7 -41 6 -41 7 992 
7 -49 7 -49 6 -48 3592 1532 100 MP stroke
7 -47 7 -47 7 -47 6 -47 7 -46 7 -46 7 -45 6 -45 
7 -45 7 -44 7 -44 6 -44 7 -43 7 -43 7 -43 6 -42 
7 -42 7 -41 6 -42 7 993 7 -49 7 -49 6 -48 7 -47 
7 -48 7 -47 6 -46 7 -46 7 -46 7 -46 6 -45 7 -44 
7 -45 7 -44 6 -43 7 -44 7 -43 7 -42 6 -42 7 -42 
7 -42 7 -41 6 992 7 -49 7 -48 7 -48 6 -48 7 -47 
7 -47 6 -46 7 -47 7 -45 7 -46 6 -45 7 -45 7 -44 
7 -44 6 -44 7 -43 7 -43 7 -42 6 -43 7 -42 7 -41 
7 -41 6 992 7 -49 7 -48 7 -48 6 -48 7 -47 7 -47 
7 -47 6 -46 7 -46 7 -45 6 -45 7 -45 7 -44 7 -44 
6 -44 7 -43 7 -43 7 -42 6 -43 7 -41 7 -42 7 -41 
6 992 7 -49 7 -48 7 -48 6 -48 7 -47 7 -47 7 -46 
6 -47 7 -45 7 -46 2924 1842 100 MP stroke
7 -45 6 -44 7 -45 7 -43 7 -44 6 -43 7 -43 7 -43 
6 -42 7 -41 7 -42 7 -41 6 993 7 -49 7 -48 7 -48 
6 -48 7 -47 7 -47 7 -46 6 -46 7 -46 7 -45 7 -45 
6 -44 7 -45 7 -44 7 -43 6 -43 7 -43 7 -42 7 -42 
6 -42 7 -41 7 -42 6 996 7 -48 7 -48 7 -48 6 -48 
7 -47 7 -46 7 -47 6 -46 7 -45 7 -46 7 -44 6 -45 
7 -44 7 -44 7 -43 6 -43 7 -43 7 -42 7 -42 6 -42 
7 -41 7 -41 7 1004 6 -49 7 -48 7 -47 6 -48 7 -47 
7 -47 7 -46 6 -46 7 -45 7 -45 7 -45 6 -45 7 -44 
7 -44 7 -43 6 -43 7 -43 7 -42 7 -42 6 -41 7 -42 
7 -41 7 1022 6 -48 7 -49 7 -47 7 -48 6 -47 7 -47 
7 -46 7 -46 6 -45 7 -46 7 -44 6 -45 7 -44 7 -44 
7 -43 6 -43 7 -43 2257 2070 100 MP stroke
7 -42 7 -42 6 -42 7 -41 7 -41 7 1056 6 -49 7 -48 
7 -48 7 -48 6 -47 7 -47 7 -47 7 -46 6 -46 7 -45 
7 -45 7 -45 6 -44 7 -44 7 -44 6 -43 7 -43 7 -42 
7 -43 6 -42 7 -41 7 -41 7 1119 6 -49 7 -49 7 -49 
7 -48 6 -48 7 -48 7 -47 7 -46 6 -47 7 -46 7 -46 
7 -45 6 -45 7 -44 7 -45 7 -43 6 -44 7 -43 7 -43 
6 -42 7 -42 7 -42 7 1235 6 -50 7 -51 7 -50 7 -49 
6 -50 7 -48 7 -49 7 -48 6 -48 7 -47 7 -47 7 -47 
6 -46 7 -46 7 -45 7 -45 6 -45 7 -45 7 -44 7 -43 
6 -44 7 -43 7 1452 7 -53 6 -53 7 -53 7 -52 6 -52 
7 -52 7 -51 7 -51 6 -51 7 -50 7 -49 7 -50 6 -48 
7 -49 7 -48 7 -48 6 -47 7 -47 7 -47 7 -46 6 -46 
7 -46 7 -45 7 -45 1589 1614 100 MP stroke
6 -44 7 -44 7 -44 7 -44 6 -43 7 -43 7 -42 6 -42 
7 -42 7 -41 7 -41 6 -41 7 -40 7 -40 7 -40 6 -39 
7 -39 7 -39 7 -38 6 -38 7 -38 7 -37 7 -37 6 -37 
7 -37 7 -36 7 -36 6 -35 7 -35 7 -35 7 -35 6 -34 
7 -34 7 -34 6 -33 7 -33 7 -33 7 -33 6 -32 7 -32 
7 -31 7 -32 6 -31 7 -31 7 -30 7 -31 6 -29 7 -30 
7 -30 7 -29 6 -29 7 -28 7 -29 7 -28 6 -28 7 -27 
7 -28 7 -27 6 -26 7 -27 7 -26 7 -26 6 -26 7 -26 
7 -25 6 -25 7 -25 7 -25 7 -24 6 -24 7 -24 7 -24 
7 -23 6 -24 7 -23 7 -22 7 -23 6 -22 7 -22 7 -22 
7 -22 6 -22 7 -21 7 -21 7 -21 6 -20 7 -21 7 -20 
7 -20 6 -20 7 -20 7 -19 6 -19 7 -20 7 -18 7 -19 
6 -19 7 -18 7 -18 922 4574 100 MP stroke
gr

c8
0 sg
3316 4903 mt 
(Tempo [s]) s
 616 3064 mt  -90 rotate
(Tra\347o da Covari\342ncia) s
90 rotate
2498  293 mt 
(Tra\347o da Covari\342ncia do Erro de Kalman) s

end %%Color Dict

eplot
%%EndObject

epage
end

showpage

%%Trailer
%%EOF
