%!PS-Adobe-2.0 EPSF-1.2
%%Creator: MATLAB, The Mathworks, Inc. Version 7.9.0.529 (R2009b). Operating System: Darwin 10.8.0 Darwin Kernel Version 10.8.0: Tue Jun  7 16:33:36 PDT 2011; root:xnu-1504.15.3~1/RELEASE_I386 i386.
%%Title: ./vD_tempos_boia_diver_zoom.eps
%%CreationDate: 08/27/2011  15:19:09
%%DocumentNeededFonts: Helvetica
%%DocumentProcessColors: Cyan Magenta Yellow Black
%%Extensions: CMYK
%%Pages: 1
%%BoundingBox:    60   199   551   602
%%EndComments

%%BeginProlog
% MathWorks dictionary
/MathWorks 160 dict begin
% definition operators
/bdef {bind def} bind def
/ldef {load def} bind def
/xdef {exch def} bdef
/xstore {exch store} bdef
% operator abbreviations
/c  /clip ldef
/cc /concat ldef
/cp /closepath ldef
/gr /grestore ldef
/gs /gsave ldef
/mt /moveto ldef
/np /newpath ldef
/cm /currentmatrix ldef
/sm /setmatrix ldef
/rm /rmoveto ldef
/rl /rlineto ldef
/s {show newpath} bdef
/sc {setcmykcolor} bdef
/sr /setrgbcolor ldef
/sg /setgray ldef
/w /setlinewidth ldef
/j /setlinejoin ldef
/cap /setlinecap ldef
/rc {rectclip} bdef
/rf {rectfill} bdef
% page state control
/pgsv () def
/bpage {/pgsv save def} bdef
/epage {pgsv restore} bdef
/bplot /gsave ldef
/eplot {stroke grestore} bdef
% orientation switch
/portraitMode 0 def /landscapeMode 1 def /rotateMode 2 def
% coordinate system mappings
/dpi2point 0 def
% font control
/FontSize 0 def
/FMS {/FontSize xstore findfont [FontSize 0 0 FontSize neg 0 0]
  makefont setfont} bdef
/reencode {exch dup where {pop load} {pop StandardEncoding} ifelse
  exch dup 3 1 roll findfont dup length dict begin
  { 1 index /FID ne {def}{pop pop} ifelse } forall
  /Encoding exch def currentdict end definefont pop} bdef
/isroman {findfont /CharStrings get /Agrave known} bdef
/FMSR {3 1 roll 1 index dup isroman {reencode} {pop pop} ifelse
  exch FMS} bdef
/csm {1 dpi2point div -1 dpi2point div scale neg translate
 dup landscapeMode eq {pop -90 rotate}
  {rotateMode eq {90 rotate} if} ifelse} bdef
% line types: solid, dotted, dashed, dotdash
/SO { [] 0 setdash } bdef
/DO { [.5 dpi2point mul 4 dpi2point mul] 0 setdash } bdef
/DA { [6 dpi2point mul] 0 setdash } bdef
/DD { [.5 dpi2point mul 4 dpi2point mul 6 dpi2point mul 4
  dpi2point mul] 0 setdash } bdef
% macros for lines and objects
/L {lineto stroke} bdef
/MP {3 1 roll moveto 1 sub {rlineto} repeat} bdef
/AP {{rlineto} repeat} bdef
/PDlw -1 def
/W {/PDlw currentlinewidth def setlinewidth} def
/PP {closepath eofill} bdef
/DP {closepath stroke} bdef
/MR {4 -2 roll moveto dup  0 exch rlineto exch 0 rlineto
  neg 0 exch rlineto closepath} bdef
/FR {MR stroke} bdef
/PR {MR fill} bdef
/L1i {{currentfile picstr readhexstring pop} image} bdef
/tMatrix matrix def
/MakeOval {newpath tMatrix currentmatrix pop translate scale
0 0 1 0 360 arc tMatrix setmatrix} bdef
/FO {MakeOval stroke} bdef
/PO {MakeOval fill} bdef
/PD {currentlinewidth 2 div 0 360 arc fill
   PDlw -1 eq not {PDlw w /PDlw -1 def} if} def
/FA {newpath tMatrix currentmatrix pop translate scale
  0 0 1 5 -2 roll arc tMatrix setmatrix stroke} bdef
/PA {newpath tMatrix currentmatrix pop	translate 0 0 moveto scale
  0 0 1 5 -2 roll arc closepath tMatrix setmatrix fill} bdef
/FAn {newpath tMatrix currentmatrix pop translate scale
  0 0 1 5 -2 roll arcn tMatrix setmatrix stroke} bdef
/PAn {newpath tMatrix currentmatrix pop translate 0 0 moveto scale
  0 0 1 5 -2 roll arcn closepath tMatrix setmatrix fill} bdef
/vradius 0 def /hradius 0 def /lry 0 def
/lrx 0 def /uly 0 def /ulx 0 def /rad 0 def
/MRR {/vradius xdef /hradius xdef /lry xdef /lrx xdef /uly xdef
  /ulx xdef newpath tMatrix currentmatrix pop ulx hradius add uly
  vradius add translate hradius vradius scale 0 0 1 180 270 arc 
  tMatrix setmatrix lrx hradius sub uly vradius add translate
  hradius vradius scale 0 0 1 270 360 arc tMatrix setmatrix
  lrx hradius sub lry vradius sub translate hradius vradius scale
  0 0 1 0 90 arc tMatrix setmatrix ulx hradius add lry vradius sub
  translate hradius vradius scale 0 0 1 90 180 arc tMatrix setmatrix
  closepath} bdef
/FRR {MRR stroke } bdef
/PRR {MRR fill } bdef
/MlrRR {/lry xdef /lrx xdef /uly xdef /ulx xdef /rad lry uly sub 2 div def
  newpath tMatrix currentmatrix pop ulx rad add uly rad add translate
  rad rad scale 0 0 1 90 270 arc tMatrix setmatrix lrx rad sub lry rad
  sub translate rad rad scale 0 0 1 270 90 arc tMatrix setmatrix
  closepath} bdef
/FlrRR {MlrRR stroke } bdef
/PlrRR {MlrRR fill } bdef
/MtbRR {/lry xdef /lrx xdef /uly xdef /ulx xdef /rad lrx ulx sub 2 div def
  newpath tMatrix currentmatrix pop ulx rad add uly rad add translate
  rad rad scale 0 0 1 180 360 arc tMatrix setmatrix lrx rad sub lry rad
  sub translate rad rad scale 0 0 1 0 180 arc tMatrix setmatrix
  closepath} bdef
/FtbRR {MtbRR stroke } bdef
/PtbRR {MtbRR fill } bdef
/stri 6 array def /dtri 6 array def
/smat 6 array def /dmat 6 array def
/tmat1 6 array def /tmat2 6 array def /dif 3 array def
/asub {/ind2 exch def /ind1 exch def dup dup
  ind1 get exch ind2 get sub exch } bdef
/tri_to_matrix {
  2 0 asub 3 1 asub 4 0 asub 5 1 asub
  dup 0 get exch 1 get 7 -1 roll astore } bdef
/compute_transform {
  dmat dtri tri_to_matrix tmat1 invertmatrix 
  smat stri tri_to_matrix tmat2 concatmatrix } bdef
/ds {stri astore pop} bdef
/dt {dtri astore pop} bdef
/db {2 copy /cols xdef /rows xdef mul dup 3 mul string
  currentfile exch readhexstring pop
  dup 0 3 index getinterval /rbmap xdef
  dup 2 index dup getinterval /gbmap xdef
  1 index dup 2 mul exch getinterval /bbmap xdef pop pop}bdef
/it {gs np dtri aload pop moveto lineto lineto cp c
  cols rows 8 compute_transform 
  rbmap gbmap bbmap true 3 colorimage gr}bdef
/il {newpath moveto lineto stroke}bdef
currentdict end def
%%EndProlog

%%BeginSetup
MathWorks begin

0 cap

end
%%EndSetup

%%Page: 1 1
%%BeginPageSetup
%%PageBoundingBox:    60   199   551   602
MathWorks begin
bpage
%%EndPageSetup

%%BeginObject: obj1
bplot

/dpi2point 12 def
portraitMode 0216 7344 csm

  510   110  5894  4845 MR c np
89 dict begin %Colortable dictionary
/c0 { 0.000000 0.000000 0.000000 sr} bdef
/c1 { 1.000000 1.000000 1.000000 sr} bdef
/c2 { 0.900000 0.000000 0.000000 sr} bdef
/c3 { 0.000000 0.820000 0.000000 sr} bdef
/c4 { 0.000000 0.000000 0.800000 sr} bdef
/c5 { 0.910000 0.820000 0.320000 sr} bdef
/c6 { 1.000000 0.260000 0.820000 sr} bdef
/c7 { 0.000000 0.820000 0.820000 sr} bdef
c0
1 j
1 sg
   0    0 6913 5186 PR
6 w
0 1769 5356 0 0 -1769 899 2158 4 MP
PP
-5356 0 0 1769 5356 0 0 -1769 899 2158 5 MP stroke
4 w
DO
0 sg
 899 2158 mt  899  389 L
 899  389 mt  899  389 L
1791 2158 mt 1791  389 L
1791  389 mt 1791  389 L
2684 2158 mt 2684  389 L
2684  389 mt 2684  389 L
3577 2158 mt 3577  389 L
3577  389 mt 3577  389 L
4469 2158 mt 4469  389 L
4469  389 mt 4469  389 L
5362 2158 mt 5362  389 L
5362  389 mt 5362  389 L
6255 2158 mt 6255  389 L
6255  389 mt 6255  389 L
 899 2158 mt 6255 2158 L
6255 2158 mt 6255 2158 L
 899 1715 mt 6255 1715 L
6255 1715 mt 6255 1715 L
 899 1273 mt 6255 1273 L
6255 1273 mt 6255 1273 L
 899  831 mt 6255  831 L
6255  831 mt 6255  831 L
 899  389 mt 6255  389 L
6255  389 mt 6255  389 L
SO
6 w
 899 2158 mt 6255 2158 L
 899  389 mt 6255  389 L
 899 2158 mt  899  389 L
6255 2158 mt 6255  389 L
 899 2158 mt 6255 2158 L
 899 2158 mt  899  389 L
 899 2158 mt  899 2104 L
 899  389 mt  899  442 L
%%IncludeResource: font Helvetica
/Helvetica /ISOLatin1Encoding 120 FMSR

 749 2303 mt 
(102.4) s
1791 2158 mt 1791 2104 L
1791  389 mt 1791  442 L
1641 2303 mt 
(102.5) s
2684 2158 mt 2684 2104 L
2684  389 mt 2684  442 L
2534 2303 mt 
(102.6) s
3577 2158 mt 3577 2104 L
3577  389 mt 3577  442 L
3427 2303 mt 
(102.7) s
4469 2158 mt 4469 2104 L
4469  389 mt 4469  442 L
4319 2303 mt 
(102.8) s
5362 2158 mt 5362 2104 L
5362  389 mt 5362  442 L
5212 2303 mt 
(102.9) s
6255 2158 mt 6255 2104 L
6255  389 mt 6255  442 L
6155 2303 mt 
(103) s
 899 2158 mt  952 2158 L
6255 2158 mt 6201 2158 L
 728 2202 mt 
(-2) s
 899 1715 mt  952 1715 L
6255 1715 mt 6201 1715 L
 728 1759 mt 
(-1) s
 899 1273 mt  952 1273 L
6255 1273 mt 6201 1273 L
 798 1317 mt 
(0) s
 899  831 mt  952  831 L
6255  831 mt 6201  831 L
 798  875 mt 
(1) s
 899  389 mt  952  389 L
6255  389 mt 6201  389 L
 798  433 mt 
(2) s
 899 2158 mt 6255 2158 L
 899  389 mt 6255  389 L
 899 2158 mt  899  389 L
6255 2158 mt 6255  389 L
gs 899 389 5357 1770 MR c np
12 w
gr

12 w
gs 826 758 5504 147 MR c np
/c8 { 0.000000 1.000000 1.000000 sr} bdef
c8
  36   36 1702  831 FO
  36   36 4648  831 FO
gr

c8
gs 899 389 5357 1770 MR c np
DA
0 -442 1702 1273 2 MP stroke
0 -442 4648 1273 2 MP stroke
SO
6 w
0 sg
5356 0 899 1273 2 MP stroke
12 w
gr

0 sg
gs 826 758 5504 147 MR c np
/c9 { 0.000000 0.000000 1.000000 sr} bdef
c9
  36   36 1702  831 FO
  36   36 4648  831 FO
gr

c9
gs 899 389 5357 1770 MR c np
DD
0 -442 1702 1273 2 MP stroke
0 -442 4648 1273 2 MP stroke
SO
gr

gs 826 1642 5504 147 MR c np
/c10 { 1.000000 0.000000 0.000000 sr} bdef
c10
3592 1715 mt 3664 1715 L
3628 1679 mt 3628 1751 L
3603 1690 mt 3653 1740 L
3653 1690 mt 3603 1740 L
gr

c10
gs 899 389 5357 1770 MR c np
0 442 3628 1273 2 MP stroke
gr

0 sg
 882 2201 mt 
( ) s
6239  431 mt 
( ) s
/c11 { 1.000000 1.000000 0.933333 sr} bdef
c11
-591 0 0 -344 591 0 1749 784 4 MP
PP
6 w
0 j
0.8 sg
1749  440  591  344 FR
1 j
0 sg
%%IncludeResource: font Helvetica
/Helvetica /ISOLatin1Encoding 108 FMSR

1797  588 mt 
(X= 102.49) s
1797  712 mt 
(Y= 1) s
24 w
gs 1556 685 293 293 MR c np
0 j
0 -94 -94 0 0 94 94 0 1655 784 5 MP
gs
PP
gr
/c12 { 1.000000 1.000000 0.862745 sr} bdef
c12
DP
gr

c12
c11
-711 0 0 -344 711 0 3675 1668 4 MP
PP
6 w
0 j
0.8 sg
3675 1324  711  344 FR
1 j
0 sg
3723 1472 mt 
(X= 102.7058) s
3723 1596 mt 
(Y= -1) s
24 w
gs 3482 1569 293 293 MR c np
0 j
0 -94 -94 0 0 94 94 0 3581 1668 5 MP
gs
PP
gr
c12
DP
gr

c12
c11
-591 0 0 -344 591 0 4695 784 4 MP
PP
6 w
0 j
0.8 sg
4695  440  591  344 FR
1 j
0 sg
4743  588 mt 
(X= 102.82) s
4743  712 mt 
(Y= 1) s
24 w
gs 4502 685 293 293 MR c np
0 j
0 -94 -94 0 0 94 94 0 4601 784 5 MP
gs
PP
gr
c12
DP
gr

c12
0 sg
%%IncludeResource: font Helvetica
/Helvetica /ISOLatin1Encoding 120 FMSR

3316 2446 mt 
(Tempo [s]) s
 646 1407 mt  -90 rotate
(Sinal) s
90 rotate
2799  294 mt 
(Troca de Mensagens da B\363ia) s
6 w
1 sg
0 521 1964 0 0 -521 4368 2150 4 MP
PP
-1964 0 0 521 1964 0 0 -521 4368 2150 5 MP stroke
4 w
DO
SO
6 w
0 sg
4368 2150 mt 6332 2150 L
4368 1629 mt 6332 1629 L
4368 2150 mt 4368 1629 L
6332 2150 mt 6332 1629 L
4368 2150 mt 6332 2150 L
4368 2150 mt 4368 1629 L
4368 2150 mt 6332 2150 L
4368 1629 mt 6332 1629 L
4368 2150 mt 4368 1629 L
6332 2150 mt 6332 1629 L
4843 1772 mt 
(1: Avisa Ve\355culos - R) s
gs 4368 1629 1965 522 MR c np
DA
12 w
c8
255 0 4441 1729 2 MP stroke
4696 1729 PD
gs 4623 1656 147 147 MR c np
SO
  36   36 4696 1729 FO
DA
gr

gr

12 w
c8
DA
0 sg
4843 1932 mt 
(2: Ping ao Mergulhador - A) s
gs 4368 1629 1965 522 MR c np
DD
c9
255 0 4441 1889 2 MP stroke
4696 1889 PD
gs 4623 1816 147 147 MR c np
SO
  36   36 4696 1889 FO
DD
gr

gr

c9
DD
0 sg
4843 2092 mt 
(6: Recebe resposta - A) s
gs 4368 1629 1965 522 MR c np
SO
c10
255 0 4441 2049 2 MP stroke
4696 2049 PD
gs 4623 1976 147 147 MR c np
4660 2049 mt 4732 2049 L
4696 2013 mt 4696 2085 L
4671 2024 mt 4721 2074 L
4721 2024 mt 4671 2074 L
gr

6 w
gr

6 w
c10
SO
1 sg
0 1769 5356 0 0 -1769 899 4615 4 MP
PP
-5356 0 0 1769 5356 0 0 -1769 899 4615 5 MP stroke
4 w
DO
0 sg
 899 4615 mt  899 2846 L
 899 2846 mt  899 2846 L
1791 4615 mt 1791 2846 L
1791 2846 mt 1791 2846 L
2684 4615 mt 2684 2846 L
2684 2846 mt 2684 2846 L
3577 4615 mt 3577 2846 L
3577 2846 mt 3577 2846 L
4469 4615 mt 4469 2846 L
4469 2846 mt 4469 2846 L
5362 4615 mt 5362 2846 L
5362 2846 mt 5362 2846 L
6255 4615 mt 6255 2846 L
6255 2846 mt 6255 2846 L
 899 4615 mt 6255 4615 L
6255 4615 mt 6255 4615 L
 899 4172 mt 6255 4172 L
6255 4172 mt 6255 4172 L
 899 3730 mt 6255 3730 L
6255 3730 mt 6255 3730 L
 899 3288 mt 6255 3288 L
6255 3288 mt 6255 3288 L
 899 2846 mt 6255 2846 L
6255 2846 mt 6255 2846 L
SO
6 w
 899 4615 mt 6255 4615 L
 899 2846 mt 6255 2846 L
 899 4615 mt  899 2846 L
6255 4615 mt 6255 2846 L
 899 4615 mt 6255 4615 L
 899 4615 mt  899 2846 L
 899 4615 mt  899 4561 L
 899 2846 mt  899 2899 L
 749 4760 mt 
(102.4) s
1791 4615 mt 1791 4561 L
1791 2846 mt 1791 2899 L
1641 4760 mt 
(102.5) s
2684 4615 mt 2684 4561 L
2684 2846 mt 2684 2899 L
2534 4760 mt 
(102.6) s
3577 4615 mt 3577 4561 L
3577 2846 mt 3577 2899 L
3427 4760 mt 
(102.7) s
4469 4615 mt 4469 4561 L
4469 2846 mt 4469 2899 L
4319 4760 mt 
(102.8) s
5362 4615 mt 5362 4561 L
5362 2846 mt 5362 2899 L
5212 4760 mt 
(102.9) s
6255 4615 mt 6255 4561 L
6255 2846 mt 6255 2899 L
6155 4760 mt 
(103) s
 899 4615 mt  952 4615 L
6255 4615 mt 6201 4615 L
 728 4659 mt 
(-2) s
 899 4172 mt  952 4172 L
6255 4172 mt 6201 4172 L
 728 4216 mt 
(-1) s
 899 3730 mt  952 3730 L
6255 3730 mt 6201 3730 L
 798 3774 mt 
(0) s
 899 3288 mt  952 3288 L
6255 3288 mt 6201 3288 L
 798 3332 mt 
(1) s
 899 2846 mt  952 2846 L
6255 2846 mt 6201 2846 L
 798 2890 mt 
(2) s
 899 4615 mt 6255 4615 L
 899 2846 mt 6255 2846 L
 899 4615 mt  899 2846 L
6255 4615 mt 6255 2846 L
gs 899 2846 5357 1770 MR c np
12 w
gr

12 w
gs 826 4099 5504 147 MR c np
c9
2182 4172 mt 2254 4172 L
2218 4136 mt 2218 4208 L
5130 4172 mt 5202 4172 L
5166 4136 mt 5166 4208 L
2193 4147 mt 2243 4197 L
2243 4147 mt 2193 4197 L
5141 4147 mt 5191 4197 L
5191 4147 mt 5141 4197 L
gr

c9
gs 899 2846 5357 1770 MR c np
0 442 2218 3730 2 MP stroke
0 442 5166 3730 2 MP stroke
6 w
0 sg
5356 0 899 3730 2 MP stroke
12 w
gr

0 sg
gs 826 3215 5504 147 MR c np
c10
  36   36 3111 3288 FO
  36   36 6059 3288 FO
gr

c10
gs 899 2846 5357 1770 MR c np
0 -442 3111 3730 2 MP stroke
0 -442 6059 3730 2 MP stroke
gr

0 sg
 882 4658 mt 
( ) s
6239 2888 mt 
( ) s
c11
-711 0 0 -344 711 0 2265 4125 4 MP
PP
6 w
0 j
0.8 sg
2265 3781  711  344 FR
1 j
0 sg
%%IncludeResource: font Helvetica
/Helvetica /ISOLatin1Encoding 108 FMSR

2313 3929 mt 
(X= 102.5479) s
2313 4053 mt 
(Y= -1) s
24 w
gs 2072 4026 293 293 MR c np
0 j
0 -94 -94 0 0 94 94 0 2171 4125 5 MP
gs
PP
gr
c12
DP
gr

c12
c11
-711 0 0 -344 711 0 3158 3669 4 MP
PP
6 w
0 j
0.8 sg
3158 3325  711  344 FR
1 j
0 sg
3206 3473 mt 
(X= 102.6479) s
3206 3597 mt 
(Y= 1) s
24 w
gs 2965 3142 293 293 MR c np
0 j
0 -94 -94 0 0 94 94 0 3064 3241 5 MP
gs
PP
gr
c12
DP
gr

c12
0 sg
%%IncludeResource: font Helvetica
/Helvetica /ISOLatin1Encoding 120 FMSR

3316 4903 mt 
(Tempo [s]) s
 646 3864 mt  -90 rotate
(Sinal) s
90 rotate
2583 2751 mt 
(Troca de Mensagens do Mergulhador) s
6 w
1 sg
0 361 1641 0 0 -361 4634 4582 4 MP
PP
-1641 0 0 361 1641 0 0 -361 4634 4582 5 MP stroke
4 w
DO
SO
6 w
0 sg
4634 4582 mt 6275 4582 L
4634 4221 mt 6275 4221 L
4634 4582 mt 4634 4221 L
6275 4582 mt 6275 4221 L
4634 4582 mt 6275 4582 L
4634 4582 mt 4634 4221 L
4634 4582 mt 6275 4582 L
4634 4221 mt 6275 4221 L
4634 4582 mt 4634 4221 L
6275 4582 mt 6275 4221 L
5112 4364 mt 
(4: Recebe ping - A) s
gs 4634 4221 1642 362 MR c np
12 w
c9
257 0 4707 4321 2 MP stroke
4964 4321 PD
gs 4891 4248 147 147 MR c np
4928 4321 mt 5000 4321 L
4964 4285 mt 4964 4357 L
4939 4296 mt 4989 4346 L
4989 4296 mt 4939 4346 L
gr

gr

12 w
c9
0 sg
5112 4524 mt 
(5: Envia resposta - A) s
gs 4634 4221 1642 362 MR c np
c10
257 0 4707 4481 2 MP stroke
4964 4481 PD
gs 4891 4408 147 147 MR c np
  36   36 4964 4481 FO
gr

6 w
gr

6 w
c10

end %%Color Dict

eplot
%%EndObject

epage
end

showpage

%%Trailer
%%EOF
