%!PS-Adobe-2.0 EPSF-1.2
%%Creator: MATLAB, The Mathworks, Inc. Version 7.9.0.529 (R2009b). Operating System: Darwin 10.8.0 Darwin Kernel Version 10.8.0: Tue Jun  7 16:33:36 PDT 2011; root:xnu-1504.15.3~1/RELEASE_I386 i386.
%%Title: ./vD_tempos_veiculos_zoom.eps
%%CreationDate: 08/27/2011  18:09:16
%%DocumentNeededFonts: Helvetica
%%DocumentProcessColors: Cyan Magenta Yellow Black
%%Extensions: CMYK
%%Pages: 1
%%BoundingBox:    60   208   551   595
%%EndComments

%%BeginProlog
% MathWorks dictionary
/MathWorks 160 dict begin
% definition operators
/bdef {bind def} bind def
/ldef {load def} bind def
/xdef {exch def} bdef
/xstore {exch store} bdef
% operator abbreviations
/c  /clip ldef
/cc /concat ldef
/cp /closepath ldef
/gr /grestore ldef
/gs /gsave ldef
/mt /moveto ldef
/np /newpath ldef
/cm /currentmatrix ldef
/sm /setmatrix ldef
/rm /rmoveto ldef
/rl /rlineto ldef
/s {show newpath} bdef
/sc {setcmykcolor} bdef
/sr /setrgbcolor ldef
/sg /setgray ldef
/w /setlinewidth ldef
/j /setlinejoin ldef
/cap /setlinecap ldef
/rc {rectclip} bdef
/rf {rectfill} bdef
% page state control
/pgsv () def
/bpage {/pgsv save def} bdef
/epage {pgsv restore} bdef
/bplot /gsave ldef
/eplot {stroke grestore} bdef
% orientation switch
/portraitMode 0 def /landscapeMode 1 def /rotateMode 2 def
% coordinate system mappings
/dpi2point 0 def
% font control
/FontSize 0 def
/FMS {/FontSize xstore findfont [FontSize 0 0 FontSize neg 0 0]
  makefont setfont} bdef
/reencode {exch dup where {pop load} {pop StandardEncoding} ifelse
  exch dup 3 1 roll findfont dup length dict begin
  { 1 index /FID ne {def}{pop pop} ifelse } forall
  /Encoding exch def currentdict end definefont pop} bdef
/isroman {findfont /CharStrings get /Agrave known} bdef
/FMSR {3 1 roll 1 index dup isroman {reencode} {pop pop} ifelse
  exch FMS} bdef
/csm {1 dpi2point div -1 dpi2point div scale neg translate
 dup landscapeMode eq {pop -90 rotate}
  {rotateMode eq {90 rotate} if} ifelse} bdef
% line types: solid, dotted, dashed, dotdash
/SO { [] 0 setdash } bdef
/DO { [.5 dpi2point mul 4 dpi2point mul] 0 setdash } bdef
/DA { [6 dpi2point mul] 0 setdash } bdef
/DD { [.5 dpi2point mul 4 dpi2point mul 6 dpi2point mul 4
  dpi2point mul] 0 setdash } bdef
% macros for lines and objects
/L {lineto stroke} bdef
/MP {3 1 roll moveto 1 sub {rlineto} repeat} bdef
/AP {{rlineto} repeat} bdef
/PDlw -1 def
/W {/PDlw currentlinewidth def setlinewidth} def
/PP {closepath eofill} bdef
/DP {closepath stroke} bdef
/MR {4 -2 roll moveto dup  0 exch rlineto exch 0 rlineto
  neg 0 exch rlineto closepath} bdef
/FR {MR stroke} bdef
/PR {MR fill} bdef
/L1i {{currentfile picstr readhexstring pop} image} bdef
/tMatrix matrix def
/MakeOval {newpath tMatrix currentmatrix pop translate scale
0 0 1 0 360 arc tMatrix setmatrix} bdef
/FO {MakeOval stroke} bdef
/PO {MakeOval fill} bdef
/PD {currentlinewidth 2 div 0 360 arc fill
   PDlw -1 eq not {PDlw w /PDlw -1 def} if} def
/FA {newpath tMatrix currentmatrix pop translate scale
  0 0 1 5 -2 roll arc tMatrix setmatrix stroke} bdef
/PA {newpath tMatrix currentmatrix pop	translate 0 0 moveto scale
  0 0 1 5 -2 roll arc closepath tMatrix setmatrix fill} bdef
/FAn {newpath tMatrix currentmatrix pop translate scale
  0 0 1 5 -2 roll arcn tMatrix setmatrix stroke} bdef
/PAn {newpath tMatrix currentmatrix pop translate 0 0 moveto scale
  0 0 1 5 -2 roll arcn closepath tMatrix setmatrix fill} bdef
/vradius 0 def /hradius 0 def /lry 0 def
/lrx 0 def /uly 0 def /ulx 0 def /rad 0 def
/MRR {/vradius xdef /hradius xdef /lry xdef /lrx xdef /uly xdef
  /ulx xdef newpath tMatrix currentmatrix pop ulx hradius add uly
  vradius add translate hradius vradius scale 0 0 1 180 270 arc 
  tMatrix setmatrix lrx hradius sub uly vradius add translate
  hradius vradius scale 0 0 1 270 360 arc tMatrix setmatrix
  lrx hradius sub lry vradius sub translate hradius vradius scale
  0 0 1 0 90 arc tMatrix setmatrix ulx hradius add lry vradius sub
  translate hradius vradius scale 0 0 1 90 180 arc tMatrix setmatrix
  closepath} bdef
/FRR {MRR stroke } bdef
/PRR {MRR fill } bdef
/MlrRR {/lry xdef /lrx xdef /uly xdef /ulx xdef /rad lry uly sub 2 div def
  newpath tMatrix currentmatrix pop ulx rad add uly rad add translate
  rad rad scale 0 0 1 90 270 arc tMatrix setmatrix lrx rad sub lry rad
  sub translate rad rad scale 0 0 1 270 90 arc tMatrix setmatrix
  closepath} bdef
/FlrRR {MlrRR stroke } bdef
/PlrRR {MlrRR fill } bdef
/MtbRR {/lry xdef /lrx xdef /uly xdef /ulx xdef /rad lrx ulx sub 2 div def
  newpath tMatrix currentmatrix pop ulx rad add uly rad add translate
  rad rad scale 0 0 1 180 360 arc tMatrix setmatrix lrx rad sub lry rad
  sub translate rad rad scale 0 0 1 0 180 arc tMatrix setmatrix
  closepath} bdef
/FtbRR {MtbRR stroke } bdef
/PtbRR {MtbRR fill } bdef
/stri 6 array def /dtri 6 array def
/smat 6 array def /dmat 6 array def
/tmat1 6 array def /tmat2 6 array def /dif 3 array def
/asub {/ind2 exch def /ind1 exch def dup dup
  ind1 get exch ind2 get sub exch } bdef
/tri_to_matrix {
  2 0 asub 3 1 asub 4 0 asub 5 1 asub
  dup 0 get exch 1 get 7 -1 roll astore } bdef
/compute_transform {
  dmat dtri tri_to_matrix tmat1 invertmatrix 
  smat stri tri_to_matrix tmat2 concatmatrix } bdef
/ds {stri astore pop} bdef
/dt {dtri astore pop} bdef
/db {2 copy /cols xdef /rows xdef mul dup 3 mul string
  currentfile exch readhexstring pop
  dup 0 3 index getinterval /rbmap xdef
  dup 2 index dup getinterval /gbmap xdef
  1 index dup 2 mul exch getinterval /bbmap xdef pop pop}bdef
/it {gs np dtri aload pop moveto lineto lineto cp c
  cols rows 8 compute_transform 
  rbmap gbmap bbmap true 3 colorimage gr}bdef
/il {newpath moveto lineto stroke}bdef
currentdict end def
%%EndProlog

%%BeginSetup
MathWorks begin

0 cap

end
%%EndSetup

%%Page: 1 1
%%BeginPageSetup
%%PageBoundingBox:    60   208   551   595
MathWorks begin
bpage
%%EndPageSetup

%%BeginObject: obj1
bplot

/dpi2point 12 def
portraitMode 0216 7344 csm

  510   202  5894  4640 MR c np
89 dict begin %Colortable dictionary
/c0 { 0.000000 0.000000 0.000000 sr} bdef
/c1 { 1.000000 1.000000 1.000000 sr} bdef
/c2 { 0.900000 0.000000 0.000000 sr} bdef
/c3 { 0.000000 0.820000 0.000000 sr} bdef
/c4 { 0.000000 0.000000 0.800000 sr} bdef
/c5 { 0.910000 0.820000 0.320000 sr} bdef
/c6 { 1.000000 0.260000 0.820000 sr} bdef
/c7 { 0.000000 0.820000 0.820000 sr} bdef
c0
1 j
1 sg
   0    0 6913 5186 PR
6 w
0 613 5356 0 0 -613 899 1094 4 MP
PP
-5356 0 0 613 5356 0 0 -613 899 1094 5 MP stroke
4 w
DO
0 sg
 899 1094 mt  899  481 L
 899  481 mt  899  481 L
1791 1094 mt 1791  481 L
1791  481 mt 1791  481 L
2684 1094 mt 2684  481 L
2684  481 mt 2684  481 L
3577 1094 mt 3577  481 L
3577  481 mt 3577  481 L
4469 1094 mt 4469  481 L
4469  481 mt 4469  481 L
5362 1094 mt 5362  481 L
5362  481 mt 5362  481 L
6255 1094 mt 6255  481 L
6255  481 mt 6255  481 L
 899 1094 mt 6255 1094 L
6255 1094 mt 6255 1094 L
 899  787 mt 6255  787 L
6255  787 mt 6255  787 L
 899  481 mt 6255  481 L
6255  481 mt 6255  481 L
SO
6 w
 899 1094 mt 6255 1094 L
 899  481 mt 6255  481 L
 899 1094 mt  899  481 L
6255 1094 mt 6255  481 L
 899 1094 mt 6255 1094 L
 899 1094 mt  899  481 L
 899 1094 mt  899 1040 L
 899  481 mt  899  534 L
%%IncludeResource: font Helvetica
/Helvetica /ISOLatin1Encoding 120 FMSR

 749 1239 mt 
(102.4) s
1791 1094 mt 1791 1040 L
1791  481 mt 1791  534 L
1641 1239 mt 
(102.5) s
2684 1094 mt 2684 1040 L
2684  481 mt 2684  534 L
2534 1239 mt 
(102.6) s
3577 1094 mt 3577 1040 L
3577  481 mt 3577  534 L
3427 1239 mt 
(102.7) s
4469 1094 mt 4469 1040 L
4469  481 mt 4469  534 L
4319 1239 mt 
(102.8) s
5362 1094 mt 5362 1040 L
5362  481 mt 5362  534 L
5212 1239 mt 
(102.9) s
6255 1094 mt 6255 1040 L
6255  481 mt 6255  534 L
6155 1239 mt 
(103) s
 899 1094 mt  952 1094 L
6255 1094 mt 6201 1094 L
 728 1138 mt 
(-2) s
 899  787 mt  952  787 L
6255  787 mt 6201  787 L
 798  831 mt 
(0) s
 899  481 mt  952  481 L
6255  481 mt 6201  481 L
 798  525 mt 
(2) s
 899 1094 mt 6255 1094 L
 899  481 mt 6255  481 L
 899 1094 mt  899  481 L
6255 1094 mt 6255  481 L
gs 899 481 5357 614 MR c np
12 w
gr

12 w
gs 826 867 5504 147 MR c np
/c8 { 0.000000 1.000000 1.000000 sr} bdef
c8
  36   36 1702  940 FO
  36   36 4648  940 FO
gr

c8
gs 899 481 5357 614 MR c np
DA
0 153 1702 787 2 MP stroke
0 153 4648 787 2 MP stroke
SO
6 w
0 sg
5356 0 899 787 2 MP stroke
12 w
gr

0 sg
gs 826 867 5504 147 MR c np
/c9 { 1.000000 0.000000 0.000000 sr} bdef
c9
3541  940 mt 3613  940 L
3577  904 mt 3577  976 L
3552  915 mt 3602  965 L
3602  915 mt 3552  965 L
gr

c9
gs 899 481 5357 614 MR c np
0 153 3577 787 2 MP stroke
gr

gs 826 561 5504 147 MR c np
/c10 { 0.000000 0.000000 1.000000 sr} bdef
c10
  36   36 1434  634 FO
  36   36 4469  634 FO
gr

c10
gs 899 481 5357 614 MR c np
DA
0 -153 1434 787 2 MP stroke
0 -153 4469 787 2 MP stroke
gr

DA
/c11 { 1.000000 1.000000 0.933333 sr} bdef
c11
-591 0 0 -344 591 0 1749 893 4 MP
PP
SO
6 w
0 j
0.8 sg
1749  549  591  344 FR
1 j
0 sg
%%IncludeResource: font Helvetica
/Helvetica /ISOLatin1Encoding 108 FMSR

1797  697 mt 
(X= 102.49) s
1797  821 mt 
(Y= -1) s
24 w
gs 1556 794 293 293 MR c np
0 j
0 -94 -94 0 0 94 94 0 1655 893 5 MP
gs
PP
gr
/c12 { 1.000000 1.000000 0.862745 sr} bdef
c12
DP
gr

c12
c11
-531 0 0 -344 531 0 3624 893 4 MP
PP
6 w
0 j
0.8 sg
3624  549  531  344 FR
1 j
0 sg
3672  697 mt 
(X= 102.7) s
3672  821 mt 
(Y= -1) s
24 w
gs 3431 794 293 293 MR c np
0 j
0 -94 -94 0 0 94 94 0 3530 893 5 MP
gs
PP
gr
c12
DP
gr

c12
c11
-531 0 0 -344 531 0 4516 1015 4 MP
PP
6 w
0 j
0.8 sg
4516  671  531  344 FR
1 j
0 sg
4564  819 mt 
(X= 102.8) s
4564  943 mt 
(Y= 1) s
24 w
gs 4323 488 293 293 MR c np
0 j
0 -94 -94 0 0 94 94 0 4422 587 5 MP
gs
PP
gr
c12
DP
gr

c12
0 sg
%%IncludeResource: font Helvetica
/Helvetica /ISOLatin1Encoding 120 FMSR

3316 1382 mt 
(Tempo [s]) s
 646  921 mt  -90 rotate
(Sinal) s
90 rotate
2677  386 mt 
(Troca de Mensagens do Ve\355culo 2) s
6 w
1 sg
0 613 5356 0 0 -613 899 2230 4 MP
PP
-5356 0 0 613 5356 0 0 -613 899 2230 5 MP stroke
4 w
DO
0 sg
 899 2230 mt  899 1617 L
 899 1617 mt  899 1617 L
1791 2230 mt 1791 1617 L
1791 1617 mt 1791 1617 L
2684 2230 mt 2684 1617 L
2684 1617 mt 2684 1617 L
3577 2230 mt 3577 1617 L
3577 1617 mt 3577 1617 L
4469 2230 mt 4469 1617 L
4469 1617 mt 4469 1617 L
5362 2230 mt 5362 1617 L
5362 1617 mt 5362 1617 L
6255 2230 mt 6255 1617 L
6255 1617 mt 6255 1617 L
 899 2230 mt 6255 2230 L
6255 2230 mt 6255 2230 L
 899 1923 mt 6255 1923 L
6255 1923 mt 6255 1923 L
 899 1617 mt 6255 1617 L
6255 1617 mt 6255 1617 L
SO
6 w
 899 2230 mt 6255 2230 L
 899 1617 mt 6255 1617 L
 899 2230 mt  899 1617 L
6255 2230 mt 6255 1617 L
 899 2230 mt 6255 2230 L
 899 2230 mt  899 1617 L
 899 2230 mt  899 2176 L
 899 1617 mt  899 1670 L
 749 2375 mt 
(102.4) s
1791 2230 mt 1791 2176 L
1791 1617 mt 1791 1670 L
1641 2375 mt 
(102.5) s
2684 2230 mt 2684 2176 L
2684 1617 mt 2684 1670 L
2534 2375 mt 
(102.6) s
3577 2230 mt 3577 2176 L
3577 1617 mt 3577 1670 L
3427 2375 mt 
(102.7) s
4469 2230 mt 4469 2176 L
4469 1617 mt 4469 1670 L
4319 2375 mt 
(102.8) s
5362 2230 mt 5362 2176 L
5362 1617 mt 5362 1670 L
5212 2375 mt 
(102.9) s
6255 2230 mt 6255 2176 L
6255 1617 mt 6255 1670 L
6155 2375 mt 
(103) s
 899 2230 mt  952 2230 L
6255 2230 mt 6201 2230 L
 728 2274 mt 
(-2) s
 899 1923 mt  952 1923 L
6255 1923 mt 6201 1923 L
 798 1967 mt 
(0) s
 899 1617 mt  952 1617 L
6255 1617 mt 6201 1617 L
 798 1661 mt 
(2) s
 899 2230 mt 6255 2230 L
 899 1617 mt 6255 1617 L
 899 2230 mt  899 1617 L
6255 2230 mt 6255 1617 L
gs 899 1617 5357 614 MR c np
12 w
gr

12 w
gs 826 2003 5504 147 MR c np
c8
  36   36 1702 2076 FO
  36   36 4648 2076 FO
gr

c8
gs 899 1617 5357 614 MR c np
DA
0 153 1702 1923 2 MP stroke
0 153 4648 1923 2 MP stroke
SO
6 w
0 sg
5356 0 899 1923 2 MP stroke
12 w
gr

0 sg
gs 826 2003 5504 147 MR c np
c9
3626 2076 mt 3698 2076 L
3662 2040 mt 3662 2112 L
3637 2051 mt 3687 2101 L
3687 2051 mt 3637 2101 L
gr

c9
gs 899 1617 5357 614 MR c np
0 153 3662 1923 2 MP stroke
gr

gs 826 1697 5504 147 MR c np
c10
  36   36 1523 1770 FO
  36   36 4469 1770 FO
gr

c10
gs 899 1617 5357 614 MR c np
DA
0 -153 1523 1923 2 MP stroke
0 -153 4469 1923 2 MP stroke
gr

DA
c11
-711 0 0 -344 711 0 3709 2029 4 MP
PP
SO
6 w
0 j
0.8 sg
3709 1685  711  344 FR
1 j
0 sg
%%IncludeResource: font Helvetica
/Helvetica /ISOLatin1Encoding 108 FMSR

3757 1833 mt 
(X= 102.7096) s
3757 1957 mt 
(Y= -1) s
24 w
gs 3516 1930 293 293 MR c np
0 j
0 -94 -94 0 0 94 94 0 3615 2029 5 MP
gs
PP
gr
c12
DP
gr

c12
0 sg
%%IncludeResource: font Helvetica
/Helvetica /ISOLatin1Encoding 120 FMSR

3316 2518 mt 
(Tempo [s]) s
 646 2057 mt  -90 rotate
(Sinal) s
90 rotate
2677 1522 mt 
(Troca de Mensagens do Ve\355culo 3) s
6 w
1 sg
0 613 5356 0 0 -613 899 3366 4 MP
PP
-5356 0 0 613 5356 0 0 -613 899 3366 5 MP stroke
4 w
DO
0 sg
 899 3366 mt  899 2753 L
 899 2753 mt  899 2753 L
1791 3366 mt 1791 2753 L
1791 2753 mt 1791 2753 L
2684 3366 mt 2684 2753 L
2684 2753 mt 2684 2753 L
3577 3366 mt 3577 2753 L
3577 2753 mt 3577 2753 L
4469 3366 mt 4469 2753 L
4469 2753 mt 4469 2753 L
5362 3366 mt 5362 2753 L
5362 2753 mt 5362 2753 L
6255 3366 mt 6255 2753 L
6255 2753 mt 6255 2753 L
 899 3366 mt 6255 3366 L
6255 3366 mt 6255 3366 L
 899 3059 mt 6255 3059 L
6255 3059 mt 6255 3059 L
 899 2753 mt 6255 2753 L
6255 2753 mt 6255 2753 L
SO
6 w
 899 3366 mt 6255 3366 L
 899 2753 mt 6255 2753 L
 899 3366 mt  899 2753 L
6255 3366 mt 6255 2753 L
 899 3366 mt 6255 3366 L
 899 3366 mt  899 2753 L
 899 3366 mt  899 3312 L
 899 2753 mt  899 2806 L
 749 3511 mt 
(102.4) s
1791 3366 mt 1791 3312 L
1791 2753 mt 1791 2806 L
1641 3511 mt 
(102.5) s
2684 3366 mt 2684 3312 L
2684 2753 mt 2684 2806 L
2534 3511 mt 
(102.6) s
3577 3366 mt 3577 3312 L
3577 2753 mt 3577 2806 L
3427 3511 mt 
(102.7) s
4469 3366 mt 4469 3312 L
4469 2753 mt 4469 2806 L
4319 3511 mt 
(102.8) s
5362 3366 mt 5362 3312 L
5362 2753 mt 5362 2806 L
5212 3511 mt 
(102.9) s
6255 3366 mt 6255 3312 L
6255 2753 mt 6255 2806 L
6155 3511 mt 
(103) s
 899 3366 mt  952 3366 L
6255 3366 mt 6201 3366 L
 728 3410 mt 
(-2) s
 899 3059 mt  952 3059 L
6255 3059 mt 6201 3059 L
 798 3103 mt 
(0) s
 899 2753 mt  952 2753 L
6255 2753 mt 6201 2753 L
 798 2797 mt 
(2) s
 899 3366 mt 6255 3366 L
 899 2753 mt 6255 2753 L
 899 3366 mt  899 2753 L
6255 3366 mt 6255 2753 L
gs 899 2753 5357 614 MR c np
12 w
gr

12 w
gs 826 3139 5504 147 MR c np
c8
  36   36 1702 3212 FO
  36   36 4648 3212 FO
gr

c8
gs 899 2753 5357 614 MR c np
DA
0 153 1702 3059 2 MP stroke
0 153 4648 3059 2 MP stroke
SO
6 w
0 sg
5356 0 899 3059 2 MP stroke
12 w
gr

0 sg
gs 826 3139 5504 147 MR c np
c9
3567 3212 mt 3639 3212 L
3603 3176 mt 3603 3248 L
3578 3187 mt 3628 3237 L
3628 3187 mt 3578 3237 L
gr

c9
gs 899 2753 5357 614 MR c np
0 153 3603 3059 2 MP stroke
gr

gs 826 2833 5504 147 MR c np
c10
  36   36 1523 2906 FO
  36   36 4469 2906 FO
gr

c10
gs 899 2753 5357 614 MR c np
DA
0 -153 1523 3059 2 MP stroke
0 -153 4469 3059 2 MP stroke
gr

DA
c11
-711 0 0 -344 711 0 3650 3165 4 MP
PP
SO
6 w
0 j
0.8 sg
3650 2821  711  344 FR
1 j
0 sg
%%IncludeResource: font Helvetica
/Helvetica /ISOLatin1Encoding 108 FMSR

3698 2969 mt 
(X= 102.7029) s
3698 3093 mt 
(Y= -1) s
24 w
gs 3457 3066 293 293 MR c np
0 j
0 -94 -94 0 0 94 94 0 3556 3165 5 MP
gs
PP
gr
c12
DP
gr

c12
0 sg
%%IncludeResource: font Helvetica
/Helvetica /ISOLatin1Encoding 120 FMSR

3316 3654 mt 
(Tempo [s]) s
 646 3193 mt  -90 rotate
(Sinal) s
90 rotate
2677 2658 mt 
(Troca de Mensagens do Ve\355culo 4) s
6 w
1 sg
0 613 5356 0 0 -613 899 4502 4 MP
PP
-5356 0 0 613 5356 0 0 -613 899 4502 5 MP stroke
4 w
DO
0 sg
 899 4502 mt  899 3889 L
 899 3889 mt  899 3889 L
1791 4502 mt 1791 3889 L
1791 3889 mt 1791 3889 L
2684 4502 mt 2684 3889 L
2684 3889 mt 2684 3889 L
3577 4502 mt 3577 3889 L
3577 3889 mt 3577 3889 L
4469 4502 mt 4469 3889 L
4469 3889 mt 4469 3889 L
5362 4502 mt 5362 3889 L
5362 3889 mt 5362 3889 L
6255 4502 mt 6255 3889 L
6255 3889 mt 6255 3889 L
 899 4502 mt 6255 4502 L
6255 4502 mt 6255 4502 L
 899 4195 mt 6255 4195 L
6255 4195 mt 6255 4195 L
 899 3889 mt 6255 3889 L
6255 3889 mt 6255 3889 L
SO
6 w
 899 4502 mt 6255 4502 L
 899 3889 mt 6255 3889 L
 899 4502 mt  899 3889 L
6255 4502 mt 6255 3889 L
 899 4502 mt 6255 4502 L
 899 4502 mt  899 3889 L
 899 4502 mt  899 4448 L
 899 3889 mt  899 3942 L
 749 4647 mt 
(102.4) s
1791 4502 mt 1791 4448 L
1791 3889 mt 1791 3942 L
1641 4647 mt 
(102.5) s
2684 4502 mt 2684 4448 L
2684 3889 mt 2684 3942 L
2534 4647 mt 
(102.6) s
3577 4502 mt 3577 4448 L
3577 3889 mt 3577 3942 L
3427 4647 mt 
(102.7) s
4469 4502 mt 4469 4448 L
4469 3889 mt 4469 3942 L
4319 4647 mt 
(102.8) s
5362 4502 mt 5362 4448 L
5362 3889 mt 5362 3942 L
5212 4647 mt 
(102.9) s
6255 4502 mt 6255 4448 L
6255 3889 mt 6255 3942 L
6155 4647 mt 
(103) s
 899 4502 mt  952 4502 L
6255 4502 mt 6201 4502 L
 728 4546 mt 
(-2) s
 899 4195 mt  952 4195 L
6255 4195 mt 6201 4195 L
 798 4239 mt 
(0) s
 899 3889 mt  952 3889 L
6255 3889 mt 6201 3889 L
 798 3933 mt 
(2) s
 899 4502 mt 6255 4502 L
 899 3889 mt 6255 3889 L
 899 4502 mt  899 3889 L
6255 4502 mt 6255 3889 L
gs 899 3889 5357 614 MR c np
12 w
gr

12 w
gs 826 4275 5504 147 MR c np
c8
  36   36 1702 4348 FO
  36   36 4648 4348 FO
gr

c8
gs 899 3889 5357 614 MR c np
DA
0 153 1702 4195 2 MP stroke
0 153 4648 4195 2 MP stroke
SO
6 w
0 sg
5356 0 899 4195 2 MP stroke
12 w
gr

0 sg
gs 826 4275 5504 147 MR c np
c9
3648 4348 mt 3720 4348 L
3684 4312 mt 3684 4384 L
3659 4323 mt 3709 4373 L
3709 4323 mt 3659 4373 L
gr

c9
gs 899 3889 5357 614 MR c np
0 153 3684 4195 2 MP stroke
gr

gs 826 3969 5504 147 MR c np
c10
  36   36 1613 4042 FO
  36   36 4558 4042 FO
gr

c10
gs 899 3889 5357 614 MR c np
DA
0 -153 1613 4195 2 MP stroke
0 -153 4558 4195 2 MP stroke
gr

DA
0 sg
 882 4545 mt 
( ) s
6239 3931 mt 
( ) s
c11
-651 0 0 -344 651 0 3731 4301 4 MP
PP
SO
6 w
0 j
0.8 sg
3731 3957  651  344 FR
1 j
0 sg
%%IncludeResource: font Helvetica
/Helvetica /ISOLatin1Encoding 108 FMSR

3779 4105 mt 
(X= 102.712) s
3779 4229 mt 
(Y= -1) s
24 w
gs 3538 4202 293 293 MR c np
0 j
0 -94 -94 0 0 94 94 0 3637 4301 5 MP
gs
PP
gr
c12
DP
gr

c12
0 sg
%%IncludeResource: font Helvetica
/Helvetica /ISOLatin1Encoding 120 FMSR

3316 4790 mt 
(Tempo [s]) s
 646 4329 mt  -90 rotate
(Sinal) s
90 rotate
2677 3794 mt 
(Troca de Mensagens do Ve\355culo 5) s
6 w
1 sg
0 480 1756 0 0 -480 4439 4429 4 MP
PP
-1756 0 0 480 1756 0 0 -480 4439 4429 5 MP stroke
4 w
DO
SO
6 w
0 sg
4439 4429 mt 6195 4429 L
4439 3949 mt 6195 3949 L
4439 4429 mt 4439 3949 L
6195 4429 mt 6195 3949 L
4439 4429 mt 6195 4429 L
4439 4429 mt 4439 3949 L
4439 4429 mt 6195 4429 L
4439 3949 mt 6195 3949 L
4439 4429 mt 4439 3949 L
6195 4429 mt 6195 3949 L
4916 4084 mt 
(3: Recebe aviso - R) s
gs 4439 3949 1757 481 MR c np
DA
12 w
c8
257 0 4512 4041 2 MP stroke
4769 4041 PD
gs 4696 3968 147 147 MR c np
SO
  36   36 4769 4041 FO
DA
gr

gr

12 w
c8
DA
0 sg
4916 4232 mt 
(6: Recebe resposta - A) s
gs 4439 3949 1757 481 MR c np
SO
c9
257 0 4512 4189 2 MP stroke
4769 4189 PD
gs 4696 4116 147 147 MR c np
4733 4189 mt 4805 4189 L
4769 4153 mt 4769 4225 L
4744 4164 mt 4794 4214 L
4794 4164 mt 4744 4214 L
gr

gr

c9
SO
0 sg
4916 4379 mt 
(7: Envia calculo - R) s
gs 4439 3949 1757 481 MR c np
DA
c10
257 0 4512 4336 2 MP stroke
4769 4336 PD
gs 4696 4263 147 147 MR c np
SO
  36   36 4769 4336 FO
DA
gr

SO
6 w
gr

6 w
c10

end %%Color Dict

eplot
%%EndObject

epage
end

showpage

%%Trailer
%%EOF
