%!PS-Adobe-2.0 EPSF-1.2
%%Creator: MATLAB, The Mathworks, Inc. Version 7.9.0.529 (R2009b). Operating System: Darwin 10.8.0 Darwin Kernel Version 10.8.0: Tue Jun  7 16:33:36 PDT 2011; root:xnu-1504.15.3~1/RELEASE_I386 i386.
%%Title: ./vD_vV_falhas_erro_covariancia_zoom.eps
%%CreationDate: 10/23/2011  05:35:32
%%DocumentNeededFonts: Helvetica
%%DocumentProcessColors: Cyan Magenta Yellow Black
%%Extensions: CMYK
%%Pages: 1
%%BoundingBox:    55   199   551   602
%%EndComments

%%BeginProlog
% MathWorks dictionary
/MathWorks 160 dict begin
% definition operators
/bdef {bind def} bind def
/ldef {load def} bind def
/xdef {exch def} bdef
/xstore {exch store} bdef
% operator abbreviations
/c  /clip ldef
/cc /concat ldef
/cp /closepath ldef
/gr /grestore ldef
/gs /gsave ldef
/mt /moveto ldef
/np /newpath ldef
/cm /currentmatrix ldef
/sm /setmatrix ldef
/rm /rmoveto ldef
/rl /rlineto ldef
/s {show newpath} bdef
/sc {setcmykcolor} bdef
/sr /setrgbcolor ldef
/sg /setgray ldef
/w /setlinewidth ldef
/j /setlinejoin ldef
/cap /setlinecap ldef
/rc {rectclip} bdef
/rf {rectfill} bdef
% page state control
/pgsv () def
/bpage {/pgsv save def} bdef
/epage {pgsv restore} bdef
/bplot /gsave ldef
/eplot {stroke grestore} bdef
% orientation switch
/portraitMode 0 def /landscapeMode 1 def /rotateMode 2 def
% coordinate system mappings
/dpi2point 0 def
% font control
/FontSize 0 def
/FMS {/FontSize xstore findfont [FontSize 0 0 FontSize neg 0 0]
  makefont setfont} bdef
/reencode {exch dup where {pop load} {pop StandardEncoding} ifelse
  exch dup 3 1 roll findfont dup length dict begin
  { 1 index /FID ne {def}{pop pop} ifelse } forall
  /Encoding exch def currentdict end definefont pop} bdef
/isroman {findfont /CharStrings get /Agrave known} bdef
/FMSR {3 1 roll 1 index dup isroman {reencode} {pop pop} ifelse
  exch FMS} bdef
/csm {1 dpi2point div -1 dpi2point div scale neg translate
 dup landscapeMode eq {pop -90 rotate}
  {rotateMode eq {90 rotate} if} ifelse} bdef
% line types: solid, dotted, dashed, dotdash
/SO { [] 0 setdash } bdef
/DO { [.5 dpi2point mul 4 dpi2point mul] 0 setdash } bdef
/DA { [6 dpi2point mul] 0 setdash } bdef
/DD { [.5 dpi2point mul 4 dpi2point mul 6 dpi2point mul 4
  dpi2point mul] 0 setdash } bdef
% macros for lines and objects
/L {lineto stroke} bdef
/MP {3 1 roll moveto 1 sub {rlineto} repeat} bdef
/AP {{rlineto} repeat} bdef
/PDlw -1 def
/W {/PDlw currentlinewidth def setlinewidth} def
/PP {closepath eofill} bdef
/DP {closepath stroke} bdef
/MR {4 -2 roll moveto dup  0 exch rlineto exch 0 rlineto
  neg 0 exch rlineto closepath} bdef
/FR {MR stroke} bdef
/PR {MR fill} bdef
/L1i {{currentfile picstr readhexstring pop} image} bdef
/tMatrix matrix def
/MakeOval {newpath tMatrix currentmatrix pop translate scale
0 0 1 0 360 arc tMatrix setmatrix} bdef
/FO {MakeOval stroke} bdef
/PO {MakeOval fill} bdef
/PD {currentlinewidth 2 div 0 360 arc fill
   PDlw -1 eq not {PDlw w /PDlw -1 def} if} def
/FA {newpath tMatrix currentmatrix pop translate scale
  0 0 1 5 -2 roll arc tMatrix setmatrix stroke} bdef
/PA {newpath tMatrix currentmatrix pop	translate 0 0 moveto scale
  0 0 1 5 -2 roll arc closepath tMatrix setmatrix fill} bdef
/FAn {newpath tMatrix currentmatrix pop translate scale
  0 0 1 5 -2 roll arcn tMatrix setmatrix stroke} bdef
/PAn {newpath tMatrix currentmatrix pop translate 0 0 moveto scale
  0 0 1 5 -2 roll arcn closepath tMatrix setmatrix fill} bdef
/vradius 0 def /hradius 0 def /lry 0 def
/lrx 0 def /uly 0 def /ulx 0 def /rad 0 def
/MRR {/vradius xdef /hradius xdef /lry xdef /lrx xdef /uly xdef
  /ulx xdef newpath tMatrix currentmatrix pop ulx hradius add uly
  vradius add translate hradius vradius scale 0 0 1 180 270 arc 
  tMatrix setmatrix lrx hradius sub uly vradius add translate
  hradius vradius scale 0 0 1 270 360 arc tMatrix setmatrix
  lrx hradius sub lry vradius sub translate hradius vradius scale
  0 0 1 0 90 arc tMatrix setmatrix ulx hradius add lry vradius sub
  translate hradius vradius scale 0 0 1 90 180 arc tMatrix setmatrix
  closepath} bdef
/FRR {MRR stroke } bdef
/PRR {MRR fill } bdef
/MlrRR {/lry xdef /lrx xdef /uly xdef /ulx xdef /rad lry uly sub 2 div def
  newpath tMatrix currentmatrix pop ulx rad add uly rad add translate
  rad rad scale 0 0 1 90 270 arc tMatrix setmatrix lrx rad sub lry rad
  sub translate rad rad scale 0 0 1 270 90 arc tMatrix setmatrix
  closepath} bdef
/FlrRR {MlrRR stroke } bdef
/PlrRR {MlrRR fill } bdef
/MtbRR {/lry xdef /lrx xdef /uly xdef /ulx xdef /rad lrx ulx sub 2 div def
  newpath tMatrix currentmatrix pop ulx rad add uly rad add translate
  rad rad scale 0 0 1 180 360 arc tMatrix setmatrix lrx rad sub lry rad
  sub translate rad rad scale 0 0 1 0 180 arc tMatrix setmatrix
  closepath} bdef
/FtbRR {MtbRR stroke } bdef
/PtbRR {MtbRR fill } bdef
/stri 6 array def /dtri 6 array def
/smat 6 array def /dmat 6 array def
/tmat1 6 array def /tmat2 6 array def /dif 3 array def
/asub {/ind2 exch def /ind1 exch def dup dup
  ind1 get exch ind2 get sub exch } bdef
/tri_to_matrix {
  2 0 asub 3 1 asub 4 0 asub 5 1 asub
  dup 0 get exch 1 get 7 -1 roll astore } bdef
/compute_transform {
  dmat dtri tri_to_matrix tmat1 invertmatrix 
  smat stri tri_to_matrix tmat2 concatmatrix } bdef
/ds {stri astore pop} bdef
/dt {dtri astore pop} bdef
/db {2 copy /cols xdef /rows xdef mul dup 3 mul string
  currentfile exch readhexstring pop
  dup 0 3 index getinterval /rbmap xdef
  dup 2 index dup getinterval /gbmap xdef
  1 index dup 2 mul exch getinterval /bbmap xdef pop pop}bdef
/it {gs np dtri aload pop moveto lineto lineto cp c
  cols rows 8 compute_transform 
  rbmap gbmap bbmap true 3 colorimage gr}bdef
/il {newpath moveto lineto stroke}bdef
currentdict end def
%%EndProlog

%%BeginSetup
MathWorks begin

0 cap

end
%%EndSetup

%%Page: 1 1
%%BeginPageSetup
%%PageBoundingBox:    55   199   551   602
MathWorks begin
bpage
%%EndPageSetup

%%BeginObject: obj1
bplot

/dpi2point 12 def
portraitMode 0216 7344 csm

  446   110  5958  4845 MR c np
85 dict begin %Colortable dictionary
/c0 { 0.000000 0.000000 0.000000 sr} bdef
/c1 { 1.000000 1.000000 1.000000 sr} bdef
/c2 { 0.900000 0.000000 0.000000 sr} bdef
/c3 { 0.000000 0.820000 0.000000 sr} bdef
/c4 { 0.000000 0.000000 0.800000 sr} bdef
/c5 { 0.910000 0.820000 0.320000 sr} bdef
/c6 { 1.000000 0.260000 0.820000 sr} bdef
/c7 { 0.000000 0.820000 0.820000 sr} bdef
c0
1 j
1 sg
   0    0 6913 5186 PR
6 w
0 4226 5356 0 0 -4226 899 4615 4 MP
PP
-5356 0 0 4226 5356 0 0 -4226 899 4615 5 MP stroke
4 w
DO
0 sg
 899 4615 mt  899  389 L
 899  389 mt  899  389 L
1434 4615 mt 1434  389 L
1434  389 mt 1434  389 L
1970 4615 mt 1970  389 L
1970  389 mt 1970  389 L
2505 4615 mt 2505  389 L
2505  389 mt 2505  389 L
3041 4615 mt 3041  389 L
3041  389 mt 3041  389 L
3577 4615 mt 3577  389 L
3577  389 mt 3577  389 L
4112 4615 mt 4112  389 L
4112  389 mt 4112  389 L
4648 4615 mt 4648  389 L
4648  389 mt 4648  389 L
5183 4615 mt 5183  389 L
5183  389 mt 5183  389 L
5719 4615 mt 5719  389 L
5719  389 mt 5719  389 L
6255 4615 mt 6255  389 L
6255  389 mt 6255  389 L
 899 4615 mt 6255 4615 L
6255 4615 mt 6255 4615 L
 899 4011 mt 6255 4011 L
6255 4011 mt 6255 4011 L
 899 3407 mt 6255 3407 L
6255 3407 mt 6255 3407 L
 899 2803 mt 6255 2803 L
6255 2803 mt 6255 2803 L
 899 2200 mt 6255 2200 L
6255 2200 mt 6255 2200 L
 899 1596 mt 6255 1596 L
6255 1596 mt 6255 1596 L
 899  992 mt 6255  992 L
6255  992 mt 6255  992 L
 899  389 mt 6255  389 L
6255  389 mt 6255  389 L
SO
6 w
 899 4615 mt 6255 4615 L
 899 4615 mt  899  389 L
 899 4615 mt  899 4561 L
%%IncludeResource: font Helvetica
/Helvetica /ISOLatin1Encoding 120 FMSR

 799 4760 mt 
(200) s
1434 4615 mt 1434 4561 L
1334 4760 mt 
(220) s
1970 4615 mt 1970 4561 L
1870 4760 mt 
(240) s
2505 4615 mt 2505 4561 L
2405 4760 mt 
(260) s
3041 4615 mt 3041 4561 L
2941 4760 mt 
(280) s
3577 4615 mt 3577 4561 L
3477 4760 mt 
(300) s
4112 4615 mt 4112 4561 L
4012 4760 mt 
(320) s
4648 4615 mt 4648 4561 L
4548 4760 mt 
(340) s
5183 4615 mt 5183 4561 L
5083 4760 mt 
(360) s
5719 4615 mt 5719 4561 L
5619 4760 mt 
(380) s
6255 4615 mt 6255 4561 L
6155 4760 mt 
(400) s
 899 4615 mt  952 4615 L
 798 4659 mt 
(0) s
 899 4011 mt  952 4011 L
 731 4055 mt 
(20) s
 899 3407 mt  952 3407 L
 731 3451 mt 
(40) s
 899 2803 mt  952 2803 L
 731 2847 mt 
(60) s
 899 2200 mt  952 2200 L
 731 2244 mt 
(80) s
 899 1596 mt  952 1596 L
 664 1640 mt 
(100) s
 899  992 mt  952  992 L
 664 1036 mt 
(120) s
 899  389 mt  952  389 L
 664  433 mt 
(140) s
gs 899 389 5357 4227 MR c np
/c8 { 0.000000 0.000000 1.000000 sr} bdef
c8
1 -2 0 -7 1 -2 0 -5 1 -2 0 -7 1 -2 0 -7 
1 -2 0 -5 1 -2 0 -6 1 -2 0 -7 1 -2 0 -6 
1 -2 0 -5 1 -2 0 -6 1 -2 0 -6 1 -2 0 -6 
1 -2 0 -4 1 -2 0 -6 1 -1 0 -6 1 -2 0 -6 
1 -1 0 -4 1 -2 0 -5 1 -2 0 -5 1 -2 0 -4 
1 -1 0 -6 1 -1 0 -5 1 -2 0 -5 1 -2 0 -3 
1 -2 0 -4 1 -2 0 -5 1 -1 0 -5 1 -2 0 -3 
1 -1 0 -5 1 -1 0 -5 1 -1 0 -4 1 -2 0 -3 
1 -1 0 -4 1 -2 0 -4 1 -1 0 -3 1 -1 0 -4 
1 -1 0 -4 1 -2 0 -3 1 -2 0 -2 1 -1 0 -4 
1 -1 0 -4 1 -1 0 -4 1 -1 0 -2 1 -1 0 -4 
1 -1 0 -3 1 -1 0 -4 1 -1 0 -2 1 -1 0 -3 
1 -1 0 -3 1 -1 6206 4427 100 MP stroke
0 -2 1 -1 0 -2 0 85 1 -1 0 -4 1 -2 0 -4 
1 -1 0 -3 1 -1 0 -4 1 -1 0 -4 1 -1 0 -4 
1 -1 0 -3 1 -1 0 -4 1 -1 0 -3 1 -1 0 -4 
1 -1 0 -2 1 -2 0 -3 1 -1 0 -3 1 -1 0 121 
0 -2 1 -1 0 -5 1 -2 0 -5 1 -1 0 -5 1 -2 
0 -3 1 -1 0 -5 1 -1 0 -5 1 -1 0 -5 1 -1 
0 -3 1 -2 0 -4 1 -1 0 -5 1 -1 0 -4 1 -1 
0 -3 1 -1 0 -4 1 225 0 -7 1 -3 0 -4 1 -3 
0 -7 1 -2 0 -7 1 -2 0 -7 1 -2 0 -5 1 -2 
0 -7 1 -2 0 -6 1 -2 0 -7 1 -2 0 -4 1 -2 
0 -7 1 -2 0 -6 1 -2 0 -6 1 -2 0 -4 1 -2 
0 -6 1 -2 0 -5 1 -2 0 -6 1 -2 0 -3 1 -2 
0 -6 1 -2 0 -5 6158 4291 100 MP stroke
1 -2 0 -3 1 -2 0 -5 1 -2 0 -5 1 -2 0 -5 
1 -2 0 -3 1 -2 0 -4 1 -2 0 -5 1 -2 0 -4 
1 -2 0 -3 1 -1 0 -5 1 -1 0 -5 1 -1 0 -5 
1 -1 0 -3 1 -2 0 -4 1 -1 0 -4 1 -2 0 -2 
1 -2 0 -4 1 -1 0 -4 1 -1 0 -4 1 -2 0 -2 
1 -1 0 -4 1 -1 0 -4 1 -1 0 -4 1 -1 0 -2 
1 -1 0 -4 1 -1 0 -3 1 -1 0 -4 1 -1 0 -2 
1 -1 0 -3 1 -1 0 -3 1 -1 0 -2 1 -1 0 -3 
1 -1 0 -3 1 -1 0 -2 0 53 1 -1 0 -2 1 -1 
0 -4 1 -1 0 -4 1 -1 0 -3 1 -2 0 -2 1 -1 
0 -3 1 -1 0 -4 1 -1 0 -3 1 -1 0 -2 1 -1 
0 -3 1 -1 0 -3 1 -1 0 -2 1 -1 0 -3 1 -1 
0 54 0 -3 1 -1 6109 4410 100 MP stroke
0 -4 1 -1 0 -2 1 -1 0 -4 1 -1 0 -4 1 -1 
0 -3 1 -1 0 -2 1 -1 0 -4 1 -1 0 -3 1 -1 
0 -3 1 -1 0 -2 1 -1 0 -3 1 -1 0 -3 1 -1 
0 -1 0 54 1 -1 0 -4 1 -1 0 -4 1 -1 0 -3 
1 -2 0 -2 1 -1 0 -4 1 -1 0 -3 1 -1 0 -3 
1 -1 0 -3 1 -1 0 -3 1 -1 0 -3 1 -1 0 -3 
1 -1 0 -2 1 -1 0 -3 1 54 0 -3 1 -2 0 -3 
1 -1 0 -3 1 -1 0 -4 1 -1 0 -3 1 -1 0 -3 
1 -1 0 -3 1 -1 0 -3 1 -1 0 -3 1 -2 0 -2 
1 -1 0 -3 1 -1 0 -3 1 -1 0 -2 1 -1 0 54 
0 -2 1 -1 0 -4 1 -1 0 -3 1 -2 0 -3 1 -1 
0 -3 1 -1 0 -3 1 -1 0 -4 1 -1 0 -2 1 -1 
0 -3 1 -1 0 -3 6061 4445 100 MP stroke
1 -1 0 -3 1 -1 0 -2 1 -1 0 -3 1 -1 0 -2 
0 54 1 -2 0 -3 1 -2 0 -2 1 -1 0 -4 1 -1 
0 -3 1 -2 0 -3 1 -1 0 -2 1 -1 0 -4 1 -1 
0 -3 1 -1 0 -2 1 -1 0 -3 1 -1 0 -3 1 -1 
0 -3 1 -1 0 -2 1 -1 0 54 0 -3 1 -1 0 -4 
1 -1 0 -4 1 -1 0 -2 1 -1 0 -4 1 -1 0 -3 
1 -1 0 -4 1 -1 0 -2 1 -1 0 -3 1 -1 0 -3 
1 -1 0 -2 1 -1 0 -3 1 -1 0 -3 1 -1 0 53 
0 -54 0 52 1 -1 0 -2 1 -2 0 -3 1 -1 0 -4 
1 -1 0 -4 1 -1 0 -2 1 -1 0 -3 1 -2 0 -3 
1 -1 0 -3 1 -1 0 -2 1 -1 0 -3 1 -1 0 -3 
1 -1 0 -2 1 -1 0 -3 1 54 0 -4 1 -1 0 -4 
1 -1 0 -2 1 -2 6013 4419 100 MP stroke
0 -3 1 -1 0 -4 1 -1 0 -3 1 -1 0 -2 1 -2 
0 -3 1 -1 0 -3 1 -1 0 -3 1 -1 0 -2 1 -1 
0 -3 1 -1 0 -3 1 -1 0 54 0 -2 1 -2 0 -2 
1 -1 0 -4 1 -1 0 -3 1 -2 0 -2 1 -1 0 -3 
1 -2 0 -3 1 -1 0 -3 1 -1 0 -2 1 -1 0 -3 
1 -1 0 -3 1 -1 0 -3 1 -1 0 -2 1 -1 0 -2 
0 54 1 -1 0 -3 1 -2 0 -3 1 -1 0 -3 1 -1 
0 -3 1 -1 0 -4 1 -1 0 -2 1 -1 0 -3 1 -1 
0 -3 1 -2 0 -3 1 -1 0 -2 1 -1 0 -2 1 -1 
0 -3 1 -1 0 -3 1 56 0 -2 1 -2 0 -3 1 -1 
0 -4 1 -1 0 -3 1 -2 0 -2 1 -1 0 -3 1 -1 
0 -3 1 -2 0 -2 1 -1 0 -3 1 -1 0 -3 1 -1 
0 -3 1 -1 0 -2 5965 4447 100 MP stroke
1 -1 0 -2 1 -1 0 59 0 -60 0 59 1 -2 0 -3 
1 -1 0 -3 1 -1 0 -3 1 -2 0 -3 1 -1 0 -3 
1 -2 0 -2 1 -1 0 -3 1 -1 0 -3 1 -1 0 -2 
1 -1 0 -3 1 -1 0 -3 1 -1 0 -3 1 -1 0 -2 
1 68 0 -3 1 -2 0 -3 1 -2 0 -3 1 -1 0 -3 
1 -1 0 -3 1 -2 0 -3 1 -1 0 -3 1 -2 0 -2 
1 -1 0 -3 1 -1 0 -3 1 -1 0 -2 1 -1 0 -3 
1 -1 0 -3 1 -1 0 85 0 -3 1 -1 0 -3 1 -1 
0 -4 1 -1 0 -4 1 -1 0 -4 1 -1 0 -3 1 -1 
0 -4 1 -1 0 -4 1 -1 0 -3 1 -2 0 -2 1 -1 
0 -3 1 -2 0 -3 1 -1 0 -2 1 -1 0 -2 0 125 
1 -2 0 -4 1 -2 0 -5 1 -1 0 -4 1 -1 0 -5 
1 -1 0 -5 1 -1 5917 4311 100 MP stroke
0 -5 1 -1 0 -3 1 -2 0 -4 1 -1 0 -5 1 -1 
0 -4 1 -2 0 -2 1 -2 0 -4 1 -1 0 -4 1 253 
0 -8 1 -2 0 -5 1 -2 0 -8 1 -2 0 -7 1 -2 
0 -5 1 -2 0 -7 1 -3 0 -6 1 -3 0 -6 1 -2 
0 -5 1 -2 0 -7 1 -2 0 -6 1 -2 0 -6 1 -3 
0 -4 1 -2 0 -6 1 -2 0 -6 1 -2 0 -6 1 -2 
0 -4 1 -2 0 -5 1 -2 0 -6 1 -2 0 -3 1 -2 
0 -6 1 -2 0 -5 1 -2 0 -5 1 -2 0 -3 1 -2 
0 -5 1 -2 0 -5 1 -1 0 -5 1 -2 0 -3 1 -2 
0 -5 1 -1 0 -5 1 -1 0 -5 1 -2 0 -3 1 -1 
0 -5 1 -1 0 -4 1 -2 0 -3 1 -1 0 -4 1 -2 
0 -4 1 -1 0 -4 1 -2 0 -2 1 -2 0 -4 1 -1 
0 -4 1 -1 0 -4 5868 4384 100 MP stroke
1 -1 0 -3 1 -1 0 -3 1 -2 0 -3 1 -1 0 -4 
1 -1 0 -2 1 -1 0 -4 1 -1 0 -3 1 -1 0 -2 
1 -1 0 -4 1 -1 0 -3 1 -1 0 -3 1 -1 0 -2 
1 84 0 -4 1 -1 0 -4 1 -2 0 -4 1 -1 0 -3 
1 -1 0 -4 1 -1 0 -4 1 -1 0 -4 1 -1 0 -2 
1 -1 0 -4 1 -1 0 -4 1 -1 0 -2 1 -1 0 -4 
1 -1 0 -3 1 -1 0 119 0 -3 1 -2 0 -3 1 -1 
0 -5 1 -2 0 -5 1 -1 0 -5 1 -1 0 -3 1 -2 
0 -4 1 -2 0 -4 1 -2 0 -4 1 -1 0 -3 1 -2 
0 -4 1 -1 0 -4 1 -2 0 -4 1 -1 0 -1 0 221 
1 -2 0 -7 1 -3 0 -7 1 -2 0 -4 1 -3 0 -7 
1 -2 0 -6 1 -3 0 -6 1 -2 0 -5 1 -2 0 -6 
1 -3 0 -6 1 -2 5819 4219 100 MP stroke
0 -6 1 -2 0 -4 1 -2 0 -6 1 -2 0 -6 1 -2 
0 -6 1 -2 0 -4 1 -2 0 -5 1 -2 0 -6 1 -2 
0 -3 1 -2 0 -5 1 -2 0 -5 1 -2 0 -5 1 -2 
0 -4 1 -1 0 -5 1 -2 0 -5 1 -2 0 -4 1 -2 
0 -3 1 -2 0 -4 1 -2 0 -5 1 -1 0 -5 1 -1 
0 -3 1 -2 0 -4 1 -1 0 -5 1 -1 0 -3 1 -1 
0 -4 1 -2 0 -4 1 -1 0 -4 1 -1 0 -3 1 -1 
0 -4 1 -1 0 -4 1 -1 0 -4 1 -1 0 -3 1 -1 
0 -3 1 -2 0 -3 1 -1 0 -4 1 -1 0 -2 1 -1 
0 -3 1 -1 0 -3 1 -1 0 -3 1 -1 0 -3 1 -1 
0 -3 1 -1 0 -2 1 -1 0 -2 1 -1 0 -3 1 -1 
0 55 0 -2 1 -2 0 -3 1 -1 0 -3 1 -1 0 -3 
1 -1 0 -4 1 -1 5770 4424 100 MP stroke
0 -3 1 -1 0 -2 1 -1 0 -3 1 -1 0 -4 1 -1 
0 -1 1 -1 0 -3 1 -1 0 -3 1 -1 0 -3 1 -1 
0 59 0 -1 1 -1 0 -4 1 -1 0 -4 1 -1 0 -3 
1 -1 0 -3 1 -1 0 -3 1 -1 0 -3 1 -1 0 -4 
1 -1 0 -2 1 -1 0 -3 1 -1 0 -3 1 -1 0 -3 
1 -1 0 -1 1 -1 0 66 0 -67 0 66 1 -2 0 -3 
1 -2 0 -2 1 -1 0 -4 1 -1 0 -4 1 -1 0 -3 
1 -1 0 -3 1 -1 0 -3 1 -1 0 -3 1 -2 0 -3 
1 -1 0 -2 1 -1 0 -3 1 -1 0 -3 1 -1 0 83 
0 -84 0 83 1 -2 0 -3 1 -1 0 -4 1 -1 0 -4 
1 -2 0 -2 1 -2 0 -3 1 -2 0 -3 1 -2 0 -3 
1 -2 0 -2 1 -1 0 -4 1 -1 0 -3 1 -2 0 -3 
1 -1 0 -2 1 -1 5723 4406 100 MP stroke
0 -3 0 121 1 -2 0 -5 1 -1 0 -5 1 -2 0 -3 
1 -2 0 -4 1 -2 0 -5 1 -1 0 -3 1 -2 0 -4 
1 -2 0 -4 1 -1 0 -5 1 -1 0 -3 1 -2 0 -4 
1 -1 0 -4 1 -2 0 -2 0 227 1 -2 0 -5 1 -3 
0 -7 1 -2 0 -7 1 -3 0 -7 1 -2 0 -5 1 -2 
0 -7 1 -2 0 -7 1 -2 0 -4 1 -3 0 -6 1 -2 
0 -7 1 -2 0 -6 1 -2 0 -4 1 -2 0 -7 1 -2 
0 -6 1 -2 0 -6 1 -2 0 -3 1 -2 0 -6 1 -2 
0 -6 1 -2 0 -5 1 -2 0 -4 1 -1 0 -6 1 -2 
0 -5 1 -2 0 -3 1 -2 0 -5 1 -2 0 -5 1 -1 
0 -5 1 -2 0 -3 1 -2 0 -5 1 -1 0 -5 1 -1 
0 -5 1 -2 0 -3 1 -1 0 -4 1 -2 0 -4 1 -2 
0 -4 1 -1 0 -3 5675 4380 100 MP stroke
1 -2 0 -4 1 -1 0 -4 1 -1 0 -3 1 -1 0 -4 
1 -2 0 -3 1 -2 0 -3 1 -2 0 -2 1 -1 0 -4 
1 -1 0 -4 1 -1 0 -3 1 -1 0 -3 1 -1 0 -3 
1 -1 0 -3 1 -1 0 -4 1 -1 0 -2 1 -1 0 -3 
1 -1 0 -3 1 -1 0 -2 1 52 0 -2 1 -1 0 -4 
1 -1 0 -4 1 -1 0 -2 1 -1 0 -4 1 -1 0 -3 
1 -1 0 -4 1 -1 0 -2 1 -1 0 -3 1 -1 0 -3 
1 -1 0 -3 1 -1 0 -2 1 -1 0 -3 1 -1 0 53 
0 -3 1 -1 0 -4 1 -1 0 -2 1 -1 0 -4 1 -1 
0 -3 1 -1 0 -3 1 -1 0 -3 1 -1 0 -3 1 -1 
0 -4 1 -1 0 -2 1 -1 0 -3 1 -1 0 -3 1 -1 
0 -2 1 -1 0 53 0 -1 1 -1 0 -4 1 -1 0 -4 
1 -1 0 -3 1 -1 5626 4421 100 MP stroke
0 -3 1 -1 0 -3 1 -1 0 -4 1 -1 0 -2 1 -1 
0 -3 1 -1 0 -3 1 -1 0 -3 1 -1 0 -2 1 -1 
0 -3 1 -1 0 54 0 -1 1 -1 0 -4 1 -1 0 -2 
1 -1 0 -4 1 -1 0 -3 1 -1 0 -4 1 -1 0 -2 
1 -1 0 -3 1 -1 0 -3 1 -1 0 -2 1 -1 0 -3 
1 -1 0 -3 1 -1 0 -3 1 -1 0 -1 0 59 1 -1 
0 -4 1 -1 0 -3 1 -2 0 -3 1 -1 0 -2 1 -1 
0 -4 1 -1 0 -3 1 -1 0 -3 1 -1 0 -2 1 -1 
0 -3 1 -1 0 -3 1 -1 0 -2 1 -1 0 -3 1 -1 
0 -2 0 67 1 -1 0 -4 1 -1 0 -2 1 -1 0 -4 
1 -1 0 -4 1 -1 0 -3 1 -1 0 -2 1 -2 0 -3 
1 -1 0 -3 1 -1 0 -3 1 -1 0 -2 1 -1 0 -3 
1 -1 0 -3 1 -1 5578 4428 100 MP stroke
0 -2 0 86 1 -2 0 -2 1 -2 0 -4 1 -1 0 -4 
1 -1 0 -2 1 -2 0 -3 1 -2 0 -3 1 -1 0 -4 
1 -1 0 -2 1 -1 0 -4 1 -1 0 -3 1 -1 0 -3 
1 -2 0 -2 1 -1 0 -3 1 132 0 -5 1 -1 0 -5 
1 -2 0 -3 1 -1 0 -5 1 -1 0 -5 1 -1 0 -3 
1 -1 0 -5 1 -1 0 -4 1 -2 0 -4 1 -1 0 -3 
1 -1 0 -4 1 -2 0 -4 1 -1 0 -4 1 301 0 -5 
1 -2 0 -8 1 -2 0 -8 1 -2 0 -7 1 -3 0 -5 
1 -2 0 -7 1 -3 0 -7 1 -2 0 -4 1 -3 0 -7 
1 -2 0 -7 1 -2 0 -6 1 -3 0 -4 1 -2 0 -7 
1 -2 0 -6 1 -2 0 -6 1 -2 0 -4 1 -2 0 -7 
1 -2 0 -6 1 -1 0 -6 1 -2 0 -4 1 -2 0 -6 
1 -2 0 -5 1 -2 5529 4216 100 MP stroke
0 -4 1 -2 0 -5 1 -2 0 -5 1 -2 0 -5 1 -2 
0 -3 1 -2 0 -5 1 -2 0 -5 1 -1 0 -5 1 -2 
0 -3 1 -2 0 -5 1 -1 0 -5 1 -1 0 -5 1 -2 
0 -3 1 -1 0 -4 1 -2 0 -4 1 -2 0 -3 1 -1 
0 -4 1 -2 0 -4 1 -1 0 -4 1 -2 0 -2 1 -1 
0 -4 1 -2 0 -4 1 -1 0 -4 1 -1 0 -2 1 -2 
0 -3 1 -1 0 -4 1 -1 0 -4 1 -1 0 -2 1 -1 
0 -3 1 -2 0 -3 1 -1 0 -3 1 176 0 -4 1 -1 
0 -6 1 -1 0 -6 1 -1 0 -4 1 -1 0 -5 1 -2 
0 -5 1 -2 0 -5 1 -1 0 -3 1 -2 0 -5 1 -1 
0 -5 1 -2 0 -4 1 -2 0 -3 1 -1 0 -5 1 -1 
0 609 0 -8 1 -4 0 -12 1 -4 0 -7 1 -4 0 -12 
1 -4 0 -11 1 -4 5480 3744 100 MP stroke
0 -7 1 -4 0 -11 1 -4 0 -11 1 -3 0 -11 1 -4 
0 -7 1 -3 0 -11 1 -3 0 -11 1 -3 0 -11 1 -3 
0 -7 1 -3 0 -10 1 -4 0 -10 1 -3 0 -10 1 -3 
0 -6 1 -4 0 -9 1 -3 0 -10 1 -3 0 -6 1 -3 
0 -10 1 -3 0 -9 1 -3 0 -9 1 -3 0 -6 1 -3 
0 -9 1 -3 0 -8 1 -3 0 -9 1 -2 0 -6 1 -3 
0 -8 1 -3 0 -8 1 -3 0 -8 1 -3 0 -5 1 -3 
0 -8 1 -2 0 -8 1 -3 0 -5 1 -2 0 -8 1 -2 
0 -8 1 -2 0 -8 1 -2 0 -5 1 -2 0 -8 1 -2 
0 -7 1 -2 0 -7 1 -3 0 -4 1 -3 0 -6 1 -3 
0 -6 1 -2 0 -7 1 -2 0 -4 1 -3 0 -6 1 -2 
0 -6 1 -2 0 -5 1 -2 0 -6 1 -2 0 -6 1 -2 
0 -6 1 -2 0 -3 5431 4259 100 MP stroke
1 -2 0 -6 1 -2 0 -6 1 -1 0 -6 1 -2 0 -3 
1 -2 0 -6 1 -1 0 -6 1 -1 0 -6 1 -1 0 -4 
1 -1 0 -5 1 -2 0 -5 1 -2 0 -3 1 -2 0 -4 
1 -2 0 -5 1 -1 0 -5 1 -1 0 -3 1 -2 0 -4 
1 -2 0 -4 1 -1 0 -5 1 -1 0 -3 1 -1 0 -4 
1 -2 0 -4 1 -1 0 -4 1 -2 0 -2 1 -1 0 -4 
1 -2 0 -3 1 -2 0 -3 1 -1 0 -3 1 -1 0 -4 
1 -1 0 -3 1 -1 0 -3 1 -1 0 -3 1 -1 0 -3 
1 -2 0 -3 1 -1 0 -2 1 -1 0 -3 1 -1 0 -3 
1 -1 0 -3 1 -1 0 -2 1 -1 0 -2 0 52 1 -2 
0 -3 1 -1 0 -4 1 -1 0 -3 1 -1 0 -3 1 -1 
0 -4 1 -1 0 -2 1 -1 0 -3 1 -1 0 -3 1 -1 
0 -3 1 -1 0 -2 5382 4452 100 MP stroke
1 -1 0 -3 1 -1 0 -3 1 -1 0 -2 0 51 1 -1 
0 -3 1 -1 0 -4 1 -1 0 -3 1 -1 0 -4 1 -1 
0 -2 1 -1 0 -4 1 -1 0 -3 1 -1 0 -2 1 -1 
0 -3 1 -1 0 -3 1 -1 0 -3 1 -1 0 -2 1 -1 
0 -2 0 51 1 -1 0 -4 1 -1 0 -3 1 -2 0 -2 
1 -1 0 -3 1 -2 0 -3 1 -1 0 -3 1 -1 0 -3 
1 -1 0 -3 1 -1 0 -3 1 -1 0 -2 1 -1 0 -3 
1 -1 0 -3 1 -1 0 51 0 -52 0 50 1 -1 0 -2 
1 -1 0 -4 1 -1 0 -4 1 -1 0 -3 1 -1 0 -3 
1 -1 0 -3 1 -1 0 -3 1 -1 0 -3 1 -1 0 -3 
1 -1 0 -3 1 -1 0 -2 1 -1 0 -2 1 -1 0 50 
0 -51 0 50 1 -1 0 -4 1 -1 0 -4 1 -1 0 -2 
1 -1 0 -4 1 -1 5335 4431 100 MP stroke
0 -3 1 -1 0 -4 1 -1 0 -2 1 -1 0 -3 1 -1 
0 -3 1 -1 0 -3 1 -1 0 -2 1 -1 0 -3 1 -1 
0 51 0 -2 1 -1 0 -4 1 -1 0 -3 1 -1 0 -3 
1 -1 0 -4 1 -1 0 -2 1 -1 0 -4 1 -1 0 -3 
1 -1 0 -3 1 -1 0 -2 1 -1 0 -3 1 -1 0 -3 
1 -1 0 -3 1 51 0 -2 1 -1 0 -4 1 -1 0 -4 
1 -1 0 -3 1 -1 0 -3 1 -1 0 -3 1 -1 0 -3 
1 -2 0 -2 1 -1 0 -3 1 -1 0 -3 1 -1 0 -3 
1 -1 0 -2 1 -1 0 -3 1 52 0 -4 1 -1 0 -4 
1 -1 0 -2 1 -2 0 -3 1 -1 0 -4 1 -1 0 -3 
1 -1 0 -2 1 -1 0 -4 1 -1 0 -3 1 -1 0 -2 
1 -1 0 -3 1 -1 0 -3 1 -1 0 -1 0 51 1 -2 
0 -2 1 -1 0 -4 5287 4419 100 MP stroke
1 -1 0 -3 1 -2 0 -3 1 -1 0 -2 1 -2 0 -3 
1 -1 0 -3 1 -1 0 -3 1 -1 0 -2 1 -1 0 -3 
1 -1 0 -3 1 -1 0 -2 1 -1 0 -2 0 51 1 -1 
0 -4 1 -1 0 -3 1 -2 0 -2 1 -1 0 -3 1 -2 
0 -3 1 -1 0 -3 1 -1 0 -2 1 -1 0 -4 1 -1 
0 -3 1 -1 0 -3 1 -1 0 -2 1 -1 0 -2 1 -1 
0 51 0 -52 0 50 1 -1 0 -2 1 -1 0 -4 1 -1 
0 -3 1 -2 0 -3 1 -1 0 -2 1 -1 0 -4 1 -1 
0 -3 1 -1 0 -3 1 -1 0 -2 1 -1 0 -3 1 -1 
0 -3 1 -1 0 -2 1 -1 0 53 0 -1 1 -1 0 -4 
1 -1 0 -3 1 -1 0 -4 1 -1 0 -2 1 -1 0 -3 
1 -2 0 -3 1 -1 0 -2 1 -1 0 -3 1 -1 0 -3 
1 -1 0 -3 1 -1 5239 4448 100 MP stroke
0 -2 1 -1 0 -2 1 -1 0 57 0 -2 1 -1 0 -4 
1 -1 0 -2 1 -1 0 -4 1 -1 0 -3 1 -1 0 -4 
1 -1 0 -2 1 -1 0 -3 1 -1 0 -3 1 -1 0 -2 
1 -1 0 -3 1 -1 0 -3 1 -1 0 -2 1 65 0 -2 
1 -1 0 -4 1 -1 0 -4 1 -1 0 -3 1 -1 0 -3 
1 -1 0 -3 1 -1 0 -3 1 -1 0 -4 1 -1 0 -2 
1 -1 0 -3 1 -1 0 -3 1 -1 0 -2 1 -1 0 -3 
1 84 0 -4 1 -1 0 -4 1 -1 0 -3 1 -1 0 -4 
1 -1 0 -4 1 -1 0 -3 1 -2 0 -2 1 -1 0 -4 
1 -1 0 -3 1 -1 0 -3 1 -2 0 -2 1 -1 0 -3 
1 -1 0 -2 0 128 1 -2 0 -3 1 -1 0 -5 1 -2 
0 -4 1 -2 0 -4 1 -2 0 -3 1 -1 0 -5 1 -1 
0 -4 1 -2 0 -4 5191 4320 100 MP stroke
1 -1 0 -3 1 -1 0 -5 1 -1 0 -4 1 -1 0 -4 
1 -1 0 -2 0 284 1 -3 0 -7 1 -3 0 -7 1 -3 
0 -5 1 -2 0 -7 1 -3 0 -7 1 -2 0 -7 1 -2 
0 -5 1 -2 0 -7 1 -2 0 -7 1 -2 0 -7 1 -2 
0 -4 1 -2 0 -7 1 -2 0 -6 1 -2 0 -6 1 -2 
0 -4 1 -2 0 -7 1 -2 0 -5 1 -2 0 -4 1 -2 
0 -6 1 -2 0 -6 1 -1 0 -6 1 -2 0 -3 1 -2 
0 -6 1 -1 0 -6 1 -1 0 -6 1 -1 0 -4 1 -2 
0 -5 1 -1 0 -5 1 -2 0 -5 1 -1 0 -4 1 -1 
0 -5 1 -1 0 -5 1 -2 0 -4 1 -2 0 -3 1 -1 
0 -4 1 -2 0 -4 1 -2 0 -2 1 -2 0 -4 1 -1 
0 -5 1 -1 0 -4 1 -1 0 -3 1 -1 0 -4 1 -1 
0 -4 1 -1 0 -4 5142 4362 100 MP stroke
1 -1 0 -3 1 -1 0 -4 1 -1 0 -3 1 -1 0 -4 
1 -1 0 -2 1 -1 0 -4 1 -1 0 -3 1 -1 0 -2 
1 -1 0 143 0 -3 1 -2 0 -5 1 -2 0 -4 1 -2 
0 -3 1 -2 0 -4 1 -2 0 -5 1 -1 0 -5 1 -1 
0 -3 1 -2 0 -4 1 -1 0 -5 1 -1 0 -4 1 -2 
0 -3 1 -1 0 -4 1 362 0 -9 1 -2 0 -6 1 -3 
0 -9 1 -2 0 -9 1 -2 0 -9 1 -3 0 -5 1 -3 
0 -8 1 -2 0 -8 1 -3 0 -8 1 -2 0 -6 1 -2 
0 -8 1 -2 0 -8 1 -2 0 -8 1 -2 0 -5 1 -3 
0 -7 1 -2 0 -7 1 -3 0 -4 1 -3 0 -7 1 -2 
0 -7 1 -2 0 -7 1 -2 0 -5 1 -2 0 -6 1 -3 
0 -6 1 -2 0 -6 1 -3 0 -4 1 -2 0 -6 1 -2 
0 -6 1 -2 0 -6 5093 4215 100 MP stroke
1 -2 0 -4 1 -2 0 -6 1 -2 0 -6 1 -1 0 -4 
1 -2 0 -6 1 -1 0 -6 1 -2 0 -5 1 -2 0 -3 
1 -2 0 -5 1 -2 0 -5 1 -2 0 -5 1 -2 0 -3 
1 -2 0 -5 1 -1 0 -5 1 -2 0 -4 1 -2 0 -3 
1 -1 0 -5 1 -2 0 -4 1 -2 0 -4 1 -1 0 -3 
1 -2 0 -4 1 -1 0 -5 1 -1 0 -3 1 -1 0 -4 
1 -1 0 214 0 -216 0 213 1 -2 0 -7 1 -3 0 -4 
1 -3 0 -6 1 -3 0 -7 1 -2 0 -6 1 -3 0 -4 
1 -2 0 -7 1 -2 0 -6 1 -2 0 -7 1 -2 0 -4 
1 -2 0 -6 1 -2 0 -6 1 -2 0 -4 1 -2 0 -6 
1 -2 0 -5 1 -2 0 -6 1 -2 0 -3 1 -2 0 -6 
1 -1 0 -6 1 -2 0 -5 1 -2 0 -3 1 -2 0 -5 
1 -2 0 -5 1 -1 5044 4326 100 MP stroke
0 -5 1 -2 0 -3 1 -2 0 -4 1 -2 0 -5 1 -1 
0 -3 1 -2 0 -4 1 -2 0 -4 1 -2 0 -4 1 -1 
0 -3 1 -2 0 -4 1 -1 0 -4 1 -2 0 -4 1 -1 
0 -3 1 -1 0 -4 1 -1 0 -4 1 -1 0 -4 1 -1 
0 -3 1 -1 0 -3 1 -2 0 -3 1 -1 0 -3 1 -1 
0 -3 1 -1 0 -3 1 -2 0 -3 1 -1 0 -2 1 -1 
0 -3 1 -1 0 -3 1 -1 0 -3 1 -1 0 -2 1 -1 
0 -3 1 -1 0 50 0 -3 1 -1 0 -3 1 -2 0 -2 
1 -1 0 -3 1 -2 0 -3 1 -1 0 -2 1 -1 0 -3 
1 -2 0 -3 1 -1 0 -3 1 -1 0 -2 1 -1 0 -3 
1 -1 0 -3 1 -1 0 -2 1 49 0 -3 1 -1 0 -3 
1 -2 0 -3 1 -1 0 -3 1 -2 0 -2 1 -1 0 -3 
1 -1 0 -3 1 -1 4995 4444 100 MP stroke
0 -3 1 -1 0 -2 1 -1 0 -3 1 -1 0 -3 1 -1 
0 -2 1 -1 0 -2 0 49 1 -1 0 -3 1 -2 0 -3 
1 -1 0 -2 1 -2 0 -3 1 -1 0 -3 1 -1 0 -3 
1 -1 0 -3 1 -1 0 -3 1 -1 0 -3 1 -1 0 -2 
1 -1 0 -2 1 -1 0 -3 1 -1 0 50 0 -2 1 -1 
0 -3 1 -1 0 -3 1 -1 0 -4 1 -1 0 -3 1 -1 
0 -2 1 -1 0 -4 1 -1 0 -3 1 -1 0 -3 1 -1 
0 -2 1 -1 0 -2 1 -1 0 -3 1 -1 0 -2 0 52 
1 -1 0 -2 1 -2 0 -3 1 -1 0 -4 1 -1 0 -2 
1 -1 0 -3 1 -1 0 -3 1 -1 0 -4 1 -1 0 -2 
1 -1 0 -3 1 -1 0 -2 1 -1 0 -3 1 -1 0 -2 
1 -1 0 55 0 -56 0 55 1 -1 0 -4 1 -1 0 -3 
1 -2 0 -2 1 -1 4948 4416 100 MP stroke
0 -3 1 -1 0 -4 1 -1 0 -2 1 -1 0 -3 1 -1 
0 -3 1 -1 0 -3 1 -1 0 -2 1 -1 0 -3 1 -1 
0 -2 1 63 0 -3 1 -2 0 -2 1 -1 0 -4 1 -1 
0 -3 1 -2 0 -3 1 -1 0 -2 1 -1 0 -4 1 -1 
0 -3 1 -1 0 -2 1 -1 0 -3 1 -1 0 -3 1 -1 
0 -3 1 -1 0 -1 0 79 1 -1 0 -4 1 -1 0 -4 
1 -2 0 -3 1 -2 0 -2 1 -1 0 -4 1 -1 0 -4 
1 -1 0 -4 1 -1 0 -2 1 -1 0 -4 1 -1 0 -3 
1 -1 0 -4 1 -1 0 -2 1 -1 0 115 0 -3 1 -2 
0 -5 1 -1 0 -3 1 -2 0 -4 1 -2 0 -4 1 -2 
0 -4 1 -2 0 -3 1 -1 0 -4 1 -2 0 -4 1 -1 
0 -4 1 -2 0 -2 1 -2 0 -4 1 -1 0 -3 0 219 
1 -2 0 -7 1 -3 4900 4157 100 MP stroke
0 -4 1 -3 0 -6 1 -2 0 -7 1 -2 0 -5 1 -2 
0 -6 1 -2 0 -7 1 -2 0 -6 1 -2 0 -4 1 -2 
0 -6 1 -2 0 -6 1 -2 0 -6 1 -2 0 -4 1 -2 
0 -6 1 -2 0 -5 1 -2 0 -5 1 -2 0 -4 1 -2 
0 -5 1 -2 0 -5 1 -2 0 -3 1 -2 0 -5 1 -2 
0 -5 1 -1 0 -5 1 -2 0 -3 1 -2 0 -4 1 -2 
0 -5 1 -1 0 -5 1 -1 0 -3 1 -2 0 -4 1 -2 
0 -4 1 -1 0 -5 1 -1 0 -3 1 -1 0 -4 1 -2 
0 -4 1 -1 0 -3 1 -1 0 -4 1 -1 0 -4 1 -1 
0 -4 1 -1 0 -3 1 -1 0 -3 1 -2 0 -3 1 -1 
0 -4 1 -1 0 -2 1 -1 0 -4 1 -1 0 -3 1 -1 
0 -3 1 -1 0 -2 1 -1 0 -3 1 -1 0 -3 1 -1 
0 -2 1 -1 0 -3 4851 4446 100 MP stroke
1 -1 0 -3 1 64 0 -4 1 -1 0 -2 1 -1 0 -4 
1 -1 0 -4 1 -1 0 -3 1 -1 0 -3 1 -1 0 -3 
1 -1 0 -3 1 -1 0 -3 1 -2 0 -2 1 -1 0 -3 
1 -1 0 -3 1 -1 0 -1 0 80 1 -1 0 -4 1 -2 
0 -4 1 -1 0 -4 1 -1 0 -3 1 -1 0 -4 1 -1 
0 -4 1 -1 0 -3 1 -2 0 -2 1 -1 0 -4 1 -1 
0 -3 1 -1 0 -4 1 -1 0 -2 1 -1 0 114 0 -4 
1 -1 0 -5 1 -2 0 -4 1 -2 0 -3 1 -1 0 -5 
1 -2 0 -4 1 -2 0 -2 1 -2 0 -4 1 -2 0 -4 
1 -1 0 -5 1 -1 0 -3 1 -1 0 -4 1 -1 0 -3 
0 209 1 -2 0 -7 1 -2 0 -5 1 -2 0 -7 1 -2 
0 -7 1 -2 0 -7 1 -2 0 -4 1 -2 0 -7 1 -2 
0 -6 1 -2 0 -4 4803 4230 100 MP stroke
1 -3 0 -6 1 -2 0 -6 1 -2 0 -6 1 -2 0 -3 
1 -2 0 -6 1 -2 0 -6 1 -2 0 -5 1 -2 0 -4 
1 -1 0 -6 1 -2 0 -5 1 -2 0 -5 1 -2 0 -3 
1 -2 0 -5 1 -1 0 -5 1 -2 0 -3 1 -2 0 -5 
1 -1 0 -5 1 -1 0 -5 1 -2 0 -3 1 -1 0 -5 
1 -1 0 -4 1 -2 0 -4 1 -2 0 -2 1 -2 0 -4 
1 -1 0 -4 1 -2 0 -4 1 -1 0 -3 1 -1 0 -4 
1 -1 0 -4 1 -1 0 -2 1 -2 0 -3 1 -1 0 -4 
1 -1 0 -4 1 -1 0 -2 1 -1 0 -4 1 -1 0 -3 
1 -1 0 -3 1 -1 0 -2 1 -1 0 -3 1 -1 0 -3 
1 -1 0 -3 1 -1 0 -2 1 -1 0 -3 1 49 0 -4 
1 -1 0 -2 1 -1 0 -4 1 -1 0 -3 1 -1 0 -4 
1 -1 0 -2 1 -1 4753 4441 100 MP stroke
0 -3 1 -1 0 -3 1 -1 0 -3 1 -1 0 -2 1 -1 
0 -3 1 -1 0 -3 1 -1 0 48 0 -49 0 48 1 -2 
0 -2 1 -1 0 -4 1 -1 0 -3 1 -1 0 -4 1 -1 
0 -2 1 -1 0 -3 1 -1 0 -3 1 -1 0 -2 1 -1 
0 -3 1 -1 0 -3 1 -1 0 -3 1 -1 0 -2 1 -1 
0 49 0 -2 1 -2 0 -3 1 -1 0 -4 1 -1 0 -2 
1 -1 0 -3 1 -2 0 -3 1 -1 0 -3 1 -1 0 -2 
1 -1 0 -3 1 -1 0 -3 1 -1 0 -2 1 -1 0 -3 
1 -1 0 -1 0 49 1 -2 0 -3 1 -1 0 -2 1 -2 
0 -3 1 -1 0 -3 1 -2 0 -3 1 -1 0 -2 1 -1 
0 -3 1 -1 0 -3 1 -1 0 -3 1 -1 0 -2 1 -1 
0 -3 1 -1 0 -2 1 -1 0 50 0 -2 1 -1 0 -3 
1 -1 0 -4 1 -1 4706 4425 100 MP stroke
0 -3 1 -1 0 -2 1 -2 0 -3 1 -1 0 -3 1 -1 
0 -3 1 -1 0 -2 1 -1 0 -3 1 -1 0 -3 1 -1 
0 -2 1 -1 0 -2 1 52 0 -4 1 -1 0 -3 1 -1 
0 -3 1 -1 0 -3 1 -1 0 -3 1 -2 0 -3 1 -1 
0 -2 1 -1 0 -3 1 -1 0 -3 1 -1 0 -3 1 -1 
0 -2 1 -1 0 -2 1 -1 0 55 0 -56 0 55 1 -2 
0 -3 1 -1 0 -3 1 -1 0 -3 1 -1 0 -4 1 -1 
0 -2 1 -1 0 -3 1 -1 0 -3 1 -1 0 -3 1 -1 
0 -2 1 -1 0 -3 1 -1 0 -3 1 -1 0 -3 1 64 
0 -3 1 -1 0 -4 1 -1 0 -3 1 -2 0 -3 1 -1 
0 -3 1 -1 0 -3 1 -1 0 -4 1 -1 0 -3 1 -1 
0 -2 1 -1 0 -3 1 -1 0 -3 1 -1 0 -2 1 -1 
0 -2 0 78 1 -1 4658 4360 100 MP stroke
0 -4 1 -1 0 -4 1 -2 0 -2 1 -1 0 -4 1 -2 
0 -3 1 -2 0 -3 1 -1 0 -3 1 -1 0 -4 1 -1 
0 -3 1 -1 0 -4 1 -1 0 -2 1 -1 0 -3 1 -2 
0 111 0 -3 1 -2 0 -3 1 -1 0 -5 1 -2 0 -4 
1 -2 0 -4 1 -2 0 -3 1 -1 0 -5 1 -1 0 -4 
1 -2 0 -4 1 -1 0 -3 1 -2 0 -4 1 -1 0 -4 
1 -1 0 200 0 -202 0 200 1 -2 0 -5 1 -2 0 -7 
1 -2 0 -7 1 -2 0 -5 1 -2 0 -6 1 -2 0 -7 
1 -2 0 -6 1 -2 0 -4 1 -2 0 -6 1 -2 0 -6 
1 -2 0 -6 1 -2 0 -4 1 -2 0 -6 1 -2 0 -5 
1 -2 0 -6 1 -2 0 -3 1 -2 0 -5 1 -2 0 -5 
1 -2 0 -4 1 -1 0 -5 1 -2 0 -5 1 -2 0 -5 
1 -1 0 -3 1 -2 4610 4337 100 MP stroke
0 -5 1 -1 0 -5 1 -2 0 -4 1 -2 0 -3 1 -1 
0 -5 1 -1 0 -4 1 -2 0 -4 1 -1 0 -3 1 -2 
0 -4 1 -1 0 -4 1 -1 0 -3 1 -1 0 -4 1 -1 
0 -4 1 -2 0 -3 1 -1 0 -3 1 -1 0 -4 1 -1 
0 -3 1 -2 0 -3 1 -1 0 -2 1 -1 0 -4 1 -1 
0 -3 1 -1 0 -3 1 -1 0 -2 1 -1 0 -3 1 -1 
0 -3 1 -1 0 -2 1 -1 0 -3 1 -1 0 -3 1 48 
0 -3 1 -2 0 -2 1 -1 0 -3 1 -1 0 -4 1 -1 
0 -3 1 -1 0 -2 1 -1 0 -3 1 -1 0 -3 1 -1 
0 -3 1 -1 0 -2 1 -1 0 -3 1 -1 0 -3 1 -1 
0 49 0 -2 1 -1 0 -3 1 -1 0 -3 1 -1 0 -4 
1 -1 0 -2 1 -1 0 -3 1 -1 0 -3 1 -1 0 -3 
1 -1 0 -2 1 -1 4561 4450 100 MP stroke
0 -3 1 -1 0 -3 1 -1 0 -2 1 -1 0 -1 0 50 
1 -1 0 -3 1 -1 0 -4 1 -1 0 -3 1 -1 0 -3 
1 -1 0 -3 1 -1 0 -3 1 -1 0 -2 1 -1 0 -3 
1 -1 0 -3 1 -1 0 -3 1 -1 0 -2 1 -1 0 -2 
1 54 0 -3 1 -1 0 -4 1 -1 0 -2 1 -1 0 -4 
1 -1 0 -3 1 -1 0 -3 1 -1 0 -2 1 -1 0 -3 
1 -1 0 -3 1 -1 0 -2 1 -1 0 -3 1 -1 0 -3 
1 -1 0 63 0 -3 1 -1 0 -2 1 -2 0 -3 1 -1 
0 -4 1 -1 0 -3 1 -2 0 -2 1 -1 0 -3 1 -1 
0 -3 1 -2 0 -3 1 -1 0 -2 1 -1 0 -3 1 -1 
0 -3 1 -1 0 -1 0 78 1 -1 0 -4 1 -2 0 -4 
1 -1 0 -4 1 -1 0 -2 1 -2 0 -3 1 -2 0 -3 
1 -1 0 -4 1 -1 4513 4395 100 MP stroke
0 -2 1 -2 0 -3 1 -1 0 -3 1 -2 0 -3 1 -1 
0 -2 1 111 0 -5 1 -1 0 -5 1 -1 0 -3 1 -2 
0 -5 1 -1 0 -5 1 -1 0 -4 1 -2 0 -3 1 -1 
0 -4 1 -2 0 -4 1 -1 0 -4 1 -2 0 -2 1 -2 
0 -4 1 -1 0 206 0 -4 1 -3 0 -6 1 -3 0 -4 
1 -2 0 -7 1 -2 0 -7 1 -2 0 -6 1 -2 0 -4 
1 -2 0 -7 1 -2 0 -6 1 -2 0 -4 1 -2 0 -6 
1 -2 0 -6 1 -1 0 -6 1 -2 0 -4 1 -2 0 -5 
1 -2 0 -6 1 -1 0 -6 1 -1 0 -4 1 -2 0 -5 
1 -2 0 -5 1 -1 0 -5 1 -2 0 -3 1 -2 0 -5 
1 -1 0 -5 1 -2 0 -3 1 -1 0 -5 1 -2 0 -4 
1 -2 0 -4 1 -2 0 -2 1 -2 0 -4 1 -2 0 -4 
1 -1 0 -4 1 -2 4464 4377 100 MP stroke
0 -2 1 -2 0 -4 1 -1 0 -4 1 -1 0 -4 1 -1 
0 -3 1 -1 0 -4 1 -1 0 -3 1 -2 0 -2 1 -1 
0 -4 1 -1 0 -3 1 -1 0 -4 1 -1 0 -2 1 -1 
0 -3 1 -1 0 -3 1 -1 0 -3 1 -1 0 -2 1 -1 
0 -3 1 -1 0 -3 1 -1 0 -3 1 -1 0 -1 1 54 
0 -3 1 -1 0 -4 1 -1 0 -2 1 -1 0 -4 1 -1 
0 -3 1 -1 0 -3 1 -1 0 -2 1 -1 0 -4 1 -1 
0 -3 1 -1 0 -2 1 -1 0 -2 1 -1 0 -3 1 -1 
0 63 0 -3 1 -1 0 -4 1 -1 0 -2 1 -2 0 -3 
1 -1 0 -4 1 -1 0 -2 1 -1 0 -3 1 -1 0 -4 
1 -1 0 -3 1 -1 0 -2 1 -1 0 -3 1 -1 0 -3 
1 -1 0 77 0 -78 0 76 1 -1 0 -3 1 -1 0 -4 
1 -1 0 -4 1 -1 4416 4377 100 MP stroke
0 -4 1 -1 0 -3 1 -1 0 -4 1 -1 0 -3 1 -2 
0 -3 1 -1 0 -3 1 -1 0 -3 1 -1 0 -3 1 -2 
0 -2 1 111 0 -5 1 -2 0 -4 1 -2 0 -5 1 -1 
0 -3 1 -2 0 -4 1 -2 0 -4 1 -2 0 -4 1 -1 
0 -3 1 -2 0 -4 1 -1 0 -4 1 -2 0 -4 1 -1 
0 -3 1 -1 0 202 0 -5 1 -2 0 -7 1 -2 0 -5 
1 -2 0 -7 1 -2 0 -6 1 -2 0 -7 1 -2 0 -4 
1 -2 0 -6 1 -2 0 -7 1 -2 0 -6 1 -2 0 -4 
1 -2 0 -5 1 -2 0 -6 1 -2 0 -6 1 -1 0 -4 
1 -2 0 -5 1 -2 0 -6 1 -1 0 -4 1 -2 0 -5 
1 -2 0 -5 1 -1 0 -5 1 -2 0 -3 1 -2 0 -5 
1 -1 0 -5 1 -2 0 -4 1 -2 0 -3 1 -2 0 -4 
1 -2 0 -4 1 -1 4367 4362 100 MP stroke
0 -5 1 -1 0 -3 1 -2 0 -4 1 -1 0 -4 1 -2 
0 -2 1 -2 0 -4 1 -1 0 -4 1 -1 0 -4 1 -1 
0 -3 1 -1 0 -4 1 -1 0 -3 1 -2 0 -3 1 -1 
0 -3 1 -1 0 -3 1 -1 0 -3 1 -2 0 -3 1 -1 
0 -2 1 -1 0 -3 1 -1 0 -3 1 -1 0 -2 1 -1 
0 -3 1 -1 0 -3 1 -1 0 -2 1 -1 0 -2 1 48 
0 -3 1 -2 0 -3 1 -1 0 -3 1 -2 0 -2 1 -1 
0 -3 1 -1 0 -3 1 -1 0 -3 1 -1 0 -2 1 -1 
0 -3 1 -1 0 -3 1 -1 0 -2 1 -1 0 -2 1 -1 
0 50 0 -2 1 -2 0 -3 1 -1 0 -2 1 -1 0 -4 
1 -1 0 -3 1 -1 0 -3 1 -1 0 -2 1 -1 0 -3 
1 -1 0 -3 1 -1 0 -3 1 -1 0 -2 1 -1 0 -2 
1 -1 0 53 0 -54 4319 4459 100 MP stroke
0 52 1 -1 0 -3 1 -1 0 -3 1 -1 0 -3 1 -1 
0 -3 1 -2 0 -2 1 -1 0 -3 1 -1 0 -3 1 -1 
0 -3 1 -1 0 -2 1 -1 0 -3 1 -1 0 -3 1 -1 
0 -1 0 61 1 -1 0 -3 1 -1 0 -4 1 -1 0 -3 
1 -2 0 -3 1 -1 0 -2 1 -1 0 -4 1 -1 0 -3 
1 -1 0 -2 1 -1 0 -3 1 -1 0 -3 1 -1 0 -3 
1 -1 0 -2 1 76 0 -4 1 -1 0 -4 1 -2 0 -4 
1 -1 0 -2 1 -2 0 -3 1 -2 0 -3 1 -1 0 -4 
1 -1 0 -2 1 -2 0 -3 1 -1 0 -4 1 -1 0 -2 
1 -1 0 -3 1 108 0 -5 1 -1 0 -5 1 -1 0 -4 
1 -1 0 -5 1 -1 0 -5 1 -1 0 -4 1 -2 0 -3 
1 -1 0 -4 1 -2 0 -4 1 -1 0 -5 1 -1 0 -3 
1 -1 0 -4 1 197 4270 4175 100 MP stroke
0 -7 1 -2 0 -5 1 -2 0 -7 1 -2 0 -7 1 -2 
0 -6 1 -2 0 -4 1 -3 0 -6 1 -2 0 -6 1 -2 
0 -6 1 -2 0 -4 1 -2 0 -6 1 -2 0 -6 1 -2 
0 -5 1 -2 0 -4 1 -2 0 -5 1 -2 0 -5 1 -2 
0 -4 1 -1 0 -6 1 -1 0 -6 1 -1 0 -5 1 -2 
0 -3 1 -2 0 -5 1 -1 0 -5 1 -2 0 -5 1 -1 
0 -3 1 -2 0 -4 1 -2 0 -4 1 -2 0 -4 1 -2 
0 -2 1 -2 0 -4 1 -2 0 -4 1 -1 0 -4 1 -1 
0 -3 1 -1 0 -4 1 -2 0 -4 1 -1 0 -2 1 -2 
0 -3 1 -1 0 -4 1 -1 0 -4 1 -1 0 -2 1 -1 
0 -4 1 -1 0 -3 1 -1 0 -4 1 -1 0 -2 1 -1 
0 -3 1 -1 0 -3 1 -1 0 -3 1 -1 0 -2 1 -1 
0 -3 1 -1 0 -3 4221 4465 100 MP stroke
1 -1 0 -1 1 -1 0 45 0 -2 1 -1 0 -4 1 -1 
0 -3 1 -1 0 -2 1 -1 0 -4 1 -1 0 -3 1 -1 
0 -3 1 -1 0 -2 1 -1 0 -3 1 -1 0 -3 1 -1 
0 -2 1 -1 0 -2 1 -1 0 46 0 -2 1 -1 0 -4 
1 -1 0 -2 1 -1 0 -4 1 -1 0 -3 1 -1 0 -3 
1 -1 0 -2 1 -1 0 -3 1 -1 0 -3 1 -1 0 -3 
1 -1 0 -1 1 -1 0 -3 1 -1 0 47 0 -2 1 -1 
0 -4 1 -1 0 -2 1 -1 0 -3 1 -1 0 -4 1 -1 
0 -2 1 -1 0 -3 1 -1 0 -3 1 -1 0 -3 1 -1 
0 -1 1 -1 0 -3 1 -1 0 -3 1 -1 0 49 0 -2 
1 -1 0 -2 1 -1 0 -4 1 -1 0 -3 1 -1 0 -3 
1 -1 0 -2 1 -1 0 -3 1 -1 0 -3 1 -1 0 -2 
1 -1 0 -3 1 -1 4173 4453 100 MP stroke
0 -3 1 -1 0 -2 1 -1 0 53 0 -1 1 -2 0 -3 
1 -1 0 -4 1 -1 0 -3 1 -1 0 -2 1 -1 0 -3 
1 -1 0 -4 1 -1 0 -3 1 -1 0 -2 1 -1 0 -2 
1 -1 0 -3 1 -1 0 -3 1 -1 0 61 0 -1 1 -2 
0 -3 1 -1 0 -4 1 -1 0 -2 1 -1 0 -4 1 -1 
0 -3 1 -1 0 -4 1 -1 0 -2 1 -1 0 -3 1 -1 
0 -3 1 -1 0 -3 1 -1 0 -2 1 -1 0 75 0 -76 
0 74 1 -1 0 -4 1 -1 0 -4 1 -1 0 -3 1 -1 
0 -4 1 -1 0 -4 1 -1 0 -2 1 -1 0 -4 1 -1 
0 -4 1 -1 0 -3 1 -1 0 -2 1 -1 0 -4 1 -1 
0 107 0 -108 0 106 1 -1 0 -5 1 -2 0 -3 1 -1 
0 -5 1 -1 0 -5 1 -1 0 -5 1 -1 0 -3 1 -1 
0 -5 1 -1 0 -4 4127 4355 100 MP stroke
1 -2 0 -2 1 -2 0 -4 1 -1 0 -4 1 -1 0 194 
0 -196 0 193 1 -2 0 -4 1 -3 0 -6 1 -2 0 -7 
1 -2 0 -7 1 -2 0 -4 1 -2 0 -6 1 -2 0 -6 
1 -2 0 -7 1 -2 0 -3 1 -2 0 -6 1 -2 0 -6 
1 -2 0 -4 1 -2 0 -5 1 -2 0 -6 1 -1 0 -6 
1 -2 0 -3 1 -2 0 -5 1 -2 0 -5 1 -2 0 -5 
1 -2 0 -3 1 -2 0 -4 1 -2 0 -5 1 -1 0 -5 
1 -2 0 -3 1 -1 0 -5 1 -2 0 -4 1 -1 0 -3 
1 -2 0 -4 1 -2 0 -4 1 -1 0 -5 1 -1 0 -3 
1 -1 0 -4 1 -1 0 -4 1 -2 0 -4 1 -1 0 -2 
1 -2 0 -3 1 -2 0 -3 1 -1 0 -4 1 -1 0 -3 
1 -1 0 -3 1 -1 0 -4 1 -1 0 -2 1 -1 0 -3 
1 -1 0 -4 1 -1 4078 4446 100 MP stroke
0 -3 1 -1 0 -2 1 -1 0 -3 1 -1 0 -3 1 -1 
0 -2 1 -1 0 -2 1 -1 0 -2 0 46 1 -2 0 -3 
1 -1 0 -4 1 -1 0 -2 1 -1 0 -3 1 -1 0 -4 
1 -1 0 -3 1 -1 0 -2 1 -1 0 -3 1 -1 0 -3 
1 -1 0 -1 1 -1 0 -3 1 -1 0 -2 0 46 1 -2 
0 -3 1 -1 0 -2 1 -2 0 -3 1 -1 0 -3 1 -1 
0 -3 1 -2 0 -2 1 -1 0 -3 1 -1 0 -3 1 -1 
0 -3 1 -1 0 -1 1 -1 0 -3 1 -1 0 -2 0 46 
1 -1 0 -3 1 -1 0 -3 1 -1 0 -4 1 -1 0 -3 
1 -1 0 -2 1 -1 0 -4 1 -1 0 -3 1 -1 0 -3 
1 -1 0 -2 1 -1 0 -2 1 -1 0 -3 1 -1 0 -2 
0 46 1 -1 0 -3 1 -1 0 -3 1 -1 0 -4 1 -1 
0 -2 1 -1 0 -3 4031 4443 100 MP stroke
1 -1 0 -3 1 -2 0 -3 1 -1 0 -2 1 -1 0 -3 
1 -1 0 -2 1 -1 0 -3 1 -1 0 -2 1 46 0 -4 
1 -1 0 -3 1 -1 0 -4 1 -1 0 -2 1 -1 0 -3 
1 -1 0 -4 1 -1 0 -2 1 -1 0 -3 1 -1 0 -3 
1 -1 0 -2 1 -1 0 -2 1 -1 0 -3 1 46 0 -4 
1 -1 0 -3 1 -2 0 -2 1 -1 0 -3 1 -1 0 -3 
1 -2 0 -3 1 -1 0 -2 1 -1 0 -3 1 -1 0 -3 
1 -1 0 -2 1 -1 0 -2 1 -1 0 -3 1 45 0 -3 
1 -1 0 -3 1 -1 0 -3 1 -1 0 -4 1 -1 0 -3 
1 -1 0 -2 1 -1 0 -3 1 -1 0 -3 1 -1 0 -3 
1 -1 0 -2 1 -1 0 -3 1 -1 0 -3 1 46 0 -4 
1 -1 0 -2 1 -2 0 -3 1 -1 0 -3 1 -1 0 -2 
1 -2 0 -3 1 -1 3981 4449 100 MP stroke
0 -3 1 -1 0 -3 1 -1 0 -2 1 -1 0 -3 1 -1 
0 -2 1 -1 0 -3 1 44 0 -2 1 -1 0 -4 1 -1 
0 -3 1 -1 0 -3 1 -1 0 -3 1 -1 0 -3 1 -1 
0 -3 1 -1 0 -2 1 -1 0 -3 1 -1 0 -3 1 -1 
0 -2 1 -1 0 -2 1 44 0 -3 1 -1 0 -4 1 -1 
0 -3 1 -1 0 -2 1 -1 0 -4 1 -1 0 -3 1 -1 
0 -3 1 -1 0 -2 1 -1 0 -3 1 -1 0 -3 1 -1 
0 -1 1 -1 0 -2 0 44 1 -1 0 -3 1 -1 0 -4 
1 -1 0 -2 1 -1 0 -3 1 -2 0 -3 1 -1 0 -3 
1 -1 0 -2 1 -1 0 -3 1 -1 0 -3 1 -1 0 -2 
1 -1 0 -2 1 -1 0 43 0 -44 0 43 1 -1 0 -3 
1 -2 0 -2 1 -1 0 -3 1 -1 0 -3 1 -2 0 -3 
1 -1 0 -2 1 -1 3933 4452 100 MP stroke
0 -3 1 -1 0 -3 1 -1 0 -2 1 -1 0 -2 1 -1 
0 -3 1 -1 0 45 0 -3 1 -1 0 -3 1 -1 0 -3 
1 -1 0 -3 1 -1 0 -3 1 -1 0 -2 1 -1 0 -3 
1 -1 0 -3 1 -1 0 -3 1 -1 0 -2 1 -1 0 -3 
1 -1 0 -2 1 45 0 -4 1 -1 0 -2 1 -1 0 -4 
1 -1 0 -3 1 -1 0 -3 1 -1 0 -2 1 -1 0 -3 
1 -1 0 -3 1 -1 0 -3 1 -1 0 -2 1 -1 0 -2 
1 -1 0 -2 0 46 1 -1 0 -3 1 -1 0 -3 1 -1 
0 -3 1 -1 0 -4 1 -1 0 -2 1 -1 0 -3 1 -1 
0 -3 1 -1 0 -3 1 -1 0 -1 1 -1 0 -3 1 -1 
0 -3 1 -1 0 47 0 -48 0 47 1 -1 0 -2 1 -1 
0 -4 1 -1 0 -3 1 -1 0 -2 1 -1 0 -3 1 -1 
0 -3 1 -1 0 -3 3886 4446 100 MP stroke
1 -1 0 -2 1 -1 0 -3 1 -1 0 -3 1 -1 0 -2 
1 -1 0 52 0 -1 1 -1 0 -4 1 -1 0 -3 1 -1 
0 -4 1 -1 0 -2 1 -1 0 -3 1 -1 0 -3 1 -1 
0 -2 1 -1 0 -3 1 -1 0 -3 1 -1 0 -3 1 -1 
0 -2 1 -1 0 60 0 -2 1 -1 0 -4 1 -1 0 -4 
1 -1 0 -2 1 -1 0 -4 1 -1 0 -3 1 -1 0 -3 
1 -1 0 -2 1 -2 0 -3 1 -1 0 -3 1 -1 0 -2 
1 -1 0 -3 1 75 0 -4 1 -1 0 -4 1 -1 0 -3 
1 -1 0 -4 1 -1 0 -4 1 -1 0 -4 1 -1 0 -2 
1 -1 0 -4 1 -1 0 -3 1 -2 0 -3 1 -1 0 -2 
1 -1 0 -2 0 106 1 -2 0 -4 1 -2 0 -3 1 -2 
0 -4 1 -2 0 -4 1 -2 0 -4 1 -2 0 -2 1 -2 
0 -4 1 -2 0 -4 3838 4356 100 MP stroke
1 -1 0 -4 1 -2 0 -2 1 -2 0 -4 1 -1 0 192 
0 -193 0 190 1 -2 0 -7 1 -2 0 -4 1 -2 0 -7 
1 -2 0 -6 1 -3 0 -4 1 -2 0 -6 1 -2 0 -6 
1 -2 0 -6 1 -2 0 -4 1 -2 0 -6 1 -2 0 -6 
1 -2 0 -5 1 -2 0 -4 1 -2 0 -5 1 -2 0 -5 
1 -2 0 -5 1 -2 0 -3 1 -2 0 -5 1 -2 0 -5 
1 -2 0 -5 1 -1 0 -3 1 -2 0 -5 1 -1 0 -5 
1 -2 0 -3 1 -1 0 -5 1 -1 0 -5 1 -1 0 -5 
1 -1 0 -3 1 -1 0 -4 1 -2 0 -4 1 -1 0 -4 
1 -2 0 -2 1 -2 0 -4 1 -1 0 -4 1 -1 0 -4 
1 -1 0 -2 1 -2 0 -3 1 -1 0 -4 1 -1 0 -2 
1 -1 0 -4 1 -1 0 -3 1 -1 0 -4 1 -1 0 -2 
1 -1 0 -3 1 -1 3789 4446 100 MP stroke
0 -3 1 -1 0 -3 1 -1 0 -2 1 -1 0 -3 1 -1 
0 -2 1 -1 0 -3 1 47 0 -3 1 -1 0 -3 1 -1 
0 -3 1 -2 0 -2 1 -1 0 -3 1 -1 0 -3 1 -1 
0 -3 1 -1 0 -2 1 -1 0 -3 1 -1 0 -3 1 -1 
0 -2 1 -1 0 -2 1 49 0 -3 1 -1 0 -4 1 -1 
0 -3 1 -1 0 -3 1 -1 0 -3 1 -1 0 -3 1 -1 
0 -2 1 -1 0 -3 1 -1 0 -3 1 -1 0 -3 1 -1 
0 -1 1 -1 0 -2 0 54 1 -1 0 -4 1 -1 0 -4 
1 -1 0 -2 1 -1 0 -3 1 -2 0 -3 1 -1 0 -3 
1 -1 0 -2 1 -1 0 -3 1 -1 0 -3 1 -1 0 -2 
1 -1 0 -3 1 -1 0 62 0 -63 0 61 1 -1 0 -4 
1 -1 0 -2 1 -1 0 -4 1 -1 0 -4 1 -1 0 -3 
1 -1 0 -3 1 -1 3741 4417 100 MP stroke
0 -3 1 -1 0 -3 1 -1 0 -4 1 -1 0 -2 1 -1 
0 -3 1 -1 0 79 0 -3 1 -1 0 -4 1 -2 0 -2 
1 -2 0 -4 1 -1 0 -4 1 -1 0 -3 1 -1 0 -4 
1 -1 0 -3 1 -2 0 -3 1 -1 0 -3 1 -1 0 -3 
1 -2 0 -3 1 114 0 -5 1 -2 0 -3 1 -2 0 -5 
1 -1 0 -5 1 -2 0 -5 1 -1 0 -3 1 -2 0 -4 
1 -2 0 -4 1 -2 0 -3 1 -1 0 -4 1 -2 0 -4 
1 -2 0 -2 0 212 1 -3 0 -5 1 -2 0 -7 1 -3 
0 -7 1 -2 0 -7 1 -3 0 -4 1 -3 0 -7 1 -2 
0 -7 1 -2 0 -6 1 -3 0 -4 1 -2 0 -7 1 -2 
0 -6 1 -2 0 -4 1 -2 0 -6 1 -2 0 -7 1 -2 
0 -5 1 -2 0 -4 1 -2 0 -6 1 -2 0 -5 1 -2 
0 -6 1 -2 0 -3 3693 4310 100 MP stroke
1 -2 0 -5 1 -2 0 -5 1 -2 0 -5 1 -2 0 -3 
1 -2 0 -5 1 -2 0 -4 1 -2 0 -3 1 -2 0 -5 
1 -1 0 -5 1 -1 0 -5 1 -1 0 -3 1 -2 0 -4 
1 -1 0 -5 1 -1 0 -4 1 -2 0 -2 1 -2 0 -4 
1 -1 0 -4 1 -1 0 -4 1 -1 0 -3 1 -1 0 -4 
1 -1 0 -3 1 -1 0 -3 1 -1 0 -3 1 -2 0 -3 
1 -1 0 -3 1 -1 0 -2 1 -1 0 -4 1 -1 0 -3 
1 -1 0 -3 1 -1 0 -1 1 -1 0 46 0 -3 1 -1 
0 -3 1 -1 0 -4 1 -1 0 -2 1 -1 0 -4 1 -1 
0 -3 1 -1 0 -3 1 -1 0 -2 1 -1 0 -3 1 -1 
0 -3 1 -1 0 -2 1 -1 0 -3 1 46 0 -4 1 -1 
0 -3 1 -1 0 -2 1 -2 0 -3 1 -1 0 -3 1 -1 
0 -3 1 -1 0 -2 3644 4444 100 MP stroke
1 -1 0 -3 1 -1 0 -3 1 -1 0 -3 1 -1 0 -1 
1 -1 0 46 0 -47 0 46 1 -1 0 -3 1 -1 0 -2 
1 -2 0 -3 1 -1 0 -3 1 -1 0 -3 1 -1 0 -2 
1 -1 0 -3 1 -1 0 -2 1 -1 0 -3 1 -1 0 -1 
1 -1 0 -3 1 53 0 -3 1 -1 0 -4 1 -1 0 -2 
1 -1 0 -3 1 -1 0 -3 1 -1 0 -2 1 -1 0 -2 
1 -1 0 -3 1 -1 0 -2 1 -1 0 -2 1 -1 0 -2 
1 -1 0 65 0 -66 0 65 1 -1 0 -3 1 -1 0 -2 
1 -1 0 -3 1 -1 0 -3 1 -1 0 -3 1 -1 0 -2 
1 -1 0 -2 1 -1 0 -3 1 -1 0 -1 1 -1 0 -3 
1 -1 0 -2 1 102 0 -3 1 -1 0 -2 1 -2 0 -3 
1 -1 0 -3 1 -1 0 -3 1 -1 0 -2 1 -2 0 -3 
1 -1 0 -2 1 -1 3596 4343 100 MP stroke
0 -3 1 -1 0 -2 1 -1 0 -3 1 -1 0 237 0 -2 
1 -2 0 -3 1 -1 0 -5 1 -2 0 -4 1 -2 0 -4 
1 -2 0 -2 1 -2 0 -4 1 -2 0 -4 1 -1 0 -4 
1 -2 0 -2 1 -2 0 -4 1 -1 0 -4 1 3304 0 -31 
1 -10 0 -20 1 -10 0 -31 1 -10 0 -30 1 -10 0 -30 
1 -10 0 -20 1 -10 0 -29 1 -10 0 -29 1 -10 0 -19 
1 -10 0 -29 1 -10 0 -28 1 -10 0 -28 1 -10 0 -19 
1 -9 0 -28 1 -10 0 -27 1 -10 0 -27 1 -9 0 -19 
1 -9 0 -27 1 -9 0 -27 1 -9 0 -27 1 -9 0 -18 
1 -9 0 -26 1 -9 0 -26 1 -9 0 -17 1 -9 0 -26 
1 -8 0 -26 1 -9 0 -25 1 -9 0 -16 1 -9 0 -25 
1 -8 0 -25 1 -8 0 -25 1 -8 0 -17 1 -8 0 -24 
1 -8 0 -24 1 -8 3547 2032 100 MP stroke
0 -24 1 -8 0 -16 1 -8 0 -24 1 -7 0 -24 1 -7 
0 -16 1 -8 0 -23 1 -7 0 -23 1 -8 0 -22 1 -8 
0 -15 1 -7 0 -23 1 -7 0 -22 1 -7 0 -22 1 -7 
0 -15 1 -7 0 -22 1 -7 0 -21 1 -7 0 -22 1 -7 
0 -14 1 -7 0 -20 1 -7 0 -21 1 -7 0 -13 1 -7 
0 -21 1 -6 0 -20 1 -7 0 -20 1 -7 0 -13 1 -6 
0 -20 1 -7 0 -19 1 -6 0 -20 1 -6 0 -13 1 -6 
0 -19 1 -6 0 -19 1 -6 0 -19 1 -6 0 -12 1 -7 
0 -18 1 -6 0 -18 1 -6 0 -12 1 -6 0 -18 1 -6 
0 -17 1 -6 0 -18 1 -5 0 -12 1 -6 0 -17 1 -5 
0 -17 1 -6 0 -17 1 -5 0 -11 1 -6 0 -17 1 -5 
0 -16 1 -6 0 -16 1 -5 0 -11 1 -5 0 -16 1 -5 
0 -16 1 -5 0 -11 3498 3242 100 MP stroke
1 -5 0 -15 1 -5 0 -16 1 -5 0 -15 1 -5 0 -10 
1 -5 0 -15 1 -5 0 -14 1 -5 0 -15 1 -4 0 -10 
1 -5 0 -14 1 -5 0 -14 1 -5 0 -13 1 -5 0 -9 
1 -5 0 -14 1 -4 0 -14 1 -4 0 -13 1 -5 0 -9 
1 -4 0 -13 1 -4 0 -13 1 -5 0 -8 1 -5 0 -12 
1 -4 0 -13 1 -4 0 -13 1 -4 0 -8 1 -4 0 -12 
1 -4 0 -12 1 -4 0 -12 1 -4 0 -8 1 -4 0 -11 
1 -4 0 -11 1 -4 0 -12 1 -3 0 -8 1 -4 0 -11 
1 -3 0 -11 1 -4 0 -7 1 -4 0 -10 1 -4 0 -11 
1 -3 0 -10 1 -4 0 -7 1 -3 0 -10 1 -4 0 -10 
1 -3 0 -10 1 -4 0 -6 1 -3 0 -10 1 -3 0 -10 
1 -3 0 -10 1 -3 0 -6 1 -3 0 -9 1 -3 0 -9 
1 -4 0 -6 1 -3 3448 3984 100 MP stroke
0 -8 1 -3 0 -9 1 -3 0 -9 1 -3 0 -5 1 -3 
0 -9 1 -2 0 -9 1 -3 0 -8 1 -2 0 -6 1 -3 
0 -8 1 -2 0 -8 1 -3 0 -8 1 -2 0 -5 1 -3 
0 -7 1 -3 0 -7 1 -3 0 -5 1 -2 0 -8 1 -2 
0 -7 1 -2 0 -8 1 -2 0 -5 1 -2 0 -7 1 -2 
0 -7 1 -2 0 -7 1 -2 0 -4 1 -2 0 -7 1 -2 
0 -6 1 -3 0 -6 1 -2 0 -4 1 -2 0 -6 1 -2 
0 -6 1 -2 0 -4 1 -2 0 -6 1 -2 0 -6 1 -1 
0 -6 1 -2 0 -4 1 -1 0 -6 1 -2 0 -5 1 -2 
0 -5 1 -2 0 -3 1 -2 0 -5 1 -2 0 -5 1 -1 
0 -5 1 -2 0 -3 1 -2 0 -5 1 -1 0 -5 1 -1 
0 -5 1 -2 0 -3 1 -1 0 -5 1 -1 0 -4 1 -2 
0 -3 1 -1 0 -4 3399 4381 100 MP stroke
1 -2 0 -4 1 -1 0 -4 1 -2 0 -2 1 -2 0 -3 
1 -2 0 -4 1 -1 0 -4 1 -1 0 -2 1 -1 0 -4 
1 -1 0 -4 1 -1 0 -3 1 -2 0 -2 1 -1 0 -3 
1 -1 0 -4 1 -1 0 -2 1 -1 0 -3 1 -1 0 -3 
1 -1 0 -3 1 -1 0 -2 1 -1 0 -3 1 -1 0 -3 
1 -1 0 -2 1 -1 0 43 0 -2 1 -1 0 -3 1 -1 
0 -4 1 -1 0 -3 1 -1 0 -2 1 -1 0 -3 1 -1 
0 -3 1 -1 0 -2 1 -1 0 -3 1 -1 0 -3 1 -1 
0 -3 1 -1 0 -1 1 42 0 -3 1 -1 0 -4 1 -1 
0 -3 1 -1 0 -2 1 -1 0 -3 1 -1 0 -3 1 -1 
0 -3 1 -1 0 -2 1 -1 0 -3 1 -1 0 -3 1 -1 
0 -2 1 -1 0 42 0 -43 0 42 1 -1 0 -4 1 -1 
0 -3 1 -1 0 -2 3351 4443 100 MP stroke
1 -1 0 -4 1 -1 0 -3 1 -1 0 -3 1 -1 0 -2 
1 -1 0 -3 1 -1 0 -3 1 -1 0 -2 1 -1 0 -2 
1 42 0 -3 1 -1 0 -4 1 -1 0 -2 1 -1 0 -3 
1 -1 0 -4 1 -1 0 -3 1 -1 0 -2 1 -1 0 -3 
1 -1 0 -2 1 -1 0 -3 1 -1 0 -2 1 -1 0 42 
0 -2 1 -1 0 -3 1 -1 0 -4 1 -1 0 -2 1 -1 
0 -3 1 -1 0 -3 1 -1 0 -3 1 -1 0 -2 1 -1 
0 -3 1 -1 0 -3 1 -1 0 -2 1 -1 0 42 0 -43 
0 41 1 -1 0 -3 1 -1 0 -3 1 -2 0 -2 1 -1 
0 -3 1 -1 0 -3 1 -1 0 -3 1 -1 0 -2 1 -1 
0 -3 1 -1 0 -3 1 -1 0 -3 1 -1 0 -1 0 43 
1 -1 0 -4 1 -1 0 -3 1 -1 0 -3 1 -1 0 -3 
1 -1 0 -3 1 -1 3303 4452 100 MP stroke
0 -3 1 -1 0 -2 1 -1 0 -3 1 -1 0 -3 1 -1 
0 -3 1 -1 0 -1 1 42 0 -4 1 -1 0 -3 1 -1 
0 -4 1 -1 0 -2 1 -1 0 -3 1 -1 0 -3 1 -1 
0 -2 1 -1 0 -3 1 -1 0 -3 1 -1 0 -3 1 -1 
0 -1 1 -1 0 42 0 -3 1 -1 0 -3 1 -1 0 -3 
1 -2 0 -2 1 -1 0 -3 1 -1 0 -3 1 -1 0 -3 
1 -1 0 -2 1 -1 0 -3 1 -1 0 -2 1 -1 0 -2 
1 -1 0 41 0 -42 0 41 1 -1 0 -4 1 -1 0 -3 
1 -1 0 -2 1 -1 0 -4 1 -1 0 -3 1 -1 0 -3 
1 -1 0 -2 1 -1 0 -2 1 -1 0 -3 1 -1 0 -3 
1 -1 0 -1 0 43 1 -1 0 -4 1 -1 0 -3 1 -1 
0 -2 1 -1 0 -3 1 -1 0 -4 1 -1 0 -2 1 -1 
0 -2 1 -1 0 -3 3256 4460 100 MP stroke
1 -1 0 -3 1 -1 0 -2 1 -1 0 -2 1 43 0 -3 
1 -1 0 -4 1 -1 0 -3 1 -1 0 -2 1 -1 0 -3 
1 -1 0 -3 1 -1 0 -2 1 -1 0 -3 1 -1 0 -2 
1 -1 0 -3 1 -1 0 -1 1 -1 0 45 0 -2 1 -1 
0 -4 1 -1 0 -3 1 -1 0 -2 1 -1 0 -3 1 -1 
0 -3 1 -1 0 -3 1 -1 0 -1 1 -1 0 -3 1 -1 
0 -3 1 -1 0 -2 1 -1 0 50 0 -1 1 -1 0 -4 
1 -1 0 -3 1 -1 0 -2 1 -1 0 -3 1 -1 0 -3 
1 -1 0 -3 1 -1 0 -2 1 -1 0 -3 1 -1 0 -2 
1 -1 0 -3 1 -1 0 -1 0 60 1 -1 0 -4 1 -1 
0 -3 1 -1 0 -4 1 -1 0 -2 1 -1 0 -3 1 -1 
0 -3 1 -1 0 -2 1 -1 0 -3 1 -1 0 -3 1 -1 
0 -3 1 -1 0 -1 3208 4435 100 MP stroke
1 79 0 -4 1 -1 0 -4 1 -1 0 -3 1 -2 0 -2 
1 -1 0 -4 1 -1 0 -3 1 -1 0 -4 1 -1 0 -2 
1 -1 0 -4 1 -1 0 -3 1 -1 0 -2 1 -1 0 130 
0 -3 1 -2 0 -4 1 -2 0 -5 1 -1 0 -3 1 -2 
0 -4 1 -2 0 -4 1 -1 0 -5 1 -1 0 -3 1 -1 
0 -5 1 -1 0 -4 1 -1 0 -4 1 -2 0 324 0 -3 
1 -3 0 -8 1 -2 0 -8 1 -3 0 -5 1 -3 0 -8 
1 -2 0 -8 1 -2 0 -8 1 -2 0 -5 1 -3 0 -7 
1 -3 0 -7 1 -2 0 -7 1 -3 0 -5 1 -2 0 -7 
1 -2 0 -7 1 -2 0 -7 1 -2 0 -5 1 -2 0 -6 
1 -3 0 -6 1 -2 0 -4 1 -3 0 -6 1 -2 0 -6 
1 -2 0 -6 1 -2 0 -4 1 -2 0 -6 1 -2 0 -6 
1 -2 0 -6 1 -2 3159 4230 100 MP stroke
0 -3 1 -2 0 -6 1 -2 0 -5 1 -2 0 -5 1 -2 
0 -4 1 -1 0 -5 1 -2 0 -5 1 -2 0 -5 1 -2 
0 -3 1 -2 0 -5 1 -1 0 -5 1 -2 0 -3 1 -1 
0 -5 1 -2 0 -4 1 -2 0 -4 1 -2 0 -2 1 -2 
0 -4 1 -2 0 -4 1 -1 0 -5 1 -1 0 -3 1 -1 
0 -4 1 -1 0 -4 1 -2 0 -4 1 -1 0 -2 1 208 
0 -7 1 -2 0 -6 1 -3 0 -4 1 -2 0 -7 1 -2 
0 -6 1 -2 0 -6 1 -3 0 -4 1 -2 0 -6 1 -2 
0 -6 1 -2 0 -6 1 -2 0 -3 1 -2 0 -6 1 -2 
0 -5 1 -2 0 -6 1 -2 0 -3 1 -2 0 -5 1 -2 
0 -5 1 -2 0 -4 1 -1 0 -5 1 -2 0 -5 1 -2 
0 -5 1 -1 0 -4 1 -1 0 -5 1 -2 0 -4 1 -2 
0 -4 1 -2 0 -3 3110 4338 100 MP stroke
1 -1 0 -5 1 -1 0 -5 1 -1 0 -4 1 -2 0 -3 
1 -1 0 -4 1 -1 0 -5 1 -1 0 -3 1 -1 0 -4 
1 -1 0 -4 1 -1 0 -4 1 -1 0 -3 1 -1 0 -3 
1 -2 0 -3 1 -1 0 -4 1 -1 0 -2 1 -1 0 -4 
1 -1 0 -3 1 -1 0 -3 1 -2 0 -2 1 -1 0 -3 
1 -1 0 -3 1 -1 0 -2 1 -1 0 -3 1 -1 0 70 
0 -71 0 70 1 -2 0 -4 1 -1 0 -2 1 -2 0 -3 
1 -2 0 -3 1 -1 0 -4 1 -1 0 -3 1 -1 0 -3 
1 -1 0 -4 1 -1 0 -3 1 -1 0 -2 1 -1 0 -2 
0 99 1 -2 0 -4 1 -2 0 -4 1 -2 0 -3 1 -1 
0 -5 1 -1 0 -4 1 -2 0 -3 1 -1 0 -4 1 -2 
0 -4 1 -1 0 -4 1 -1 0 -3 1 -1 0 -4 1 175 
0 -7 1 -2 0 -6 3062 4221 100 MP stroke
1 -2 0 -5 1 -2 0 -6 1 -2 0 -6 1 -2 0 -6 
1 -2 0 -4 1 -2 0 -6 1 -2 0 -5 1 -2 0 -4 
1 -2 0 -5 1 -2 0 -6 1 -1 0 -6 1 -1 0 -4 
1 -2 0 -5 1 -2 0 -5 1 -1 0 -5 1 -2 0 -3 
1 -2 0 -5 1 -1 0 -5 1 -2 0 -4 1 -2 0 -3 
1 -2 0 -4 1 -2 0 -4 1 -2 0 -2 1 -2 0 -4 
1 -2 0 -4 1 -1 0 -4 1 -2 0 -2 1 -2 0 -4 
1 -1 0 -4 1 -1 0 -4 1 -1 0 -3 1 -1 0 -4 
1 -1 0 -4 1 -1 0 -3 1 -1 0 -3 1 -1 0 -3 
1 -1 0 -4 1 -1 0 -2 1 -1 0 -3 1 -1 0 -4 
1 -1 0 -3 1 -1 0 -2 1 -1 0 -3 1 -1 0 -2 
1 -1 0 -3 1 -1 0 -2 1 -1 0 -3 1 41 0 -3 
1 -1 0 -4 1 -1 3012 4444 100 MP stroke
0 -2 1 -1 0 -3 1 -1 0 -3 1 -1 0 -2 1 -1 
0 -3 1 -1 0 -3 1 -1 0 -3 1 -1 0 -1 1 -1 
0 -3 1 41 0 -4 1 -1 0 -3 1 -1 0 -2 1 -2 
0 -3 1 -1 0 -3 1 -1 0 -3 1 -1 0 -2 1 -1 
0 -3 1 -1 0 -2 1 -1 0 -2 1 -1 0 -3 1 41 
0 -3 1 -1 0 -4 1 -1 0 -2 1 -1 0 -3 1 -1 
0 -3 1 -1 0 -3 1 -1 0 -2 1 -1 0 -3 1 -1 
0 -3 1 -1 0 -3 1 -1 0 -1 1 41 0 -4 1 -1 
0 -3 1 -1 0 -3 1 -1 0 -3 1 -1 0 -3 1 -1 
0 -3 1 -1 0 -2 1 -1 0 -3 1 -1 0 -2 1 -1 
0 -3 1 -1 0 -2 1 41 0 -3 1 -1 0 -3 1 -2 
0 -3 1 -1 0 -2 1 -1 0 -3 1 -1 0 -3 1 -1 
0 -3 1 -1 0 -2 2963 4463 100 MP stroke
1 -1 0 -3 1 -1 0 -3 1 -1 0 -2 1 42 0 -3 
1 -2 0 -3 1 -1 0 -3 1 -1 0 -3 1 -1 0 -3 
1 -1 0 -3 1 -1 0 -3 1 -1 0 -2 1 -1 0 -3 
1 -1 0 -2 1 -1 0 -2 0 41 1 -1 0 -2 1 -1 
0 -3 1 -2 0 -3 1 -1 0 -2 1 -1 0 -3 1 -1 
0 -3 1 -1 0 -3 1 -1 0 -2 1 -1 0 -3 1 -1 
0 -3 1 -1 0 -2 0 42 1 -1 0 -3 1 -1 0 -3 
1 -1 0 -4 1 -1 0 -3 1 -1 0 -2 1 -1 0 -3 
1 -1 0 -3 1 -1 0 -2 1 -1 0 -3 1 -1 0 -3 
1 -1 0 -2 0 42 1 -1 0 -2 1 -2 0 -3 1 -1 
0 -3 1 -1 0 -4 1 -1 0 -2 1 -1 0 -3 1 -1 
0 -3 1 -1 0 -3 1 -1 0 -2 1 -1 0 -3 1 -1 
0 -1 0 41 1 -1 2915 4432 100 MP stroke
0 -2 1 -1 0 -4 1 -1 0 -3 1 -1 0 -3 1 -2 
0 -2 1 -1 0 -3 1 -1 0 -3 1 -1 0 -3 1 -1 
0 -1 1 -1 0 -3 1 -1 0 -2 0 41 1 -1 0 -3 
1 -1 0 -3 1 -1 0 -3 1 -1 0 -3 1 -1 0 -3 
1 -1 0 -2 1 -1 0 -3 1 -1 0 -3 1 -1 0 -2 
1 -1 0 -3 1 -1 0 -1 0 41 1 -1 0 -3 1 -1 
0 -3 1 -1 0 -3 1 -1 0 -3 1 -1 0 -3 1 -1 
0 -2 1 -1 0 -3 1 -1 0 -3 1 -1 0 -3 1 -1 
0 -1 1 -1 0 -2 0 42 1 -1 0 -3 1 -1 0 -2 
1 -2 0 -3 1 -1 0 -3 1 -1 0 -3 1 -1 0 -2 
1 -1 0 -3 1 -1 0 -2 1 -1 0 -3 1 -1 0 -2 
1 -1 0 -1 0 44 1 -1 0 -3 1 -1 0 -4 1 -1 
0 -2 1 -1 0 -3 2868 4439 100 MP stroke
1 -1 0 -3 1 -1 0 -2 1 -1 0 -2 1 -1 0 -3 
1 -1 0 -3 1 -1 0 -1 1 -1 0 -2 0 49 1 -1 
0 -3 1 -1 0 -4 1 -1 0 -2 1 -1 0 -3 1 -1 
0 -3 1 -1 0 -2 1 -1 0 -2 1 -1 0 -3 1 -1 
0 -2 1 -1 0 -2 1 -1 0 -2 0 59 1 -1 0 -3 
1 -1 0 -4 1 -1 0 -2 1 -1 0 -3 1 -1 0 -3 
1 -1 0 -3 1 -1 0 -2 1 -1 0 -3 1 -1 0 -2 
1 -1 0 -3 1 -1 0 -1 0 81 1 -1 0 -4 1 -1 
0 -3 1 -2 0 -2 1 -1 0 -3 1 -2 0 -3 1 -1 
0 -3 1 -1 0 -2 1 -1 0 -4 1 -1 0 -3 1 -1 
0 -3 1 -1 0 -1 0 142 1 -2 0 -5 1 -1 0 -5 
1 -1 0 -4 1 -2 0 -3 1 -1 0 -4 1 -2 0 -4 
1 -1 0 -4 1 -2 2820 4295 100 MP stroke
0 -3 1 -1 0 -4 1 -1 0 -4 1 -1 0 -2 0 424 
1 -3 0 -8 1 -3 0 -9 1 -3 0 -8 1 -3 0 -5 
1 -3 0 -8 1 -3 0 -8 1 -3 0 -8 1 -2 0 -6 
1 -2 0 -8 1 -2 0 -8 1 -3 0 -7 1 -3 0 -5 
1 -2 0 -8 1 -2 0 -7 1 -3 0 -4 1 -3 0 -7 
1 -2 0 -7 1 -3 0 -6 1 -3 0 -4 1 -2 0 -7 
1 -2 0 -7 1 -2 0 -7 1 -2 0 -4 1 -2 0 -7 
1 -2 0 -6 1 -2 0 -6 1 -2 0 -4 1 -2 0 -6 
1 -2 0 -6 1 -2 0 -4 1 -2 0 -5 1 -2 0 -6 
1 -2 0 -5 1 -2 0 -4 1 -2 0 -5 1 -2 0 -5 
1 -2 0 -5 1 -2 0 -3 1 -2 0 -5 1 -1 0 -5 
1 -2 0 -5 1 -2 0 -3 1 -1 0 -5 1 -2 0 -4 
1 -2 0 -3 1 -1 2771 4252 100 MP stroke
0 -5 1 -1 0 -5 1 -1 0 -5 1 -1 0 720 0 -5 
1 -4 0 -12 1 -4 0 -13 1 -4 0 -12 1 -4 0 -8 
1 -4 0 -12 1 -4 0 -12 1 -4 0 -12 1 -4 0 -7 
1 -4 0 -12 1 -4 0 -11 1 -4 0 -7 1 -4 0 -11 
1 -4 0 -11 1 -3 0 -11 1 -4 0 -7 1 -3 0 -11 
1 -3 0 -11 1 -3 0 -11 1 -3 0 -7 1 -3 0 -10 
1 -4 0 -10 1 -3 0 -10 1 -3 0 -7 1 -3 0 -10 
1 -3 0 -9 1 -3 0 -7 1 -3 0 -9 1 -3 0 -9 
1 -3 0 -9 1 -3 0 -6 1 -3 0 -9 1 -3 0 -9 
1 -3 0 -8 1 -3 0 -6 1 -3 0 -8 1 -3 0 -8 
1 -3 0 -8 1 -3 0 -5 1 -3 0 -8 1 -2 0 -8 
1 -3 0 -8 1 -2 0 -5 1 -3 0 -7 1 -3 0 -7 
1 -3 0 -5 1 -2 2722 4108 100 MP stroke
0 -7 1 -3 0 -7 1 -2 0 -7 1 -3 0 -4 1 -3 
0 -6 1 -3 0 -6 1 -3 0 -6 1 -2 0 -5 1 -2 
0 -6 1 -3 0 -6 1 -2 0 -6 1 -2 0 -5 1 -2 
0 -6 1 -2 0 -6 1 -2 0 -4 1 -2 0 -5 1 -2 
0 -6 1 -2 0 -6 1 -1 0 -4 1 -2 0 -5 1 -2 
0 -6 1 -1 0 -6 1 -2 0 -3 1 -2 0 -5 1 -2 
0 -5 1 -1 0 -5 1 -2 0 -3 1 -2 0 -5 1 -1 
0 -5 1 -1 0 -4 1 -1 0 -5 1 -1 0 -5 1 -1 
0 -5 1 -1 0 -3 1 -1 0 -5 1 -1 0 -4 1 -2 
0 -4 1 -1 0 -3 1 -1 0 -4 1 -1 0 -4 1 -2 
0 -2 0 168 1 -2 0 -5 1 -2 0 -6 1 -2 0 -6 
1 -2 0 -4 1 -2 0 -6 1 -2 0 -6 1 -2 0 -6 
1 -2 0 -3 1 -2 2673 4276 100 MP stroke
0 -6 1 -2 0 -5 1 -2 0 -6 1 -1 0 -4 1 -2 
0 -5 1 -2 0 -5 1 -1 0 -6 1 -1 0 -4 1 -1 
0 -5 1 -2 0 -5 1 -1 0 -3 1 -2 0 -5 1 -1 
0 -5 1 -1 0 -5 1 -1 0 -3 1 -2 0 -4 1 -1 
0 -5 1 -1 0 -4 1 -2 0 -2 1 -2 0 -4 1 -1 
0 -4 1 -1 0 -4 1 -1 0 -3 1 -1 0 -4 1 -1 
0 -4 1 -1 0 -4 1 -1 0 -2 1 -1 0 -4 1 -1 
0 -3 1 -1 0 -3 1 -1 0 -3 1 -1 0 -3 1 -1 
0 -3 1 -1 0 -2 1 -1 0 -3 1 -1 0 -3 1 -1 
0 -3 1 -1 0 -2 1 -1 0 -3 1 -1 0 -2 1 -1 
0 38 0 -2 1 -1 0 -2 1 -1 0 -3 1 -1 0 -3 
1 -1 0 -2 1 -1 0 -3 1 -1 0 -3 1 -1 0 -3 
1 -1 0 -2 1 -1 2624 4472 100 MP stroke
0 -2 1 -1 0 -3 1 39 0 -4 1 -1 0 -2 1 -1 
0 -3 1 -1 0 -3 1 -1 0 -3 1 -1 0 -2 1 -1 
0 -3 1 -1 0 -3 1 -1 0 -2 1 -1 0 -2 1 -1 
0 -2 0 39 1 -1 0 -4 1 -1 0 -2 1 -1 0 -3 
1 -1 0 -3 1 -1 0 -3 1 -1 0 -2 1 -1 0 -3 
1 -1 0 -3 1 -1 0 -2 1 -1 0 -2 1 -1 0 38 
0 -39 0 38 1 -1 0 -4 1 -1 0 -2 1 -1 0 -3 
1 -1 0 -3 1 -1 0 -3 1 -1 0 -2 1 -1 0 -3 
1 -1 0 -2 1 -1 0 -3 1 -1 0 -2 1 -1 0 39 
0 -2 1 -1 0 -3 1 -2 0 -3 1 -1 0 -2 1 -1 
0 -3 1 -1 0 -3 1 -1 0 -2 1 -1 0 -3 1 -1 
0 -2 1 -1 0 -3 1 -1 0 -2 1 39 0 -3 1 -1 
0 -3 1 -1 0 -4 2577 4451 100 MP stroke
1 -1 0 -2 1 -1 0 -3 1 -1 0 -3 1 -1 0 -3 
1 -1 0 -1 1 -1 0 -3 1 -1 0 -3 1 -1 0 38 
0 -39 0 38 1 -1 0 -2 1 -1 0 -3 1 -1 0 -4 
1 -1 0 -2 1 -1 0 -3 1 -1 0 -3 1 -1 0 -2 
1 -1 0 -2 1 -1 0 -3 1 -1 0 -3 1 -1 0 39 
0 -2 1 -1 0 -2 1 -1 0 -3 1 -1 0 -4 1 -1 
0 -3 1 -1 0 -2 1 -1 0 -3 1 -1 0 -2 1 -1 
0 -2 1 -1 0 -3 1 -1 0 -2 1 38 0 -3 1 -1 
0 -2 1 -1 0 -3 1 -2 0 -3 1 -1 0 -3 1 -1 
0 -2 1 -1 0 -3 1 -1 0 -2 1 -1 0 -3 1 -1 
0 -2 1 -1 0 -1 0 38 1 -1 0 -3 1 -1 0 -2 
1 -1 0 -4 1 -1 0 -3 1 -1 0 -3 1 -1 0 -2 
1 -1 0 -2 1 -1 2529 4466 100 MP stroke
0 -3 1 -1 0 -3 1 -1 0 -2 1 -1 0 38 0 -1 
1 -1 0 -3 1 -1 0 -3 1 -1 0 -3 1 -1 0 -3 
1 -1 0 -3 1 -1 0 -1 1 -1 0 -3 1 -1 0 -3 
1 -1 0 -3 1 -1 0 -1 1 -1 0 38 0 -2 1 -1 
0 -3 1 -1 0 -3 1 -1 0 -2 1 -1 0 -3 1 -1 
0 -3 1 -1 0 -3 1 -1 0 -2 1 -1 0 -3 1 -1 
0 -2 1 -1 0 -2 1 39 0 -3 1 -1 0 -4 1 -1 
0 -3 1 -1 0 -2 1 -1 0 -3 1 -1 0 -3 1 -1 
0 -2 1 -1 0 -2 1 -1 0 -3 1 -1 0 -2 1 -1 
0 38 0 -39 0 38 1 -1 0 -2 1 -1 0 -3 1 -1 
0 -3 1 -1 0 -2 1 -1 0 -3 1 -1 0 -3 1 -1 
0 -3 1 -1 0 -2 1 -1 0 -2 1 -1 0 -3 1 -1 
0 41 0 -2 1 -2 2482 4438 100 MP stroke
0 -2 1 -1 0 -3 1 -1 0 -3 1 -1 0 -3 1 -1 
0 -2 1 -1 0 -3 1 -1 0 -2 1 -1 0 -3 1 -1 
0 -2 1 -1 0 -2 1 42 0 -3 1 -1 0 -2 1 -1 
0 -3 1 -1 0 -3 1 -1 0 -3 1 -1 0 -2 1 -1 
0 -3 1 -1 0 -3 1 -1 0 -2 1 -1 0 -2 1 -1 
0 -2 0 47 1 -1 0 -4 1 -1 0 -3 1 -1 0 -2 
1 -1 0 -3 1 -1 0 -3 1 -1 0 -2 1 -1 0 -3 
1 -1 0 -3 1 -1 0 -3 1 -1 0 -1 1 -1 0 52 
0 -53 0 52 1 -1 0 -4 1 -1 0 -3 1 -1 0 -3 
1 -1 0 -3 1 -1 0 -3 1 -1 0 -3 1 -1 0 -2 
1 -1 0 -3 1 -1 0 -3 1 -1 0 -2 1 -1 0 66 
0 -2 1 -2 0 -3 1 -2 0 -3 1 -1 0 -3 1 -1 
0 -4 1 -1 0 -3 2435 4407 100 MP stroke
1 -1 0 -4 1 -1 0 -2 1 -1 0 -3 1 -1 0 -4 
1 -1 0 93 0 -94 0 93 1 -2 0 -3 1 -1 0 -5 
1 -1 0 -5 1 -1 0 -3 1 -1 0 -4 1 -2 0 -4 
1 -1 0 -4 1 -2 0 -2 1 -2 0 -3 1 -2 0 -4 
1 166 0 -6 1 -2 0 -4 1 -2 0 -6 1 -2 0 -6 
1 -2 0 -6 1 -2 0 -4 1 -2 0 -6 1 -1 0 -6 
1 -2 0 -4 1 -1 0 -6 1 -2 0 -5 1 -2 0 -5 
1 -2 0 -3 1 -2 0 -5 1 -2 0 -5 1 -1 0 -5 
1 -2 0 -3 1 -2 0 -5 1 -1 0 -5 1 -1 0 -5 
1 -1 0 -3 1 -2 0 -4 1 -2 0 -4 1 -2 0 -4 
1 -1 0 -3 1 -1 0 -5 1 -1 0 -4 1 -1 0 -3 
1 -1 0 -4 1 -1 0 -4 1 -1 0 -4 1 -1 0 -3 
1 -1 0 -4 1 -1 2386 4418 100 MP stroke
0 -3 1 -1 0 -4 1 -1 0 -2 1 -1 0 -4 1 -1 
0 -3 1 -1 0 -3 1 -1 0 -2 1 -1 0 -3 1 -1 
0 -3 1 -1 0 -2 1 -1 0 -3 1 -1 0 -3 1 -1 
0 -2 1 -1 0 -2 1 -1 0 -3 1 42 0 -3 1 -1 
0 -3 1 -1 0 -2 1 -1 0 -3 1 -1 0 -3 1 -1 
0 -3 1 -1 0 -2 1 -1 0 -3 1 -1 0 -2 1 -1 
0 -2 1 -1 0 45 0 -46 0 45 1 -1 0 -4 1 -1 
0 -3 1 -1 0 -2 1 -1 0 -3 1 -1 0 -3 1 -1 
0 -3 1 -1 0 -2 1 -1 0 -3 1 -1 0 -2 1 -1 
0 -2 0 53 1 -1 0 -3 1 -1 0 -3 1 -1 0 -4 
1 -1 0 -2 1 -1 0 -3 1 -1 0 -3 1 -1 0 -3 
1 -1 0 -2 1 -1 0 -3 1 -1 0 -3 1 -1 0 66 
0 -2 1 -2 0 -2 2339 4388 100 MP stroke
1 -1 0 -4 1 -1 0 -4 1 -1 0 -4 1 -1 0 -2 
1 -1 0 -4 1 -1 0 -3 1 -1 0 -3 1 -1 0 -3 
1 -1 0 -2 0 94 1 -2 0 -4 1 -2 0 -3 1 -1 
0 -5 1 -1 0 -4 1 -2 0 -4 1 -1 0 -3 1 -2 
0 -4 1 -1 0 -4 1 -1 0 -4 1 -2 0 -2 1 -1 
0 164 0 -4 1 -2 0 -7 1 -2 0 -6 1 -2 0 -4 
1 -2 0 -6 1 -2 0 -6 1 -2 0 -3 1 -2 0 -6 
1 -2 0 -5 1 -2 0 -6 1 -1 0 -4 1 -2 0 -5 
1 -2 0 -5 1 -2 0 -5 1 -2 0 -3 1 -2 0 -5 
1 -1 0 -5 1 -2 0 -4 1 -2 0 -3 1 -2 0 -4 
1 -2 0 -4 1 -2 0 -3 1 -1 0 -5 1 -1 0 -4 
1 -2 0 -4 1 -1 0 -3 1 -1 0 -4 1 -2 0 -4 
1 -1 0 -4 1 -1 2290 4402 100 MP stroke
0 -3 1 -1 0 -4 1 -1 0 -4 1 -1 0 -3 1 -2 
0 -2 1 -1 0 -4 1 -1 0 -3 1 -1 0 -2 1 -2 
0 -3 1 -1 0 -3 1 -1 0 -3 1 -1 0 -2 1 -1 
0 -3 1 -1 0 -3 1 -1 0 -3 1 -1 0 -2 1 -1 
0 -2 1 -1 0 -3 1 -1 0 -2 1 39 0 -2 1 -1 
0 -3 1 -1 0 -4 1 -1 0 -2 1 -1 0 -2 1 -1 
0 -3 1 -1 0 -3 1 -1 0 -2 1 -1 0 -2 1 -1 
0 -3 1 -1 0 41 0 -42 0 41 1 -1 0 -2 1 -1 
0 -4 1 -1 0 -3 1 -1 0 -3 1 -1 0 -2 1 -1 
0 -2 1 -1 0 -3 1 -1 0 -2 1 -1 0 -2 1 -1 
0 -3 1 45 0 -3 1 -1 0 -2 1 -1 0 -3 1 -1 
0 -3 1 -1 0 -3 1 -1 0 -2 1 -1 0 -3 1 -1 
0 -3 1 -1 0 -3 2242 4457 100 MP stroke
1 -1 0 -1 1 -1 0 51 0 -52 0 51 1 -1 0 -3 
1 -2 0 -3 1 -1 0 -2 1 -1 0 -3 1 -2 0 -3 
1 -1 0 -2 1 -1 0 -3 1 -1 0 -3 1 -1 0 -3 
1 -1 0 -1 1 65 0 -4 1 -1 0 -3 1 -2 0 -3 
1 -2 0 -2 1 -1 0 -4 1 -1 0 -3 1 -1 0 -4 
1 -1 0 -2 1 -1 0 -3 1 -1 0 -3 1 -2 0 93 
0 -1 1 -2 0 -4 1 -2 0 -4 1 -1 0 -5 1 -1 
0 -3 1 -1 0 -4 1 -2 0 -4 1 -1 0 -4 1 -2 
0 -2 1 -1 0 -4 1 -2 0 -2 0 163 1 -2 0 -6 
1 -2 0 -5 1 -2 0 -6 1 -2 0 -5 1 -2 0 -4 
1 -2 0 -6 1 -2 0 -5 1 -2 0 -6 1 -2 0 -3 
1 -2 0 -5 1 -2 0 -5 1 -2 0 -5 1 -2 0 -4 
1 -1 0 -5 1 -2 2194 4322 100 MP stroke
0 -5 1 -1 0 -5 1 -2 0 -3 1 -2 0 -4 1 -2 
0 -4 1 -2 0 -3 1 -1 0 -5 1 -1 0 -5 1 -1 
0 -4 1 -2 0 -3 1 -1 0 -4 1 -1 0 -5 1 -1 
0 -4 1 -1 0 -3 1 -1 0 -4 1 -1 0 -4 1 -1 
0 -4 1 -1 0 -2 1 -2 0 -3 1 -1 0 -4 1 -1 
0 -2 1 -1 0 -4 1 -1 0 -3 1 -1 0 -3 1 -1 
0 -2 1 -1 0 -3 1 -1 0 -3 1 -1 0 -3 1 -1 
0 -2 1 -1 0 -3 1 -1 0 -2 1 -1 0 -3 1 -1 
0 -1 1 -1 0 -2 0 40 1 -1 0 -3 1 -1 0 -2 
1 -1 0 -3 1 -1 0 -3 1 -1 0 -3 1 -1 0 -2 
1 -1 0 -2 1 -1 0 -3 1 -1 0 -2 1 -1 0 -2 
1 -1 0 44 0 -2 1 -1 0 -3 1 -1 0 -3 1 -1 
0 -3 1 -1 0 -2 2146 4444 100 MP stroke
1 -1 0 -3 1 -1 0 -3 1 -1 0 -2 1 -1 0 -3 
1 -1 0 -2 1 -1 0 51 0 -1 1 -1 0 -4 1 -1 
0 -3 1 -1 0 -3 1 -1 0 -3 1 -1 0 -3 1 -1 
0 -3 1 -1 0 -3 1 -1 0 -2 1 -1 0 -2 1 -1 
0 63 0 -64 0 62 1 -1 0 -4 1 -1 0 -2 1 -1 
0 -4 1 -1 0 -4 1 -1 0 -2 1 -1 0 -4 1 -1 
0 -3 1 -1 0 -3 1 -2 0 -2 1 -1 0 -2 0 91 
1 -2 0 -4 1 -2 0 -4 1 -2 0 -3 1 -1 0 -4 
1 -2 0 -4 1 -1 0 -4 1 -2 0 -2 1 -2 0 -3 
1 -2 0 -4 1 -1 0 -2 1 156 0 -6 1 -2 0 -6 
1 -2 0 -6 1 -2 0 -4 1 -2 0 -6 1 -2 0 -5 
1 -2 0 -6 1 -2 0 -3 1 -2 0 -5 1 -2 0 -6 
1 -1 0 -6 1 -1 2098 4312 100 MP stroke
0 -4 1 -2 0 -5 1 -1 0 -5 1 -2 0 -3 1 -2 
0 -5 1 -1 0 -5 1 -2 0 -4 1 -2 0 -3 1 -1 
0 -5 1 -1 0 -5 1 -1 0 -5 1 -1 0 -3 1 -1 
0 -4 1 -2 0 -4 1 -1 0 -4 1 -2 0 -2 1 -2 
0 -4 1 -1 0 -4 1 -1 0 -2 1 -2 0 -3 1 -2 
0 -3 1 -1 0 -4 1 -1 0 -2 1 -1 0 -4 1 -1 
0 -3 1 -1 0 -4 1 -1 0 -2 1 -1 0 -3 1 -1 
0 -3 1 -1 0 -3 1 -1 0 -2 1 -1 0 -3 1 -1 
0 -2 1 -1 0 -3 1 -1 0 -2 1 -1 0 -2 1 -1 
0 35 0 -2 1 -1 0 -2 1 -1 0 -3 1 -1 0 -3 
1 -1 0 -3 1 -1 0 -2 1 -1 0 -3 1 -1 0 -2 
1 -1 0 -3 1 -1 0 -1 1 -1 0 34 0 -35 0 34 
1 -1 0 -3 1 -1 2050 4453 100 MP stroke
0 -3 1 -1 0 -2 1 -1 0 -3 1 -1 0 -3 1 -1 
0 -2 1 -1 0 -2 1 -1 0 -3 1 -1 0 -2 1 -1 
0 -1 0 35 1 -1 0 -3 1 -1 0 -3 1 -1 0 -3 
1 -1 0 -2 1 -1 0 -3 1 -1 0 -3 1 -1 0 -2 
1 -1 0 -2 1 -1 0 -3 1 -1 0 -1 0 35 1 -1 
0 -2 1 -1 0 -3 1 -1 0 -3 1 -1 0 -3 1 -1 
0 -2 1 -1 0 -3 1 -1 0 -2 1 -1 0 -3 1 -1 
0 -2 1 -1 0 -2 1 35 0 -3 1 -1 0 -3 1 -1 
0 -2 1 -1 0 -3 1 -1 0 -3 1 -1 0 -2 1 -1 
0 -2 1 -1 0 -3 1 -1 0 -3 1 -1 0 -1 1 -1 
0 35 0 -2 1 -1 0 -3 1 -1 0 -3 1 -1 0 -2 
1 -1 0 -3 1 -1 0 -3 1 -1 0 -2 1 -1 0 -2 
1 -1 0 -3 1 -1 2002 4479 100 MP stroke
0 -2 1 -1 0 35 0 -1 1 -1 0 -3 1 -1 0 -3 
1 -1 0 -3 1 -1 0 -2 1 -1 0 -3 1 -1 0 -3 
1 -1 0 -2 1 -1 0 -2 1 -1 0 -2 1 -1 0 34 
0 -35 0 34 1 -1 0 -3 1 -1 0 -2 1 -1 0 -3 
1 -1 0 -3 1 -1 0 -3 1 -1 0 -2 1 -1 0 -2 
1 -1 0 -3 1 -1 0 -1 1 -1 0 -2 0 35 1 -1 
0 -3 1 -1 0 -3 1 -1 0 -2 1 -1 0 -3 1 -1 
0 -3 1 -1 0 -3 1 -1 0 -1 1 -1 0 -3 1 -1 
0 -2 1 -1 0 -2 0 35 1 -1 0 -2 1 -1 0 -3 
1 -1 0 -3 1 -1 0 -2 1 -1 0 -3 1 -1 0 -3 
1 -1 0 -2 1 -1 0 -2 1 -1 0 -3 1 -1 0 -2 
1 36 0 -4 1 -1 0 -2 1 -1 0 -3 1 -1 0 -3 
1 -1 0 -3 1 -1 1955 4466 100 MP stroke
0 -2 1 -1 0 -2 1 -1 0 -3 1 -1 0 -2 1 -1 
0 -2 1 -1 0 36 0 -3 1 -1 0 -3 1 -1 0 -2 
1 -1 0 -3 1 -1 0 -3 1 -1 0 -3 1 -1 0 -1 
1 -1 0 -3 1 -1 0 -3 1 -1 0 -2 1 -1 0 36 
0 -1 1 -1 0 -4 1 -1 0 -3 1 -1 0 -2 1 -1 
0 -3 1 -1 0 -3 1 -1 0 -2 1 -1 0 -2 1 -1 
0 -3 1 -1 0 -2 1 -1 0 35 0 -36 0 35 1 -1 
0 -3 1 -1 0 -3 1 -1 0 -3 1 -1 0 -3 1 -1 
0 -2 1 -1 0 -2 1 -1 0 -3 1 -1 0 -2 1 -1 
0 -2 1 -1 0 -2 0 36 1 -1 0 -4 1 -1 0 -2 
1 -1 0 -3 1 -1 0 -3 1 -1 0 -3 1 -1 0 -1 
1 -1 0 -3 1 -1 0 -3 1 -1 0 -2 1 -1 0 -2 
1 36 0 -4 1 -1 1908 4451 100 MP stroke
0 -3 1 -1 0 -2 1 -1 0 -3 1 -1 0 -3 1 -1 
0 -2 1 -1 0 -2 1 -1 0 -3 1 -1 0 -3 1 -1 
0 -2 1 36 0 -3 1 -1 0 -3 1 -1 0 -3 1 -1 
0 -3 1 -1 0 -2 1 -1 0 -3 1 -1 0 -2 1 -1 
0 -3 1 -1 0 -2 1 -1 0 -2 1 -1 0 35 0 -2 
1 -1 0 -2 1 -1 0 -3 1 -1 0 -3 1 -1 0 -3 
1 -1 0 -2 1 -1 0 -3 1 -1 0 -3 1 -1 0 -2 
1 -1 0 -2 1 -1 0 35 0 -36 0 34 1 -1 0 -3 
1 -1 0 -3 1 -1 0 -2 1 -1 0 -3 1 -1 0 -3 
1 -1 0 -1 1 -1 0 -3 1 -1 0 -3 1 -1 0 -2 
1 -1 0 -1 0 35 1 -1 0 -4 1 -1 0 -3 1 -1 
0 -3 1 -1 0 -2 1 -1 0 -3 1 -1 0 -2 1 -1 
0 -3 1 -1 0 -2 1861 4478 100 MP stroke
1 -1 0 -2 1 -1 0 34 0 -35 0 34 1 -1 0 -3 
1 -1 0 -3 1 -1 0 -3 1 -1 0 -3 1 -1 0 -1 
1 -1 0 -3 1 -1 0 -3 1 -1 0 -3 1 -1 0 -1 
1 -1 0 34 0 -35 0 34 1 -1 0 -4 1 -1 0 -3 
1 -1 0 -2 1 -1 0 -3 1 -1 0 -2 1 -1 0 -2 
1 -1 0 -3 1 -1 0 -2 1 -1 0 -3 1 -1 0 35 
0 -1 1 -1 0 -4 1 -1 0 -3 1 -1 0 -3 1 -1 
0 -2 1 -1 0 -2 1 -1 0 -3 1 -1 0 -3 1 -1 
0 -1 1 -1 0 -3 1 -1 0 35 0 -2 1 -1 0 -3 
1 -1 0 -3 1 -1 0 -3 1 -1 0 -3 1 -1 0 -1 
1 -1 0 -3 1 -1 0 -3 1 -1 0 -2 1 -1 0 -2 
1 -1 0 35 0 -2 1 -1 0 -4 1 -1 0 -3 1 -1 
0 -2 1 -1 0 -2 1815 4465 100 MP stroke
1 -1 0 -3 1 -1 0 -3 1 -1 0 -2 1 -1 0 -2 
1 -1 0 -3 1 35 0 -2 1 -1 0 -3 1 -1 0 -3 
1 -1 0 -3 1 -1 0 -2 1 -1 0 -3 1 -1 0 -2 
1 -1 0 -3 1 -1 0 -2 1 -1 0 -2 1 35 0 -3 
1 -2 0 -3 1 -1 0 -2 1 -1 0 -2 1 -1 0 -3 
1 -1 0 -2 1 -1 0 -3 1 -1 0 -2 1 -1 0 -3 
1 -1 0 -1 1 35 0 -3 1 -1 0 -3 1 -1 0 -3 
1 -1 0 -2 1 -1 0 -3 1 -1 0 -2 1 -1 0 -3 
1 -1 0 -2 1 -1 0 -2 1 -1 0 -2 0 37 1 -1 
0 -2 1 -1 0 -3 1 -1 0 -3 1 -1 0 -3 1 -1 
0 -2 1 -1 0 -2 1 -1 0 -3 1 -1 0 -3 1 -1 
0 -1 1 -1 0 -2 0 39 1 -1 0 -3 1 -1 0 -3 
1 -1 0 -2 1 -1 1766 4450 100 MP stroke
0 -3 1 -1 0 -3 1 -1 0 -1 1 -1 0 -3 1 -1 
0 -3 1 -1 0 -2 1 -1 0 -1 0 43 1 -1 0 -3 
1 -1 0 -3 1 -1 0 -3 1 -1 0 -2 1 -1 0 -3 
1 -1 0 -3 1 -1 0 -3 1 -1 0 -1 1 -1 0 -3 
1 -1 0 49 0 -50 0 49 1 -1 0 -2 1 -1 0 -4 
1 -1 0 -3 1 -1 0 -3 1 -1 0 -2 1 -1 0 -3 
1 -1 0 -3 1 -1 0 -3 1 -1 0 -1 1 -1 0 62 
0 -63 0 62 1 -1 0 -4 1 -1 0 -4 1 -1 0 -2 
1 -1 0 -4 1 -1 0 -3 1 -1 0 -4 1 -1 0 -2 
1 -1 0 -3 1 -1 0 -3 1 -1 0 91 0 -1 1 -2 
0 -4 1 -1 0 -5 1 -1 0 -4 1 -2 0 -2 1 -2 
0 -4 1 -1 0 -4 1 -1 0 -4 1 -1 0 -3 1 -1 
0 -4 1 -1 0 167 1720 4217 100 MP stroke
0 -4 1 -2 0 -6 1 -2 0 -4 1 -2 0 -6 1 -2 
0 -6 1 -2 0 -4 1 -2 0 -5 1 -2 0 -6 1 -1 
0 -6 1 -2 0 -3 1 -2 0 -5 1 -2 0 -5 1 -2 
0 -5 1 -2 0 -3 1 -2 0 -5 1 -1 0 -5 1 -2 
0 -5 1 -1 0 -3 1 -2 0 -5 1 -1 0 -5 1 -1 
0 -3 1 -2 0 -4 1 -1 0 -5 1 -1 0 -4 1 -2 
0 -2 1 -2 0 -4 1 -1 0 -4 1 -2 0 -3 1 -2 
0 -2 1 -2 0 -3 1 -2 0 -3 1 -2 0 -3 1 -1 
0 -3 1 -1 0 -3 1 -2 0 -3 1 -1 0 -2 1 -1 
0 -4 1 -1 0 -3 1 -1 0 -3 1 -1 0 -2 1 -1 
0 -3 1 -1 0 -3 1 -1 0 -3 1 -1 0 -2 1 -1 
0 -3 1 -1 0 -2 1 -1 0 -3 1 50 0 -3 1 -1 
0 -3 1 -1 0 -3 1671 4426 100 MP stroke
1 -1 0 -3 1 -1 0 -3 1 -1 0 -3 1 -1 0 -3 
1 -1 0 -2 1 -1 0 -3 1 -1 0 -2 1 62 0 -4 
1 -1 0 -3 1 -1 0 -4 1 -1 0 -3 1 -2 0 -3 
1 -1 0 -2 1 -2 0 -3 1 -1 0 -3 1 -1 0 -2 
1 -1 0 -4 1 87 0 -4 1 -2 0 -4 1 -2 0 -2 
1 -2 0 -4 1 -1 0 -5 1 -1 0 -4 1 -1 0 -3 
1 -1 0 -4 1 -1 0 -4 1 -2 0 -2 0 147 1 -2 
0 -4 1 -2 0 -6 1 -2 0 -6 1 -1 0 -6 1 -2 
0 -4 1 -2 0 -5 1 -2 0 -6 1 -1 0 -4 1 -2 
0 -5 1 -2 0 -5 1 -2 0 -5 1 -1 0 -4 1 -1 
0 -5 1 -2 0 -5 1 -2 0 -4 1 -2 0 -3 1 -2 
0 -4 1 -2 0 -4 1 -2 0 -4 1 -2 0 -3 1 -1 
0 -4 1 -2 0 -4 1622 4386 100 MP stroke
1 -1 0 -3 1 -1 0 -5 1 -1 0 -4 1 -1 0 -4 
1 -1 0 -3 1 -1 0 -4 1 -1 0 -4 1 -1 0 -4 
1 -1 0 -2 1 -1 0 -4 1 -1 0 -4 1 -1 0 -3 
1 -1 0 -2 1 -1 0 -4 1 -1 0 -3 1 -1 0 -2 
1 -1 0 -3 1 -1 0 -3 1 -1 0 -3 1 -1 0 -1 
1 -1 0 -3 1 -1 0 -3 1 -1 0 -2 1 -1 0 -2 
1 -1 0 33 0 -2 1 -1 0 -3 1 -1 0 -3 1 -1 
0 -2 1 -1 0 -2 1 -1 0 -3 1 -1 0 -2 1 -1 
0 -2 1 -1 0 -3 1 -1 0 -2 0 34 1 -2 0 -2 
1 -1 0 -3 1 -1 0 -3 1 -1 0 -2 1 -1 0 -2 
1 -1 0 -3 1 -1 0 -3 1 -1 0 -2 1 -1 0 -2 
1 -1 0 33 0 -34 0 33 1 -1 0 -4 1 -1 0 -2 
1 -1 0 -2 1 -1 1574 4465 100 MP stroke
0 -3 1 -1 0 -3 1 -1 0 -2 1 -1 0 -2 1 -1 
0 -3 1 -1 0 -3 1 34 0 -2 1 -1 0 -3 1 -1 
0 -3 1 -1 0 -3 1 -1 0 -2 1 -1 0 -3 1 -1 
0 -3 1 -1 0 -2 1 -1 0 -2 1 -1 0 -1 0 33 
1 -1 0 -3 1 -1 0 -2 1 -1 0 -3 1 -1 0 -3 
1 -1 0 -3 1 -1 0 -2 1 -1 0 -2 1 -1 0 -3 
1 -1 0 -2 1 -1 0 33 0 -1 1 -1 0 -3 1 -1 
0 -3 1 -1 0 -3 1 -1 0 -2 1 -1 0 -3 1 -1 
0 -3 1 -1 0 -1 1 -1 0 -3 1 -1 0 -2 1 33 
0 -3 1 -1 0 -2 1 -1 0 -3 1 -1 0 -3 1 -1 
0 -3 1 -1 0 -2 1 -1 0 -2 1 -1 0 -3 1 -1 
0 -2 1 -1 0 -1 0 33 1 -1 0 -3 1 -1 0 -3 
1 -1 0 -2 1 -1 1526 4464 100 MP stroke
0 -3 1 -1 0 -3 1 -1 0 -3 1 -1 0 -1 1 -1 
0 -3 1 -1 0 -2 1 -1 0 33 0 -2 1 -1 0 -2 
1 -1 0 -3 1 -1 0 -3 1 -1 0 -3 1 -1 0 -2 
1 -1 0 -3 1 -1 0 -2 1 -1 0 -2 1 -1 0 -2 
1 33 0 -3 1 -1 0 -3 1 -1 0 -2 1 -1 0 -3 
1 -1 0 -3 1 -1 0 -3 1 -1 0 -1 1 -1 0 -3 
1 -1 0 -2 1 -1 0 32 0 -33 0 32 1 -1 0 -2 
1 -1 0 -3 1 -1 0 -3 1 -1 0 -2 1 -1 0 -3 
1 -1 0 -2 1 -1 0 -3 1 -1 0 -2 1 -1 0 -2 
1 -1 0 33 0 -2 1 -1 0 -3 1 -1 0 -2 1 -1 
0 -3 1 -1 0 -2 1 -1 0 -3 1 -1 0 -2 1 -1 
0 -2 1 -1 0 -3 1 -1 0 -1 0 33 1 -1 0 -2 
1 -1 0 -3 1 -1 1479 4459 100 MP stroke
0 -3 1 -1 0 -2 1 -1 0 -2 1 -1 0 -3 1 -1 
0 -3 1 -1 0 -1 1 -1 0 -3 1 -1 0 34 0 -1 
1 -1 0 -3 1 -1 0 -2 1 -1 0 -3 1 -1 0 -3 
1 -1 0 -2 1 -1 0 -2 1 -1 0 -3 1 -1 0 -2 
1 -1 0 -2 1 -1 0 36 0 -2 1 -1 0 -3 1 -1 
0 -3 1 -1 0 -2 1 -1 0 -3 1 -1 0 -2 1 -1 
0 -3 1 -1 0 -2 1 -1 0 -2 1 -1 0 -2 0 38 
1 -1 0 -3 1 -1 0 -2 1 -1 0 -3 1 -1 0 -3 
1 -1 0 -1 1 -1 0 -3 1 -1 0 -3 1 -1 0 -2 
1 -1 0 -2 1 -1 0 41 0 -42 0 41 1 -1 0 -3 
1 -1 0 -3 1 -1 0 -2 1 -1 0 -3 1 -1 0 -3 
1 -1 0 -3 1 -1 0 -2 1 -1 0 -2 1 -1 0 -3 
1 49 0 -2 1 -2 1432 4421 100 MP stroke
0 -3 1 -1 0 -3 1 -1 0 -3 1 -1 0 -3 1 -1 
0 -3 1 -1 0 -3 1 -1 0 -2 1 -1 0 -2 1 -1 
0 -2 0 61 1 -1 0 -4 1 -1 0 -4 1 -1 0 -3 
1 -1 0 -3 1 -1 0 -4 1 -1 0 -2 1 -1 0 -3 
1 -2 0 -3 1 -1 0 -3 1 -1 0 86 0 -2 1 -1 
0 -5 1 -1 0 -4 1 -2 0 -4 1 -1 0 -3 1 -1 
0 -5 1 -1 0 -4 1 -1 0 -4 1 -1 0 -3 1 -1 
0 -4 1 147 0 -6 1 -2 0 -4 1 -2 0 -6 1 -2 
0 -6 1 -2 0 -5 1 -2 0 -4 1 -2 0 -5 1 -2 
0 -5 1 -2 0 -5 1 -2 0 -3 1 -2 0 -5 1 -2 
0 -5 1 -2 0 -4 1 -2 0 -3 1 -2 0 -5 1 -1 
0 -5 1 -1 0 -5 1 -2 0 -3 1 -1 0 -4 1 -2 
0 -4 1 -2 0 -3 1384 4379 100 MP stroke
1 -1 0 -4 1 -2 0 -4 1 -1 0 -4 1 -1 0 -3 
1 -1 0 -4 1 -1 0 -4 1 -2 0 -3 1 -2 0 -2 
1 -1 0 -4 1 -1 0 -3 1 -2 0 -3 1 -1 0 -2 
1 -2 0 -3 1 -1 0 -3 1 -1 0 -2 1 -1 0 -4 
1 -1 0 -3 1 -1 0 -3 1 -1 0 -1 1 -1 0 -3 
1 -1 0 -3 1 -1 0 -2 1 -1 0 -2 1 -1 0 -3 
1 -1 0 -2 1 -1 0 34 0 -2 1 -1 0 -2 1 -1 
0 -3 1 -1 0 -3 1 -1 0 -1 1 -1 0 -3 1 -1 
0 -3 1 -1 0 -2 1 -1 0 -2 1 -1 0 -2 1 35 
0 -3 1 -1 0 -3 1 -1 0 -2 1 -1 0 -3 1 -1 
0 -2 1 -1 0 -3 1 -1 0 -2 1 -1 0 -2 1 -1 
0 -3 1 -1 0 37 1 -1 0 -3 1 -1 0 -3 1 -1 
0 -3 1 -1 0 -2 1335 4457 100 MP stroke
1 -1 0 -3 1 -1 0 -2 1 -1 0 -3 1 -1 0 -1 
1 -1 0 -3 1 -1 0 41 0 -2 1 -1 0 -3 1 -1 
0 -2 1 -1 0 -3 1 -1 0 -3 1 -1 0 -2 1 -1 
0 -2 1 -1 0 -3 1 -1 0 -3 1 -1 0 -1 1 47 
0 -3 1 -1 0 -4 1 -1 0 -3 1 -1 0 -2 1 -1 
0 -3 1 -1 0 -3 1 -1 0 -3 1 -1 0 -2 1 -1 
0 -3 1 -1 0 60 0 -2 1 -2 0 -3 1 -1 0 -3 
1 -1 0 -3 1 -2 0 -3 1 -1 0 -2 1 -2 0 -3 
1 -1 0 -3 1 -1 0 -3 1 -1 0 -2 0 84 1 -1 
0 -4 1 -2 0 -4 1 -2 0 -4 1 -1 0 -3 1 -1 
0 -4 1 -2 0 -4 1 -1 0 -4 1 -1 0 -3 1 -1 
0 -4 1 144 0 -6 1 -2 0 -4 1 -2 0 -6 1 -2 
0 -6 1 -2 0 -5 1287 4287 100 MP stroke
1 -2 0 -4 1 -2 0 -5 1 -2 0 -5 1 -2 0 -5 
1 -2 0 -3 1 -2 0 -5 1 -2 0 -5 1 -2 0 -4 
1 -2 0 -3 1 -2 0 -5 1 -1 0 -5 1 -1 0 -3 
1 -2 0 -5 1 -1 0 -4 1 -2 0 -4 1 -2 0 -2 
1 -2 0 -4 1 -1 0 -5 1 -1 0 -4 1 -1 0 -3 
1 -1 0 -4 1 -1 0 -4 1 -1 0 -4 1 -1 0 -3 
1 -1 0 -4 1 -1 0 -3 1 -2 0 -2 1 -1 0 -3 
1 -1 0 -4 1 -1 0 -3 1 -1 0 -2 1 -1 0 -3 
1 -1 0 -4 1 -1 0 -2 1 -1 0 -2 1 -1 0 -3 
1 -1 0 -3 1 -1 0 -2 1 -1 0 -2 1 -1 0 -3 
1 -1 0 -1 0 32 1 -1 0 -3 1 -1 0 -3 1 -1 
0 -2 1 -1 0 -3 1 -1 0 -2 1 -1 0 -3 1 -1 
0 -2 1 -1 0 -3 1238 4484 100 MP stroke
1 -1 0 -1 1 -1 0 32 0 -2 1 -1 0 -3 1 -1 
0 -3 1 -1 0 -2 1 -1 0 -3 1 -1 0 -3 1 -1 
0 -2 1 -1 0 -2 1 -1 0 -2 1 -1 0 31 0 -32 
0 31 1 -1 0 -2 1 -1 0 -3 1 -1 0 -3 1 -1 
0 -3 1 -1 0 -2 1 -1 0 -2 1 -1 0 -3 1 -1 
0 -2 1 -1 0 -2 1 32 0 -3 1 -1 0 -3 1 -1 
0 -3 1 -1 0 -1 1 -1 0 -3 1 -1 0 -3 1 -1 
0 -1 1 -1 0 -3 1 -1 0 -2 1 -1 0 32 0 -2 
1 -1 0 -2 1 -1 0 -3 1 -1 0 -2 1 -1 0 -3 
1 -1 0 -2 1 -1 0 -2 1 -1 0 -3 1 -1 0 -2 
1 -1 0 -1 0 33 1 -1 0 -3 1 -1 0 -3 1 -1 
0 -2 1 -1 0 -2 1 -1 0 -3 1 -1 0 -2 1 -1 
0 -2 1 -1 0 -3 1191 4480 100 MP stroke
1 -1 0 -2 1 35 0 -3 1 -1 0 -2 1 -1 0 -3 
1 -1 0 -3 1 -1 0 -3 1 -1 0 -1 1 -1 0 -3 
1 -1 0 -2 1 -1 0 -2 1 -1 0 36 0 -37 0 36 
1 -1 0 -3 1 -1 0 -3 1 -1 0 -2 1 -1 0 -3 
1 -1 0 -2 1 -1 0 -3 1 -1 0 -2 1 -1 0 -2 
1 -1 0 -2 0 41 1 -1 0 -3 1 -1 0 -2 1 -1 
0 -3 1 -1 0 -3 1 -1 0 -2 1 -1 0 -3 1 -1 
0 -2 1 -1 0 -3 1 -1 0 -2 1 -1 0 48 0 -2 
1 -1 0 -3 1 -2 0 -3 1 -1 0 -2 1 -1 0 -3 
1 -1 0 -3 1 -1 0 -3 1 -1 0 -2 1 -1 0 -3 
1 -1 0 59 0 -60 0 59 1 -1 0 -3 1 -1 0 -4 
1 -1 0 -3 1 -1 0 -4 1 -1 0 -2 1 -1 0 -4 
1 -1 0 -3 1 -1 1144 4426 100 MP stroke
0 -3 1 -2 0 -2 1 85 0 -5 1 -1 0 -4 1 -2 
0 -4 1 -1 0 -3 1 -2 0 -4 1 -1 0 -4 1 -1 
0 -4 1 -2 0 -2 1 -2 0 -3 1 -2 0 145 0 -4 
1 -2 0 -4 1 -2 0 -6 1 -2 0 -6 1 -2 0 -6 
1 -2 0 -3 1 -2 0 -6 1 -1 0 -6 1 -2 0 -5 
1 -2 0 -3 1 -2 0 -5 1 -2 0 -5 1 -2 0 -4 
1 -2 0 -3 1 -2 0 -5 1 -1 0 -5 1 -2 0 -3 
1 -1 0 -5 1 -1 0 -5 1 -1 0 -5 1 -1 0 -3 
1 -1 0 -5 1 -1 0 -4 1 -1 0 -5 1 -1 0 -3 
1 -1 0 -4 1 -1 0 -4 1 -1 0 -4 1 -1 0 -3 
1 -1 0 -3 1 -2 0 -3 1 -1 0 -3 1 -1 0 -3 
1 -1 0 -4 1 -1 0 -3 1 -1 0 -2 1 -1 0 -3 
1 -1 0 -3 1 -1 1095 4459 100 MP stroke
0 -3 1 -1 0 -2 1 -1 0 -3 1 -1 0 -3 1 -1 
0 -2 1 -1 0 -2 1 -1 0 -2 1 -1 0 -3 1 32 
0 -2 1 -1 0 -3 1 -1 0 -2 1 -1 0 -3 1 -1 
0 -2 1 -1 0 -3 1 -1 0 -2 1 -1 0 -2 1 -1 
0 -2 1 -1 0 32 0 -33 0 32 1 -1 0 -3 1 -1 
0 -3 1 -1 0 -2 1 -1 0 -2 1 -1 0 -3 1 -1 
0 -2 1 -1 0 -2 1 -1 0 -2 1 -1 0 -2 0 34 
1 -1 0 -2 1 -1 0 -3 1 -1 0 -3 1 -1 0 -2 
1 -1 0 -2 1 -1 0 -2 1 -1 0 -3 1 -1 0 -2 
1 -1 0 -2 1 -1 0 37 0 -2 1 -1 0 -3 1 -1 
0 -3 1 -1 0 -2 1 -1 0 -2 1 -1 0 -3 1 -1 
0 -1 1 -1 0 -3 1 -1 0 -2 1 -1 0 40 0 -41 
0 40 1 -1 0 -2 1049 4437 100 MP stroke
1 -1 0 -3 1 -1 0 -3 1 -1 0 -2 1 -1 0 -2 
1 -1 0 -3 1 -1 0 -2 1 -1 0 -3 1 -1 0 50 
1 -1 0 -3 1 -1 0 -4 1 -1 0 -2 1 -1 0 -3 
1 -1 0 -3 1 -1 0 -2 1 -1 0 -2 1 -1 0 -3 
1 -1 0 -2 0 69 1 -1 0 -4 1 -1 0 -3 1 -1 
0 -3 1 -1 0 -4 1 -1 0 -3 1 -1 0 -2 1 -2 
0 -3 1 -1 0 -3 1 -1 0 -2 1 112 0 -5 1 -1 
0 -5 1 -1 0 -5 1 -1 0 -3 1 -2 0 -4 1 -1 
0 -5 1 -1 0 -4 1 -1 0 -3 1 -1 0 -4 1 263 
0 -8 1 -2 0 -8 1 -2 0 -5 1 -3 0 -7 1 -2 
0 -8 1 -2 0 -5 1 -2 0 -7 1 -2 0 -7 1 -2 
0 -7 1 -2 0 -5 1 -2 0 -7 1 -2 0 -6 1 -2 
0 -7 1 -2 0 -4 1000 4204 100 MP stroke
1 -2 0 -6 1 -3 0 -6 1 -2 0 -6 1 -2 0 -4 
1 -2 0 -5 1 -2 0 -6 1 -2 0 -4 1 -2 0 -5 
1 -2 0 -5 1 -2 0 -6 1 -1 0 -4 1 -2 0 -5 
1 -2 0 -5 1 -2 0 -5 1 -1 0 -4 1 -1 0 -5 
1 -2 0 -4 1 -2 0 -5 1 -1 0 -3 1 -2 0 -5 
1 -1 0 -5 1 -1 0 -4 1 -2 0 -3 1 -1 0 -4 
1 -2 0 -4 1 -1 0 -3 1 -1 0 -4 1 -2 0 -4 
1 -1 0 -4 1 -1 0 -3 1 -1 0 -4 1 -1 0 142 
0 -4 1 -2 0 -6 1 -1 0 -4 1 -2 0 -6 1 -2 
0 -5 1 -2 0 -5 1 -2 0 -4 1 -2 0 -5 1 -2 
0 -5 1 -1 0 -4 1 -2 0 -5 1 -1 0 -5 1 -2 
0 -5 1 -1 0 -3 1 -2 0 -5 1 -1 0 -5 1 -1 
0 -5 1 -1 0 -3 951 4365 100 MP stroke
1 -2 0 -4 1 -1 0 -5 1 -1 0 -4 1 -2 0 -2 
1 -2 0 -4 1 -1 0 -4 1 -1 0 -3 1 -1 0 -4 
1 -1 0 -4 1 -1 0 -4 1 -1 0 -3 1 -1 0 -3 
1 -1 0 -4 1 -1 0 -3 1 -1 0 -3 1 -1 0 -3 
1 -1 0 -3 1 -1 0 -3 1 -1 0 -2 1 -1 0 -3 
1 -1 0 -3 1 -1 0 -2 1 -1 0 -3 1 -1 0 -2 
1 -1 0 -3 1 -1 0 -1 1 -1 0 -3 1 -1 0 35 
0 -36 0 35 1 -1 0 -3 1 -1 0 -2 1 -1 0 -3 
1 -1 0 -2 1 -1 0 -3 1 -1 0 -2 1 -1 0 -2 
1 -1 0 -3 1 -1 0 39 1 -1 0 -3 1 -1 0 -3 
1 -1 0 -3 1 -1 0 -2 1 -1 0 -3 1 -1 0 -2 
1 -1 0 -3 1 -1 0 -2 1 -1 0 -1 0 46 1 -2 
0 -3 1 -1 0 -3 903 4431 100 MP stroke
1 -1 0 -2 1 -1 0 -3 1 -1 0 -3 1 -1 0 -3 
899 4446 9 MP stroke
gr

c8
0 sg
3316 4903 mt 
(Tempo [s]) s
 582 3064 mt  -90 rotate
(Tra\347o da Covari\342ncia) s
90 rotate
2498  294 mt 
(Tra\347o da Covari\342ncia do Erro de Kalman) s

end %%Color Dict

eplot
%%EndObject

epage
end

showpage

%%Trailer
%%EOF
