%!PS-Adobe-2.0 EPSF-1.2
%%Creator: MATLAB, The Mathworks, Inc. Version 7.9.0.529 (R2009b). Operating System: Darwin 10.8.0 Darwin Kernel Version 10.8.0: Tue Jun  7 16:33:36 PDT 2011; root:xnu-1504.15.3~1/RELEASE_I386 i386.
%%Title: ./vD_vV_falhas_tempos_veiculos_zoom_bom.eps
%%CreationDate: 12/06/2011  00:42:12
%%DocumentNeededFonts: Helvetica
%%DocumentProcessColors: Cyan Magenta Yellow Black
%%Extensions: CMYK
%%Pages: 1
%%BoundingBox:    60   208   551   595
%%EndComments

%%BeginProlog
% MathWorks dictionary
/MathWorks 160 dict begin
% definition operators
/bdef {bind def} bind def
/ldef {load def} bind def
/xdef {exch def} bdef
/xstore {exch store} bdef
% operator abbreviations
/c  /clip ldef
/cc /concat ldef
/cp /closepath ldef
/gr /grestore ldef
/gs /gsave ldef
/mt /moveto ldef
/np /newpath ldef
/cm /currentmatrix ldef
/sm /setmatrix ldef
/rm /rmoveto ldef
/rl /rlineto ldef
/s {show newpath} bdef
/sc {setcmykcolor} bdef
/sr /setrgbcolor ldef
/sg /setgray ldef
/w /setlinewidth ldef
/j /setlinejoin ldef
/cap /setlinecap ldef
/rc {rectclip} bdef
/rf {rectfill} bdef
% page state control
/pgsv () def
/bpage {/pgsv save def} bdef
/epage {pgsv restore} bdef
/bplot /gsave ldef
/eplot {stroke grestore} bdef
% orientation switch
/portraitMode 0 def /landscapeMode 1 def /rotateMode 2 def
% coordinate system mappings
/dpi2point 0 def
% font control
/FontSize 0 def
/FMS {/FontSize xstore findfont [FontSize 0 0 FontSize neg 0 0]
  makefont setfont} bdef
/reencode {exch dup where {pop load} {pop StandardEncoding} ifelse
  exch dup 3 1 roll findfont dup length dict begin
  { 1 index /FID ne {def}{pop pop} ifelse } forall
  /Encoding exch def currentdict end definefont pop} bdef
/isroman {findfont /CharStrings get /Agrave known} bdef
/FMSR {3 1 roll 1 index dup isroman {reencode} {pop pop} ifelse
  exch FMS} bdef
/csm {1 dpi2point div -1 dpi2point div scale neg translate
 dup landscapeMode eq {pop -90 rotate}
  {rotateMode eq {90 rotate} if} ifelse} bdef
% line types: solid, dotted, dashed, dotdash
/SO { [] 0 setdash } bdef
/DO { [.5 dpi2point mul 4 dpi2point mul] 0 setdash } bdef
/DA { [6 dpi2point mul] 0 setdash } bdef
/DD { [.5 dpi2point mul 4 dpi2point mul 6 dpi2point mul 4
  dpi2point mul] 0 setdash } bdef
% macros for lines and objects
/L {lineto stroke} bdef
/MP {3 1 roll moveto 1 sub {rlineto} repeat} bdef
/AP {{rlineto} repeat} bdef
/PDlw -1 def
/W {/PDlw currentlinewidth def setlinewidth} def
/PP {closepath eofill} bdef
/DP {closepath stroke} bdef
/MR {4 -2 roll moveto dup  0 exch rlineto exch 0 rlineto
  neg 0 exch rlineto closepath} bdef
/FR {MR stroke} bdef
/PR {MR fill} bdef
/L1i {{currentfile picstr readhexstring pop} image} bdef
/tMatrix matrix def
/MakeOval {newpath tMatrix currentmatrix pop translate scale
0 0 1 0 360 arc tMatrix setmatrix} bdef
/FO {MakeOval stroke} bdef
/PO {MakeOval fill} bdef
/PD {currentlinewidth 2 div 0 360 arc fill
   PDlw -1 eq not {PDlw w /PDlw -1 def} if} def
/FA {newpath tMatrix currentmatrix pop translate scale
  0 0 1 5 -2 roll arc tMatrix setmatrix stroke} bdef
/PA {newpath tMatrix currentmatrix pop	translate 0 0 moveto scale
  0 0 1 5 -2 roll arc closepath tMatrix setmatrix fill} bdef
/FAn {newpath tMatrix currentmatrix pop translate scale
  0 0 1 5 -2 roll arcn tMatrix setmatrix stroke} bdef
/PAn {newpath tMatrix currentmatrix pop translate 0 0 moveto scale
  0 0 1 5 -2 roll arcn closepath tMatrix setmatrix fill} bdef
/vradius 0 def /hradius 0 def /lry 0 def
/lrx 0 def /uly 0 def /ulx 0 def /rad 0 def
/MRR {/vradius xdef /hradius xdef /lry xdef /lrx xdef /uly xdef
  /ulx xdef newpath tMatrix currentmatrix pop ulx hradius add uly
  vradius add translate hradius vradius scale 0 0 1 180 270 arc 
  tMatrix setmatrix lrx hradius sub uly vradius add translate
  hradius vradius scale 0 0 1 270 360 arc tMatrix setmatrix
  lrx hradius sub lry vradius sub translate hradius vradius scale
  0 0 1 0 90 arc tMatrix setmatrix ulx hradius add lry vradius sub
  translate hradius vradius scale 0 0 1 90 180 arc tMatrix setmatrix
  closepath} bdef
/FRR {MRR stroke } bdef
/PRR {MRR fill } bdef
/MlrRR {/lry xdef /lrx xdef /uly xdef /ulx xdef /rad lry uly sub 2 div def
  newpath tMatrix currentmatrix pop ulx rad add uly rad add translate
  rad rad scale 0 0 1 90 270 arc tMatrix setmatrix lrx rad sub lry rad
  sub translate rad rad scale 0 0 1 270 90 arc tMatrix setmatrix
  closepath} bdef
/FlrRR {MlrRR stroke } bdef
/PlrRR {MlrRR fill } bdef
/MtbRR {/lry xdef /lrx xdef /uly xdef /ulx xdef /rad lrx ulx sub 2 div def
  newpath tMatrix currentmatrix pop ulx rad add uly rad add translate
  rad rad scale 0 0 1 180 360 arc tMatrix setmatrix lrx rad sub lry rad
  sub translate rad rad scale 0 0 1 0 180 arc tMatrix setmatrix
  closepath} bdef
/FtbRR {MtbRR stroke } bdef
/PtbRR {MtbRR fill } bdef
/stri 6 array def /dtri 6 array def
/smat 6 array def /dmat 6 array def
/tmat1 6 array def /tmat2 6 array def /dif 3 array def
/asub {/ind2 exch def /ind1 exch def dup dup
  ind1 get exch ind2 get sub exch } bdef
/tri_to_matrix {
  2 0 asub 3 1 asub 4 0 asub 5 1 asub
  dup 0 get exch 1 get 7 -1 roll astore } bdef
/compute_transform {
  dmat dtri tri_to_matrix tmat1 invertmatrix 
  smat stri tri_to_matrix tmat2 concatmatrix } bdef
/ds {stri astore pop} bdef
/dt {dtri astore pop} bdef
/db {2 copy /cols xdef /rows xdef mul dup 3 mul string
  currentfile exch readhexstring pop
  dup 0 3 index getinterval /rbmap xdef
  dup 2 index dup getinterval /gbmap xdef
  1 index dup 2 mul exch getinterval /bbmap xdef pop pop}bdef
/it {gs np dtri aload pop moveto lineto lineto cp c
  cols rows 8 compute_transform 
  rbmap gbmap bbmap true 3 colorimage gr}bdef
/il {newpath moveto lineto stroke}bdef
currentdict end def
%%EndProlog

%%BeginSetup
MathWorks begin

0 cap

end
%%EndSetup

%%Page: 1 1
%%BeginPageSetup
%%PageBoundingBox:    60   208   551   595
MathWorks begin
bpage
%%EndPageSetup

%%BeginObject: obj1
bplot

/dpi2point 12 def
portraitMode 0216 7344 csm

  510   202  5894  4640 MR c np
86 dict begin %Colortable dictionary
/c0 { 0.000000 0.000000 0.000000 sr} bdef
/c1 { 1.000000 1.000000 1.000000 sr} bdef
/c2 { 0.900000 0.000000 0.000000 sr} bdef
/c3 { 0.000000 0.820000 0.000000 sr} bdef
/c4 { 0.000000 0.000000 0.800000 sr} bdef
/c5 { 0.910000 0.820000 0.320000 sr} bdef
/c6 { 1.000000 0.260000 0.820000 sr} bdef
/c7 { 0.000000 0.820000 0.820000 sr} bdef
c0
1 j
1 sg
   0    0 6913 5186 PR
6 w
0 613 5355 0 0 -613 899 1094 4 MP
PP
-5355 0 0 613 5355 0 0 -613 899 1094 5 MP stroke
4 w
DO
0 sg
1154 1094 mt 1154  481 L
1154  481 mt 1154  481 L
2004 1094 mt 2004  481 L
2004  481 mt 2004  481 L
2854 1094 mt 2854  481 L
2854  481 mt 2854  481 L
3704 1094 mt 3704  481 L
3704  481 mt 3704  481 L
4554 1094 mt 4554  481 L
4554  481 mt 4554  481 L
5404 1094 mt 5404  481 L
5404  481 mt 5404  481 L
6255 1094 mt 6255  481 L
6255  481 mt 6255  481 L
 899 1094 mt 6255 1094 L
6255 1094 mt 6255 1094 L
 899  787 mt 6255  787 L
6255  787 mt 6255  787 L
 899  481 mt 6255  481 L
6255  481 mt 6255  481 L
SO
6 w
 899 1094 mt 6254 1094 L
 899  481 mt 6254  481 L
 899 1094 mt  899  481 L
6254 1094 mt 6254  481 L
 899 1094 mt 6254 1094 L
 899 1094 mt  899  481 L
1154 1094 mt 1154 1040 L
1154  481 mt 1154  534 L
%%IncludeResource: font Helvetica
/Helvetica /ISOLatin1Encoding 120 FMSR

1004 1239 mt 
(100.4) s
2004 1094 mt 2004 1040 L
2004  481 mt 2004  534 L
1854 1239 mt 
(100.5) s
2854 1094 mt 2854 1040 L
2854  481 mt 2854  534 L
2704 1239 mt 
(100.6) s
3704 1094 mt 3704 1040 L
3704  481 mt 3704  534 L
3554 1239 mt 
(100.7) s
4554 1094 mt 4554 1040 L
4554  481 mt 4554  534 L
4404 1239 mt 
(100.8) s
5404 1094 mt 5404 1040 L
5404  481 mt 5404  534 L
5254 1239 mt 
(100.9) s
6255 1094 mt 6255 1040 L
6255  481 mt 6255  534 L
6155 1239 mt 
(101) s
 899 1094 mt  952 1094 L
6255 1094 mt 6201 1094 L
 728 1138 mt 
(-2) s
 899  787 mt  952  787 L
6255  787 mt 6201  787 L
 798  831 mt 
(0) s
 899  481 mt  952  481 L
6255  481 mt 6201  481 L
 798  525 mt 
(2) s
 899 1094 mt 6254 1094 L
 899  481 mt 6254  481 L
 899 1094 mt  899  481 L
6254 1094 mt 6254  481 L
gs 899 481 5357 614 MR c np
12 w
gr

12 w
gs 825 867 5505 147 MR c np
/c8 { 0.000000 1.000000 1.000000 sr} bdef
c8
  36   36 1409  940 FO
  36   36 3789  940 FO
  36   36 6169  940 FO
gr

c8
gs 899 481 5357 614 MR c np
DA
0 153 1409 787 2 MP stroke
0 153 3789 787 2 MP stroke
0 153 6169 787 2 MP stroke
SO
6 w
0 sg
5355 0 899 787 2 MP stroke
12 w
gr

0 sg
gs 826 867 5504 147 MR c np
/c9 { 1.000000 0.000000 0.000000 sr} bdef
c9
2771  940 mt 2843  940 L
2807  904 mt 2807  976 L
5153  940 mt 5225  940 L
5189  904 mt 5189  976 L
2782  915 mt 2832  965 L
2832  915 mt 2782  965 L
5164  915 mt 5214  965 L
5214  915 mt 5164  965 L
gr

c9
gs 899 481 5357 614 MR c np
0 153 2807 787 2 MP stroke
0 153 5189 787 2 MP stroke
gr

gs 826 561 5504 147 MR c np
/c10 { 0.000000 0.000000 1.000000 sr} bdef
c10
  36   36 1324  634 FO
  36   36 3704  634 FO
  36   36 6084  634 FO
gr

c10
gs 899 481 5357 614 MR c np
DA
0 -153 1324 787 2 MP stroke
0 -153 3704 787 2 MP stroke
0 -153 6084 787 2 MP stroke
gr

DA
0 sg
3316 1382 mt 
(Tempo [s]) s
 646  921 mt  -90 rotate
(Sinal) s
90 rotate
2677  386 mt 
(Troca de Mensagens do Ve\355culo 2) s
SO
6 w
1 sg
0 613 5355 0 0 -613 899 2230 4 MP
PP
-5355 0 0 613 5355 0 0 -613 899 2230 5 MP stroke
4 w
DO
0 sg
1154 2230 mt 1154 1617 L
1154 1617 mt 1154 1617 L
2004 2230 mt 2004 1617 L
2004 1617 mt 2004 1617 L
2854 2230 mt 2854 1617 L
2854 1617 mt 2854 1617 L
3704 2230 mt 3704 1617 L
3704 1617 mt 3704 1617 L
4554 2230 mt 4554 1617 L
4554 1617 mt 4554 1617 L
5404 2230 mt 5404 1617 L
5404 1617 mt 5404 1617 L
6255 2230 mt 6255 1617 L
6255 1617 mt 6255 1617 L
 899 2230 mt 6255 2230 L
6255 2230 mt 6255 2230 L
 899 1923 mt 6255 1923 L
6255 1923 mt 6255 1923 L
 899 1617 mt 6255 1617 L
6255 1617 mt 6255 1617 L
SO
6 w
 899 2230 mt 6254 2230 L
 899 1617 mt 6254 1617 L
 899 2230 mt  899 1617 L
6254 2230 mt 6254 1617 L
 899 2230 mt 6254 2230 L
 899 2230 mt  899 1617 L
1154 2230 mt 1154 2176 L
1154 1617 mt 1154 1670 L
1004 2375 mt 
(100.4) s
2004 2230 mt 2004 2176 L
2004 1617 mt 2004 1670 L
1854 2375 mt 
(100.5) s
2854 2230 mt 2854 2176 L
2854 1617 mt 2854 1670 L
2704 2375 mt 
(100.6) s
3704 2230 mt 3704 2176 L
3704 1617 mt 3704 1670 L
3554 2375 mt 
(100.7) s
4554 2230 mt 4554 2176 L
4554 1617 mt 4554 1670 L
4404 2375 mt 
(100.8) s
5404 2230 mt 5404 2176 L
5404 1617 mt 5404 1670 L
5254 2375 mt 
(100.9) s
6255 2230 mt 6255 2176 L
6255 1617 mt 6255 1670 L
6155 2375 mt 
(101) s
 899 2230 mt  952 2230 L
6255 2230 mt 6201 2230 L
 728 2274 mt 
(-2) s
 899 1923 mt  952 1923 L
6255 1923 mt 6201 1923 L
 798 1967 mt 
(0) s
 899 1617 mt  952 1617 L
6255 1617 mt 6201 1617 L
 798 1661 mt 
(2) s
 899 2230 mt 6254 2230 L
 899 1617 mt 6254 1617 L
 899 2230 mt  899 1617 L
6254 2230 mt 6254 1617 L
gs 899 1617 5357 614 MR c np
12 w
gr

12 w
gs 825 2003 5505 147 MR c np
c8
  36   36 1409 2076 FO
  36   36 3789 2076 FO
  36   36 6169 2076 FO
gr

c8
gs 899 1617 5357 614 MR c np
DA
0 153 1409 1923 2 MP stroke
0 153 3789 1923 2 MP stroke
0 153 6169 1923 2 MP stroke
SO
6 w
0 sg
5355 0 899 1923 2 MP stroke
12 w
gr

0 sg
gs 826 2003 5504 147 MR c np
c9
2788 2076 mt 2860 2076 L
2824 2040 mt 2824 2112 L
5170 2076 mt 5242 2076 L
5206 2040 mt 5206 2112 L
2799 2051 mt 2849 2101 L
2849 2051 mt 2799 2101 L
5181 2051 mt 5231 2101 L
5231 2051 mt 5181 2101 L
gr

c9
gs 899 1617 5357 614 MR c np
0 153 2824 1923 2 MP stroke
0 153 5206 1923 2 MP stroke
gr

gs 826 1697 5504 147 MR c np
c10
  36   36 1324 1770 FO
  36   36 3704 1770 FO
  36   36 6084 1770 FO
gr

c10
gs 899 1617 5357 614 MR c np
DA
0 -153 1324 1923 2 MP stroke
0 -153 3704 1923 2 MP stroke
0 -153 6084 1923 2 MP stroke
gr

DA
0 sg
3316 2518 mt 
(Tempo [s]) s
 646 2057 mt  -90 rotate
(Sinal) s
90 rotate
2677 1522 mt 
(Troca de Mensagens do Ve\355culo 3) s
SO
6 w
1 sg
0 613 5355 0 0 -613 899 3366 4 MP
PP
-5355 0 0 613 5355 0 0 -613 899 3366 5 MP stroke
4 w
DO
0 sg
1154 3366 mt 1154 2753 L
1154 2753 mt 1154 2753 L
2004 3366 mt 2004 2753 L
2004 2753 mt 2004 2753 L
2854 3366 mt 2854 2753 L
2854 2753 mt 2854 2753 L
3704 3366 mt 3704 2753 L
3704 2753 mt 3704 2753 L
4554 3366 mt 4554 2753 L
4554 2753 mt 4554 2753 L
5404 3366 mt 5404 2753 L
5404 2753 mt 5404 2753 L
6255 3366 mt 6255 2753 L
6255 2753 mt 6255 2753 L
 899 3366 mt 6255 3366 L
6255 3366 mt 6255 3366 L
 899 3059 mt 6255 3059 L
6255 3059 mt 6255 3059 L
 899 2753 mt 6255 2753 L
6255 2753 mt 6255 2753 L
SO
6 w
 899 3366 mt 6254 3366 L
 899 2753 mt 6254 2753 L
 899 3366 mt  899 2753 L
6254 3366 mt 6254 2753 L
 899 3366 mt 6254 3366 L
 899 3366 mt  899 2753 L
1154 3366 mt 1154 3312 L
1154 2753 mt 1154 2806 L
1004 3511 mt 
(100.4) s
2004 3366 mt 2004 3312 L
2004 2753 mt 2004 2806 L
1854 3511 mt 
(100.5) s
2854 3366 mt 2854 3312 L
2854 2753 mt 2854 2806 L
2704 3511 mt 
(100.6) s
3704 3366 mt 3704 3312 L
3704 2753 mt 3704 2806 L
3554 3511 mt 
(100.7) s
4554 3366 mt 4554 3312 L
4554 2753 mt 4554 2806 L
4404 3511 mt 
(100.8) s
5404 3366 mt 5404 3312 L
5404 2753 mt 5404 2806 L
5254 3511 mt 
(100.9) s
6255 3366 mt 6255 3312 L
6255 2753 mt 6255 2806 L
6155 3511 mt 
(101) s
 899 3366 mt  952 3366 L
6255 3366 mt 6201 3366 L
 728 3410 mt 
(-2) s
 899 3059 mt  952 3059 L
6255 3059 mt 6201 3059 L
 798 3103 mt 
(0) s
 899 2753 mt  952 2753 L
6255 2753 mt 6201 2753 L
 798 2797 mt 
(2) s
 899 3366 mt 6254 3366 L
 899 2753 mt 6254 2753 L
 899 3366 mt  899 2753 L
6254 3366 mt 6254 2753 L
gs 899 2753 5357 614 MR c np
12 w
gr

12 w
gs 825 3139 5505 147 MR c np
c8
  36   36 1409 3212 FO
  36   36 3789 3212 FO
  36   36 6169 3212 FO
gr

c8
gs 899 2753 5357 614 MR c np
DA
0 153 1409 3059 2 MP stroke
0 153 3789 3059 2 MP stroke
0 153 6169 3059 2 MP stroke
SO
6 w
0 sg
5355 0 899 3059 2 MP stroke
12 w
gr

0 sg
gs 826 3139 5504 147 MR c np
c9
2788 3212 mt 2860 3212 L
2824 3176 mt 2824 3248 L
5170 3212 mt 5242 3212 L
5206 3176 mt 5206 3248 L
2799 3187 mt 2849 3237 L
2849 3187 mt 2799 3237 L
5181 3187 mt 5231 3237 L
5231 3187 mt 5181 3237 L
gr

c9
gs 899 2753 5357 614 MR c np
0 153 2824 3059 2 MP stroke
0 153 5206 3059 2 MP stroke
gr

gs 826 2833 5504 147 MR c np
c10
  36   36 1324 2906 FO
  36   36 3704 2906 FO
  36   36 6084 2906 FO
gr

c10
gs 899 2753 5357 614 MR c np
DA
0 -153 1324 3059 2 MP stroke
0 -153 3704 3059 2 MP stroke
0 -153 6084 3059 2 MP stroke
gr

DA
0 sg
3316 3654 mt 
(Tempo [s]) s
 646 3193 mt  -90 rotate
(Sinal) s
90 rotate
2677 2658 mt 
(Troca de Mensagens do Ve\355culo 4) s
SO
6 w
1 sg
0 613 5355 0 0 -613 899 4502 4 MP
PP
-5355 0 0 613 5355 0 0 -613 899 4502 5 MP stroke
4 w
DO
0 sg
1154 4502 mt 1154 3889 L
1154 3889 mt 1154 3889 L
2004 4502 mt 2004 3889 L
2004 3889 mt 2004 3889 L
2854 4502 mt 2854 3889 L
2854 3889 mt 2854 3889 L
3704 4502 mt 3704 3889 L
3704 3889 mt 3704 3889 L
4554 4502 mt 4554 3889 L
4554 3889 mt 4554 3889 L
5404 4502 mt 5404 3889 L
5404 3889 mt 5404 3889 L
6255 4502 mt 6255 3889 L
6255 3889 mt 6255 3889 L
 899 4502 mt 6255 4502 L
6255 4502 mt 6255 4502 L
 899 4195 mt 6255 4195 L
6255 4195 mt 6255 4195 L
 899 3889 mt 6255 3889 L
6255 3889 mt 6255 3889 L
SO
6 w
 899 4502 mt 6254 4502 L
 899 3889 mt 6254 3889 L
 899 4502 mt  899 3889 L
6254 4502 mt 6254 3889 L
 899 4502 mt 6254 4502 L
 899 4502 mt  899 3889 L
1154 4502 mt 1154 4448 L
1154 3889 mt 1154 3942 L
1004 4647 mt 
(100.4) s
2004 4502 mt 2004 4448 L
2004 3889 mt 2004 3942 L
1854 4647 mt 
(100.5) s
2854 4502 mt 2854 4448 L
2854 3889 mt 2854 3942 L
2704 4647 mt 
(100.6) s
3704 4502 mt 3704 4448 L
3704 3889 mt 3704 3942 L
3554 4647 mt 
(100.7) s
4554 4502 mt 4554 4448 L
4554 3889 mt 4554 3942 L
4404 4647 mt 
(100.8) s
5404 4502 mt 5404 4448 L
5404 3889 mt 5404 3942 L
5254 4647 mt 
(100.9) s
6255 4502 mt 6255 4448 L
6255 3889 mt 6255 3942 L
6155 4647 mt 
(101) s
 899 4502 mt  952 4502 L
6255 4502 mt 6201 4502 L
 728 4546 mt 
(-2) s
 899 4195 mt  952 4195 L
6255 4195 mt 6201 4195 L
 798 4239 mt 
(0) s
 899 3889 mt  952 3889 L
6255 3889 mt 6201 3889 L
 798 3933 mt 
(2) s
 899 4502 mt 6254 4502 L
 899 3889 mt 6254 3889 L
 899 4502 mt  899 3889 L
6254 4502 mt 6254 3889 L
gs 899 3889 5357 614 MR c np
12 w
gr

12 w
gs 825 4275 5505 147 MR c np
c8
  36   36 1409 4348 FO
  36   36 3789 4348 FO
  36   36 6169 4348 FO
gr

c8
gs 899 3889 5357 614 MR c np
DA
0 153 1409 4195 2 MP stroke
0 153 3789 4195 2 MP stroke
0 153 6169 4195 2 MP stroke
SO
6 w
0 sg
5355 0 899 4195 2 MP stroke
12 w
gr

0 sg
gs 826 4275 5504 147 MR c np
c9
2799 4348 mt 2871 4348 L
2835 4312 mt 2835 4384 L
5181 4348 mt 5253 4348 L
5217 4312 mt 5217 4384 L
2810 4323 mt 2860 4373 L
2860 4323 mt 2810 4373 L
5192 4323 mt 5242 4373 L
5242 4323 mt 5192 4373 L
gr

c9
gs 899 3889 5357 614 MR c np
0 153 2835 4195 2 MP stroke
0 153 5217 4195 2 MP stroke
gr

gs 826 3969 5504 147 MR c np
c10
  36   36 1324 4042 FO
  36   36 3704 4042 FO
  36   36 6084 4042 FO
gr

c10
gs 899 3889 5357 614 MR c np
DA
0 -153 1324 4195 2 MP stroke
0 -153 3704 4195 2 MP stroke
0 -153 6084 4195 2 MP stroke
gr

DA
0 sg
3316 4790 mt 
(Tempo [s]) s
 646 4329 mt  -90 rotate
(Sinal) s
90 rotate
2677 3794 mt 
(Troca de Mensagens do Ve\355culo 5) s
 882 4545 mt 
( ) s
6239 3931 mt 
( ) s
SO
6 w
1 sg
0 480 1756 0 0 -480 4439 4429 4 MP
PP
-1756 0 0 480 1756 0 0 -480 4439 4429 5 MP stroke
4 w
DO
SO
6 w
0 sg
4439 4429 mt 6195 4429 L
4439 3949 mt 6195 3949 L
4439 4429 mt 4439 3949 L
6195 4429 mt 6195 3949 L
4439 4429 mt 6195 4429 L
4439 4429 mt 4439 3949 L
4439 4429 mt 6195 4429 L
4439 3949 mt 6195 3949 L
4439 4429 mt 4439 3949 L
6195 4429 mt 6195 3949 L
4916 4084 mt 
(3: Recebe aviso - R) s
gs 4439 3949 1757 481 MR c np
DA
12 w
c8
257 0 4512 4041 2 MP stroke
4769 4041 PD
gs 4696 3968 147 147 MR c np
SO
  36   36 4769 4041 FO
DA
gr

gr

12 w
c8
DA
0 sg
4916 4232 mt 
(6: Recebe resposta - A) s
gs 4439 3949 1757 481 MR c np
SO
c9
257 0 4512 4189 2 MP stroke
4769 4189 PD
gs 4696 4116 147 147 MR c np
4733 4189 mt 4805 4189 L
4769 4153 mt 4769 4225 L
4744 4164 mt 4794 4214 L
4794 4164 mt 4744 4214 L
gr

gr

c9
SO
0 sg
4916 4379 mt 
(7: Envia calculo - R) s
gs 4439 3949 1757 481 MR c np
DA
c10
257 0 4512 4336 2 MP stroke
4769 4336 PD
gs 4696 4263 147 147 MR c np
SO
  36   36 4769 4336 FO
DA
gr

SO
6 w
gr

6 w
c10

end %%Color Dict

eplot
%%EndObject

epage
end

showpage

%%Trailer
%%EOF
