%!PS-Adobe-2.0 EPSF-1.2
%%Creator: MATLAB, The Mathworks, Inc. Version 7.9.0.529 (R2009b). Operating System: Darwin 10.8.0 Darwin Kernel Version 10.8.0: Tue Jun  7 16:33:36 PDT 2011; root:xnu-1504.15.3~1/RELEASE_I386 i386.
%%Title: ./vD_vV_falhas_erro_covariancia.eps
%%CreationDate: 12/05/2011  07:53:30
%%DocumentNeededFonts: Helvetica
%%DocumentProcessColors: Cyan Magenta Yellow Black
%%Extensions: CMYK
%%Pages: 1
%%BoundingBox:    55   199   551   602
%%EndComments

%%BeginProlog
% MathWorks dictionary
/MathWorks 160 dict begin
% definition operators
/bdef {bind def} bind def
/ldef {load def} bind def
/xdef {exch def} bdef
/xstore {exch store} bdef
% operator abbreviations
/c  /clip ldef
/cc /concat ldef
/cp /closepath ldef
/gr /grestore ldef
/gs /gsave ldef
/mt /moveto ldef
/np /newpath ldef
/cm /currentmatrix ldef
/sm /setmatrix ldef
/rm /rmoveto ldef
/rl /rlineto ldef
/s {show newpath} bdef
/sc {setcmykcolor} bdef
/sr /setrgbcolor ldef
/sg /setgray ldef
/w /setlinewidth ldef
/j /setlinejoin ldef
/cap /setlinecap ldef
/rc {rectclip} bdef
/rf {rectfill} bdef
% page state control
/pgsv () def
/bpage {/pgsv save def} bdef
/epage {pgsv restore} bdef
/bplot /gsave ldef
/eplot {stroke grestore} bdef
% orientation switch
/portraitMode 0 def /landscapeMode 1 def /rotateMode 2 def
% coordinate system mappings
/dpi2point 0 def
% font control
/FontSize 0 def
/FMS {/FontSize xstore findfont [FontSize 0 0 FontSize neg 0 0]
  makefont setfont} bdef
/reencode {exch dup where {pop load} {pop StandardEncoding} ifelse
  exch dup 3 1 roll findfont dup length dict begin
  { 1 index /FID ne {def}{pop pop} ifelse } forall
  /Encoding exch def currentdict end definefont pop} bdef
/isroman {findfont /CharStrings get /Agrave known} bdef
/FMSR {3 1 roll 1 index dup isroman {reencode} {pop pop} ifelse
  exch FMS} bdef
/csm {1 dpi2point div -1 dpi2point div scale neg translate
 dup landscapeMode eq {pop -90 rotate}
  {rotateMode eq {90 rotate} if} ifelse} bdef
% line types: solid, dotted, dashed, dotdash
/SO { [] 0 setdash } bdef
/DO { [.5 dpi2point mul 4 dpi2point mul] 0 setdash } bdef
/DA { [6 dpi2point mul] 0 setdash } bdef
/DD { [.5 dpi2point mul 4 dpi2point mul 6 dpi2point mul 4
  dpi2point mul] 0 setdash } bdef
% macros for lines and objects
/L {lineto stroke} bdef
/MP {3 1 roll moveto 1 sub {rlineto} repeat} bdef
/AP {{rlineto} repeat} bdef
/PDlw -1 def
/W {/PDlw currentlinewidth def setlinewidth} def
/PP {closepath eofill} bdef
/DP {closepath stroke} bdef
/MR {4 -2 roll moveto dup  0 exch rlineto exch 0 rlineto
  neg 0 exch rlineto closepath} bdef
/FR {MR stroke} bdef
/PR {MR fill} bdef
/L1i {{currentfile picstr readhexstring pop} image} bdef
/tMatrix matrix def
/MakeOval {newpath tMatrix currentmatrix pop translate scale
0 0 1 0 360 arc tMatrix setmatrix} bdef
/FO {MakeOval stroke} bdef
/PO {MakeOval fill} bdef
/PD {currentlinewidth 2 div 0 360 arc fill
   PDlw -1 eq not {PDlw w /PDlw -1 def} if} def
/FA {newpath tMatrix currentmatrix pop translate scale
  0 0 1 5 -2 roll arc tMatrix setmatrix stroke} bdef
/PA {newpath tMatrix currentmatrix pop	translate 0 0 moveto scale
  0 0 1 5 -2 roll arc closepath tMatrix setmatrix fill} bdef
/FAn {newpath tMatrix currentmatrix pop translate scale
  0 0 1 5 -2 roll arcn tMatrix setmatrix stroke} bdef
/PAn {newpath tMatrix currentmatrix pop translate 0 0 moveto scale
  0 0 1 5 -2 roll arcn closepath tMatrix setmatrix fill} bdef
/vradius 0 def /hradius 0 def /lry 0 def
/lrx 0 def /uly 0 def /ulx 0 def /rad 0 def
/MRR {/vradius xdef /hradius xdef /lry xdef /lrx xdef /uly xdef
  /ulx xdef newpath tMatrix currentmatrix pop ulx hradius add uly
  vradius add translate hradius vradius scale 0 0 1 180 270 arc 
  tMatrix setmatrix lrx hradius sub uly vradius add translate
  hradius vradius scale 0 0 1 270 360 arc tMatrix setmatrix
  lrx hradius sub lry vradius sub translate hradius vradius scale
  0 0 1 0 90 arc tMatrix setmatrix ulx hradius add lry vradius sub
  translate hradius vradius scale 0 0 1 90 180 arc tMatrix setmatrix
  closepath} bdef
/FRR {MRR stroke } bdef
/PRR {MRR fill } bdef
/MlrRR {/lry xdef /lrx xdef /uly xdef /ulx xdef /rad lry uly sub 2 div def
  newpath tMatrix currentmatrix pop ulx rad add uly rad add translate
  rad rad scale 0 0 1 90 270 arc tMatrix setmatrix lrx rad sub lry rad
  sub translate rad rad scale 0 0 1 270 90 arc tMatrix setmatrix
  closepath} bdef
/FlrRR {MlrRR stroke } bdef
/PlrRR {MlrRR fill } bdef
/MtbRR {/lry xdef /lrx xdef /uly xdef /ulx xdef /rad lrx ulx sub 2 div def
  newpath tMatrix currentmatrix pop ulx rad add uly rad add translate
  rad rad scale 0 0 1 180 360 arc tMatrix setmatrix lrx rad sub lry rad
  sub translate rad rad scale 0 0 1 0 180 arc tMatrix setmatrix
  closepath} bdef
/FtbRR {MtbRR stroke } bdef
/PtbRR {MtbRR fill } bdef
/stri 6 array def /dtri 6 array def
/smat 6 array def /dmat 6 array def
/tmat1 6 array def /tmat2 6 array def /dif 3 array def
/asub {/ind2 exch def /ind1 exch def dup dup
  ind1 get exch ind2 get sub exch } bdef
/tri_to_matrix {
  2 0 asub 3 1 asub 4 0 asub 5 1 asub
  dup 0 get exch 1 get 7 -1 roll astore } bdef
/compute_transform {
  dmat dtri tri_to_matrix tmat1 invertmatrix 
  smat stri tri_to_matrix tmat2 concatmatrix } bdef
/ds {stri astore pop} bdef
/dt {dtri astore pop} bdef
/db {2 copy /cols xdef /rows xdef mul dup 3 mul string
  currentfile exch readhexstring pop
  dup 0 3 index getinterval /rbmap xdef
  dup 2 index dup getinterval /gbmap xdef
  1 index dup 2 mul exch getinterval /bbmap xdef pop pop}bdef
/it {gs np dtri aload pop moveto lineto lineto cp c
  cols rows 8 compute_transform 
  rbmap gbmap bbmap true 3 colorimage gr}bdef
/il {newpath moveto lineto stroke}bdef
currentdict end def
%%EndProlog

%%BeginSetup
MathWorks begin

0 cap

end
%%EndSetup

%%Page: 1 1
%%BeginPageSetup
%%PageBoundingBox:    55   199   551   602
MathWorks begin
bpage
%%EndPageSetup

%%BeginObject: obj1
bplot

/dpi2point 12 def
portraitMode 0216 7344 csm

  446   110  5958  4845 MR c np
85 dict begin %Colortable dictionary
/c0 { 0.000000 0.000000 0.000000 sr} bdef
/c1 { 1.000000 1.000000 1.000000 sr} bdef
/c2 { 0.900000 0.000000 0.000000 sr} bdef
/c3 { 0.000000 0.820000 0.000000 sr} bdef
/c4 { 0.000000 0.000000 0.800000 sr} bdef
/c5 { 0.910000 0.820000 0.320000 sr} bdef
/c6 { 1.000000 0.260000 0.820000 sr} bdef
/c7 { 0.000000 0.820000 0.820000 sr} bdef
c0
1 j
1 sg
   0    0 6913 5186 PR
6 w
0 4226 5356 0 0 -4226 899 4615 4 MP
PP
-5356 0 0 4226 5356 0 0 -4226 899 4615 5 MP stroke
4 w
DO
0 sg
 899 4615 mt  899  389 L
 899  389 mt  899  389 L
1791 4615 mt 1791  389 L
1791  389 mt 1791  389 L
2684 4615 mt 2684  389 L
2684  389 mt 2684  389 L
3577 4615 mt 3577  389 L
3577  389 mt 3577  389 L
4469 4615 mt 4469  389 L
4469  389 mt 4469  389 L
5362 4615 mt 5362  389 L
5362  389 mt 5362  389 L
6255 4615 mt 6255  389 L
6255  389 mt 6255  389 L
 899 4615 mt 6255 4615 L
6255 4615 mt 6255 4615 L
 899 4011 mt 6255 4011 L
6255 4011 mt 6255 4011 L
 899 3407 mt 6255 3407 L
6255 3407 mt 6255 3407 L
 899 2803 mt 6255 2803 L
6255 2803 mt 6255 2803 L
 899 2200 mt 6255 2200 L
6255 2200 mt 6255 2200 L
 899 1596 mt 6255 1596 L
6255 1596 mt 6255 1596 L
 899  992 mt 6255  992 L
6255  992 mt 6255  992 L
 899  389 mt 6255  389 L
6255  389 mt 6255  389 L
SO
6 w
 899 4615 mt 6255 4615 L
 899 4615 mt  899  389 L
 899 4615 mt  899 4561 L
%%IncludeResource: font Helvetica
/Helvetica /ISOLatin1Encoding 120 FMSR

 866 4760 mt 
(0) s
1791 4615 mt 1791 4561 L
1691 4760 mt 
(100) s
2684 4615 mt 2684 4561 L
2584 4760 mt 
(200) s
3577 4615 mt 3577 4561 L
3477 4760 mt 
(300) s
4469 4615 mt 4469 4561 L
4369 4760 mt 
(400) s
5362 4615 mt 5362 4561 L
5262 4760 mt 
(500) s
6255 4615 mt 6255 4561 L
6155 4760 mt 
(600) s
 899 4615 mt  952 4615 L
 798 4659 mt 
(0) s
 899 4011 mt  952 4011 L
 731 4055 mt 
(20) s
 899 3407 mt  952 3407 L
 731 3451 mt 
(40) s
 899 2803 mt  952 2803 L
 731 2847 mt 
(60) s
 899 2200 mt  952 2200 L
 731 2244 mt 
(80) s
 899 1596 mt  952 1596 L
 664 1640 mt 
(100) s
 899  992 mt  952  992 L
 664 1036 mt 
(120) s
 899  389 mt  952  389 L
 664  433 mt 
(140) s
gs 899 389 5357 4227 MR c np
/c8 { 0.000000 0.000000 1.000000 sr} bdef
c8
1 -2 0 -16 1 -1 0 -16 1 -1 0 -15 1 -1 0 -14 
1 -1 0 -14 1 -1 0 -12 1 -1 0 -12 1 -1 0 -11 
1 -1 0 -10 1 -1 0 72 0 -13 1 -1 0 -12 1 -1 
0 -12 1 -1 0 -11 1 -1 0 -10 1 -1 0 78 0 -80 
0 69 1 -1 0 -13 1 -1 0 -12 1 -1 0 -11 1 -2 
0 -10 1 -1 0 94 0 -98 0 89 1 -2 0 -13 1 -2 
0 -13 1 -1 0 -13 1 -1 0 -11 1 -2 0 134 0 -140 
0 133 1 -2 0 -16 1 -2 0 -16 1 -2 0 -15 1 -1 
0 -15 1 -1 0 265 0 -276 0 271 1 -3 0 -26 1 -2 
0 -25 1 -2 0 -24 1 -2 0 -22 1 -2 0 -24 1 -2 
0 -21 1 -2 0 -19 1 -2 0 -19 1 -2 0 -17 1 -2 
0 -19 1 -1 0 -16 1 -2 0 -15 1 -1 0 -15 1 -1 
0 -14 1 -1 0 -14 6210 4391 100 MP stroke
1 -2 0 -12 1 -1 0 -11 1 -1 0 -11 1 -1 0 -10 
1 -1 0 71 0 -72 0 60 1 -1 0 -12 1 -2 0 -11 
1 -1 0 -11 1 -1 0 -10 1 -1 0 77 0 -80 0 70 
1 -1 0 -13 1 -1 0 -12 1 -1 0 -11 1 -2 0 -10 
1 -1 0 93 0 -98 0 90 1 -1 0 -14 1 -1 0 -14 
1 -1 0 -12 1 -2 0 -11 1 -2 0 133 0 -140 0 135 
1 -2 0 -17 1 -1 0 -16 1 -2 0 -15 1 -2 0 -14 
1 -2 0 263 0 -275 0 273 1 -3 0 -26 1 -3 0 -24 
1 -3 0 -24 1 -2 0 -23 1 -2 0 -24 1 -2 0 -21 
1 -2 0 -20 1 -2 0 -19 1 -2 0 -18 1 -2 0 -19 
1 -1 0 -17 1 -1 0 -16 1 -1 0 -15 1 -1 0 -16 
1 -1 0 -13 1 -1 0 -13 1 -1 0 -11 1 -2 0 -11 
1 -1 0 -11 1 -1 6165 4447 100 MP stroke
0 66 0 -12 1 -1 0 -12 1 -2 0 -11 1 -1 0 -12 
1 -1 0 -11 1 -1 0 64 0 -66 0 57 1 -1 0 -13 
1 -1 0 -12 1 -1 0 -11 1 -1 0 -12 1 -1 0 63 
0 -67 0 60 1 -1 0 -13 1 -1 0 -12 1 -1 0 -11 
1 -1 0 -11 1 -1 0 62 0 -68 0 64 1 -2 0 -12 
1 -1 0 -12 1 -1 0 -12 1 -1 0 -11 1 -1 0 64 
0 -72 0 70 1 -1 0 -13 1 -1 0 -12 1 -1 0 -12 
1 -1 0 -11 1 -1 0 -10 1 80 0 -14 1 -1 0 -13 
1 -1 0 -12 1 -1 0 -12 1 -1 0 -10 1 -1 0 97 
0 -98 0 86 1 -1 0 -14 1 -1 0 -13 1 -2 0 -13 
1 -1 0 -12 1 -1 0 138 0 -141 0 131 1 -2 0 -17 
1 -1 0 -16 1 -2 0 -17 1 -1 0 -14 1 -2 0 272 
0 -279 0 268 1 -2 6123 4079 100 MP stroke
0 -26 1 -3 0 -24 1 -3 0 -26 1 -2 0 -23 1 -2 
0 -21 1 -3 0 -20 1 -2 0 -20 1 -2 0 -21 1 -1 
0 -18 1 -2 0 -17 1 -2 0 -16 1 -2 0 -15 1 -1 
0 -16 1 -2 0 -14 1 -1 0 -13 1 -1 0 -12 1 -2 
0 -11 1 -1 0 -12 1 -1 0 -10 0 67 1 -1 0 -13 
1 -2 0 -12 1 -1 0 -12 1 -1 0 -12 1 -1 0 -10 
1 -1 0 66 0 -12 1 -1 0 -13 1 -1 0 -12 1 -1 
0 -12 1 -1 0 -10 1 -1 0 64 0 -66 0 57 1 -1 
0 -13 1 -1 0 -12 1 -1 0 -13 1 -1 0 -10 1 -1 
0 62 0 -66 0 60 1 -2 0 -12 1 -2 0 -13 1 -1 
0 -11 1 -1 0 -11 1 -1 0 61 0 -67 0 63 1 -1 
0 -13 1 -1 0 -14 1 -1 0 -11 1 -1 0 -11 1 -1 
0 61 0 -69 0 67 6079 4378 100 MP stroke
1 -1 0 -13 1 -1 0 -13 1 -2 0 -11 1 -1 0 -11 
1 -1 0 -10 1 72 0 -13 1 -1 0 -13 1 -2 0 -11 
1 -1 0 -11 1 -1 0 -10 1 -1 0 79 0 -80 0 69 
1 -1 0 -14 1 -1 0 -12 1 -1 0 -12 1 -1 0 -10 
1 -1 0 94 0 -97 0 89 1 -2 0 -15 1 -1 0 -13 
1 -1 0 -13 1 -1 0 -11 1 -1 0 135 0 -141 0 134 
1 -2 0 -18 1 -2 0 -15 1 -2 0 -15 1 -1 0 -15 
1 -1 0 271 0 -281 0 276 1 -3 0 -28 1 -2 0 -25 
1 -2 0 -23 1 -3 0 -22 1 -2 0 -22 1 -2 0 -22 
1 -2 0 -19 1 -2 0 -19 1 -2 0 -17 1 -2 0 -17 
1 -2 0 -17 1 -2 0 -15 1 -1 0 -15 1 -1 0 -14 
1 -1 0 -13 1 -1 0 -13 1 -1 0 -12 1 -1 0 -10 
1 -2 0 -10 1 -1 6033 4436 100 MP stroke
0 80 0 -12 1 -1 0 -14 1 -1 0 -12 1 -1 0 -11 
1 -1 0 -11 1 -1 0 96 0 -98 0 88 1 -1 0 -16 
1 -1 0 -13 1 -1 0 -12 1 -2 0 -11 1 -1 0 135 
0 -140 0 132 1 -2 0 -18 1 -2 0 -16 1 -1 0 -16 
1 -1 0 -14 1 -2 0 265 0 -273 0 265 1 -2 0 -28 
1 -3 0 -24 1 -3 0 -23 1 -2 0 -23 1 -2 0 -22 
1 -2 0 -22 1 -2 0 -20 1 -2 0 -18 1 -2 0 -18 
1 -2 0 -17 1 -1 0 -18 1 -2 0 -15 1 -1 0 -15 
1 -1 0 -14 1 -1 0 -14 1 -2 0 -12 1 -1 0 -11 
1 -1 0 -11 1 -1 0 -9 0 65 1 -2 0 -14 1 -1 
0 -13 1 -1 0 -11 1 -1 0 -11 1 -1 0 -10 1 64 
0 -14 1 -1 0 -12 1 -2 0 -11 1 -1 0 -11 1 -1 
0 -10 1 -1 0 64 5988 4384 100 MP stroke
0 -13 1 -1 0 -12 1 -1 0 -12 1 -1 0 -11 1 -1 
0 -10 1 -1 0 63 0 -64 0 53 1 -2 0 -12 1 -1 
0 -12 1 -1 0 -11 1 -1 0 -10 1 -1 0 63 0 -65 
0 55 1 -1 0 -13 1 -1 0 -11 1 -1 0 -11 1 -1 
0 -10 1 -1 0 63 0 -66 0 57 1 -1 0 -12 1 -1 
0 -12 1 -1 0 -11 1 -1 0 -10 1 -1 0 67 0 -71 
0 63 1 -2 0 -12 1 -1 0 -12 1 -1 0 -11 1 -1 
0 -10 1 -1 0 74 0 -79 0 72 1 -1 0 -13 1 -1 
0 -13 1 -1 0 -11 1 -1 0 -11 1 -1 0 91 0 -97 
0 91 1 -2 0 -14 1 -1 0 -13 1 -2 0 -12 1 -1 
0 -12 1 -1 0 131 0 -139 0 133 1 -1 0 -17 1 -2 
0 -16 1 -2 0 -15 1 -1 0 -15 1 -1 0 259 0 -271 
0 266 1 -3 0 -26 5947 4110 100 MP stroke
1 -2 0 -25 1 -2 0 -24 1 -2 0 -23 1 -2 0 -24 
1 -2 0 -20 1 -2 0 -20 1 -2 0 -19 1 -1 0 -18 
1 -2 0 -19 1 -1 0 -16 1 -2 0 -15 1 -2 0 -14 
1 -1 0 -14 1 -1 0 -15 1 -1 0 -12 1 -1 0 -11 
1 -1 0 -11 1 -1 0 -9 0 65 1 -1 0 -14 1 -2 
0 -12 1 -1 0 -11 1 -1 0 -11 1 -1 0 -10 1 67 
0 -14 1 -2 0 -12 1 -1 0 -11 1 -1 0 -11 1 -1 
0 -11 1 70 0 -12 1 -2 0 -12 1 -1 0 -11 1 -1 
0 -11 1 -1 0 -11 1 -1 0 78 0 -12 1 -1 0 -12 
1 -2 0 -11 1 -1 0 -11 1 -1 0 -12 1 -1 0 96 
0 -97 0 85 1 -1 0 -14 1 -1 0 -13 1 -1 0 -12 
1 -1 0 -12 1 -1 0 139 0 -142 0 130 1 -2 0 -16 
1 -2 0 -15 1 -2 5900 4304 100 MP stroke
0 -14 1 -2 0 -15 1 -1 0 288 0 -292 0 276 1 -3 
0 -25 1 -2 0 -25 1 -2 0 -23 1 -3 0 -24 1 -2 
0 -21 1 -2 0 -21 1 -2 0 -19 1 -2 0 -19 1 -1 
0 -20 1 -1 0 -17 1 -2 0 -16 1 -1 0 -15 1 -2 
0 -14 1 -2 0 -14 1 -2 0 -13 1 -1 0 -12 1 -1 
0 -11 1 -2 0 -10 1 -1 0 90 0 -96 0 90 1 -1 
0 -14 1 -1 0 -14 1 -1 0 -12 1 -2 0 -11 1 -2 
0 132 0 -139 0 133 1 -1 0 -17 1 -2 0 -16 1 -2 
0 -15 1 -1 0 -15 1 -1 0 260 0 -272 0 267 1 -3 
0 -26 1 -2 0 -25 1 -2 0 -24 1 -2 0 -23 1 -2 
0 -24 1 -2 0 -21 1 -2 0 -19 1 -2 0 -19 1 -2 
0 -18 1 -1 0 -19 1 -2 0 -16 1 -2 0 -15 1 -1 
0 -15 1 -1 0 -14 5855 4384 100 MP stroke
1 -1 0 -15 1 -1 0 -12 1 -1 0 -12 1 -1 0 -11 
1 -1 0 -9 0 65 1 -1 0 -14 1 -2 0 -12 1 -1 
0 -12 1 -1 0 -10 1 -2 0 -10 1 65 0 -14 1 -1 
0 -12 1 -2 0 -11 1 -1 0 -11 1 -1 0 -10 1 -1 
0 65 0 -13 1 -1 0 -12 1 -2 0 -11 1 -1 0 -11 
1 -1 0 -11 1 -1 0 67 0 -12 1 -1 0 -12 1 -2 
0 -11 1 -1 0 -11 1 -1 0 -11 1 -1 0 69 0 -70 
0 60 1 -1 0 -12 1 -2 0 -11 1 -1 0 -11 1 -1 
0 -11 1 -1 0 76 0 -78 0 69 1 -1 0 -13 1 -1 
0 -12 1 -1 0 -11 1 -1 0 -12 1 -1 0 93 0 -96 
0 88 1 -2 0 -13 1 -1 0 -13 1 -2 0 -12 1 -1 
0 -12 1 -2 0 137 0 -141 0 132 1 -1 0 -17 1 -1 
0 -16 1 -1 0 -15 5811 4316 100 MP stroke
1 -2 0 -15 1 -1 0 283 0 -290 0 280 1 -3 0 -25 
1 -3 0 -24 1 -2 0 -24 1 -2 0 -25 1 -2 0 -21 
1 -2 0 -20 1 -2 0 -20 1 -2 0 -18 1 -2 0 -20 
1 -1 0 -17 1 -2 0 -16 1 -1 0 -16 1 -1 0 -14 
1 -2 0 -15 1 -1 0 -13 1 -1 0 -12 1 -2 0 -11 
1 -1 0 -11 1 -1 0 88 0 -96 0 93 1 -2 0 -14 
1 -1 0 -13 1 -2 0 -12 1 -1 0 -12 1 -1 0 127 
0 -138 0 136 1 -2 0 -17 1 -1 0 -16 1 -2 0 -15 
1 -2 0 -14 1 -2 0 -14 0 266 1 -3 0 -25 1 -2 
0 -25 1 -2 0 -24 1 -2 0 -22 1 -2 0 -24 1 -2 
0 -21 1 -2 0 -19 1 -2 0 -19 1 -1 0 -18 1 -2 
0 -18 1 -2 0 -16 1 -2 0 -15 1 -1 0 -15 1 -1 
0 -14 1 -1 0 -14 5765 4399 100 MP stroke
1 -1 0 -13 1 -1 0 -11 1 -1 0 -11 1 -1 0 -10 
1 -1 0 64 0 -13 1 -1 0 -12 1 -2 0 -11 1 -1 
0 -11 1 -1 0 -10 1 -1 0 63 0 -64 0 52 1 -1 
0 -12 1 -1 0 -12 1 -1 0 -11 1 -1 0 -11 1 -1 
0 63 0 -64 0 54 1 -2 0 -12 1 -1 0 -12 1 -1 
0 -11 1 -1 0 -11 1 -1 0 62 0 -64 0 55 1 -1 
0 -13 1 -1 0 -12 1 -1 0 -11 1 -1 0 -11 1 -1 
0 61 0 -64 0 56 1 -1 0 -12 1 -2 0 -11 1 -1 
0 -12 1 -1 0 -11 1 -1 0 60 0 -64 0 58 1 -1 
0 -13 1 -1 0 -12 1 -1 0 -11 1 -1 0 -12 1 -1 
0 60 0 -65 0 59 1 -1 0 -13 1 -1 0 -12 1 -1 
0 -11 1 -1 0 -12 1 -1 0 59 0 -65 0 61 1 -1 
0 -13 1 -1 0 -12 5723 4415 100 MP stroke
1 -1 0 -12 1 -1 0 -12 1 -1 0 58 0 -65 0 63 
1 -2 0 -12 1 -2 0 -12 1 -1 0 -11 1 -1 0 -12 
1 -1 0 57 0 -65 0 64 1 -2 0 -13 1 -1 0 -12 
1 -1 0 -12 1 -1 0 -12 1 -1 0 -9 0 65 1 -1 
0 -13 1 -1 0 -13 1 -1 0 -11 1 -2 0 -12 1 -1 
0 -10 1 66 0 -13 1 -2 0 -12 1 -1 0 -12 1 -1 
0 -12 1 -1 0 -11 1 -1 0 66 0 -12 1 -1 0 -13 
1 -1 0 -12 1 -1 0 -12 1 -1 0 -10 1 -1 0 64 
0 -65 0 55 1 -2 0 -12 1 -2 0 -11 1 -2 0 -12 
1 -1 0 -10 1 -1 0 63 0 -65 0 56 1 -1 0 -13 
1 -1 0 -12 1 -1 0 -13 1 -1 0 -10 1 -1 0 62 
0 -65 0 57 1 -1 0 -13 1 -1 0 -12 1 -1 0 -12 
1 -1 0 -11 1 -1 5679 4443 100 MP stroke
0 62 0 -66 0 59 1 -1 0 -13 1 -1 0 -12 1 -1 
0 -12 1 -1 0 -10 1 -1 0 62 0 -67 0 61 1 -1 
0 -12 1 -2 0 -11 1 -2 0 -12 1 -1 0 -10 1 -1 
0 64 0 -70 0 67 1 -2 0 -12 1 -2 0 -13 1 -1 
0 -11 1 -1 0 -10 1 -1 0 72 0 -79 0 76 1 -1 
0 -13 1 -1 0 -13 1 -2 0 -11 1 -1 0 -11 1 -1 
0 91 0 -99 0 97 1 -1 0 -14 1 -1 0 -15 1 -1 
0 -12 1 -2 0 -11 1 -1 0 -10 0 149 1 -2 0 -17 
1 -1 0 -18 1 -2 0 -15 1 -1 0 -15 1 -1 0 -14 
1 336 0 -27 1 -3 0 -29 1 -2 0 -26 1 -2 0 -25 
1 -2 0 -23 1 -2 0 -23 1 -2 0 -23 1 -2 0 -21 
1 -2 0 -19 1 -2 0 -19 1 -1 0 -18 1 -2 0 -18 
1 -2 0 -16 1 -1 5635 4305 100 MP stroke
0 -16 1 -1 0 -14 1 -2 0 -13 1 -2 0 -14 1 -1 
0 -12 1 -1 0 -12 1 -1 0 143 0 -144 0 131 1 -2 
0 -17 1 -1 0 -17 1 -2 0 -15 1 -1 0 -14 1 -2 
0 299 0 -301 0 282 1 -2 0 -26 1 -3 0 -27 1 -3 
0 -23 1 -3 0 -23 1 -2 0 -22 1 -2 0 -21 1 -2 
0 -22 1 -2 0 -18 1 -2 0 -18 1 -2 0 -17 1 -2 
0 -16 1 -2 0 -17 1 -1 0 -15 1 -1 0 -14 1 -1 
0 -13 1 -2 0 -12 1 -1 0 -13 1 -1 0 -11 1 -1 
0 95 0 -98 0 89 1 -1 0 -14 1 -1 0 -14 1 -1 
0 -14 1 -1 0 -12 1 -1 0 136 0 -141 0 132 1 -2 
0 -17 1 -1 0 -16 1 -2 0 -17 1 -1 0 -15 1 -1 
0 269 0 -276 0 265 1 -3 0 -25 1 -3 0 -24 1 -3 
0 -25 1 -2 0 -23 5591 4186 100 MP stroke
1 -2 0 -21 1 -2 0 -20 1 -2 0 -20 1 -2 0 -20 
1 -1 0 -18 1 -1 0 -17 1 -1 0 -16 1 -1 0 -16 
1 -2 0 -13 1 -2 0 -13 1 -1 0 -12 1 -1 0 -11 
1 -2 0 -11 1 -1 0 -10 1 -1 0 77 0 -81 0 76 
1 -1 0 -12 1 -1 0 -12 1 -1 0 -11 1 -1 0 -10 
1 -1 0 110 0 -114 0 109 1 -1 0 -13 1 -1 0 -12 
1 -2 0 -12 1 -1 0 -11 1 -1 0 227 0 -232 0 225 
1 -1 0 -18 1 -1 0 -17 1 -1 0 -17 1 -2 0 -15 
1 -1 0 1641 0 -1648 0 1621 1 -6 0 -66 1 -6 0 -64 
1 -7 0 -68 1 -6 0 -61 1 -6 0 -59 1 -5 0 -58 
1 -5 0 -56 1 -6 0 -59 1 -6 0 -52 1 -6 0 -51 
1 -5 0 -49 1 -5 0 -49 1 -4 0 -52 1 -4 0 -46 
1 -4 0 -44 1 -4 5545 3511 100 MP stroke
0 -43 1 -4 0 -41 1 -4 0 -44 1 -4 0 -39 1 -3 
0 -38 1 -3 0 -36 1 -4 0 -35 1 -3 0 -37 1 -3 
0 -32 1 -4 0 -31 1 -3 0 -30 1 -3 0 -29 1 -2 
0 -31 1 -3 0 -26 1 -3 0 -25 1 -3 0 -25 1 -2 
0 -23 1 -3 0 -25 1 -2 0 -21 1 -2 0 -21 1 -2 
0 -20 1 -2 0 -19 1 -1 0 -20 1 -2 0 -17 1 -2 
0 -16 1 -1 0 -16 1 -1 0 -15 1 -1 0 -16 1 -1 
0 -13 1 -1 0 -13 1 -1 0 -12 1 -1 0 131 0 -136 
0 129 1 -2 0 -18 1 -1 0 -16 1 -2 0 -15 1 -1 
0 -15 1 -1 0 258 0 -265 0 255 1 -3 0 -27 1 -3 
0 -24 1 -2 0 -23 1 -2 0 -23 1 -2 0 -21 1 -2 
0 -22 1 -2 0 -19 1 -2 0 -18 1 -2 0 -17 1 -2 
0 -18 1 -2 0 -15 5498 4344 100 MP stroke
1 -2 0 -14 1 -2 0 -14 1 -1 0 -13 1 -2 0 -13 
1 -1 0 -12 1 -1 0 -11 1 -1 0 -10 1 -1 0 60 
0 -65 0 60 1 -2 0 -13 1 -1 0 -12 1 -1 0 -11 
1 -1 0 -10 1 -1 0 64 0 -69 0 63 1 -1 0 -13 
1 -2 0 -11 1 -1 0 -11 1 -1 0 -10 1 -1 0 71 
0 -76 0 71 1 -1 0 -14 1 -1 0 -12 1 -1 0 -11 
1 -2 0 -10 1 -1 0 90 0 -95 0 89 1 -1 0 -15 
1 -2 0 -12 1 -2 0 -12 1 -1 0 -11 1 -1 0 133 
0 -139 0 132 1 -2 0 -17 1 -2 0 -15 1 -2 0 -15 
1 -1 0 -14 1 -1 0 279 0 -286 0 275 1 -2 0 -28 
1 -2 0 -24 1 -3 0 -23 1 -2 0 -22 1 -2 0 -21 
1 -3 0 -22 1 -2 0 -19 1 -2 0 -18 1 -2 0 -18 
1 -1 0 -17 1 -2 5454 4302 100 MP stroke
0 -17 1 -1 0 -15 1 -2 0 -14 1 -2 0 -13 1 -1 
0 -13 1 -1 0 -13 1 -2 0 -11 1 -1 0 -11 1 -1 
0 90 0 -95 0 89 1 -1 0 -14 1 -1 0 -15 1 -1 
0 -12 1 -1 0 -12 1 -1 0 130 0 -136 0 129 1 -1 
0 -17 1 -2 0 -17 1 -2 0 -15 1 -1 0 -14 1 -2 
0 258 0 -265 0 255 1 -3 0 -25 1 -3 0 -26 1 -3 
0 -23 1 -2 0 -22 1 -2 0 -21 1 -2 0 -20 1 -2 
0 -21 1 -2 0 -19 1 -1 0 -18 1 -1 0 -17 1 -2 
0 -15 1 -2 0 -16 1 -2 0 -14 1 -1 0 -13 1 -2 
0 -12 1 -1 0 -12 1 -1 0 -13 1 -1 0 -10 1 -1 
0 58 0 -63 0 57 1 -1 0 -12 1 -2 0 -13 1 -1 
0 -11 1 -1 0 -10 1 -1 0 58 0 -63 0 57 1 -1 
0 -12 1 -1 0 -13 5410 4420 100 MP stroke
1 -1 0 -11 1 -1 0 -11 1 -1 0 59 0 -64 0 58 
1 -1 0 -12 1 -1 0 -13 1 -1 0 -11 1 -1 0 -10 
1 -1 0 59 0 -64 0 59 1 -1 0 -12 1 -1 0 -13 
1 -1 0 -11 1 -1 0 -10 1 -1 0 64 0 -69 0 63 
1 -1 0 -12 1 -1 0 -13 1 -1 0 -11 1 -1 0 -10 
1 -1 0 71 0 -76 0 71 1 -1 0 -13 1 -1 0 -13 
1 -1 0 -12 1 -1 0 -10 1 -1 0 89 0 -94 0 88 
1 -1 0 -14 1 -1 0 -15 1 -1 0 -12 1 -1 0 -12 
1 -1 0 129 0 -135 0 128 1 -1 0 -17 1 -1 0 -18 
1 -1 0 -15 1 -2 0 -14 1 -1 0 254 0 -261 0 251 
1 -3 0 -24 1 -3 0 -26 1 -2 0 -23 1 -2 0 -22 
1 -2 0 -21 1 -2 0 -20 1 -2 0 -21 1 -2 0 -18 
1 -2 0 -17 1 -1 5367 4312 100 MP stroke
0 -17 1 -1 0 -16 1 -1 0 -17 1 -1 0 -14 1 -1 
0 -14 1 -1 0 -12 1 -1 0 -12 1 -1 0 -13 1 -1 
0 -10 1 -1 0 58 0 -63 0 57 1 -1 0 -12 1 -2 
0 -11 1 -1 0 -13 1 -1 0 -10 1 -1 0 58 0 -63 
0 57 1 -1 0 -12 1 -2 0 -11 1 -1 0 -13 1 -1 
0 -10 1 -1 0 57 0 -62 0 57 1 -1 0 -13 1 -1 
0 -11 1 -2 0 -12 1 -1 0 -10 1 -1 0 57 0 -62 
0 57 1 -1 0 -13 1 -1 0 -12 1 -1 0 -12 1 -1 
0 -10 1 -1 0 57 0 -62 0 56 1 -1 0 -12 1 -1 
0 -12 1 -1 0 -12 1 -2 0 -10 1 -1 0 57 0 -62 
0 57 1 -2 0 -12 1 -1 0 -13 1 -1 0 -11 1 -1 
0 -11 1 -1 0 57 0 -61 0 55 1 -1 0 -12 1 -1 
0 -13 1 -1 0 -11 5325 4436 100 MP stroke
1 -1 0 -11 1 -1 0 58 0 -61 0 54 1 -1 0 -12 
1 -2 0 -12 1 -1 0 -11 1 -1 0 -11 1 -1 0 59 
0 -61 0 53 1 -1 0 -13 1 -1 0 -12 1 -2 0 -10 
1 -1 0 -11 1 -1 0 60 0 -61 0 52 1 -2 0 -12 
1 -1 0 -13 1 -1 0 -10 1 -1 0 -10 1 -1 0 60 
0 -61 0 50 1 -1 0 -12 1 -1 0 -13 1 -1 0 -10 
1 -1 0 -10 1 -1 0 61 0 -12 1 -1 0 -12 1 -1 
0 -13 1 -1 0 -10 1 -1 0 -10 1 61 0 -13 1 -1 
0 -12 1 -1 0 -13 1 -1 0 -10 1 -2 0 -8 0 61 
1 -2 0 -12 1 -2 0 -11 1 -2 0 -12 1 -1 0 -11 
1 -1 0 54 0 -61 0 59 1 -1 0 -13 1 -1 0 -12 
1 -1 0 -12 1 -1 0 -11 1 -1 0 55 0 -61 0 58 
1 -1 0 -13 1 -1 5282 4409 100 MP stroke
0 -12 1 -1 0 -12 1 -1 0 -11 1 -1 0 56 0 -61 
0 57 1 -2 0 -12 1 -1 0 -12 1 -1 0 -12 1 -1 
0 -11 1 -1 0 57 0 -61 0 55 1 -1 0 -12 1 -1 
0 -12 1 -1 0 -12 1 -1 0 -11 1 -1 0 58 0 -61 
0 54 1 -1 0 -12 1 -2 0 -11 1 -1 0 -12 1 -1 
0 -11 1 -1 0 59 0 -61 0 53 1 -1 0 -13 1 -1 
0 -11 1 -1 0 -12 1 -1 0 -11 1 -1 0 60 0 -61 
0 52 1 -2 0 -12 1 -1 0 -11 1 -2 0 -11 1 -1 
0 -10 1 -1 0 60 0 -61 0 50 1 -1 0 -12 1 -1 
0 -12 1 -1 0 -11 1 -1 0 -10 1 -1 0 61 0 -12 
1 -1 0 -12 1 -1 0 -13 1 -1 0 -10 1 -1 0 -10 
1 61 0 -13 1 -1 0 -12 1 -1 0 -13 1 -1 0 -10 
1 -2 0 -8 0 61 5240 4391 100 MP stroke
1 -2 0 -12 1 -2 0 -11 1 -2 0 -12 1 -1 0 -11 
1 -1 0 54 0 -61 0 59 1 -1 0 -13 1 -1 0 -12 
1 -1 0 -12 1 -1 0 -11 1 -1 0 55 0 -61 0 58 
1 -1 0 -13 1 -1 0 -12 1 -1 0 -12 1 -1 0 -11 
1 -1 0 56 0 -61 0 57 1 -2 0 -12 1 -1 0 -12 
1 -1 0 -12 1 -1 0 -11 1 -1 0 57 0 -61 0 55 
1 -1 0 -12 1 -1 0 -12 1 -1 0 -12 1 -1 0 -11 
1 -1 0 58 0 -61 0 54 1 -1 0 -12 1 -2 0 -11 
1 -1 0 -12 1 -1 0 -11 1 -1 0 59 0 -61 0 53 
1 -1 0 -13 1 -1 0 -11 1 -1 0 -12 1 -1 0 -11 
1 -1 0 60 0 -61 0 52 1 -2 0 -12 1 -1 0 -11 
1 -2 0 -11 1 -1 0 -10 1 -1 0 60 0 -61 0 50 
1 -1 0 -12 1 -1 5198 4416 100 MP stroke
0 -12 1 -1 0 -11 1 -1 0 -10 1 -1 0 61 0 -12 
1 -1 0 -12 1 -1 0 -12 1 -1 0 -11 1 -2 0 -9 
1 61 0 -13 1 -1 0 -12 1 -2 0 -11 1 -1 0 -12 
1 -1 0 -8 0 60 1 -1 0 -12 1 -2 0 -12 1 -1 
0 -11 1 -1 0 -12 1 -1 0 53 0 -60 0 59 1 -1 
0 -13 1 -1 0 -12 1 -1 0 -11 1 -1 0 -12 1 -1 
0 54 0 -60 0 58 1 -1 0 -13 1 -1 0 -12 1 -1 
0 -11 1 -1 0 -12 1 -1 0 55 0 -60 0 57 1 -2 
0 -12 1 -1 0 -12 1 -1 0 -11 1 -1 0 -12 1 -1 
0 56 0 -60 0 55 1 -1 0 -12 1 -1 0 -12 1 -1 
0 -12 1 -1 0 -11 1 -1 0 57 0 -60 0 54 1 -1 
0 -12 1 -2 0 -11 1 -1 0 -12 1 -1 0 -11 1 -1 
0 58 0 -60 0 53 5156 4399 100 MP stroke
1 -1 0 -13 1 -1 0 -11 1 -1 0 -12 1 -1 0 -11 
1 -1 0 59 0 -60 0 52 1 -2 0 -12 1 -1 0 -11 
1 -2 0 -11 1 -1 0 -11 1 -1 0 60 0 -61 0 51 
1 -1 0 -12 1 -1 0 -12 1 -1 0 -11 1 -2 0 -10 
1 -1 0 61 0 -11 1 -1 0 -12 1 -1 0 -12 1 -1 
0 -12 1 -1 0 -10 1 61 0 -12 1 -1 0 -12 1 -2 
0 -11 1 -1 0 -12 1 -1 0 -9 0 61 1 -1 0 -13 
1 -1 0 -12 1 -1 0 -11 1 -1 0 -12 1 -1 0 53 
0 -61 0 60 1 -1 0 -13 1 -1 0 -12 1 -1 0 -11 
1 -1 0 -12 1 -1 0 54 0 -61 0 58 1 -1 0 -12 
1 -2 0 -11 1 -2 0 -11 1 -1 0 -11 1 -1 0 54 
0 -60 0 57 1 -2 0 -12 1 -1 0 -12 1 -1 0 -11 
1 -1 0 -12 1 -1 5112 4449 100 MP stroke
0 56 0 -60 0 54 1 -1 0 -12 1 -1 0 -12 1 -1 
0 -11 1 -1 0 -11 1 -1 0 55 0 -59 0 53 1 -1 
0 -12 1 -2 0 -11 1 -1 0 -11 1 -1 0 -11 1 -1 
0 57 0 -59 0 50 1 -1 0 -12 1 -1 0 -11 1 -1 
0 -11 1 -1 0 -11 1 -1 0 59 0 -11 1 -1 0 -12 
1 -1 0 -11 1 -2 0 -10 1 -1 0 -10 0 59 1 -1 
0 -12 1 -2 0 -11 1 -2 0 -11 1 -1 0 -10 1 -1 
0 51 0 -59 0 57 1 -1 0 -13 1 -1 0 -12 1 -1 
0 -11 1 -1 0 -10 1 -1 0 53 0 -59 0 54 1 -1 
0 -12 1 -1 0 -12 1 -1 0 -11 1 -1 0 -11 1 -1 
0 57 0 -60 0 52 1 -1 0 -12 1 -2 0 -11 1 -1 
0 -11 1 -1 0 -11 1 -1 0 59 0 -60 0 50 1 -2 
0 -12 1 -1 0 -11 5071 4430 100 MP stroke
1 -1 0 -11 1 -1 0 -11 1 60 0 -13 1 -1 0 -12 
1 -1 0 -11 1 -1 0 -11 1 -1 0 51 0 -60 0 59 
1 -2 0 -12 1 -1 0 -12 1 -1 0 -11 1 -1 0 -11 
1 -1 0 53 0 -60 0 56 1 -1 0 -12 1 -1 0 -12 
1 -1 0 -11 1 -1 0 -11 1 -1 0 55 0 -59 0 53 
1 -1 0 -12 1 -2 0 -11 1 -1 0 -11 1 -1 0 -10 
1 -1 0 57 0 -60 0 51 1 -2 0 -12 1 -1 0 -11 
1 -1 0 -11 1 -1 0 -10 1 -1 0 59 0 -60 0 48 
1 -1 0 -12 1 -1 0 -11 1 -2 0 -10 1 -1 0 -10 
1 60 0 -14 1 -1 0 -12 1 -1 0 -12 1 -1 0 -10 
1 -1 0 52 0 -60 0 58 1 -1 0 -14 1 -1 0 -12 
1 -1 0 -11 1 -1 0 -10 1 -1 0 53 0 -59 0 56 
1 -2 0 -13 1 -2 5028 4414 100 MP stroke
0 -11 1 -1 0 -11 1 -1 0 -10 1 -1 0 55 0 -59 
0 53 1 -1 0 -14 1 -1 0 -11 1 -1 0 -11 1 -1 
0 -10 1 -1 0 57 0 -59 0 50 1 -1 0 -13 1 -1 
0 -11 1 -1 0 -11 1 -1 0 -10 1 -1 0 60 0 -11 
1 -1 0 -13 1 -1 0 -11 1 -1 0 -10 1 -1 0 -9 
0 62 1 -2 0 -12 1 -1 0 -13 1 -1 0 -11 1 -1 
0 -10 1 -1 0 59 0 -66 0 64 1 -2 0 -12 1 -1 
0 -13 1 -1 0 -11 1 -1 0 -10 1 -1 0 69 0 -74 
0 69 1 -1 0 -13 1 -1 0 -13 1 -1 0 -11 1 -1 
0 -11 1 -1 0 88 0 -91 0 83 1 -2 0 -14 1 -2 
0 -12 1 -2 0 -12 1 -1 0 -11 1 -1 0 129 0 -130 
0 117 1 -2 0 -18 1 -1 0 -15 1 -2 0 -14 1 -2 
0 -13 1 249 0 -25 4986 4129 100 MP stroke
1 -2 0 -26 1 -3 0 -23 1 -2 0 -22 1 -2 0 -21 
1 -2 0 -20 1 -1 0 -21 1 -2 0 -18 1 -2 0 -17 
1 -2 0 -16 1 -2 0 -15 1 -2 0 -16 1 -2 0 -13 
1 -2 0 -13 1 -1 0 -13 1 -1 0 -12 1 -1 0 -12 
1 -1 0 -10 1 -1 0 55 0 -60 0 55 1 -2 0 -12 
1 -1 0 -12 1 -1 0 -12 1 -1 0 -10 1 -1 0 57 
0 -60 0 52 1 -1 0 -12 1 -1 0 -12 1 -1 0 -12 
1 -1 0 -10 1 -1 0 59 0 -60 0 50 1 -2 0 -12 
1 -1 0 -11 1 -1 0 -12 1 -1 0 -10 1 60 0 -13 
1 -1 0 -12 1 -1 0 -11 1 -2 0 -11 1 -1 0 52 
0 -60 0 58 1 -1 0 -12 1 -2 0 -11 1 -2 0 -11 
1 -1 0 -11 1 -1 0 54 0 -60 0 56 1 -1 0 -13 
1 -1 0 -11 1 -1 4941 4424 100 MP stroke
0 -11 1 -1 0 -11 1 -1 0 56 0 -60 0 54 1 -2 
0 -12 1 -1 0 -11 1 -1 0 -11 1 -1 0 -11 1 -1 
0 60 0 -62 0 53 1 -1 0 -12 1 -1 0 -11 1 -1 
0 -11 1 -1 0 -10 1 -1 0 65 0 -11 1 -1 0 -12 
1 -1 0 -11 1 -2 0 -10 1 -1 0 -10 0 73 1 -1 
0 -13 1 -1 0 -12 1 -1 0 -12 1 -1 0 -10 1 -1 
0 81 0 -90 0 87 1 -1 0 -14 1 -1 0 -13 1 -2 
0 -12 1 -1 0 -13 1 -1 0 124 0 -128 0 119 1 -1 
0 -17 1 -1 0 -16 1 -1 0 -15 1 -1 0 -15 1 -2 
0 242 0 -243 0 224 1 -3 0 -24 1 -2 0 -23 1 -2 
0 -21 1 -3 0 -22 1 -2 0 -20 1 -2 0 -19 1 -2 
0 -18 1 -1 0 -17 1 -2 0 -18 1 -1 0 -16 1 -1 
0 -15 1 -1 0 -14 4898 4380 100 MP stroke
1 -1 0 -13 1 -1 0 -14 1 -1 0 -12 1 -1 0 -10 
1 -2 0 -10 1 -1 0 54 0 -60 0 57 1 -1 0 -13 
1 -1 0 -11 1 -1 0 -11 1 -1 0 -10 1 -1 0 61 
0 -65 0 58 1 -1 0 -13 1 -1 0 -11 1 -1 0 -11 
1 -1 0 -10 1 -1 0 72 0 -73 0 63 1 -2 0 -13 
1 -1 0 -12 1 -1 0 -11 1 -1 0 -9 0 90 1 -2 
0 -13 1 -2 0 -14 1 -1 0 -13 1 -1 0 -12 1 -1 
0 122 0 -128 0 123 1 -2 0 -16 1 -2 0 -17 1 -1 
0 -15 1 -2 0 -14 1 -1 0 240 0 -244 0 229 1 -2 
0 -25 1 -2 0 -25 1 -2 0 -22 1 -3 0 -21 1 -2 
0 -20 1 -2 0 -19 1 -2 0 -20 1 -2 0 -17 1 -2 
0 -16 1 -2 0 -15 1 -2 0 -15 1 -1 0 -16 1 -1 
0 -13 1 -2 0 -12 4854 4409 100 MP stroke
1 -1 0 -12 1 -1 0 -11 1 -1 0 -12 1 -1 0 51 
0 -58 0 56 1 -2 0 -12 1 -1 0 -12 1 -1 0 -11 
1 -1 0 -11 1 -1 0 54 0 -58 0 52 1 -1 0 -12 
1 -2 0 -11 1 -1 0 -11 1 -1 0 -11 1 -1 0 57 
0 -58 0 49 1 -2 0 -11 1 -2 0 -11 1 -1 0 -10 
1 -1 0 -10 0 59 1 -1 0 -13 1 -1 0 -11 1 -1 
0 -11 1 -1 0 -11 1 -1 0 55 0 -61 0 57 1 -1 
0 -12 1 -2 0 -11 1 -1 0 -11 1 -1 0 -11 1 -1 
0 62 0 -64 0 57 1 -1 0 -12 1 -1 0 -12 1 -1 
0 -10 1 -1 0 -11 1 -1 0 73 0 -12 1 -1 0 -12 
1 -1 0 -12 1 -1 0 -11 1 -1 0 82 0 -91 0 89 
1 -1 0 -14 1 -1 0 -14 1 -1 0 -12 1 -1 0 -12 
1 -1 0 123 0 -130 4812 4403 100 MP stroke
0 123 1 -1 0 -17 1 -1 0 -16 1 -2 0 -15 1 -1 
0 -14 1 -2 0 247 0 -251 0 233 1 -2 0 -25 1 -2 
0 -24 1 -2 0 -22 1 -2 0 -22 1 -2 0 -23 1 -2 
0 -19 1 -2 0 -19 1 -1 0 -18 1 -2 0 -17 1 -1 
0 -18 1 -1 0 -15 1 -2 0 -14 1 -2 0 -13 1 -1 
0 -13 1 -1 0 -14 1 -1 0 -11 1 -1 0 -11 1 -1 
0 51 0 -59 0 58 1 -2 0 -12 1 -1 0 -13 1 -1 
0 -11 1 -1 0 -11 1 -1 0 54 0 -59 0 54 1 -2 
0 -12 1 -1 0 -12 1 -2 0 -10 1 -1 0 -10 1 -1 
0 56 0 -58 0 50 1 -1 0 -12 1 -1 0 -12 1 -1 
0 -11 1 -1 0 -9 1 60 0 -12 1 -1 0 -12 1 -1 
0 -11 1 -1 0 -10 1 -1 0 58 0 -65 0 63 1 -1 
0 -12 1 -1 0 -11 4768 4409 100 MP stroke
1 -1 0 -12 1 -1 0 -10 1 -1 0 73 0 -76 0 70 
1 -1 0 -12 1 -1 0 -11 1 -1 0 -12 1 -1 0 -10 
1 -1 0 104 0 -105 0 94 1 -2 0 -13 1 -1 0 -12 
1 -2 0 -12 1 -1 0 -10 0 185 1 -2 0 -18 1 -2 
0 -17 1 -1 0 -17 1 -1 0 -17 1 -2 0 644 0 -653 
0 641 1 -4 0 -40 1 -4 0 -38 1 -4 0 -41 1 -4 
0 -36 1 -3 0 -35 1 -3 0 -34 1 -3 0 -33 1 -3 
0 -34 1 -3 0 -30 1 -3 0 -29 1 -3 0 -27 1 -3 
0 -27 1 -2 0 -29 1 -2 0 -25 1 -2 0 -23 1 -3 
0 -22 1 -2 0 -22 1 -2 0 -23 1 -2 0 -19 1 -2 
0 -19 1 -2 0 -17 1 -2 0 -17 1 -2 0 -18 1 -1 
0 -15 1 -2 0 -14 1 -2 0 -14 1 -1 0 -13 1 -1 
0 -14 1 -1 0 -11 4722 4427 100 MP stroke
1 -1 0 -11 1 -1 0 -11 1 -1 0 51 0 -56 0 52 
1 -1 0 -13 1 -1 0 -12 1 -1 0 -10 1 -1 0 -10 
1 -1 0 54 0 -56 0 47 1 -1 0 -13 1 -1 0 -11 
1 -1 0 -11 1 -1 0 -8 0 56 1 -1 0 -13 1 -1 
0 -12 1 -2 0 -10 1 -1 0 -10 1 -1 0 51 0 -56 
0 51 1 -1 0 -12 1 -1 0 -13 1 -1 0 -10 1 -1 
0 -10 1 -1 0 55 0 -56 0 46 1 -1 0 -12 1 -1 
0 -12 1 -1 0 -11 1 -1 0 49 0 -56 0 55 1 -2 
0 -12 1 -1 0 -11 1 -2 0 -11 1 -1 0 -10 1 -1 
0 52 0 -56 0 50 1 -2 0 -11 1 -2 0 -11 1 -1 
0 -12 1 -1 0 -9 1 -1 0 56 0 -11 1 -1 0 -12 
1 -1 0 -11 1 -1 0 -12 1 -1 0 50 0 -56 0 53 
1 -1 0 -12 1 -1 4680 4418 100 MP stroke
0 -12 1 -1 0 -10 1 -1 0 -11 1 -1 0 53 0 -56 
0 48 1 -1 0 -12 1 -1 0 -11 1 -1 0 -11 1 -1 
0 -10 1 56 0 -12 1 -2 0 -11 1 -1 0 -11 1 -1 
0 -11 1 -1 0 50 0 -56 0 52 1 -1 0 -12 1 -1 
0 -12 1 -1 0 -10 1 -1 0 -11 1 -1 0 54 0 -56 
0 47 1 -1 0 -12 1 -1 0 -11 1 -1 0 -11 1 -1 
0 -9 0 56 1 -1 0 -13 1 -1 0 -11 1 -1 0 -11 
1 -1 0 -11 1 -1 0 51 0 -56 0 51 1 -1 0 -12 
1 -1 0 -12 1 -1 0 -10 1 -1 0 -10 1 -1 0 54 
0 -56 0 46 1 -1 0 -12 1 -1 0 -11 1 -1 0 -11 
1 -1 0 -8 0 56 1 -1 0 -14 1 -1 0 -11 1 -2 
0 -10 1 -1 0 -11 1 -1 0 52 0 -56 0 51 1 -1 
0 -13 1 -2 0 -11 4638 4433 100 MP stroke
1 -1 0 -10 1 -2 0 -9 1 -1 0 55 0 -56 0 46 
1 -1 0 -13 1 -1 0 -11 1 -1 0 -11 1 -1 0 49 
0 -56 0 55 1 -2 0 -12 1 -1 0 -13 1 -1 0 -10 
1 -1 0 -10 1 -1 0 52 0 -56 0 50 1 -2 0 -11 
1 -2 0 -12 1 -1 0 -10 1 -1 0 -10 1 -1 0 56 
0 -11 1 -1 0 -12 1 -1 0 -12 1 -1 0 -10 1 -1 
0 49 0 -56 0 54 1 -2 0 -12 1 -1 0 -11 1 -1 
0 -12 1 -1 0 -10 1 -1 0 53 0 -56 0 49 1 -2 
0 -11 1 -2 0 -11 1 -1 0 -11 1 -1 0 -10 1 56 
0 -12 1 -1 0 -12 1 -1 0 -11 1 -1 0 -11 1 -1 
0 50 0 -56 0 52 1 -1 0 -12 1 -1 0 -12 1 -1 
0 -10 1 -1 0 -11 1 -1 0 54 0 -56 0 47 1 -1 
0 -12 1 -1 0 -11 4596 4435 100 MP stroke
1 -1 0 -11 1 -1 0 -10 0 56 1 -1 0 -12 1 -2 
0 -11 1 -1 0 -11 1 -1 0 -10 1 -1 0 49 0 -55 
0 50 1 -1 0 -12 1 -1 0 -11 1 -2 0 -10 1 -1 
0 -10 1 -1 0 54 0 -55 0 44 1 -1 0 -12 1 -1 
0 -11 1 -1 0 -10 1 -1 0 48 0 -55 0 52 1 -2 
0 -12 1 -1 0 -11 1 -1 0 -11 1 -1 0 -10 1 -1 
0 53 0 -55 0 45 1 -1 0 -11 1 -2 0 -11 1 -1 
0 -10 1 -1 0 47 0 -55 0 54 1 -1 0 -13 1 -2 
0 -11 1 -1 0 -11 1 -1 0 -10 1 -1 0 52 0 -55 
0 48 1 -1 0 -13 1 -1 0 -11 1 -1 0 -11 1 -1 
0 -8 0 55 1 -1 0 -12 1 -1 0 -13 1 -1 0 -11 
1 -1 0 -10 1 -1 0 53 0 -56 0 50 1 -2 0 -11 
1 -1 0 -13 1 -1 4554 4434 100 MP stroke
0 -10 1 -1 0 -9 1 58 0 -12 1 -2 0 -11 1 -1 
0 -12 1 -1 0 -10 1 -1 0 58 0 -63 0 58 1 -2 
0 -11 1 -2 0 -11 1 -1 0 -11 1 -2 0 -9 1 -1 
0 70 0 -11 1 -2 0 -12 1 -1 0 -11 1 -1 0 -12 
1 -1 0 81 0 -87 0 83 1 -2 0 -13 1 -1 0 -13 
1 -2 0 -12 1 -1 0 -12 1 -2 0 124 0 -125 0 112 
1 -2 0 -16 1 -1 0 -16 1 -1 0 -14 1 -2 0 226 
0 -237 0 232 1 -3 0 -24 1 -2 0 -24 1 -2 0 -22 
1 -2 0 -21 1 -2 0 -23 1 -2 0 -19 1 -2 0 -18 
1 -2 0 -17 1 -2 0 -16 1 -2 0 -17 1 -2 0 -14 
1 -2 0 -14 1 -1 0 -13 1 -2 0 -12 1 -1 0 -13 
1 -1 0 -11 1 -1 0 -10 1 -1 0 -9 0 58 1 -1 
0 -12 1 -2 0 -12 4510 4423 100 MP stroke
1 -1 0 -10 1 -1 0 -10 1 -1 0 58 0 -62 0 56 
1 -1 0 -12 1 -1 0 -12 1 -1 0 -10 1 -1 0 -9 
1 71 0 -12 1 -2 0 -11 1 -1 0 -12 1 -1 0 -10 
1 -1 0 88 0 -93 0 87 1 -1 0 -13 1 -1 0 -14 
1 -1 0 -11 1 -1 0 -11 1 -1 0 149 0 -15 1 -1 
0 -16 1 -2 0 -16 1 -2 0 -14 1 -1 0 378 0 -386 
0 377 1 -3 0 -29 1 -3 0 -27 1 -3 0 -29 1 -3 
0 -26 1 -2 0 -24 1 -3 0 -23 1 -3 0 -22 1 -2 
0 -24 1 -2 0 -21 1 -2 0 -19 1 -2 0 -19 1 -2 
0 -18 1 -2 0 -19 1 -1 0 -16 1 -2 0 -16 1 -1 
0 -15 1 -1 0 -14 1 -1 0 245 0 -256 0 251 1 -2 
0 -25 1 -2 0 -23 1 -2 0 -22 1 -2 0 -22 1 -2 
0 -22 1 -2 0 -19 4465 4245 100 MP stroke
1 -2 0 -18 1 -2 0 -18 1 -1 0 -17 1 -2 0 -17 
1 -2 0 -15 1 -1 0 -14 1 -2 0 -13 1 -1 0 -13 
1 -1 0 -14 1 -1 0 -11 1 -1 0 -11 1 -1 0 -9 
0 85 1 -1 0 -14 1 -1 0 -14 1 -1 0 -12 1 -1 
0 -12 1 -1 0 117 0 -121 0 113 1 -2 0 -16 1 -1 
0 -17 1 -1 0 -15 1 -1 0 -13 1 225 0 -24 1 -2 
0 -23 1 -2 0 -24 1 -2 0 -21 1 -2 0 -20 1 -2 
0 -18 1 -2 0 -18 1 -2 0 -19 1 -2 0 -16 1 -2 
0 -15 1 -1 0 -15 1 -2 0 -13 1 -2 0 -14 1 -2 
0 -12 1 -1 0 -12 1 -1 0 -11 1 -1 0 -10 1 -1 
0 -10 0 53 1 -1 0 -12 1 -1 0 -11 1 -1 0 -11 
1 -1 0 -10 1 -1 0 50 0 -54 0 46 1 -1 0 -12 
1 -1 0 -11 1 -1 4418 4440 100 MP stroke
0 -10 1 -1 0 -9 0 54 1 -1 0 -13 1 -2 0 -11 
1 -1 0 -11 1 -1 0 -10 1 -1 0 51 0 -54 0 46 
1 -1 0 -12 1 -1 0 -11 1 -1 0 -11 1 -1 0 47 
0 -54 0 52 1 -1 0 -13 1 -1 0 -12 1 -1 0 -10 
1 -1 0 -10 1 -1 0 52 0 -54 0 45 1 -1 0 -13 
1 -1 0 -11 1 -1 0 -10 1 -1 0 47 0 -54 0 51 
1 -1 0 -12 1 -1 0 -13 1 -1 0 -10 1 -1 0 -10 
1 -1 0 53 0 -54 0 44 1 -1 0 -12 1 -1 0 -12 
1 -1 0 -10 1 -1 0 48 0 -54 0 50 1 -1 0 -12 
1 -1 0 -11 1 -2 0 -11 1 -1 0 -10 1 -1 0 54 
0 -11 1 -1 0 -11 1 -2 0 -10 1 -1 0 -11 1 -1 
0 49 0 -54 0 50 1 -2 0 -11 1 -1 0 -11 1 -1 
0 -11 1 -1 0 -10 4377 4456 100 MP stroke
1 56 0 -12 1 -1 0 -11 1 -1 0 -11 1 -1 0 -10 
1 -1 0 56 0 -60 0 54 1 -1 0 -12 1 -1 0 -11 
1 -1 0 -10 1 -1 0 -10 1 68 0 -13 1 -1 0 -12 
1 -1 0 -11 1 -1 0 -10 1 -1 0 81 0 -85 0 78 
1 -1 0 -14 1 -1 0 -13 1 -1 0 -11 1 -2 0 -9 
0 125 1 -2 0 -16 1 -1 0 -17 1 -1 0 -15 1 -1 
0 -14 1 -1 0 249 0 -253 0 238 1 -2 0 -24 1 -2 
0 -25 1 -2 0 -22 1 -2 0 -21 1 -2 0 -20 1 -2 
0 -18 1 -2 0 -20 1 -2 0 -17 1 -1 0 -17 1 -1 
0 -16 1 -1 0 -15 1 -1 0 -15 1 -2 0 -13 1 -1 
0 -12 1 -2 0 -11 1 -1 0 -11 1 -1 0 -12 1 -1 
0 82 0 -84 0 75 1 -2 0 -13 1 -1 0 -12 1 -1 
0 -12 1 -1 0 110 4332 4290 100 MP stroke
0 -119 0 116 1 -2 0 -16 1 -1 0 -15 1 -2 0 -14 
1 -2 0 -15 1 -1 0 220 0 -221 0 202 1 -2 0 -22 
1 -3 0 -21 1 -3 0 -20 1 -2 0 -22 1 -2 0 -19 
1 -2 0 -17 1 -2 0 -17 1 -2 0 -16 1 -2 0 -17 
1 -1 0 -15 1 -1 0 -14 1 -1 0 -13 1 -1 0 -13 
1 -1 0 -13 1 -1 0 -10 1 -1 0 -11 1 -1 0 -9 
1 -1 0 55 0 -11 1 -1 0 -12 1 -1 0 -11 1 -1 
0 -9 1 -1 0 55 0 -59 0 53 1 -1 0 -12 1 -1 
0 -12 1 -1 0 -10 1 -1 0 60 0 -67 0 66 1 -2 
0 -12 1 -1 0 -12 1 -1 0 -12 1 -1 0 -10 1 -1 
0 83 0 -84 0 73 1 -1 0 -13 1 -2 0 -12 1 -1 
0 -13 1 -1 0 115 0 -121 0 114 1 -1 0 -16 1 -2 
0 -15 1 -2 0 -14 4289 4345 100 MP stroke
1 -2 0 -13 0 227 1 -2 0 -24 1 -3 0 -23 1 -2 
0 -22 1 -2 0 -21 1 -2 0 -23 1 -2 0 -19 1 -2 
0 -18 1 -2 0 -17 1 -2 0 -16 1 -2 0 -17 1 -2 
0 -14 1 -2 0 -14 1 -1 0 -13 1 -2 0 -12 1 -1 
0 -13 1 -1 0 -11 1 -1 0 -11 1 -1 0 46 0 -52 
0 50 1 -1 0 -12 1 -1 0 -13 1 -1 0 -10 1 -1 
0 -10 1 -1 0 53 0 -11 1 -1 0 -12 1 -1 0 -12 
1 -1 0 -10 1 -1 0 50 0 -53 0 47 1 -1 0 -12 
1 -1 0 -11 1 -1 0 -11 1 -1 0 47 0 -54 0 53 
1 -1 0 -12 1 -1 0 -11 1 -1 0 -10 1 -1 0 -11 
1 -1 0 58 0 -59 0 50 1 -2 0 -11 1 -1 0 -10 
1 -1 0 -10 1 -1 0 61 0 -67 0 62 1 -1 0 -12 
1 -1 0 -11 1 -1 4245 4409 100 MP stroke
0 -10 1 -1 0 -10 0 86 1 -2 0 -13 1 -1 0 -12 
1 -1 0 -12 1 -1 0 -11 1 -1 0 129 0 -132 0 121 
1 -2 0 -15 1 -1 0 -14 1 -2 0 -13 1 -2 0 292 
0 -301 0 296 1 -2 0 -27 1 -3 0 -24 1 -2 0 -23 
1 -2 0 -22 1 -2 0 -20 1 -2 0 -22 1 -2 0 -19 
1 -2 0 -18 1 -2 0 -17 1 -2 0 -16 1 -2 0 -17 
1 -2 0 -14 1 -2 0 -14 1 -1 0 -13 1 -2 0 -12 
1 -2 0 -13 1 -1 0 -11 1 -1 0 173 0 -176 0 165 
1 -1 0 -17 1 -2 0 -16 1 -2 0 -17 1 -2 0 599 
0 -609 0 601 1 -4 0 -39 1 -4 0 -37 1 -4 0 -36 
1 -3 0 -39 1 -3 0 -34 1 -3 0 -32 1 -3 0 -32 
1 -3 0 -30 1 -3 0 -32 1 -2 0 -28 1 -3 0 -27 
1 -2 0 -26 1 -2 4200 4113 100 MP stroke
0 -25 1 -2 0 -26 1 -3 0 -22 1 -2 0 -22 1 -2 
0 -21 1 -2 0 -19 1 -2 0 -21 1 -2 0 -18 1 -1 
0 -17 1 -2 0 -16 1 -2 0 -15 1 -2 0 -16 1 -1 
0 -14 1 -1 0 -13 1 -2 0 -12 1 -1 0 -12 1 -1 
0 -12 1 -1 0 -10 1 -1 0 -9 0 52 1 -2 0 -12 
1 -1 0 -11 1 -1 0 -11 1 -1 0 -10 1 -1 0 49 
0 -51 0 42 1 -1 0 -11 1 -1 0 -11 1 -1 0 -11 
1 -1 0 46 0 -51 0 46 1 -1 0 -11 1 -2 0 -11 
1 -1 0 -10 1 -1 0 43 0 -52 0 50 1 -1 0 -12 
1 -1 0 -11 1 -1 0 -11 1 -1 0 -9 1 -1 0 50 
0 -51 0 40 1 -1 0 -11 1 -1 0 -11 1 -1 0 -10 
1 -1 0 47 0 -51 0 44 1 -1 0 -12 1 -1 0 -11 
1 -1 0 -10 1 -1 4156 4455 100 MP stroke
0 44 0 -51 0 49 1 -1 0 -13 1 -1 0 -11 1 -2 
0 -10 1 -1 0 -10 1 52 0 -12 1 -2 0 -12 1 -1 
0 -11 1 -1 0 -10 1 -1 0 50 0 -51 0 42 1 -1 
0 -11 1 -2 0 -11 1 -1 0 -10 1 -1 0 46 0 -51 
0 46 1 -1 0 -11 1 -2 0 -10 1 -1 0 -12 1 -1 
0 45 0 -52 0 50 1 -1 0 -11 1 -2 0 -11 1 -1 
0 -10 1 -1 0 -10 1 -1 0 53 0 -10 1 -1 0 -11 
1 -2 0 -10 1 -1 0 -10 1 -1 0 54 0 -57 0 50 
1 -1 0 -11 1 -1 0 -11 1 -1 0 -10 1 -1 0 59 
0 -65 0 63 1 -1 0 -13 1 -1 0 -11 1 -1 0 -11 
1 -1 0 -10 1 84 0 -13 1 -1 0 -13 1 -2 0 -11 
1 -1 0 -11 1 -1 0 126 0 -128 0 117 1 -2 0 -15 
1 -1 0 -16 1 -1 4114 4321 100 MP stroke
0 -14 1 -1 0 277 0 -284 0 274 1 -3 0 -24 1 -3 
0 -23 1 -2 0 -25 1 -2 0 -21 1 -2 0 -21 1 -2 
0 -19 1 -2 0 -18 1 -2 0 -20 1 -1 0 -17 1 -2 
0 -16 1 -1 0 -16 1 -1 0 -14 1 -2 0 -15 1 -1 
0 -13 1 -1 0 -13 1 -1 0 -11 1 -1 0 -11 1 -1 
0 143 0 -16 1 -2 0 -16 1 -1 0 -15 1 -1 0 -15 
1 -1 0 358 0 -362 0 345 1 -3 0 -31 1 -3 0 -26 
1 -3 0 -26 1 -2 0 -25 1 -3 0 -23 1 -3 0 -25 
1 -2 0 -22 1 -2 0 -21 1 -2 0 -20 1 -2 0 -19 
1 -2 0 -20 1 -2 0 -17 1 -2 0 -17 1 -1 0 -16 
1 -1 0 -17 1 -1 0 -15 1 -1 0 205 0 -216 0 213 
1 -2 0 -23 1 -3 0 -22 1 -2 0 -24 1 -2 0 -20 
1 -2 0 -19 1 -2 4068 4273 100 MP stroke
0 -19 1 -1 0 -18 1 -2 0 -18 1 -2 0 -16 1 -1 
0 -15 1 -2 0 -14 1 -1 0 -14 1 -1 0 -14 1 -1 
0 -12 1 -1 0 -11 1 -2 0 -10 1 -1 0 -10 1 -1 
0 46 0 -50 0 43 1 -2 0 -11 1 -1 0 -11 1 -1 
0 -10 1 -1 0 43 0 -49 0 46 1 -1 0 -12 1 -2 
0 -10 1 -1 0 -10 1 -1 0 -9 0 49 1 -1 0 -11 
1 -2 0 -11 1 -1 0 -11 1 -1 0 -9 1 -1 0 50 
0 -10 1 -1 0 -11 1 -1 0 -12 1 -1 0 -9 1 -1 
0 50 0 -52 0 44 1 -1 0 -11 1 -1 0 -11 1 -1 
0 -10 1 -1 0 52 0 -56 0 50 1 -1 0 -11 1 -1 
0 -11 1 -1 0 -10 1 -1 0 57 0 -63 0 60 1 -2 
0 -11 1 -2 0 -11 1 -1 0 -10 1 -1 0 -9 0 79 
1 -1 0 -14 1 -2 4025 4374 100 MP stroke
0 -12 1 -1 0 -12 1 -1 0 -11 1 -1 0 115 0 -14 
1 -2 0 -16 1 -2 0 -14 1 -1 0 -14 1 -1 0 216 
0 -219 0 203 1 -3 0 -22 1 -2 0 -23 1 -2 0 -20 
1 -2 0 -20 1 -2 0 -18 1 -2 0 -17 1 -2 0 -18 
1 -2 0 -16 1 -1 0 -15 1 -2 0 -14 1 -1 0 -14 
1 -1 0 -14 1 -1 0 -12 1 -1 0 -12 1 -1 0 -10 
1 -1 0 -10 1 -1 0 57 0 -64 0 60 1 -1 0 -12 
1 -1 0 -11 1 -1 0 -11 1 -1 0 -9 0 80 1 -1 
0 -15 1 -1 0 -13 1 -1 0 -12 1 -1 0 -11 1 -1 
0 114 0 -16 1 -2 0 -15 1 -2 0 -14 1 -1 0 -14 
1 -1 0 206 0 -209 0 193 1 -2 0 -25 1 -2 0 -21 
1 -2 0 -21 1 -2 0 -19 1 -2 0 -19 1 -1 0 -20 
1 -2 0 -16 1 -2 3980 4330 100 MP stroke
0 -16 1 -1 0 -16 1 -1 0 -14 1 -2 0 -15 1 -1 
0 -13 1 -1 0 -12 1 -1 0 -12 1 -1 0 -10 1 -1 
0 -11 1 -1 0 43 0 -49 0 45 1 -1 0 -11 1 -1 
0 -11 1 -1 0 -10 1 -1 0 40 0 -49 0 48 1 -2 
0 -11 1 -1 0 -11 1 -1 0 -10 1 -1 0 -10 1 -1 
0 49 0 -12 1 -1 0 -11 1 -1 0 -10 1 -1 0 -10 
1 -1 0 48 0 -49 0 41 1 -2 0 -12 1 -1 0 -10 
1 -1 0 -10 1 -1 0 47 0 -50 0 44 1 -1 0 -11 
1 -2 0 -11 1 -1 0 -10 1 -1 0 47 0 -52 0 48 
1 -1 0 -11 1 -1 0 -11 1 -1 0 -11 1 -1 0 49 
0 -56 0 55 1 -2 0 -11 1 -1 0 -11 1 -1 0 -10 
1 -1 0 -11 1 64 0 -12 1 -2 0 -11 1 -1 0 -11 
1 -1 0 -10 1 -1 3937 4435 100 MP stroke
0 76 0 -78 0 68 1 -2 0 -12 1 -2 0 -12 1 -1 
0 -11 1 -1 0 106 0 -111 0 103 1 -1 0 -17 1 -2 
0 -14 1 -2 0 -14 1 -1 0 195 0 -202 0 193 1 -2 
0 -23 1 -2 0 -23 1 -2 0 -20 1 -2 0 -20 1 -2 
0 -18 1 -2 0 -18 1 -1 0 -19 1 -1 0 -16 1 -2 
0 -15 1 -1 0 -14 1 -2 0 -13 1 -1 0 -14 1 -1 
0 -12 1 -2 0 -11 1 -1 0 -10 1 -1 0 -10 1 -1 
0 41 0 -48 0 45 1 -2 0 -11 1 -1 0 -10 1 -1 
0 -10 1 -1 0 41 0 -49 0 47 1 -1 0 -12 1 -1 
0 -10 1 -1 0 -10 1 -1 0 -8 0 50 1 -1 0 -12 
1 -1 0 -11 1 -1 0 -10 1 -1 0 -9 1 54 0 -11 
1 -1 0 -12 1 -1 0 -10 1 -1 0 -10 1 -1 0 63 
0 -11 1 -1 0 -12 3894 4412 100 MP stroke
1 -1 0 -12 1 -1 0 -10 1 -1 0 77 0 -78 0 67 
1 -1 0 -12 1 -2 0 -11 1 -2 0 -12 1 -1 0 109 
0 -111 0 100 1 -1 0 -16 1 -1 0 -14 1 -2 0 -13 
1 -2 0 201 0 -206 0 193 1 -3 0 -22 1 -2 0 -21 
1 -2 0 -20 1 -2 0 -19 1 -2 0 -20 1 -1 0 -18 
1 -1 0 -17 1 -1 0 -16 1 -2 0 -14 1 -2 0 -15 
1 -2 0 -13 1 -1 0 -13 1 -1 0 -12 1 -1 0 -11 
1 -1 0 -11 1 -1 0 -10 1 -1 0 49 0 -54 0 51 
1 -1 0 -12 1 -1 0 -10 1 -1 0 -11 1 -1 0 56 
0 -63 0 60 1 -1 0 -12 1 -1 0 -11 1 -1 0 -11 
1 -1 0 69 0 -78 0 76 1 -1 0 -13 1 -1 0 -13 
1 -1 0 -12 1 -1 0 -11 1 111 0 -18 1 -1 0 -15 
1 -2 0 -14 1 -1 3850 4355 100 MP stroke
0 -14 1 -1 0 202 0 -21 1 -2 0 -24 1 -2 0 -21 
1 -2 0 -19 1 -2 0 -19 1 -2 0 -18 1 -2 0 -18 
1 -2 0 -16 1 -2 0 -15 1 -2 0 -14 1 -2 0 -13 
1 -2 0 -14 1 -1 0 -12 1 -2 0 -11 1 -1 0 -11 
1 -1 0 -10 1 -1 0 -10 1 -1 0 46 0 -48 0 40 
1 -1 0 -11 1 -1 0 -10 1 -1 0 -10 1 -1 0 47 
0 -50 0 43 1 -1 0 -11 1 -1 0 -10 1 -1 0 -10 
1 -1 0 50 0 -54 0 48 1 -1 0 -11 1 -2 0 -10 
1 -1 0 -10 1 -1 0 56 0 -61 0 57 1 -1 0 -13 
1 -1 0 -11 1 -1 0 -10 1 -1 0 70 0 -76 0 72 
1 -1 0 -13 1 -2 0 -13 1 -1 0 -12 1 -1 0 102 
0 -108 0 103 1 -1 0 -16 1 -1 0 -15 1 -1 0 -16 
1 -1 0 189 0 -197 3808 4372 100 MP stroke
0 190 1 -2 0 -23 1 -2 0 -21 1 -2 0 -20 1 -2 
0 -21 1 -2 0 -18 1 -2 0 -18 1 -1 0 -17 1 -1 
0 -16 1 -2 0 -16 1 -2 0 -14 1 -1 0 -13 1 -2 
0 -12 1 -1 0 -12 1 -1 0 -13 1 -1 0 -10 1 -1 
0 -10 1 -1 0 39 0 -45 0 43 1 -1 0 -11 1 -1 
0 -12 1 -1 0 -10 1 -1 0 40 0 -46 0 44 1 -1 
0 -12 1 -1 0 -10 1 -1 0 -11 1 -1 0 41 0 -47 
0 45 1 -1 0 -11 1 -1 0 -11 1 -1 0 -9 1 -1 
0 41 0 -49 0 47 1 -1 0 -11 1 -1 0 -10 1 -1 
0 -10 1 -1 0 46 0 -53 0 52 1 -2 0 -12 1 -1 
0 -11 1 -1 0 -9 1 -1 0 53 0 -61 0 60 1 -2 
0 -11 1 -1 0 -13 1 -1 0 -10 1 -1 0 68 0 -76 
0 74 1 -1 0 -13 3766 4380 100 MP stroke
1 -1 0 -12 1 -1 0 -13 1 -1 0 99 0 -108 0 106 
1 -1 0 -16 1 -1 0 -15 1 -1 0 -14 1 -2 0 184 
0 -196 0 193 1 -2 0 -22 1 -2 0 -21 1 -2 0 -20 
1 -2 0 -20 1 -2 0 -20 1 -2 0 -17 1 -2 0 -16 
1 -2 0 -16 1 -1 0 -15 1 -2 0 -16 1 -1 0 -13 
1 -2 0 -12 1 -2 0 -12 1 -1 0 -11 1 -1 0 -12 
1 -1 0 -10 1 -1 0 -8 0 46 1 -2 0 -11 1 -1 
0 -12 1 -1 0 -10 1 -1 0 -8 0 46 1 -2 0 -11 
1 -1 0 -11 1 -1 0 -11 1 -1 0 -8 0 46 1 -1 
0 -12 1 -1 0 -11 1 -1 0 -10 1 -1 0 -9 0 46 
1 -1 0 -12 1 -1 0 -10 1 -2 0 -10 1 -1 0 -9 
1 46 0 -13 1 -1 0 -11 1 -1 0 -10 1 -1 0 -9 
1 46 0 -12 1 -1 3720 4436 100 MP stroke
0 -12 1 -1 0 -10 1 -1 0 -9 1 45 0 -11 1 -1 
0 -11 1 -1 0 -11 1 -1 0 -10 1 46 0 -12 1 -1 
0 -11 1 -1 0 -10 1 -1 0 -10 1 44 0 -11 1 -1 
0 -11 1 -1 0 -10 1 -1 0 -9 1 44 0 -12 1 -1 
0 -11 1 -1 0 -10 1 -1 0 -8 0 44 1 -1 0 -11 
1 -1 0 -12 1 -1 0 -10 1 -1 0 37 0 -44 0 43 
1 -1 0 -11 1 -1 0 -11 1 -1 0 -10 1 -1 0 38 
0 -45 0 42 1 -1 0 -11 1 -1 0 -10 1 -1 0 -10 
1 -1 0 39 0 -45 0 41 1 -1 0 -11 1 -1 0 -10 
1 -1 0 -10 1 -1 0 41 0 -46 0 42 1 -1 0 -12 
1 -1 0 -10 1 -1 0 -9 1 -1 0 43 0 -48 0 44 
1 -1 0 -11 1 -1 0 -11 1 -1 0 -10 1 -1 0 49 
0 -52 0 46 1 -1 3677 4416 100 MP stroke
0 -11 1 -1 0 -10 1 -1 0 -11 1 -1 0 57 0 -60 
0 53 1 -1 0 -12 1 -1 0 -10 1 -2 0 -10 1 -1 
0 72 0 -75 0 66 1 -1 0 -13 1 -1 0 -12 1 -1 
0 -11 1 -1 0 104 0 -106 0 95 1 -2 0 -16 1 -2 
0 -14 1 -1 0 -14 1 -1 0 192 0 -193 0 175 1 -2 
0 -22 1 -2 0 -22 1 -2 0 -20 1 -2 0 -18 1 -2 
0 -17 1 -2 0 -19 1 -1 0 -16 1 -2 0 -15 1 -1 
0 -14 1 -2 0 -13 1 -2 0 -14 1 -1 0 -12 1 -1 
0 -11 1 -1 0 -11 1 -1 0 -10 1 -1 0 -10 1 47 
0 -11 1 -2 0 -10 1 -1 0 -10 1 -1 0 -9 1 49 
0 -12 1 -1 0 -11 1 -1 0 -10 1 -1 0 -8 0 54 
1 -1 0 -12 1 -1 0 -12 1 -1 0 -10 1 -1 0 55 
0 -63 0 61 1 -1 3633 4391 100 MP stroke
0 -12 1 -1 0 -12 1 -1 0 -12 1 -1 0 72 0 -79 
0 76 1 -1 0 -14 1 -1 0 -13 1 -1 0 -12 1 -1 
0 106 0 -114 0 109 1 -2 0 -16 1 -2 0 -15 1 -2 
0 -14 1 -2 0 204 0 -212 0 204 1 -2 0 -26 1 -3 
0 -23 1 -2 0 -22 1 -2 0 -20 1 -2 0 -20 1 -2 
0 -21 1 -2 0 -17 1 -2 0 -17 1 -2 0 -16 1 -1 
0 -15 1 -2 0 -15 1 -2 0 -13 1 -1 0 -13 1 -1 
0 -11 1 -2 0 -10 1 -1 0 -12 1 -1 0 44 0 -46 
0 39 1 -1 0 -12 1 -1 0 -10 1 -1 0 -10 1 -1 
0 43 0 -46 0 38 1 -1 0 -11 1 -1 0 -10 1 -1 
0 -9 1 -1 0 46 0 -47 0 39 1 -2 0 -11 1 -1 
0 -9 1 -1 0 -9 1 53 0 -11 1 -1 0 -10 1 -1 
0 -9 1 -1 0 59 3590 4375 100 MP stroke
0 -66 0 65 1 -1 0 -10 1 -1 0 -10 1 -1 0 -8 
1 -1 0 96 0 -102 0 99 1 -1 0 -11 1 -1 0 -11 
1 -1 0 -9 1 -1 0 233 0 -237 0 230 1 -1 0 -17 
1 -2 0 -14 1 -1 0 -14 1 -1 0 3300 0 -3304 0 3243 
1 -10 0 -111 1 -10 0 -98 1 -10 0 -96 1 -10 0 -94 
1 -10 0 -92 1 -9 0 -99 1 -9 0 -88 1 -9 0 -86 
1 -9 0 -84 1 -8 0 -83 1 -8 0 -88 1 -8 0 -79 
1 -7 0 -77 1 -8 0 -75 1 -7 0 -73 1 -7 0 -79 
1 -7 0 -69 1 -7 0 -67 1 -7 0 -66 1 -7 0 -64 
1 -6 0 -69 1 -6 0 -61 1 -6 0 -59 1 -6 0 -58 
1 -5 0 -56 1 -6 0 -60 1 -5 0 -53 1 -5 0 -52 
1 -5 0 -50 1 -5 0 -48 1 -5 0 -51 1 -5 0 -46 
1 -4 0 -44 1 -4 3544 3550 100 MP stroke
0 -43 1 -4 0 -42 1 -4 0 -44 1 -4 0 -38 1 -4 
0 -38 1 -3 0 -36 1 -4 0 -35 1 -3 0 -37 1 -4 
0 -32 1 -3 0 -31 1 -3 0 -30 1 -3 0 -29 1 -3 
0 -31 1 -2 0 -27 1 -3 0 -25 1 -3 0 -25 1 -2 
0 -24 1 -2 0 -25 1 -2 0 -21 1 -3 0 -20 1 -2 
0 -20 1 -2 0 -19 1 -1 0 -20 1 -2 0 -17 1 -1 
0 -17 1 -1 0 -16 1 -1 0 -15 1 -1 0 -15 1 -2 
0 -13 1 -1 0 -12 1 -1 0 -12 1 -1 0 -11 1 -1 
0 -11 1 -1 0 -10 1 -1 0 40 0 -43 0 37 1 -1 
0 -11 1 -1 0 -10 1 -1 0 -11 1 -1 0 41 0 -42 
0 34 1 -1 0 -10 1 -1 0 -10 1 -1 0 -10 1 -1 
0 42 0 -43 0 33 1 -1 0 -11 1 -1 0 -10 1 -1 
0 -9 1 42 0 -11 3498 4442 100 MP stroke
1 -1 0 -12 1 -1 0 -9 1 -1 0 35 0 -42 0 40 
1 -1 0 -11 1 -1 0 -11 1 -1 0 -10 1 -1 0 39 
0 -43 0 37 1 -1 0 -11 1 -1 0 -10 1 -1 0 -11 
1 -1 0 42 0 -43 0 34 1 -1 0 -11 1 -1 0 -10 
1 -1 0 -9 1 42 0 -13 1 -1 0 -10 1 -1 0 -10 
1 -1 0 36 0 -42 0 39 1 -1 0 -11 1 -1 0 -11 
1 -1 0 -9 1 -1 0 38 0 -42 0 36 1 -1 0 -11 
1 -1 0 -10 1 -1 0 -10 1 -1 0 42 0 -43 0 34 
1 -1 0 -11 1 -1 0 -9 1 -1 0 -9 1 43 0 -12 
1 -1 0 -10 1 -1 0 -9 1 -1 0 39 0 -45 0 43 
1 -1 0 -11 1 -1 0 -11 1 -1 0 -9 1 -1 0 47 
0 -50 0 44 1 -1 0 -10 1 -1 0 -10 1 -1 0 -10 
1 -1 0 59 0 -60 3457 4453 100 MP stroke
0 51 1 -1 0 -11 1 -1 0 -10 1 -1 0 -9 1 79 
0 -13 1 -2 0 -11 1 -1 0 -12 1 -1 0 123 0 -130 
0 127 1 -2 0 -15 1 -2 0 -16 1 -1 0 -14 1 -1 
0 318 0 -324 0 310 1 -2 0 -27 1 -2 0 -25 1 -3 
0 -26 1 -3 0 -23 1 -2 0 -22 1 -3 0 -21 1 -2 
0 -20 1 -2 0 -22 1 -2 0 -18 1 -2 0 -17 1 -2 
0 -17 1 -2 0 -16 1 -1 0 -17 1 -2 0 -14 1 -1 
0 -14 1 -1 0 -13 1 208 0 -22 1 -2 0 -23 1 -3 
0 -20 1 -2 0 -19 1 -2 0 -18 1 -2 0 -18 1 -1 
0 -19 1 -1 0 -16 1 -2 0 -15 1 -1 0 -15 1 -1 
0 -14 1 -1 0 -14 1 -1 0 -12 1 -1 0 -12 1 -1 
0 -11 1 -1 0 -10 1 -1 0 66 0 -71 0 64 1 -1 
0 -12 1 -1 0 -12 3411 4407 100 MP stroke
1 -1 0 -11 1 -1 0 97 0 -99 0 87 1 -2 0 -14 
1 -2 0 -14 1 -1 0 -13 1 175 0 -22 1 -2 0 -22 
1 -2 0 -19 1 -2 0 -19 1 -1 0 -18 1 -2 0 -16 
1 -2 0 -17 1 -2 0 -15 1 -2 0 -14 1 -1 0 -14 
1 -1 0 -13 1 -1 0 -13 1 -1 0 -12 1 -1 0 -11 
1 -1 0 -10 1 -1 0 -9 1 -1 0 38 0 -41 0 33 
1 -1 0 -10 1 -1 0 -10 1 -1 0 -9 1 41 0 -11 
1 -2 0 -11 1 -1 0 -9 1 -1 0 35 0 -41 0 38 
1 -1 0 -11 1 -1 0 -10 1 -1 0 -11 1 -1 0 40 
0 -41 0 33 1 -1 0 -11 1 -1 0 -10 1 -1 0 -9 
1 41 0 -12 1 -1 0 -10 1 -1 0 -10 1 -1 0 36 
0 -42 0 39 1 -2 0 -11 1 -1 0 -11 1 -1 0 -9 
1 -1 0 39 0 -41 3367 4473 100 MP stroke
0 34 1 -2 0 -10 1 -1 0 -10 1 -1 0 -10 0 42 
1 -1 0 -12 1 -1 0 -10 1 -1 0 -10 1 -1 0 36 
0 -42 0 39 1 -2 0 -12 1 -1 0 -10 1 -1 0 -10 
1 -1 0 40 0 -41 0 33 1 -1 0 -11 1 -1 0 -11 
1 -1 0 -8 0 41 1 -1 0 -11 1 -1 0 -10 1 -1 
0 -10 1 -1 0 36 0 -41 0 37 1 -1 0 -11 1 -1 
0 -10 1 -1 0 -9 1 -1 0 40 0 -42 0 35 1 -2 
0 -11 1 -1 0 -9 1 -1 0 -8 0 44 1 -1 0 -11 
1 -1 0 -10 1 -1 0 -10 1 -1 0 45 0 -49 0 45 
1 -1 0 -11 1 -1 0 -9 1 -1 0 -9 1 -1 0 57 
0 -59 0 50 1 -1 0 -10 1 -1 0 -10 1 -1 0 -8 
0 81 1 -1 0 -12 1 -1 0 -12 1 -1 0 -11 1 -1 
0 137 0 -142 0 135 3327 4261 100 MP stroke
1 -1 0 -15 1 -1 0 -15 1 -2 0 -13 1 -1 0 422 
0 -424 0 401 1 -3 0 -27 1 -3 0 -27 1 -2 0 -28 
1 -3 0 -24 1 -3 0 -23 1 -3 0 -22 1 -2 0 -22 
1 -2 0 -23 1 -2 0 -20 1 -2 0 -19 1 -2 0 -18 
1 -2 0 -17 1 -2 0 -18 1 -2 0 -15 1 -2 0 -15 
1 -1 0 714 0 -720 0 699 1 -4 0 -41 1 -4 0 -44 
1 -4 0 -38 1 -4 0 -37 1 -3 0 -36 1 -3 0 -35 
1 -3 0 -37 1 -3 0 -32 1 -3 0 -31 1 -3 0 -30 
1 -3 0 -29 1 -3 0 -30 1 -3 0 -26 1 -3 0 -25 
1 -3 0 -24 1 -3 0 -23 1 -3 0 -24 1 -2 0 -22 
1 -2 0 -21 1 -2 0 -19 1 -2 0 -19 1 -2 0 -20 
1 -2 0 -17 1 -1 0 -17 1 -1 0 -16 1 -1 0 -15 
1 -1 0 -16 1 -1 3279 4367 100 MP stroke
0 -13 1 -2 0 166 0 -168 0 153 1 -2 0 -20 1 -2 
0 -19 1 -2 0 -21 1 -1 0 -18 1 -1 0 -17 1 -2 
0 -16 1 -1 0 -15 1 -2 0 -15 1 -2 0 -13 1 -1 
0 -13 1 -1 0 -12 1 -1 0 -12 1 -1 0 -11 1 -1 
0 -10 1 -1 0 -10 1 -1 0 35 0 -38 0 33 1 -1 
0 -10 1 -1 0 -11 1 -1 0 -9 1 39 0 -11 1 -1 
0 -10 1 -1 0 -10 1 -1 0 34 0 -39 0 34 1 -1 
0 -10 1 -1 0 -10 1 -1 0 -9 1 -1 0 38 0 -39 
0 30 1 -1 0 -11 1 -1 0 -9 1 -1 0 32 0 -39 
0 37 1 -1 0 -11 1 -1 0 -10 1 -1 0 -10 1 -1 
0 37 0 -39 0 32 1 -1 0 -11 1 -1 0 -9 1 -1 
0 30 0 -39 0 38 1 -1 0 -11 1 -1 0 -10 1 -1 
0 -9 1 -1 0 35 3237 4439 100 MP stroke
0 -39 0 34 1 -1 0 -12 1 -1 0 -9 1 -1 0 -9 
1 38 0 -10 1 -2 0 -10 1 -1 0 -10 1 -1 0 34 
0 -38 0 34 1 -1 0 -11 1 -1 0 -9 1 -1 0 -10 
1 -1 0 38 0 -9 1 -1 0 -11 1 -1 0 -9 1 -1 
0 32 0 -38 0 36 1 -1 0 -10 1 -1 0 -11 1 -1 
0 -9 1 -1 0 37 0 -39 0 31 1 -1 0 -10 1 -1 
0 -9 1 -1 0 31 0 -39 0 38 1 -1 0 -10 1 -1 
0 -10 1 -1 0 -9 1 -1 0 37 0 -41 0 35 1 -1 
0 -11 1 -1 0 -9 1 -1 0 -9 1 42 0 -10 1 -1 
0 -10 1 -1 0 -10 1 -1 0 42 0 -47 0 42 1 -1 
0 -10 1 -1 0 -10 1 -1 0 -9 1 -1 0 52 0 -53 
0 43 1 -1 0 -11 1 -1 0 -10 1 -1 0 59 0 -66 
0 64 1 -2 0 -12 3197 4398 100 MP stroke
1 -1 0 -13 1 -1 0 -11 1 -1 0 93 0 -94 0 82 
1 -1 0 -14 1 -2 0 -13 1 -2 0 157 0 -166 0 160 
1 -2 0 -20 1 -2 0 -20 1 -1 0 -19 1 -2 0 -17 
1 -2 0 -18 1 -2 0 -16 1 -1 0 -15 1 -2 0 -14 
1 -1 0 -14 1 -1 0 -14 1 -1 0 -12 1 -1 0 -12 
1 -1 0 -10 1 -1 0 -10 1 -1 0 -10 1 -1 0 36 
0 -42 0 39 1 -1 0 -10 1 -1 0 -10 1 -1 0 -9 
1 -1 0 45 0 -46 0 36 1 -1 0 -10 1 -1 0 -10 
1 -1 0 48 0 -53 0 49 1 -1 0 -11 1 -1 0 -11 
1 -1 0 -10 1 -1 0 66 0 -11 1 -1 0 -12 1 -1 
0 -12 1 -1 0 88 0 -94 0 88 1 -2 0 -14 1 -2 
0 -14 1 -1 0 -13 1 -1 0 164 0 -21 1 -2 0 -20 
1 -2 0 -18 1 -2 3154 4286 100 MP stroke
0 -18 1 -2 0 -17 1 -2 0 -17 1 -2 0 -15 1 -2 
0 -14 1 -2 0 -13 1 -2 0 -13 1 -1 0 -13 1 -2 
0 -11 1 -1 0 -11 1 -1 0 -10 1 -1 0 -10 1 -1 
0 -9 1 39 0 -11 1 -1 0 -9 1 -1 0 -9 1 -1 
0 37 0 -42 0 38 1 -1 0 -12 1 -1 0 -9 1 -1 
0 -9 1 45 0 -10 1 -1 0 -10 1 -1 0 -11 1 -1 
0 49 0 -52 0 47 1 -2 0 -10 1 -2 0 -10 1 -1 
0 -9 1 65 0 -13 1 -2 0 -11 1 -1 0 -11 1 -1 
0 88 0 -93 0 86 1 -2 0 -14 1 -1 0 -15 1 -2 
0 -11 0 163 1 -2 0 -21 1 -2 0 -19 1 -2 0 -18 
1 -2 0 -19 1 -2 0 -17 1 -1 0 -16 1 -2 0 -15 
1 -1 0 -15 1 -1 0 -15 1 -1 0 -13 1 -1 0 -12 
1 -1 0 -12 1 -1 3108 4434 100 MP stroke
0 -10 1 -1 0 -11 1 -1 0 -9 1 -1 0 -8 0 40 
1 -1 0 -10 1 -1 0 -10 1 -1 0 -9 1 -1 0 41 
0 -44 0 38 1 -1 0 -10 1 -1 0 -10 1 -1 0 44 
0 -51 0 50 1 -1 0 -12 1 -1 0 -11 1 -1 0 -9 
1 -1 0 63 0 -64 0 54 1 -1 0 -12 1 -1 0 -12 
1 -2 0 86 0 -91 0 85 1 -2 0 -14 1 -2 0 -13 
1 -2 0 -12 1 156 0 -22 1 -2 0 -19 1 -2 0 -18 
1 -2 0 -18 1 -2 0 -16 1 -2 0 -17 1 -2 0 -15 
1 -1 0 -14 1 -2 0 -13 1 -2 0 -12 1 -2 0 -13 
1 -1 0 -11 1 -1 0 -11 1 -1 0 -10 1 -1 0 -10 
1 -1 0 29 0 -35 0 33 1 -1 0 -10 1 -1 0 -10 
1 -1 0 -8 1 -1 0 34 0 -35 0 26 1 -1 0 -10 
1 -1 0 -9 1 -1 3065 4478 100 MP stroke
0 31 0 -35 0 31 1 -1 0 -10 1 -1 0 -10 1 -1 
0 -8 0 35 1 -1 0 -10 1 -1 0 -10 1 -1 0 -9 
1 -1 0 33 0 -35 0 28 1 -1 0 -10 1 -1 0 -9 
1 -1 0 29 0 -35 0 33 1 -1 0 -10 1 -1 0 -10 
1 -1 0 -9 1 -1 0 35 0 -9 1 -1 0 -10 1 -1 
0 -9 1 -1 0 31 0 -35 0 30 1 -1 0 -10 1 -1 
0 -9 1 -1 0 -8 0 35 1 -1 0 -10 1 -1 0 -11 
1 -1 0 -8 1 -1 0 33 0 -35 0 28 1 -1 0 -10 
1 -1 0 -9 1 -1 0 30 0 -36 0 32 1 -1 0 -10 
1 -1 0 -9 1 -1 0 -9 1 -1 0 36 0 -10 1 -1 
0 -11 1 -1 0 -9 1 -1 0 33 0 -36 0 30 1 -1 
0 -10 1 -1 0 -9 1 -1 0 28 0 -36 0 35 1 -1 
0 -11 1 -1 0 -9 3026 4469 100 MP stroke
1 -1 0 -9 1 -1 0 34 0 -36 0 28 1 -1 0 -11 
1 -1 0 -9 1 -1 0 31 0 -36 0 32 1 -1 0 -10 
1 -1 0 -9 1 -1 0 -10 1 36 0 -11 1 -1 0 -10 
1 -1 0 -9 1 -1 0 32 0 -35 0 30 1 -1 0 -11 
1 -1 0 -10 1 -1 0 29 0 -36 0 34 1 -1 0 -10 
1 -1 0 -9 1 -1 0 -10 1 -1 0 34 0 -35 0 26 
1 -1 0 -10 1 -1 0 -9 1 -1 0 31 0 -35 0 30 
1 -1 0 -11 1 -1 0 -9 1 -1 0 28 0 -35 0 34 
1 -1 0 -11 1 -1 0 -9 1 -1 0 -10 1 -1 0 35 
0 -10 1 -1 0 -9 1 -1 0 -9 1 -1 0 31 0 -35 
0 29 1 -1 0 -11 1 -1 0 -9 1 -1 0 29 0 -35 
0 33 1 -1 0 -11 1 -1 0 -10 1 -1 0 -9 1 35 
0 -10 1 -1 0 -10 2986 4469 100 MP stroke
1 -1 0 -9 1 -1 0 33 0 -35 0 27 1 -1 0 -9 
1 -1 0 -9 1 -1 0 30 0 -35 0 32 1 -1 0 -10 
1 -1 0 -10 1 -1 0 -8 0 37 1 -1 0 -10 1 -1 
0 -9 1 -1 0 -9 1 -1 0 37 0 -39 0 31 1 -1 
0 -10 1 -1 0 -9 1 -1 0 39 0 -43 0 39 1 -1 
0 -10 1 -1 0 -11 1 -1 0 43 0 -50 0 49 1 -1 
0 -11 1 -1 0 -10 1 -1 0 -9 1 -1 0 62 0 -63 
0 52 1 -1 0 -11 1 -1 0 -11 1 -1 0 87 0 -91 
0 84 1 -1 0 -14 1 -2 0 -14 1 -1 0 158 0 -167 
0 163 1 -2 0 -20 1 -2 0 -19 1 -2 0 -18 1 -2 
0 -19 1 -2 0 -16 1 -2 0 -16 1 -1 0 -15 1 -1 
0 -14 1 -2 0 -14 1 -2 0 -12 1 -2 0 -11 1 -2 
0 -11 1 -1 0 -10 2945 4439 100 MP stroke
1 -1 0 -11 1 -1 0 -9 1 -1 0 47 0 -50 0 43 
1 -1 0 -11 1 -1 0 -10 1 -1 0 56 0 -62 0 58 
1 -1 0 -12 1 -2 0 -11 1 -1 0 -11 1 87 0 -14 
1 -2 0 -15 1 -1 0 -13 1 -2 0 145 0 -147 0 133 
1 -2 0 -19 1 -2 0 -18 1 -2 0 -19 1 -1 0 -17 
1 -2 0 -15 1 -2 0 -15 1 -1 0 -14 1 -1 0 -15 
1 -1 0 -13 1 -1 0 -12 1 -1 0 -11 1 -1 0 -11 
1 -1 0 -11 1 -1 0 -9 1 -1 0 27 0 -33 0 31 
1 -1 0 -10 1 -1 0 -9 1 -1 0 -9 0 34 1 -2 
0 -10 1 -1 0 -9 1 -1 0 -9 1 -1 0 33 0 -34 
0 25 1 -1 0 -10 1 -1 0 -9 1 -1 0 31 0 -34 
0 28 1 -1 0 -10 1 -1 0 -10 1 -1 0 29 0 -33 
0 29 1 -1 0 -10 2903 4467 100 MP stroke
1 -1 0 -9 1 -1 0 26 0 -33 0 32 1 -1 0 -11 
1 -1 0 -10 1 -1 0 -8 1 33 0 -10 1 -1 0 -10 
1 -1 0 -9 1 -1 0 32 0 -33 0 25 1 -1 0 -10 
1 -1 0 -9 1 -1 0 30 0 -33 0 28 1 -1 0 -11 
1 -1 0 -9 1 -1 0 28 0 -33 0 30 1 -1 0 -10 
1 -1 0 -9 1 -1 0 25 0 -33 0 32 1 -1 0 -10 
1 -1 0 -9 1 -1 0 -9 1 -1 0 33 0 -9 1 -1 
0 -10 1 -1 0 -9 1 -1 0 32 0 -33 0 26 1 -1 
0 -9 1 -1 0 -9 1 -1 0 30 0 -34 0 29 1 -1 
0 -10 1 -1 0 -9 1 -1 0 30 0 -36 0 34 1 -1 
0 -10 1 -1 0 -10 1 -1 0 -8 0 38 1 -1 0 -10 
1 -1 0 -9 1 -1 0 -9 1 -1 0 41 0 -42 0 33 
1 -1 0 -10 1 -1 2863 4453 100 MP stroke
0 -9 1 -1 0 46 0 -49 0 42 1 -1 0 -11 1 -1 
0 -10 1 -1 0 56 0 -61 0 56 1 -1 0 -12 1 -1 
0 -11 1 -2 0 78 0 -86 0 84 1 -1 0 -16 1 -1 
0 -14 1 -1 0 -13 1 147 0 -20 1 -2 0 -19 1 -2 
0 -19 1 -2 0 -17 1 -2 0 -16 1 -1 0 -16 1 -1 
0 -15 1 -1 0 -15 1 -1 0 -13 1 -2 0 -12 1 -1 
0 -11 1 -2 0 -10 1 -1 0 -12 1 -1 0 -9 1 -1 
0 -9 1 -1 0 31 0 -34 0 29 1 -1 0 -9 1 -1 
0 -10 1 -1 0 30 0 -35 0 32 1 -1 0 -10 1 -1 
0 -9 1 -1 0 -7 0 37 1 -1 0 -11 1 -1 0 -9 
1 -1 0 -9 1 -1 0 41 0 -9 1 -1 0 -10 1 -1 
0 -10 1 -1 0 46 0 -47 0 39 1 -1 0 -10 1 -1 
0 -10 1 -1 0 56 2821 4395 100 MP stroke
0 -60 0 53 1 -1 0 -12 1 -1 0 -11 1 -1 0 78 
0 -84 0 79 1 -2 0 -14 1 -1 0 -15 1 -1 0 136 
0 -144 0 138 1 -2 0 -20 1 -2 0 -18 1 -2 0 -17 
1 -2 0 -18 1 -2 0 -16 1 -1 0 -15 1 -2 0 -14 
1 -1 0 -14 1 -1 0 -14 1 -1 0 -12 1 -2 0 -11 
1 -1 0 -10 1 -1 0 -10 1 -1 0 -10 1 -1 0 -8 
0 32 1 -1 0 -10 1 -1 0 -10 1 -1 0 -8 1 -1 
0 32 0 -10 1 -1 0 -10 1 -1 0 -8 1 -1 0 31 
0 -32 0 24 1 -1 0 -10 1 -1 0 -9 1 -1 0 30 
0 -32 0 25 1 -1 0 -9 1 -1 0 -9 1 -1 0 29 
0 -32 0 27 1 -1 0 -10 1 -1 0 -9 1 -1 0 29 
0 -33 0 29 1 -1 0 -9 1 -1 0 -9 1 -1 0 29 
0 -35 0 32 1 -1 2780 4452 100 MP stroke
0 -10 1 -1 0 -9 1 -1 0 30 0 -37 0 36 1 -1 
0 -10 1 -1 0 -10 1 -1 0 -8 0 41 1 -1 0 -10 
1 -1 0 -10 1 -1 0 -9 1 -1 0 48 0 -11 1 -1 
0 -10 1 -1 0 -10 1 -1 0 59 0 -60 0 50 1 -1 
0 -11 1 -1 0 -12 1 -2 0 83 0 -85 0 75 1 -2 
0 -14 1 -1 0 -13 1 -2 0 140 0 -145 0 135 1 -2 
0 -22 1 -2 0 -18 1 -2 0 -17 1 -2 0 -16 1 -2 
0 -16 1 -1 0 -17 1 -1 0 -14 1 -1 0 -14 1 -1 
0 -13 1 -1 0 -12 1 -1 0 -12 1 -1 0 -10 1 -1 
0 -10 1 -1 0 -9 1 -1 0 26 0 -32 0 30 1 -1 
0 -10 1 -1 0 -9 1 -1 0 26 0 -33 0 32 1 -1 
0 -10 1 -1 0 -9 1 -1 0 -8 0 34 1 -1 0 -10 
1 -1 0 -8 1 -1 2738 4470 100 MP stroke
0 -9 1 -1 0 37 0 -10 1 -1 0 -9 1 -1 0 -8 
1 -1 0 40 0 -41 0 33 1 -1 0 -9 1 -1 0 -10 
1 -1 0 50 0 -9 1 -1 0 -10 1 -1 0 -9 1 -1 
0 67 0 -69 0 60 1 -1 0 -12 1 -1 0 -11 1 -1 
0 110 0 -112 0 101 1 -1 0 -15 1 -1 0 -14 1 -1 
0 259 0 -263 0 245 1 -2 0 -25 1 -2 0 -23 1 -2 
0 -23 1 -2 0 -21 1 -2 0 -23 1 -2 0 -19 1 -2 
0 -18 1 -2 0 -18 1 -2 0 -17 1 -1 0 -18 1 -1 
0 -16 1 -1 0 -14 1 -2 0 -13 1 -2 0 -13 1 -1 
0 137 0 -142 0 130 1 -1 0 -19 1 -2 0 -18 1 -2 
0 -17 1 -1 0 -16 1 -2 0 -17 1 -1 0 -15 1 -1 
0 -14 1 -1 0 -13 1 -1 0 -13 1 -1 0 -12 1 -1 
0 -11 1 -1 0 -10 2695 4456 100 MP stroke
1 -1 0 -10 1 -1 0 -8 1 -1 0 31 0 -36 0 31 
1 -1 0 -9 1 -1 0 -9 1 -1 0 35 0 -39 0 35 
1 -1 0 -10 1 -1 0 -10 1 -1 0 42 0 -46 0 41 
1 -1 0 -10 1 -1 0 -10 1 -1 0 52 0 -58 0 54 
1 -1 0 -12 1 -2 0 -11 1 -1 0 76 0 -82 0 77 
1 -1 0 -14 1 -1 0 -13 1 -2 0 131 0 -139 0 133 
1 -2 0 -18 1 -2 0 -18 1 -2 0 -17 1 -2 0 -16 
1 -1 0 -17 1 -2 0 -14 1 -2 0 -13 1 -2 0 -13 
1 -1 0 -12 1 -1 0 -13 1 -1 0 -11 1 -1 0 -10 
1 -1 0 -9 1 -1 0 -9 1 -1 0 30 0 -36 0 33 
1 -1 0 -10 1 -1 0 -9 1 -1 0 34 0 -39 0 37 
1 -1 0 -10 1 -1 0 -10 1 -1 0 41 0 -47 0 45 
1 -1 0 -11 1 -1 2654 4436 100 MP stroke
0 -9 1 -1 0 52 0 -60 0 58 1 -1 0 -12 1 -1 
0 -11 1 -1 0 81 0 -89 0 87 1 -1 0 -14 1 -1 
0 -15 1 -1 0 155 0 -165 0 163 1 -2 0 -19 1 -2 
0 -19 1 -2 0 -18 1 -2 0 -19 1 -2 0 -16 1 -2 
0 -15 1 -2 0 -15 1 -1 0 -14 1 -1 0 -15 1 -1 
0 -13 1 -1 0 -12 1 -1 0 -11 1 -1 0 -11 1 -1 
0 -11 1 -1 0 50 0 -56 0 54 1 -1 0 -12 1 -1 
0 -11 1 -1 0 72 0 -80 0 77 1 -2 0 -15 1 -1 
0 -13 1 -2 0 126 0 -133 0 128 1 -2 0 -19 1 -2 
0 -18 1 -1 0 -19 1 -2 0 -16 1 -1 0 -16 1 -1 
0 -15 1 -1 0 -14 1 -1 0 -14 1 -2 0 -12 1 -1 
0 -12 1 -1 0 -11 1 -1 0 -10 1 -1 0 -10 1 -1 
0 -9 1 -1 0 25 2611 4462 100 MP stroke
0 -29 0 25 1 -1 0 -9 1 -1 0 -9 1 -1 0 26 
0 -30 0 25 1 -1 0 -10 1 -1 0 -8 1 -1 0 26 
0 -30 0 25 1 -1 0 -10 1 -1 0 -9 1 -1 0 27 
0 -30 0 24 1 -1 0 -9 1 -1 0 -9 1 -1 0 27 
0 -30 0 24 1 -1 0 -10 1 -1 0 -9 1 -1 0 28 
0 -30 0 23 1 -1 0 -9 1 -1 0 -9 1 -1 0 28 
0 -30 0 22 1 -1 0 -9 1 -1 0 -9 1 -1 0 29 
0 -30 0 22 1 -1 0 -9 1 -1 0 -10 1 -1 0 30 
0 -9 1 -1 0 -9 1 -1 0 -8 1 -1 0 29 0 -9 
1 -1 0 -10 1 -1 0 -8 1 29 0 -9 1 -1 0 -9 
1 -1 0 -8 1 29 0 -10 1 -1 0 -9 1 -1 0 -7 
0 31 1 -1 0 -10 1 -1 0 -8 1 -1 0 25 0 -33 
0 32 1 -1 0 -9 2572 4464 100 MP stroke
1 -1 0 -9 1 -1 0 30 0 -36 0 35 1 -1 0 -11 
1 -1 0 -8 1 -1 0 36 0 -42 0 40 1 -1 0 -10 
1 -1 0 -9 1 -1 0 47 0 -52 0 49 1 -1 0 -11 
1 -1 0 -9 1 -1 0 70 0 -76 0 72 1 -1 0 -12 
1 -1 0 -13 1 -1 0 128 0 -133 0 127 1 -2 0 -16 
1 -1 0 -15 1 -2 0 384 0 -391 0 378 1 -3 0 -35 
1 -3 0 -29 1 -3 0 -29 1 -3 0 -27 1 -3 0 -27 
1 -2 0 -28 1 -3 0 -24 1 -2 0 -24 1 -2 0 -22 
1 -3 0 -21 1 -2 0 -22 1 -2 0 -20 1 -2 0 -18 
1 -2 0 -18 1 -2 0 -16 1 -2 0 -18 1 -1 0 -15 
1 -2 0 -14 1 -1 0 -14 1 -1 0 -13 1 -1 0 -14 
1 -1 0 -11 1 -1 0 -11 1 -1 0 -10 1 -1 0 -9 
1 -1 0 -10 1 -1 2528 4490 100 MP stroke
0 28 0 -29 0 22 1 -1 0 -9 1 -1 0 -9 1 -1 
0 28 0 -29 0 22 1 -1 0 -10 1 -1 0 -8 1 -1 
0 28 0 -29 0 21 1 -1 0 -9 1 -1 0 -8 1 -1 
0 28 0 -29 0 21 1 -1 0 -9 1 -1 0 -9 1 -1 
0 30 0 -9 1 -1 0 -9 1 -1 0 -9 1 30 0 -10 
1 -1 0 -8 1 -1 0 -9 1 31 0 -10 1 -1 0 -9 
1 -1 0 -8 0 32 1 -1 0 -9 1 -1 0 -9 1 -1 
0 -8 0 35 1 -1 0 -11 1 -1 0 -9 1 -1 0 32 
0 -38 0 37 1 -1 0 -10 1 -1 0 -9 1 -1 0 37 
0 -44 0 42 1 -1 0 -10 1 -1 0 -10 1 -1 0 49 
0 -56 0 54 1 -1 0 -12 1 -1 0 -12 1 -1 0 73 
0 -79 0 75 1 -2 0 -13 1 -2 0 -12 1 -2 0 127 
0 -134 0 129 1 -2 2489 4273 100 MP stroke
0 -21 1 -1 0 -18 1 -2 0 -16 1 -2 0 -16 1 -1 
0 -17 1 -1 0 -15 1 -1 0 -13 1 -2 0 -12 1 -2 
0 -12 1 -1 0 -12 1 -1 0 -11 1 -1 0 -10 1 -1 
0 -9 1 -1 0 -8 1 -1 0 30 0 -34 0 28 1 -1 
0 -9 1 -1 0 -9 1 -1 0 36 0 -37 0 30 1 -1 
0 -10 1 -1 0 -9 1 -1 0 44 0 -10 1 -1 0 -10 
1 -1 0 -10 1 55 0 -12 1 -1 0 -12 1 -1 0 68 
0 -76 0 75 1 -1 0 -14 1 -2 0 -13 1 -1 0 119 
0 -128 0 124 1 -1 0 -21 1 -2 0 -17 1 -2 0 -17 
1 -2 0 -15 1 -2 0 -15 1 -2 0 -15 1 -2 0 -13 
1 -1 0 -13 1 -1 0 -12 1 -1 0 -12 1 -1 0 -11 
1 -1 0 -10 1 -1 0 -9 1 -1 0 -8 1 -1 0 26 
0 -29 0 23 1 -1 2445 4469 100 MP stroke
0 -9 1 -1 0 -9 1 -1 0 29 0 -7 1 -1 0 -9 
1 -1 0 -8 1 -1 0 32 0 -9 1 -1 0 -9 1 -1 
0 -7 0 1 1 33 0 -10 1 -1 0 -8 1 -1 0 34 
0 -41 0 39 1 -1 0 -10 1 -1 0 -8 1 -1 0 46 
0 -51 0 48 1 -1 0 -10 1 -1 0 -11 1 -1 0 71 
0 -74 0 68 1 -2 0 -11 1 -1 0 -11 1 -1 0 128 
0 -132 0 123 1 -2 0 -17 1 -1 0 -15 1 -1 0 388 
0 -390 0 365 1 -3 0 -30 1 -3 0 -29 1 -3 0 -31 
1 -2 0 -27 1 -3 0 -26 1 -2 0 -25 1 -2 0 -24 
1 -2 0 -25 1 -2 0 -22 1 -2 0 -21 1 -2 0 -20 
1 -1 0 -19 1 -2 0 -20 1 -2 0 -17 1 -1 0 -17 
1 -1 0 -16 1 -1 0 -15 1 -1 0 -15 1 -2 0 -13 
1 -1 0 -12 1 -1 2402 4416 100 MP stroke
0 -12 1 -1 0 -12 1 -1 0 -10 1 -1 0 -10 1 -1 
0 -8 1 -1 0 30 0 -37 0 36 1 -1 0 -11 1 -1 
0 -9 1 -1 0 38 0 -43 0 40 1 -1 0 -10 1 -1 
0 -10 1 -1 0 50 0 -55 0 49 1 -1 0 -11 1 -1 
0 -11 1 -1 0 74 0 -77 0 69 1 -2 0 -13 1 -1 
0 -14 1 -1 0 129 0 -130 0 115 1 -1 0 -18 1 -2 
0 -17 1 -2 0 -16 1 -1 0 -17 1 -1 0 -15 1 -1 
0 -14 1 -1 0 -13 1 -1 0 -13 1 -1 0 -12 1 -1 
0 -11 1 -1 0 -10 1 -1 0 -10 1 -1 0 -8 1 -1 
0 -9 0 33 1 -1 0 -9 1 -1 0 -9 1 -1 0 30 
0 -37 0 36 1 -1 0 -9 1 -1 0 -10 1 -1 0 38 
0 -43 0 40 1 -1 0 -11 1 -1 0 -9 1 -1 0 50 
0 -55 0 50 1 -1 2361 4411 100 MP stroke
0 -13 1 -1 0 -10 1 -1 0 73 0 -77 0 69 1 -2 
0 -13 1 -1 0 -13 1 -1 0 126 0 -129 0 114 1 -2 
0 -18 1 -2 0 -17 1 -2 0 -16 1 -2 0 -15 1 -2 
0 -16 1 -1 0 -14 1 -2 0 -13 1 -1 0 -12 1 -2 
0 -11 1 -1 0 -13 1 -1 0 -10 1 -1 0 -10 1 -1 
0 -9 1 -1 0 -8 1 28 0 -10 1 -1 0 -9 1 -1 
0 22 0 -29 0 28 1 -1 0 -10 1 -1 0 -9 1 -1 
0 23 0 -29 0 26 1 -1 0 -9 1 -1 0 -9 1 -1 
0 24 0 -28 0 24 1 -1 0 -9 1 -1 0 -10 1 -1 
0 26 0 -28 0 22 1 -1 0 -9 1 -1 0 -9 1 -1 
0 27 0 -28 0 21 1 -1 0 -10 1 -1 0 -8 1 -1 
0 28 0 -9 1 -1 0 -9 1 -1 0 -8 1 28 0 -11 
1 -1 0 -9 1 -1 2319 4486 100 MP stroke
0 21 0 -28 0 27 1 -1 0 -9 1 -1 0 -10 1 -1 
0 22 0 -27 0 25 1 -1 0 -10 1 -1 0 -8 1 -1 
0 23 0 -27 0 23 1 -1 0 -10 1 -1 0 -8 1 -1 
0 25 0 -27 0 21 1 -1 0 -9 1 -1 0 -8 1 -1 
0 27 0 -9 1 -1 0 -8 1 -1 0 22 0 -29 0 28 
1 -1 0 -9 1 -1 0 -8 1 -1 0 25 0 -30 0 27 
1 -1 0 -9 1 -1 0 -8 1 -1 0 31 0 -33 0 28 
1 -1 0 -9 1 -1 0 -8 1 -1 0 39 0 -8 1 -1 
0 -9 1 -1 0 -7 0 51 1 -1 0 -10 1 -1 0 -10 
1 -1 0 69 0 -75 0 72 1 -1 0 -12 1 -1 0 -11 
1 -1 0 137 0 -141 0 133 1 -2 0 -17 1 -1 0 -15 
1 -1 0 472 0 -474 0 447 1 -3 0 -33 1 -3 0 -32 
1 -3 0 -33 1 -3 2281 3966 100 MP stroke
0 -29 1 -3 0 -28 1 -3 0 -27 1 -3 0 -26 1 -3 
0 -27 1 -3 0 -23 1 -3 0 -23 1 -2 0 -22 1 -2 
0 -21 1 -2 0 -22 1 -2 0 -19 1 -2 0 -19 1 -1 
0 -18 1 -1 0 -17 1 -2 0 -17 1 -2 0 -15 1 -1 
0 -14 1 -2 0 -13 1 -1 0 -13 1 -1 0 -13 1 -2 
0 -11 1 -1 0 -11 1 -1 0 69 0 -74 0 68 1 -1 
0 -14 1 -1 0 -14 1 -1 0 120 0 -122 0 109 1 -2 
0 -17 1 -2 0 -16 1 -2 0 -16 1 -1 0 -17 1 -1 
0 -14 1 -2 0 -13 1 -1 0 -13 1 -1 0 -12 1 -1 
0 -13 1 -1 0 -10 1 -1 0 -10 1 -1 0 -9 1 -1 
0 -8 1 -1 0 23 0 -30 0 28 1 -1 0 -9 1 -1 
0 -9 1 -1 0 28 0 -32 0 29 1 -1 0 -10 1 -1 
0 -9 1 -1 0 34 2236 4447 100 MP stroke
0 -35 0 28 1 -1 0 -9 1 -1 0 -8 1 -1 0 41 
0 -10 1 -1 0 -10 1 -1 0 46 0 -53 0 51 1 -1 
0 -11 1 -1 0 -11 1 -1 0 67 0 -73 0 68 1 -2 
0 -13 1 -1 0 -13 1 -1 0 117 0 -121 0 110 1 -1 
0 -18 1 -2 0 -18 1 -2 0 -16 1 -1 0 -16 1 -1 
0 -14 1 -2 0 -13 1 -2 0 -14 1 -1 0 -12 1 -1 
0 -12 1 -1 0 -11 1 -1 0 -10 1 -1 0 -10 1 -1 
0 -9 1 -1 0 -7 0 26 1 -1 0 -9 1 -1 0 -9 
1 -1 0 21 0 -26 0 23 1 -1 0 -9 1 -1 0 -8 
1 -1 0 23 0 -26 0 22 1 -1 0 -9 1 -1 0 -9 
1 -1 0 25 0 -26 0 19 1 -1 0 -9 1 -1 0 -8 
1 27 0 -10 1 -1 0 -9 1 -1 0 21 0 -27 0 25 
1 -1 0 -9 1 -1 2195 4482 100 MP stroke
0 -9 1 -1 0 23 0 -27 0 23 1 -1 0 -10 1 -1 
0 -8 1 -1 0 25 0 -27 0 20 1 -1 0 -8 1 -1 
0 -9 1 -1 0 27 0 -9 1 -1 0 -9 1 -1 0 20 
0 -27 0 26 1 -1 0 -9 1 -1 0 -8 1 -1 0 22 
0 -27 0 23 1 -1 0 -9 1 -1 0 -9 1 -1 0 25 
0 -27 0 21 1 -1 0 -9 1 -1 0 -9 1 -1 0 27 
0 -9 1 -1 0 -9 1 -1 0 -7 0 27 1 -1 0 -10 
1 -1 0 -9 1 -1 0 22 0 -27 0 24 1 -1 0 -9 
1 -1 0 -9 1 -1 0 24 0 -27 0 22 1 -1 0 -10 
1 -1 0 -8 1 -1 0 25 0 -26 0 19 1 -1 0 -9 
1 -1 0 -8 1 26 0 -10 1 -1 0 -9 1 -1 0 21 
0 -27 0 25 1 -1 0 -9 1 -1 0 -9 1 -1 0 22 
0 -26 0 22 1 -1 2157 4475 100 MP stroke
0 -9 1 -1 0 -8 1 -1 0 24 0 -26 0 20 1 -1 
0 -9 1 -1 0 -8 1 26 0 -9 1 -1 0 -8 1 -1 
0 21 0 -27 0 25 1 -1 0 -9 1 -1 0 -8 1 -1 
0 26 0 -28 0 23 1 -1 0 -8 1 -1 0 -8 1 -1 
0 32 0 -9 1 -1 0 -9 1 -1 0 31 0 -36 0 34 
1 -1 0 -9 1 -1 0 -8 1 -1 0 42 0 -46 0 40 
1 -1 0 -10 1 -1 0 -9 1 -1 0 63 0 -11 1 -1 
0 -11 1 -1 0 94 0 -102 0 99 1 -2 0 -14 1 -2 
0 -14 1 -1 0 226 0 -231 0 219 1 -2 0 -23 1 -3 
0 -24 1 -2 0 -21 1 -2 0 -20 1 -2 0 -20 1 -2 
0 -18 1 -2 0 -19 1 -2 0 -17 1 -1 0 -16 1 -2 
0 -15 1 -1 0 -15 1 -1 0 -15 1 -2 0 -13 1 -1 
0 109 0 -117 0 113 2117 4297 100 MP stroke
1 -2 0 -17 1 -2 0 -17 1 -2 0 -18 1 -1 0 -15 
1 -2 0 -14 1 -2 0 -14 1 -1 0 -13 1 -1 0 -14 
1 -1 0 -11 1 -1 0 -11 1 -1 0 -10 1 -1 0 -10 
1 -1 0 -9 1 -1 0 -9 1 26 0 -9 1 -1 0 -9 
1 -1 0 20 0 -26 0 24 1 -1 0 -10 1 -1 0 -8 
1 -1 0 23 0 -26 0 20 1 -1 0 -9 1 -1 0 -8 
1 -1 0 26 0 -9 1 -1 0 -9 1 -1 0 20 0 -26 
0 24 1 -1 0 -9 1 -1 0 -8 1 -1 0 22 0 -26 
0 20 1 -1 0 -8 1 -1 0 -8 1 -1 0 25 0 -8 
1 -1 0 -9 1 -1 0 19 0 -25 0 24 1 -1 0 -9 
1 -1 0 -9 1 -1 0 23 0 -26 0 22 1 -1 0 -9 
1 -1 0 -9 1 -1 0 26 0 -8 1 -1 0 -8 1 -1 
0 21 0 -27 0 26 2076 4468 100 MP stroke
1 -1 0 -9 1 -1 0 -9 1 -1 0 25 0 -28 0 24 
1 -1 0 -9 1 -1 0 -8 1 -1 0 30 0 -31 0 23 
1 -1 0 -9 1 -1 0 28 0 -35 0 34 1 -1 0 -9 
1 -1 0 -9 1 -1 0 36 0 -41 0 36 1 -1 0 -10 
1 -1 0 -9 1 -1 0 50 0 -51 0 42 1 -1 0 -11 
1 -1 0 62 0 -71 0 70 1 -1 0 -14 1 -1 0 -13 
1 -1 0 113 0 -119 0 112 1 -2 0 -17 1 -2 0 -18 
1 -2 0 -15 1 -2 0 -15 1 -1 0 -15 1 -1 0 -13 
1 -2 0 -14 1 -1 0 -12 1 -1 0 -11 1 -1 0 -11 
1 -1 0 -10 1 -1 0 -10 1 -1 0 -8 1 -1 0 -7 
0 28 1 -1 0 -9 1 -1 0 -8 1 -1 0 26 0 -31 
0 27 1 -1 0 -9 1 -1 0 -8 1 -1 0 33 0 -35 
0 28 1 -1 0 -9 2036 4466 100 MP stroke
1 -1 0 -8 0 41 1 -1 0 -11 1 -1 0 -10 1 -1 
0 47 0 -52 0 48 1 -1 0 -11 1 -1 0 -12 1 -1 
0 70 0 -72 0 62 1 -1 0 -13 1 -2 0 -12 1 119 
0 -19 1 -1 0 -19 1 -2 0 -17 1 -1 0 -16 1 -1 
0 -15 1 -2 0 -14 1 -1 0 -15 1 -1 0 -13 1 -1 
0 -12 1 -1 0 -11 1 -1 0 -11 1 -1 0 -10 1 -1 
0 -9 1 -1 0 -9 1 -1 0 24 0 -25 0 19 1 -1 
0 -9 1 -1 0 -8 0 25 1 -1 0 -9 1 -1 0 -8 
1 -1 0 20 0 -25 0 22 1 -1 0 -9 1 -1 0 -9 
1 -1 0 24 0 -25 0 19 1 -1 0 -9 1 -1 0 -8 
1 25 0 -9 1 -1 0 -9 1 -1 0 20 0 -25 0 23 
1 -1 0 -9 1 -1 0 -8 1 -1 0 23 0 -25 0 20 
1 -1 0 -9 1 -1 1994 4487 100 MP stroke
0 -8 1 26 0 -9 1 -1 0 -8 1 -1 0 23 0 -28 
0 26 1 -1 0 -9 1 -1 0 -8 1 -1 0 29 0 -31 
0 25 1 -1 0 -9 1 -1 0 29 0 -36 0 35 1 -1 
0 -9 1 -1 0 -9 1 -1 0 41 0 -44 0 39 1 -1 
0 -9 1 -1 0 -10 1 61 0 -12 1 -1 0 -11 1 -1 
0 94 0 -100 0 95 1 -1 0 -15 1 -1 0 -15 1 -1 
0 223 0 -224 0 205 1 -2 0 -22 1 -3 0 -21 1 -2 
0 -21 1 -2 0 -22 1 -2 0 -18 1 -2 0 -18 1 -2 
0 -17 1 -2 0 -16 1 -2 0 -17 1 -1 0 -15 1 -1 
0 -14 1 -2 0 -13 1 -1 0 -13 1 -1 0 107 0 -112 
0 101 1 -2 0 -17 1 -1 0 -17 1 -1 0 -16 1 -1 
0 -15 1 -1 0 -16 1 -1 0 -13 1 -1 0 -13 1 -1 
0 -12 1 -1 0 -11 1952 4453 100 MP stroke
1 -1 0 -11 1 -1 0 -10 1 -1 0 -9 1 -1 0 -8 
1 -1 0 19 0 -24 0 22 1 -1 0 -10 1 -1 0 -8 
1 -1 0 23 0 -24 0 17 1 -1 0 -8 1 -1 0 17 
0 -24 0 23 1 -1 0 -9 1 -1 0 -8 1 -1 0 21 
0 -24 0 19 1 -1 0 -9 1 -1 0 -8 1 24 0 -10 
1 -1 0 -8 1 -1 0 20 0 -24 0 21 1 -1 0 -9 
1 -1 0 -8 1 -1 0 23 0 -24 0 16 1 -1 0 -8 
1 -1 0 18 0 -24 0 22 1 -1 0 -8 1 -1 0 -8 
1 -1 0 21 0 -24 0 18 1 -1 0 -8 1 -1 0 -8 
0 24 1 -1 0 -9 1 -1 0 -8 1 -1 0 20 0 -24 
0 20 1 -1 0 -9 1 -1 0 -8 1 -1 0 24 0 -8 
1 -1 0 -8 1 -1 0 18 0 -24 0 22 1 -1 0 -9 
1 -1 0 -8 1 -1 1913 4499 100 MP stroke
0 22 0 -24 0 18 1 -1 0 -8 1 -1 0 17 0 -25 
0 24 1 -1 0 -9 1 -1 0 -8 1 -1 0 21 0 -25 
0 20 1 -1 0 -8 1 -1 0 -9 1 24 0 -9 1 -1 
0 -9 1 -1 0 20 0 -24 0 21 1 -1 0 -9 1 -1 
0 -8 1 -1 0 23 0 -24 0 17 1 -1 0 -9 1 -1 
0 18 0 -24 0 23 1 -1 0 -9 1 -1 0 -9 1 -1 
0 22 0 -24 0 19 1 -1 0 -9 1 -1 0 -8 1 25 
0 -10 1 -1 0 -9 1 -1 0 21 0 -25 0 21 1 -1 
0 -9 1 -1 0 -8 1 -1 0 24 0 -25 0 17 1 -1 
0 -9 1 -1 0 19 0 -25 0 23 1 -1 0 -9 1 -1 
0 -8 1 -1 0 22 0 -24 0 18 1 -1 0 -9 1 -1 
0 -7 0 24 1 -1 0 -9 1 -1 0 -8 1 -1 0 20 
0 -24 0 20 1 -1 1876 4480 100 MP stroke
0 -9 1 -1 0 -8 1 -1 0 24 0 -8 1 -1 0 -8 
1 -1 0 18 0 -24 0 22 1 -1 0 -9 1 -1 0 -9 
1 -1 0 23 0 -24 0 18 1 -1 0 -9 1 -1 0 17 
0 -24 0 23 1 -1 0 -9 1 -1 0 -8 1 -1 0 21 
0 -24 0 20 1 -1 0 -9 1 -1 0 -9 1 24 0 -8 
1 -1 0 -9 1 -1 0 20 0 -24 0 22 1 -1 0 -9 
1 -1 0 -8 1 -1 0 24 0 -25 0 18 1 -1 0 -8 
1 -1 0 20 0 -26 0 25 1 -1 0 -8 1 -1 0 -9 
1 -1 0 26 0 -28 0 23 1 -1 0 -9 1 -1 0 -7 
1 31 0 -9 1 -1 0 -9 1 -1 0 34 0 -38 0 34 
1 -1 0 -9 1 -1 0 -8 1 -1 0 47 0 -48 0 39 
1 -1 0 -10 1 -1 0 62 0 -69 0 67 1 -1 0 -12 
1 -1 0 -11 1 -1 1838 4406 100 MP stroke
0 117 0 -121 0 112 1 -2 0 -17 1 -1 0 -13 0 332 
1 -3 0 -29 1 -3 0 -28 1 -3 0 -27 1 -3 0 -28 
1 -3 0 -25 1 -2 0 -24 1 -2 0 -23 1 -2 0 -22 
1 -2 0 -23 1 -2 0 -20 1 -2 0 -19 1 -2 0 -18 
1 -1 0 -18 1 -1 0 -18 1 -2 0 -15 1 -2 0 -15 
1 -1 0 -14 1 -1 0 -15 1 -1 0 -12 1 -1 0 -12 
1 -1 0 -11 1 -1 0 -10 1 -1 0 -11 1 -1 0 -9 
1 -1 0 -8 1 -1 0 19 0 -23 0 20 1 -1 0 -9 
1 -1 0 -9 1 23 0 -9 1 -1 0 -8 1 -1 0 20 
0 -24 0 20 1 -1 0 -8 1 -1 0 -9 1 23 0 -9 
1 -1 0 -8 1 -1 0 20 0 -24 0 21 1 -1 0 -9 
1 -1 0 -8 1 24 0 -9 1 -1 0 -8 1 -1 0 22 
0 -26 0 22 1 -1 1794 4477 100 MP stroke
0 -8 1 -1 0 -9 1 27 0 -9 1 -1 0 -9 1 -1 
0 26 0 -30 0 26 1 -1 0 -9 1 -1 0 -9 1 33 
0 -10 1 -1 0 -9 1 -1 0 35 0 -39 0 35 1 -1 
0 -10 1 -1 0 -11 1 49 0 -11 1 -1 0 -11 1 -1 
0 63 0 -68 0 62 1 -1 0 -13 1 -2 0 -13 1 110 
0 -18 1 -1 0 -17 1 -2 0 -16 1 -2 0 -15 1 -1 
0 -16 1 -2 0 -13 1 -2 0 -12 1 -2 0 -12 1 -1 
0 -11 1 -1 0 -12 1 -1 0 -10 1 -1 0 -9 1 -1 
0 -9 1 -1 0 -7 1 -1 0 23 0 -8 1 -1 0 -8 
1 -1 0 20 0 -24 0 21 1 -1 0 -9 1 -1 0 -7 
1 -1 0 25 0 -9 1 -1 0 -7 1 -1 0 23 0 -27 
0 24 1 -1 0 -9 1 -1 0 -7 1 -1 0 30 0 -8 
1 -1 0 -8 1 -1 1751 4476 100 MP stroke
0 32 0 -36 0 33 1 -1 0 -9 1 -1 0 -8 1 -1 
0 47 0 -10 1 -1 0 -9 1 -1 0 64 0 -69 0 64 
1 -1 0 -12 1 -1 0 -10 1 -1 0 123 0 -15 1 -2 
0 -15 1 -1 0 354 0 -361 0 349 1 -3 0 -29 1 -3 
0 -28 1 -3 0 -30 1 -3 0 -26 1 -2 0 -25 1 -2 
0 -24 1 -3 0 -25 1 -2 0 -22 1 -2 0 -21 1 -2 
0 -20 1 -2 0 -19 1 -2 0 -20 1 -1 0 -18 1 -1 
0 -17 1 -1 0 -16 1 -2 0 -14 1 -2 0 -15 1 -1 
0 -14 1 -1 0 -12 1 -2 0 -11 1 -2 0 -11 1 -1 
0 -11 1 -1 0 -10 1 -1 0 -9 1 -1 0 -8 1 -1 
0 39 0 -9 1 -1 0 -10 1 -1 0 46 0 -51 0 47 
1 -1 0 -11 1 -1 0 -11 1 -1 0 74 0 -12 1 -1 
0 -14 1 -2 0 125 1708 4272 100 MP stroke
0 -131 0 123 1 -2 0 -18 1 -1 0 -17 1 -2 0 -16 
1 -2 0 -17 1 -1 0 -15 1 -1 0 -14 1 -2 0 -13 
1 -1 0 -12 1 -2 0 -12 1 -2 0 -11 1 -1 0 -10 
1 -1 0 -10 1 -1 0 -8 1 -1 0 33 0 -39 0 35 
1 -2 0 -9 1 -1 0 -10 1 -1 0 48 0 -10 1 -1 
0 -11 1 -1 0 60 0 -66 0 61 1 -2 0 -13 1 -1 
0 -12 1 -2 0 106 0 -15 1 -2 0 -17 1 -1 0 -18 
1 -1 0 -15 1 -1 0 -14 1 -2 0 -13 1 -1 0 -13 
1 -1 0 -13 1 -1 0 -11 1 -1 0 -11 1 -1 0 -9 
1 -1 0 -9 1 -1 0 -9 1 -1 0 -8 1 23 0 -8 
1 -1 0 -8 1 -1 0 22 0 -25 0 20 1 -1 0 -8 
1 -1 0 20 0 -26 0 25 1 -1 0 -8 1 -1 0 -8 
1 -1 0 28 0 -29 1665 4490 100 MP stroke
0 23 1 -1 0 -9 1 -1 0 31 0 -35 0 32 1 -1 
0 -8 1 -1 0 -9 1 -1 0 46 0 -9 1 -1 0 -10 
1 -1 0 62 0 -66 0 60 1 -1 0 -11 1 -1 0 -10 
0 117 1 -2 0 -15 1 -2 0 -16 1 -1 0 318 0 -321 
0 301 1 -3 0 -28 1 -2 0 -27 1 -3 0 -27 1 -3 
0 -24 1 -3 0 -23 1 -2 0 -23 1 -2 0 -21 1 -2 
0 -23 1 -2 0 -19 1 -2 0 -19 1 -1 0 -18 1 -2 
0 -17 1 -1 0 -18 1 -2 0 -15 1 -1 0 -15 1 -1 
0 -14 1 -1 0 -13 1 -1 0 -13 1 -2 0 -11 1 -1 
0 -11 1 -1 0 -10 1 -1 0 -9 1 -1 0 -10 1 -1 
0 -8 1 -1 0 24 0 -28 0 24 1 -1 0 -8 1 -1 
0 -8 1 31 0 -11 1 -1 0 -8 1 -1 0 34 0 -37 
0 31 1 -1 0 -10 1622 4462 100 MP stroke
1 -1 0 39 0 -46 0 45 1 -1 0 -12 1 -1 0 -10 
1 -1 0 62 0 -63 0 53 1 -2 0 -12 1 -1 0 94 
0 -102 0 97 1 -2 0 -18 1 -2 0 -16 1 -1 0 -15 
1 -2 0 -14 1 -1 0 -14 1 -1 0 -14 1 -1 0 -12 
1 -1 0 -12 1 -1 0 -10 1 -1 0 -10 1 -1 0 -10 
1 -1 0 -9 1 -1 0 -8 1 -1 0 20 0 -22 0 16 
1 -1 0 -8 1 -1 0 16 0 -22 0 20 1 -1 0 -9 
1 -1 0 -7 1 -1 0 21 0 -22 0 15 1 -1 0 -8 
1 -1 0 17 0 -22 0 18 1 -1 0 -8 1 -1 0 -8 
1 22 0 -9 1 -1 0 -8 1 -1 0 19 0 -22 0 17 
1 -1 0 -9 1 -1 0 16 0 -22 0 21 1 -1 0 -9 
1 -1 0 -7 1 -1 0 20 0 -22 0 15 1 -1 0 -8 
1 -1 0 17 0 -22 1583 4505 100 MP stroke
0 19 1 -1 0 -8 1 -1 0 -8 1 -1 0 22 0 -9 
1 -1 0 -8 1 -1 0 19 0 -22 0 18 1 -1 0 -9 
1 -1 0 -7 0 22 1 -1 0 -9 1 -1 0 -8 1 -1 
0 20 0 -22 0 16 1 -1 0 -8 1 -1 0 16 0 -22 
0 20 1 -1 0 -9 1 -1 0 -8 1 -1 0 22 0 -8 
1 -1 0 -8 1 -1 0 18 0 -22 0 18 1 -1 0 -9 
1 -1 0 -7 0 22 1 -1 0 -8 1 -1 0 -8 1 -1 
0 19 0 -22 0 16 1 -1 0 -8 1 -1 0 16 0 -22 
0 20 1 -1 0 -8 1 -1 0 -8 1 -1 0 21 0 -22 
0 14 1 -1 0 -8 1 -1 0 18 0 -22 0 19 1 -1 
0 -9 1 -1 0 -7 1 21 0 -9 1 -1 0 -8 1 -1 
0 20 0 -22 0 17 1 -1 0 -8 1 -1 0 16 0 -23 
0 22 1 -1 0 -9 1546 4492 100 MP stroke
1 -1 0 -8 1 -1 0 22 0 -6 1 -1 0 -8 1 -1 
0 19 0 -24 0 21 1 -1 0 -9 1 -1 0 -7 1 25 
0 -9 1 -1 0 -8 1 -1 0 25 0 -28 0 23 1 -1 
0 -9 1 -1 0 24 0 -31 0 30 1 -1 0 -9 1 -1 
0 -8 1 -1 0 34 0 -36 0 29 1 -1 0 -10 1 -1 
0 40 0 -45 0 42 1 -1 0 -11 1 -1 0 -10 1 -1 
0 62 0 -12 1 -1 0 -14 1 -1 0 94 0 -98 0 90 
1 -2 0 -16 1 -2 0 -16 1 -1 0 -15 1 -1 0 -16 
1 -1 0 -13 1 -1 0 -13 1 -1 0 -12 1 -1 0 -11 
1 -1 0 -12 1 -1 0 -9 1 -1 0 -9 1 -1 0 -9 
1 -1 0 -7 1 -1 0 20 0 -21 0 13 1 -1 0 -8 
1 -1 0 18 0 -21 0 16 1 -1 0 -8 1 -1 0 15 
0 -21 0 20 1 -1 1506 4488 100 MP stroke
0 -9 1 -1 0 -8 1 -1 0 21 0 -8 1 -1 0 -8 
1 -1 0 18 0 -21 0 17 1 -1 0 -9 1 -1 0 15 
0 -21 0 19 1 -1 0 -8 1 -1 0 -8 1 -1 0 21 
0 -7 1 -1 0 -9 1 -1 0 18 0 -21 0 16 1 -1 
0 -8 1 -1 0 15 0 -20 0 19 1 -1 0 -9 1 -1 
0 -8 1 20 0 -8 1 -1 0 -8 1 -1 0 18 0 -20 
0 15 1 -1 0 -8 1 -1 0 15 0 -20 0 18 1 -1 
0 -8 1 -1 0 -8 1 20 0 -8 1 -1 0 -9 1 -1 
0 19 0 -20 0 15 1 -1 0 -9 1 -1 0 17 0 -21 
0 18 1 -1 0 -8 1 -1 0 -8 0 21 1 -1 0 -8 
1 -1 0 -8 1 -1 0 19 0 -21 0 16 1 -1 0 -8 
1 -1 0 16 0 -21 0 18 1 -1 0 -8 1 -1 0 -7 
0 22 1 -1 0 -8 1469 4491 100 MP stroke
1 -1 0 -8 1 -1 0 22 0 -23 0 16 1 -1 0 -8 
1 -1 0 21 0 -25 0 21 1 -1 0 -8 1 -1 0 -7 
0 27 1 -1 0 -9 1 -1 0 -8 1 -1 0 30 0 -31 
0 23 1 -1 0 -8 1 -1 0 32 0 -36 0 32 1 -1 
0 -10 1 -1 0 40 0 -47 0 46 1 -1 0 -11 1 -1 
0 -10 1 -1 0 68 0 -69 0 58 1 -1 0 -13 1 -2 
0 115 0 -119 0 110 1 -2 0 -17 1 -2 0 -16 1 -1 
0 -16 1 -1 0 -16 1 -2 0 -14 1 -1 0 -13 1 -1 
0 -13 1 -1 0 -12 1 -1 0 -12 1 -1 0 -10 1 -1 
0 -10 1 -1 0 -9 1 -1 0 -8 1 -1 0 34 0 -35 
0 26 1 -1 0 -9 1 -1 0 41 0 -44 0 39 1 -1 
0 -11 1 -1 0 54 0 -62 0 60 1 -1 0 -14 1 -1 
0 -12 1 -1 0 98 1430 4324 100 MP stroke
0 -15 1 -1 0 -17 1 -1 0 -15 1 -2 0 -16 1 -1 
0 -14 1 -1 0 -13 1 -1 0 -13 1 -1 0 -11 1 -1 
0 -12 1 -1 0 -10 1 -1 0 -10 1 -1 0 -9 1 -1 
0 -8 1 -1 0 15 0 -21 0 19 1 -1 0 -8 1 -1 
0 -8 1 -1 0 21 0 -8 1 -1 0 -8 1 -1 0 18 
0 -21 0 16 1 -1 0 -8 1 -1 0 15 0 -21 0 19 
1 -1 0 -8 1 -1 0 -8 1 -1 0 21 0 -8 1 -1 
0 -8 1 -1 0 18 0 -21 0 16 1 -1 0 -8 1 -1 
0 15 0 -20 0 19 1 -1 0 -9 1 -1 0 -8 1 21 
0 -9 1 -1 0 -8 1 -1 0 19 0 -21 0 15 1 -1 
0 -8 1 -1 0 16 0 -21 0 18 1 -1 0 -8 1 -1 
0 -8 1 21 0 -10 1 -1 0 -7 1 -1 0 19 0 -21 
0 15 1 -1 0 -8 1390 4500 100 MP stroke
1 -1 0 16 0 -21 0 19 1 -1 0 -10 1 -1 0 -7 
0 1 1 20 0 -9 1 -1 0 -8 1 -1 0 20 0 -21 
0 15 1 -1 0 -9 1 -1 0 18 0 -22 0 18 1 -1 
0 -8 1 -1 0 -7 0 22 1 -1 0 -9 1 -1 0 -8 
1 -1 0 21 0 -22 0 16 1 -1 0 -8 1 -1 0 19 
0 -23 0 20 1 -1 0 -9 1 -1 0 18 0 -25 0 24 
1 -1 0 -8 1 -1 0 -8 1 -1 0 26 0 -27 0 20 
1 -1 0 -8 1 -1 0 26 0 -30 0 26 1 -1 0 -9 
1 -1 0 29 0 -36 0 35 1 -1 0 -10 1 -1 0 -9 
1 -1 0 46 0 -10 1 -1 0 -11 1 -1 0 61 0 -65 
0 59 1 -1 0 -13 1 -1 0 99 0 -109 0 107 1 -2 
0 -18 1 -2 0 -16 1 -1 0 -15 1 -2 0 -14 1 -2 
0 -13 1 -1 0 -14 1353 4408 100 MP stroke
1 -2 0 -12 1 -1 0 -11 1 -1 0 -11 1 -1 0 -10 
1 -1 0 -10 1 -1 0 -8 1 -1 0 -8 1 -1 0 29 
0 -30 0 24 1 -1 0 -8 1 -1 0 34 0 -38 0 33 
1 -1 0 -9 1 -1 0 45 0 -51 0 49 1 -1 0 -11 
1 -1 0 -10 1 80 0 -15 1 -1 0 -13 1 -1 0 160 
0 -161 0 145 1 -2 0 -19 1 -1 0 -18 1 -2 0 -19 
1 -1 0 -16 1 -2 0 -15 1 -2 0 -14 1 -2 0 -14 
1 -1 0 -14 1 -1 0 -13 1 -1 0 -12 1 -1 0 -11 
1 -1 0 -10 1 -1 0 67 0 -74 0 70 1 -2 0 -12 
1 -1 0 -11 0 138 1 -1 0 -19 1 -1 0 -17 1 -2 
0 -18 1 -2 0 -15 1 -2 0 -14 1 -2 0 -14 1 -1 
0 -15 1 -1 0 -12 1 -2 0 -11 1 -2 0 -11 1 -1 
0 -10 1 -1 0 -11 1309 4445 100 MP stroke
1 -1 0 -9 1 -1 0 53 0 -56 0 49 1 -1 0 -10 
1 -1 0 84 0 -91 0 87 1 -1 0 -16 1 -1 0 191 
0 -202 0 199 1 -2 0 -22 1 -2 0 -22 1 -2 0 -20 
1 -2 0 -22 1 -2 0 -18 1 -2 0 -18 1 -2 0 -17 
1 -1 0 -16 1 -2 0 -17 1 -1 0 -15 1 -1 0 -14 
1 -1 0 -13 1 -1 0 -13 1 -1 0 92 0 -95 0 83 
1 -2 0 -16 1 -1 0 -16 1 -1 0 -14 1 -2 0 -14 
1 -1 0 -14 1 -1 0 -12 1 -2 0 -11 1 -1 0 -11 
1 -1 0 -10 1 -1 0 -10 1 -1 0 -9 1 -1 0 -8 
1 -1 0 -6 0 20 1 -1 0 -8 1 -1 0 -9 1 20 
0 -8 1 -1 0 -7 1 -1 0 19 0 -21 0 16 1 -1 
0 -8 1 -1 0 18 0 -22 0 18 1 -1 0 -7 1 -1 
0 18 0 -24 0 22 1267 4479 100 MP stroke
1 -1 0 -8 1 -1 0 -7 1 26 0 -9 1 -1 0 -8 
1 -1 0 30 0 -31 0 24 1 -1 0 -8 1 -1 0 34 
0 -38 0 33 1 -1 0 -10 1 -1 0 46 0 -51 0 48 
1 -1 0 -11 1 -1 0 -9 0 79 1 -2 0 -13 1 -1 
0 -14 1 -1 0 155 0 -18 1 -2 0 -19 1 -2 0 -18 
1 -1 0 -18 1 -1 0 -18 1 -2 0 -15 1 -2 0 -14 
1 -2 0 -14 1 -1 0 -14 1 -1 0 -14 1 -1 0 -12 
1 -1 0 -11 1 -1 0 -11 1 -1 0 54 0 -60 0 56 
1 -1 0 -14 1 -1 0 86 0 -96 0 94 1 -2 0 -16 
1 -2 0 -16 1 -1 0 -15 1 -1 0 -16 1 -1 0 -14 
1 -1 0 -13 1 -1 0 -12 1 -1 0 -12 1 -1 0 -11 
1 -1 0 -9 1 -1 0 -10 1 -1 0 -8 1 -1 0 -8 
1 -1 0 18 0 -20 1224 4509 100 MP stroke
0 14 1 -1 0 -8 1 -1 0 16 0 -20 0 16 1 -1 
0 -8 1 -1 0 14 0 -20 0 18 1 -1 0 -8 1 -1 
0 -8 1 20 0 -9 1 -1 0 -7 1 -1 0 18 0 -20 
0 13 1 -1 0 -8 1 -1 0 17 0 -20 0 16 1 -1 
0 -8 1 -1 0 14 0 -19 0 18 1 -1 0 -9 1 -1 
0 -7 0 20 1 -1 0 -8 1 -1 0 -7 1 -1 0 19 
0 -20 0 14 1 -1 0 -8 1 -1 0 19 0 -22 0 17 
1 -1 0 -8 1 -1 0 18 0 -22 0 20 1 -1 0 -8 
1 -1 0 18 0 -25 0 23 1 -1 0 -8 1 -1 0 -7 
0 28 1 -1 0 -9 1 -1 0 -8 1 -1 0 34 0 -10 
1 -1 0 -9 1 -1 0 42 0 -8 1 -1 0 -10 1 -1 
0 57 0 -60 0 52 1 -1 0 -13 1 -2 0 94 0 -98 
0 90 1 -2 0 -16 1188 4350 100 MP stroke
1 -1 0 -15 1 -2 0 -14 1 -2 0 -15 1 -1 0 -13 
1 -1 0 -12 1 -2 0 -11 1 -1 0 -11 1 -1 0 -11 
1 -1 0 -9 1 -1 0 -9 1 -1 0 -8 1 -1 0 19 
0 -25 0 24 1 -1 0 -9 1 -1 0 -8 0 29 1 -1 
0 -9 1 -1 0 -9 1 -1 0 34 0 -9 1 -1 0 -10 
1 -1 0 41 0 -42 0 34 1 -2 0 -10 1 -1 0 55 
0 -58 0 50 1 -1 0 -12 1 -2 0 86 0 -91 0 83 
1 -2 0 -16 1 -1 0 -16 1 -1 0 -15 1 -1 0 -14 
1 -1 0 -15 1 -1 0 -12 1 -1 0 -12 1 -1 0 -10 
1 -2 0 -10 1 -1 0 -10 1 -1 0 -8 1 -1 0 -8 
1 -1 0 13 0 -19 0 17 1 -1 0 -8 1 -1 0 -6 
0 18 1 -1 0 -8 1 -1 0 -8 1 19 0 -8 1 -1 
0 -8 1 -1 0 19 1145 4489 100 MP stroke
0 -7 1 -1 0 -7 1 -1 0 18 0 -20 0 15 1 -1 
0 -8 1 -1 0 18 0 -21 0 16 1 -1 0 -7 1 -1 
0 19 0 -23 0 20 1 -1 0 -8 1 -1 0 20 0 -25 
0 24 1 -1 0 -9 1 -1 0 24 0 -30 0 29 1 -1 
0 -9 1 -1 0 -8 1 38 0 -10 1 -1 0 -9 1 -1 
0 51 0 -9 1 -2 0 -9 1 -1 0 79 0 -81 0 72 
1 -2 0 -12 1 -1 0 165 0 -170 0 158 1 -2 0 -19 
1 -2 0 -18 1 -2 0 -17 1 -2 0 -17 1 -1 0 -18 
1 -1 0 -15 1 -2 0 -14 1 -1 0 -14 1 -1 0 -13 
1 -1 0 -13 1 -2 0 -11 1 -1 0 -11 1 -1 0 81 
0 -88 0 85 1 -1 0 -14 1 -2 0 180 0 -192 0 190 
1 -2 0 -22 1 -2 0 -21 1 -2 0 -20 1 -2 0 -19 
1 -2 0 -20 1 -2 1105 4299 100 MP stroke
0 -17 1 -2 0 -16 1 -2 0 -16 1 -1 0 -15 1 -2 
0 -15 1 -2 0 -13 1 -1 0 -13 1 -1 0 -12 1 -1 
0 90 0 -15 1 -2 0 -17 1 -1 0 -15 1 -1 0 -14 
1 -2 0 -13 1 -1 0 -13 1 -1 0 -13 1 -1 0 -11 
1 -1 0 -10 1 -1 0 -10 1 -1 0 -9 1 -1 0 -9 
1 -1 0 -7 1 -1 0 17 0 -19 0 13 1 -1 0 -7 
1 -1 0 15 0 -18 0 14 1 -1 0 -8 1 -1 0 15 
0 -19 0 16 1 -1 0 -8 1 -1 0 14 0 -19 0 18 
1 -1 0 -8 1 -1 0 13 0 -20 0 19 1 -1 0 -7 
1 -1 0 -8 1 21 0 -8 1 -1 0 -7 1 -1 0 21 
0 -22 0 15 1 -1 0 -8 1 -1 0 23 0 -24 0 19 
1 -1 0 -8 1 -1 0 25 0 -28 0 23 1 -1 0 -9 
1 -1 0 30 0 -34 1065 4485 100 MP stroke
0 30 1 -1 0 -9 1 -1 0 37 0 -43 0 41 1 -1 
0 -12 1 -1 0 54 0 -62 0 60 1 -1 0 -12 1 -2 
0 -11 1 102 0 -16 1 -2 0 -17 1 -2 0 -15 1 -1 
0 -14 1 -2 0 -13 1 -1 0 -13 1 -1 0 -13 1 -2 
0 -11 1 -1 0 -10 1 -2 0 -9 1 -1 0 -10 1 -1 
0 -9 1 -1 0 -8 1 -1 0 26 0 -27 0 21 1 -1 
0 -8 1 -1 0 30 0 -33 0 28 1 -1 0 -10 1 -1 
0 37 0 -42 0 38 1 -1 0 -11 1 -1 0 51 0 -58 
0 55 1 -1 0 -12 1 -1 0 81 0 -92 0 91 1 -2 
0 -16 1 -2 0 -15 1 -1 0 -15 1 -1 0 -14 1 -1 
0 -14 1 -1 0 -12 1 -2 0 -11 1 -1 0 -11 1 -1 
0 -10 1 -1 0 -10 1 -1 0 -9 1 -1 0 -8 1 -1 
0 -7 1 -1 0 22 1023 4483 100 MP stroke
0 -8 1 -1 0 -8 1 -1 0 24 0 -8 1 -1 0 -8 
1 -1 0 27 0 -7 1 -1 0 -9 1 -1 0 31 0 -32 
0 24 1 -1 0 -9 1 -1 0 39 0 -41 0 34 1 -1 
0 -11 1 -1 0 54 0 -57 0 49 1 -1 0 -14 1 -1 
0 85 0 -89 0 79 1 -1 0 -16 1 -2 0 -15 1 -2 
0 -14 1 -1 0 -15 1 -1 0 -13 1 -1 0 -12 1 -1 
0 -12 1 -1 0 -10 1 -1 0 -11 1 -1 0 -9 1 -1 
0 -9 1 -1 0 -7 1 -1 0 13 0 -17 0 14 1 -1 
0 -8 1 -1 0 14 0 -18 0 15 1 -1 0 -8 1 -1 
0 13 0 -18 0 16 1 -1 0 -8 1 -1 0 13 0 -18 
0 16 1 -1 0 -8 1 -1 0 14 0 -19 0 17 1 -1 
0 -7 1 -1 0 13 0 -19 0 18 1 -1 0 -8 1 -1 
0 15 0 -20 0 19 986 4486 100 MP stroke
1 -1 0 -7 1 -1 0 -6 0 1 1 21 0 -8 1 -1 
0 -7 0 26 1 -1 0 -8 1 -1 0 -7 1 32 0 -8 
1 -1 0 -9 1 44 0 -10 1 -1 0 -8 1 -1 0 66 
0 -10 1 -1 0 -11 1 -1 0 126 0 -127 0 113 1 -1 
0 -15 1 -2 0 420 0 -421 0 394 1 -3 0 -32 1 -3 
0 -30 1 -3 0 -33 1 -3 0 -28 1 -3 0 -27 1 -2 
0 -26 1 -3 0 -25 1 -2 0 -27 1 -2 0 -23 1 -2 
0 -22 1 -2 0 -21 1 -2 0 -21 1 -1 0 -21 1 -2 
0 -19 1 -1 0 -18 1 -1 0 -17 1 -1 0 -16 1 -1 
0 -17 1 -1 0 -14 1 -2 0 -13 1 -1 0 -13 1 -1 
0 -12 1 -1 0 -12 1 -1 0 60 0 -62 0 52 1 -2 
0 -13 1 -1 0 96 0 -100 0 89 1 -2 0 -18 1 -1 
0 208 0 -215 0 197 943 4161 100 MP stroke
1 -3 0 -28 1 -3 0 -27 1 -3 0 -26 1 -2 0 -25 
1 -2 0 -26 1 -2 0 -22 1 -2 0 -20 1 -2 0 -19 
1 -2 0 -18 1 -2 0 -18 1 -1 0 -16 1 -1 0 -14 
1 -1 0 39 0 -45 0 37 1 -2 0 -15 1 -2 0 42 
0 -49 0 40 1 -1 0 -17 1 -1 0 46 0 -54 0 47 
1 -2 0 -18 1 -2 0 50 0 -60 0 54 1 -2 0 -22 
1 -1 0 56 0 -67 0 60 1 -2 0 -21 1 -2 0 61 
0 -74 0 69 1 -2 0 -23 1 -2 0 70 0 -86 0 81 
1 -3 0 -24 1 -3 0 87 0 -104 0 101 1 -3 0 -27 
1 -2 0 -21 0 140 1 -3 0 -34 1 -3 0 -24 0 250 
1 -4 0 -42 1 -4 0 -36 1 1035 0 -111 1 -10 0 -110 
1 -9 0 -89 1 -9 0 -79 1 -7 0 -69 1 -6 0 -59 
1 -6 0 -53 1 -4 902 3611 100 MP stroke
0 -38 1 -3 0 -28 1 -2 0 -18 1 -1 0 -8 899 3709 8 MP stroke
gr

c8
0 sg
3316 4903 mt 
(Tempo [s]) s
 582 3064 mt  -90 rotate
(Tra\347o da Covari\342ncia) s
90 rotate
2498  294 mt 
(Tra\347o da Covari\342ncia do Erro de Kalman) s

end %%Color Dict

eplot
%%EndObject

epage
end

showpage

%%Trailer
%%EOF
