%!PS-Adobe-2.0 EPSF-1.2
%%Creator: MATLAB, The Mathworks, Inc. Version 7.9.0.529 (R2009b). Operating System: Darwin 10.8.0 Darwin Kernel Version 10.8.0: Tue Jun  7 16:33:36 PDT 2011; root:xnu-1504.15.3~1/RELEASE_I386 i386.
%%Title: ./vD_vV_falhas_trajectoria_y_zoom.eps
%%CreationDate: 08/27/2011  23:29:18
%%DocumentNeededFonts: Helvetica
%%DocumentProcessColors: Cyan Magenta Yellow Black
%%Extensions: CMYK
%%Pages: 1
%%BoundingBox:    52   199   549   602
%%EndComments

%%BeginProlog
% MathWorks dictionary
/MathWorks 160 dict begin
% definition operators
/bdef {bind def} bind def
/ldef {load def} bind def
/xdef {exch def} bdef
/xstore {exch store} bdef
% operator abbreviations
/c  /clip ldef
/cc /concat ldef
/cp /closepath ldef
/gr /grestore ldef
/gs /gsave ldef
/mt /moveto ldef
/np /newpath ldef
/cm /currentmatrix ldef
/sm /setmatrix ldef
/rm /rmoveto ldef
/rl /rlineto ldef
/s {show newpath} bdef
/sc {setcmykcolor} bdef
/sr /setrgbcolor ldef
/sg /setgray ldef
/w /setlinewidth ldef
/j /setlinejoin ldef
/cap /setlinecap ldef
/rc {rectclip} bdef
/rf {rectfill} bdef
% page state control
/pgsv () def
/bpage {/pgsv save def} bdef
/epage {pgsv restore} bdef
/bplot /gsave ldef
/eplot {stroke grestore} bdef
% orientation switch
/portraitMode 0 def /landscapeMode 1 def /rotateMode 2 def
% coordinate system mappings
/dpi2point 0 def
% font control
/FontSize 0 def
/FMS {/FontSize xstore findfont [FontSize 0 0 FontSize neg 0 0]
  makefont setfont} bdef
/reencode {exch dup where {pop load} {pop StandardEncoding} ifelse
  exch dup 3 1 roll findfont dup length dict begin
  { 1 index /FID ne {def}{pop pop} ifelse } forall
  /Encoding exch def currentdict end definefont pop} bdef
/isroman {findfont /CharStrings get /Agrave known} bdef
/FMSR {3 1 roll 1 index dup isroman {reencode} {pop pop} ifelse
  exch FMS} bdef
/csm {1 dpi2point div -1 dpi2point div scale neg translate
 dup landscapeMode eq {pop -90 rotate}
  {rotateMode eq {90 rotate} if} ifelse} bdef
% line types: solid, dotted, dashed, dotdash
/SO { [] 0 setdash } bdef
/DO { [.5 dpi2point mul 4 dpi2point mul] 0 setdash } bdef
/DA { [6 dpi2point mul] 0 setdash } bdef
/DD { [.5 dpi2point mul 4 dpi2point mul 6 dpi2point mul 4
  dpi2point mul] 0 setdash } bdef
% macros for lines and objects
/L {lineto stroke} bdef
/MP {3 1 roll moveto 1 sub {rlineto} repeat} bdef
/AP {{rlineto} repeat} bdef
/PDlw -1 def
/W {/PDlw currentlinewidth def setlinewidth} def
/PP {closepath eofill} bdef
/DP {closepath stroke} bdef
/MR {4 -2 roll moveto dup  0 exch rlineto exch 0 rlineto
  neg 0 exch rlineto closepath} bdef
/FR {MR stroke} bdef
/PR {MR fill} bdef
/L1i {{currentfile picstr readhexstring pop} image} bdef
/tMatrix matrix def
/MakeOval {newpath tMatrix currentmatrix pop translate scale
0 0 1 0 360 arc tMatrix setmatrix} bdef
/FO {MakeOval stroke} bdef
/PO {MakeOval fill} bdef
/PD {currentlinewidth 2 div 0 360 arc fill
   PDlw -1 eq not {PDlw w /PDlw -1 def} if} def
/FA {newpath tMatrix currentmatrix pop translate scale
  0 0 1 5 -2 roll arc tMatrix setmatrix stroke} bdef
/PA {newpath tMatrix currentmatrix pop	translate 0 0 moveto scale
  0 0 1 5 -2 roll arc closepath tMatrix setmatrix fill} bdef
/FAn {newpath tMatrix currentmatrix pop translate scale
  0 0 1 5 -2 roll arcn tMatrix setmatrix stroke} bdef
/PAn {newpath tMatrix currentmatrix pop translate 0 0 moveto scale
  0 0 1 5 -2 roll arcn closepath tMatrix setmatrix fill} bdef
/vradius 0 def /hradius 0 def /lry 0 def
/lrx 0 def /uly 0 def /ulx 0 def /rad 0 def
/MRR {/vradius xdef /hradius xdef /lry xdef /lrx xdef /uly xdef
  /ulx xdef newpath tMatrix currentmatrix pop ulx hradius add uly
  vradius add translate hradius vradius scale 0 0 1 180 270 arc 
  tMatrix setmatrix lrx hradius sub uly vradius add translate
  hradius vradius scale 0 0 1 270 360 arc tMatrix setmatrix
  lrx hradius sub lry vradius sub translate hradius vradius scale
  0 0 1 0 90 arc tMatrix setmatrix ulx hradius add lry vradius sub
  translate hradius vradius scale 0 0 1 90 180 arc tMatrix setmatrix
  closepath} bdef
/FRR {MRR stroke } bdef
/PRR {MRR fill } bdef
/MlrRR {/lry xdef /lrx xdef /uly xdef /ulx xdef /rad lry uly sub 2 div def
  newpath tMatrix currentmatrix pop ulx rad add uly rad add translate
  rad rad scale 0 0 1 90 270 arc tMatrix setmatrix lrx rad sub lry rad
  sub translate rad rad scale 0 0 1 270 90 arc tMatrix setmatrix
  closepath} bdef
/FlrRR {MlrRR stroke } bdef
/PlrRR {MlrRR fill } bdef
/MtbRR {/lry xdef /lrx xdef /uly xdef /ulx xdef /rad lrx ulx sub 2 div def
  newpath tMatrix currentmatrix pop ulx rad add uly rad add translate
  rad rad scale 0 0 1 180 360 arc tMatrix setmatrix lrx rad sub lry rad
  sub translate rad rad scale 0 0 1 0 180 arc tMatrix setmatrix
  closepath} bdef
/FtbRR {MtbRR stroke } bdef
/PtbRR {MtbRR fill } bdef
/stri 6 array def /dtri 6 array def
/smat 6 array def /dmat 6 array def
/tmat1 6 array def /tmat2 6 array def /dif 3 array def
/asub {/ind2 exch def /ind1 exch def dup dup
  ind1 get exch ind2 get sub exch } bdef
/tri_to_matrix {
  2 0 asub 3 1 asub 4 0 asub 5 1 asub
  dup 0 get exch 1 get 7 -1 roll astore } bdef
/compute_transform {
  dmat dtri tri_to_matrix tmat1 invertmatrix 
  smat stri tri_to_matrix tmat2 concatmatrix } bdef
/ds {stri astore pop} bdef
/dt {dtri astore pop} bdef
/db {2 copy /cols xdef /rows xdef mul dup 3 mul string
  currentfile exch readhexstring pop
  dup 0 3 index getinterval /rbmap xdef
  dup 2 index dup getinterval /gbmap xdef
  1 index dup 2 mul exch getinterval /bbmap xdef pop pop}bdef
/it {gs np dtri aload pop moveto lineto lineto cp c
  cols rows 8 compute_transform 
  rbmap gbmap bbmap true 3 colorimage gr}bdef
/il {newpath moveto lineto stroke}bdef
currentdict end def
%%EndProlog

%%BeginSetup
MathWorks begin

0 cap

end
%%EndSetup

%%Page: 1 1
%%BeginPageSetup
%%PageBoundingBox:    52   199   549   602
MathWorks begin
bpage
%%EndPageSetup

%%BeginObject: obj1
bplot

/dpi2point 12 def
portraitMode 0216 7344 csm

  413   110  5965  4845 MR c np
86 dict begin %Colortable dictionary
/c0 { 0.000000 0.000000 0.000000 sr} bdef
/c1 { 1.000000 1.000000 1.000000 sr} bdef
/c2 { 0.900000 0.000000 0.000000 sr} bdef
/c3 { 0.000000 0.820000 0.000000 sr} bdef
/c4 { 0.000000 0.000000 0.800000 sr} bdef
/c5 { 0.910000 0.820000 0.320000 sr} bdef
/c6 { 1.000000 0.260000 0.820000 sr} bdef
/c7 { 0.000000 0.820000 0.820000 sr} bdef
c0
1 j
1 sg
   0    0 6913 5186 PR
6 w
0 4226 5356 0 0 -4226 899 4615 4 MP
PP
-5356 0 0 4226 5356 0 0 -4226 899 4615 5 MP stroke
4 w
DO
0 sg
 899 4615 mt  899  389 L
 899  389 mt  899  389 L
1434 4615 mt 1434  389 L
1434  389 mt 1434  389 L
1970 4615 mt 1970  389 L
1970  389 mt 1970  389 L
2505 4615 mt 2505  389 L
2505  389 mt 2505  389 L
3041 4615 mt 3041  389 L
3041  389 mt 3041  389 L
3577 4615 mt 3577  389 L
3577  389 mt 3577  389 L
4112 4615 mt 4112  389 L
4112  389 mt 4112  389 L
4648 4615 mt 4648  389 L
4648  389 mt 4648  389 L
5183 4615 mt 5183  389 L
5183  389 mt 5183  389 L
5719 4615 mt 5719  389 L
5719  389 mt 5719  389 L
6255 4615 mt 6255  389 L
6255  389 mt 6255  389 L
 899 4615 mt 6255 4615 L
6255 4615 mt 6255 4615 L
 899 4011 mt 6255 4011 L
6255 4011 mt 6255 4011 L
 899 3407 mt 6255 3407 L
6255 3407 mt 6255 3407 L
 899 2803 mt 6255 2803 L
6255 2803 mt 6255 2803 L
 899 2200 mt 6255 2200 L
6255 2200 mt 6255 2200 L
 899 1596 mt 6255 1596 L
6255 1596 mt 6255 1596 L
 899  992 mt 6255  992 L
6255  992 mt 6255  992 L
 899  389 mt 6255  389 L
6255  389 mt 6255  389 L
SO
6 w
 899 4615 mt 6255 4615 L
 899  389 mt 6255  389 L
 899 4615 mt  899  389 L
6255 4615 mt 6255  389 L
 899 4615 mt 6255 4615 L
 899 4615 mt  899  389 L
 899 4615 mt  899 4561 L
 899  389 mt  899  442 L
%%IncludeResource: font Helvetica
/Helvetica /ISOLatin1Encoding 120 FMSR

 833 4760 mt 
(70) s
1434 4615 mt 1434 4561 L
1434  389 mt 1434  442 L
1368 4760 mt 
(71) s
1970 4615 mt 1970 4561 L
1970  389 mt 1970  442 L
1904 4760 mt 
(72) s
2505 4615 mt 2505 4561 L
2505  389 mt 2505  442 L
2439 4760 mt 
(73) s
3041 4615 mt 3041 4561 L
3041  389 mt 3041  442 L
2975 4760 mt 
(74) s
3577 4615 mt 3577 4561 L
3577  389 mt 3577  442 L
3511 4760 mt 
(75) s
4112 4615 mt 4112 4561 L
4112  389 mt 4112  442 L
4046 4760 mt 
(76) s
4648 4615 mt 4648 4561 L
4648  389 mt 4648  442 L
4582 4760 mt 
(77) s
5183 4615 mt 5183 4561 L
5183  389 mt 5183  442 L
5117 4760 mt 
(78) s
5719 4615 mt 5719 4561 L
5719  389 mt 5719  442 L
5653 4760 mt 
(79) s
6255 4615 mt 6255 4561 L
6255  389 mt 6255  442 L
6189 4760 mt 
(80) s
 899 4615 mt  952 4615 L
6255 4615 mt 6201 4615 L
 731 4659 mt 
(11) s
 899 4011 mt  952 4011 L
6255 4011 mt 6201 4011 L
 631 4055 mt 
(11.5) s
 899 3407 mt  952 3407 L
6255 3407 mt 6201 3407 L
 731 3451 mt 
(12) s
 899 2803 mt  952 2803 L
6255 2803 mt 6201 2803 L
 631 2847 mt 
(12.5) s
 899 2200 mt  952 2200 L
6255 2200 mt 6201 2200 L
 731 2244 mt 
(13) s
 899 1596 mt  952 1596 L
6255 1596 mt 6201 1596 L
 631 1640 mt 
(13.5) s
 899  992 mt  952  992 L
6255  992 mt 6201  992 L
 731 1036 mt 
(14) s
 899  389 mt  952  389 L
6255  389 mt 6201  389 L
 631  433 mt 
(14.5) s
 899 4615 mt 6255 4615 L
 899  389 mt 6255  389 L
 899 4615 mt  899  389 L
6255 4615 mt 6255  389 L
gs 899 389 5357 4227 MR c np
gr

gs 826 642 5504 3927 MR c np
/c8 { 0.000000 0.000000 1.000000 sr} bdef
c8
  36   36  904 4491 FO
  36   36  909 4488 FO
  36   36  915 4484 FO
  36   36  920 4481 FO
  36   36  925 4477 FO
  36   36  931 4474 FO
  36   36  936 4470 FO
  36   36  941 4467 FO
  36   36  947 4463 FO
  36   36  952 4459 FO
  36   36  957 4456 FO
  36   36  963 4452 FO
  36   36  968 4449 FO
  36   36  973 4445 FO
  36   36  979 4442 FO
  36   36  984 4438 FO
  36   36  990 4434 FO
  36   36  995 4431 FO
  36   36 1000 4427 FO
  36   36 1006 4424 FO
  36   36 1011 4420 FO
  36   36 1016 4417 FO
  36   36 1022 4413 FO
  36   36 1027 4410 FO
  36   36 1032 4406 FO
  36   36 1038 4402 FO
  36   36 1043 4399 FO
  36   36 1048 4395 FO
  36   36 1054 4392 FO
  36   36 1059 4388 FO
  36   36 1065 4385 FO
  36   36 1070 4381 FO
  36   36 1075 4377 FO
  36   36 1081 4374 FO
  36   36 1086 4370 FO
  36   36 1091 4367 FO
  36   36 1097 4363 FO
  36   36 1102 4360 FO
  36   36 1107 4356 FO
  36   36 1113 4352 FO
  36   36 1118 4349 FO
  36   36 1123 4345 FO
  36   36 1129 4342 FO
  36   36 1134 4338 FO
  36   36 1140 4335 FO
  36   36 1145 4331 FO
  36   36 1150 4327 FO
  36   36 1156 4324 FO
  36   36 1161 4320 FO
  36   36 1166 4317 FO
  36   36 1172 4313 FO
  36   36 1177 4310 FO
  36   36 1182 4306 FO
  36   36 1188 4302 FO
  36   36 1193 4299 FO
  36   36 1198 4295 FO
  36   36 1204 4292 FO
  36   36 1209 4288 FO
  36   36 1215 4285 FO
  36   36 1220 4281 FO
  36   36 1225 4277 FO
  36   36 1231 4274 FO
  36   36 1236 4270 FO
  36   36 1241 4267 FO
  36   36 1247 4263 FO
  36   36 1252 4259 FO
  36   36 1257 4256 FO
  36   36 1263 4252 FO
  36   36 1268 4249 FO
  36   36 1273 4245 FO
  36   36 1279 4242 FO
  36   36 1284 4238 FO
  36   36 1289 4234 FO
  36   36 1295 4231 FO
  36   36 1300 4227 FO
  36   36 1306 4224 FO
  36   36 1311 4220 FO
  36   36 1316 4216 FO
  36   36 1322 4213 FO
  36   36 1327 4209 FO
  36   36 1332 4206 FO
  36   36 1338 4202 FO
  36   36 1343 4198 FO
  36   36 1348 4195 FO
  36   36 1354 4191 FO
  36   36 1359 4188 FO
  36   36 1364 4184 FO
  36   36 1370 4181 FO
  36   36 1375 4177 FO
  36   36 1381 4173 FO
  36   36 1386 4170 FO
  36   36 1391 4166 FO
  36   36 1397 4163 FO
  36   36 1402 4159 FO
  36   36 1407 4155 FO
  36   36 1413 4152 FO
  36   36 1418 4148 FO
  36   36 1423 4145 FO
  36   36 1429 4141 FO
  36   36 1434 4137 FO
  36   36 1439 4134 FO
  36   36 1445 4130 FO
  36   36 1450 4127 FO
  36   36 1456 4123 FO
  36   36 1461 4119 FO
  36   36 1466 4116 FO
  36   36 1472 4112 FO
  36   36 1477 4109 FO
  36   36 1482 4105 FO
  36   36 1488 4101 FO
  36   36 1493 4098 FO
  36   36 1498 4094 FO
  36   36 1504 4091 FO
  36   36 1509 4087 FO
  36   36 1514 4083 FO
  36   36 1520 4080 FO
  36   36 1525 4076 FO
  36   36 1531 4073 FO
  36   36 1536 4069 FO
  36   36 1541 4065 FO
  36   36 1547 4062 FO
  36   36 1552 4058 FO
  36   36 1557 4054 FO
  36   36 1563 4051 FO
  36   36 1568 4047 FO
  36   36 1573 4044 FO
  36   36 1579 4040 FO
  36   36 1584 4036 FO
  36   36 1589 4033 FO
  36   36 1595 4029 FO
  36   36 1600 4026 FO
  36   36 1605 4022 FO
  36   36 1611 4018 FO
  36   36 1616 4015 FO
  36   36 1622 4011 FO
  36   36 1627 4008 FO
  36   36 1632 4004 FO
  36   36 1638 4000 FO
  36   36 1643 3997 FO
  36   36 1648 3993 FO
  36   36 1654 3989 FO
  36   36 1659 3986 FO
  36   36 1664 3982 FO
  36   36 1670 3979 FO
  36   36 1675 3975 FO
  36   36 1680 3971 FO
  36   36 1686 3968 FO
  36   36 1691 3964 FO
  36   36 1697 3960 FO
  36   36 1702 3957 FO
  36   36 1707 3953 FO
  36   36 1713 3950 FO
  36   36 1718 3946 FO
  36   36 1723 3942 FO
  36   36 1729 3939 FO
  36   36 1734 3935 FO
  36   36 1739 3931 FO
  36   36 1745 3928 FO
  36   36 1750 3924 FO
  36   36 1755 3921 FO
  36   36 1761 3917 FO
  36   36 1766 3913 FO
  36   36 1772 3910 FO
  36   36 1777 3906 FO
  36   36 1782 3902 FO
  36   36 1788 3899 FO
  36   36 1793 3895 FO
  36   36 1798 3892 FO
  36   36 1804 3888 FO
  36   36 1809 3884 FO
  36   36 1814 3881 FO
  36   36 1820 3877 FO
  36   36 1825 3873 FO
  36   36 1830 3870 FO
  36   36 1836 3866 FO
  36   36 1841 3863 FO
  36   36 1847 3859 FO
  36   36 1852 3855 FO
  36   36 1857 3852 FO
  36   36 1863 3848 FO
  36   36 1868 3844 FO
  36   36 1873 3841 FO
  36   36 1879 3837 FO
  36   36 1884 3833 FO
  36   36 1889 3830 FO
  36   36 1895 3826 FO
  36   36 1900 3823 FO
  36   36 1905 3819 FO
  36   36 1911 3815 FO
  36   36 1916 3812 FO
  36   36 1921 3808 FO
  36   36 1927 3804 FO
  36   36 1932 3801 FO
  36   36 1938 3797 FO
  36   36 1943 3793 FO
  36   36 1948 3790 FO
  36   36 1954 3786 FO
  36   36 1959 3783 FO
  36   36 1964 3779 FO
  36   36 1970 3775 FO
  36   36 1975 3772 FO
  36   36 1980 3768 FO
  36   36 1986 3764 FO
  36   36 1991 3761 FO
  36   36 1996 3757 FO
  36   36 2002 3753 FO
  36   36 2007 3750 FO
  36   36 2013 3746 FO
  36   36 2018 3742 FO
  36   36 2023 3739 FO
  36   36 2029 3735 FO
  36   36 2034 3731 FO
  36   36 2039 3728 FO
  36   36 2045 3724 FO
  36   36 2050 3721 FO
  36   36 2055 3717 FO
  36   36 2061 3713 FO
  36   36 2066 3710 FO
  36   36 2071 3706 FO
  36   36 2077 3702 FO
  36   36 2082 3699 FO
  36   36 2088 3695 FO
  36   36 2093 3691 FO
  36   36 2098 3688 FO
  36   36 2104 3684 FO
  36   36 2109 3680 FO
  36   36 2114 3677 FO
  36   36 2120 3673 FO
  36   36 2125 3669 FO
  36   36 2130 3666 FO
  36   36 2136 3662 FO
  36   36 2141 3658 FO
  36   36 2146 3655 FO
  36   36 2152 3651 FO
  36   36 2157 3647 FO
  36   36 2163 3644 FO
  36   36 2168 3640 FO
  36   36 2173 3636 FO
  36   36 2179 3633 FO
  36   36 2184 3629 FO
  36   36 2189 3625 FO
  36   36 2195 3622 FO
  36   36 2200 3618 FO
  36   36 2205 3614 FO
  36   36 2211 3611 FO
  36   36 2216 3607 FO
  36   36 2221 3603 FO
  36   36 2227 3600 FO
  36   36 2232 3596 FO
  36   36 2238 3592 FO
  36   36 2243 3589 FO
  36   36 2248 3585 FO
  36   36 2254 3581 FO
  36   36 2259 3578 FO
  36   36 2264 3574 FO
  36   36 2270 3570 FO
  36   36 2275 3567 FO
  36   36 2280 3563 FO
  36   36 2286 3559 FO
  36   36 2291 3556 FO
  36   36 2296 3552 FO
  36   36 2302 3548 FO
  36   36 2307 3545 FO
  36   36 2312 3541 FO
  36   36 2318 3537 FO
  36   36 2323 3534 FO
  36   36 2329 3530 FO
  36   36 2334 3526 FO
  36   36 2339 3523 FO
  36   36 2345 3519 FO
  36   36 2350 3515 FO
  36   36 2355 3512 FO
  36   36 2361 3508 FO
  36   36 2366 3504 FO
  36   36 2371 3501 FO
  36   36 2377 3497 FO
  36   36 2382 3493 FO
  36   36 2387 3490 FO
  36   36 2393 3486 FO
  36   36 2398 3482 FO
  36   36 2404 3479 FO
  36   36 2409 3475 FO
  36   36 2414 3471 FO
  36   36 2420 3468 FO
  36   36 2425 3464 FO
  36   36 2430 3460 FO
  36   36 2436 3456 FO
  36   36 2441 3453 FO
  36   36 2446 3449 FO
  36   36 2452 3445 FO
  36   36 2457 3442 FO
  36   36 2462 3438 FO
  36   36 2468 3434 FO
  36   36 2473 3431 FO
  36   36 2479 3427 FO
  36   36 2484 3423 FO
  36   36 2489 3420 FO
  36   36 2495 3416 FO
  36   36 2500 3412 FO
  36   36 2505 3409 FO
  36   36 2511 3405 FO
  36   36 2516 3401 FO
  36   36 2521 3397 FO
  36   36 2527 3394 FO
  36   36 2532 3390 FO
  36   36 2537 3386 FO
  36   36 2543 3383 FO
  36   36 2548 3379 FO
  36   36 2554 3375 FO
  36   36 2559 3372 FO
  36   36 2564 3368 FO
  36   36 2570 3364 FO
  36   36 2575 3361 FO
  36   36 2580 3357 FO
  36   36 2586 3353 FO
  36   36 2591 3349 FO
  36   36 2596 3346 FO
  36   36 2602 3342 FO
  36   36 2607 3338 FO
  36   36 2612 3335 FO
  36   36 2618 3331 FO
  36   36 2623 3327 FO
  36   36 2628 3324 FO
  36   36 2634 3320 FO
  36   36 2639 3316 FO
  36   36 2645 3312 FO
  36   36 2650 3309 FO
  36   36 2655 3305 FO
  36   36 2661 3301 FO
  36   36 2666 3298 FO
  36   36 2671 3294 FO
  36   36 2677 3290 FO
  36   36 2682 3287 FO
  36   36 2687 3283 FO
  36   36 2693 3279 FO
  36   36 2698 3275 FO
  36   36 2703 3272 FO
  36   36 2709 3268 FO
  36   36 2714 3264 FO
  36   36 2720 3261 FO
  36   36 2725 3257 FO
  36   36 2730 3253 FO
  36   36 2736 3250 FO
  36   36 2741 3246 FO
  36   36 2746 3242 FO
  36   36 2752 3238 FO
  36   36 2757 3235 FO
  36   36 2762 3231 FO
  36   36 2768 3227 FO
  36   36 2773 3224 FO
  36   36 2778 3220 FO
  36   36 2784 3216 FO
  36   36 2789 3212 FO
  36   36 2795 3209 FO
  36   36 2800 3205 FO
  36   36 2805 3201 FO
  36   36 2811 3198 FO
  36   36 2816 3194 FO
  36   36 2821 3190 FO
  36   36 2827 3186 FO
  36   36 2832 3183 FO
  36   36 2837 3179 FO
  36   36 2843 3175 FO
  36   36 2848 3172 FO
  36   36 2853 3168 FO
  36   36 2859 3164 FO
  36   36 2864 3160 FO
  36   36 2870 3157 FO
  36   36 2875 3153 FO
  36   36 2880 3149 FO
  36   36 2886 3145 FO
  36   36 2891 3142 FO
  36   36 2896 3138 FO
  36   36 2902 3134 FO
  36   36 2907 3131 FO
  36   36 2912 3127 FO
  36   36 2918 3123 FO
  36   36 2923 3119 FO
  36   36 2928 3116 FO
  36   36 2934 3112 FO
  36   36 2939 3108 FO
  36   36 2944 3105 FO
  36   36 2950 3101 FO
  36   36 2955 3097 FO
  36   36 2961 3093 FO
  36   36 2966 3090 FO
  36   36 2971 3086 FO
  36   36 2977 3082 FO
  36   36 2982 3078 FO
  36   36 2987 3075 FO
  36   36 2993 3071 FO
  36   36 2998 3067 FO
  36   36 3003 3064 FO
  36   36 3009 3060 FO
  36   36 3014 3056 FO
  36   36 3019 3052 FO
  36   36 3025 3049 FO
  36   36 3030 3045 FO
  36   36 3036 3041 FO
  36   36 3041 3037 FO
  36   36 3046 3034 FO
  36   36 3052 3030 FO
  36   36 3057 3026 FO
  36   36 3062 3022 FO
  36   36 3068 3019 FO
  36   36 3073 3015 FO
  36   36 3078 3011 FO
  36   36 3084 3007 FO
  36   36 3089 3004 FO
  36   36 3094 3000 FO
  36   36 3100 2996 FO
  36   36 3105 2993 FO
  36   36 3111 2989 FO
  36   36 3116 2985 FO
  36   36 3121 2981 FO
  36   36 3127 2978 FO
  36   36 3132 2974 FO
  36   36 3137 2970 FO
  36   36 3143 2966 FO
  36   36 3148 2963 FO
  36   36 3153 2959 FO
  36   36 3159 2955 FO
  36   36 3164 2951 FO
  36   36 3169 2948 FO
  36   36 3175 2944 FO
  36   36 3180 2940 FO
  36   36 3186 2936 FO
  36   36 3191 2933 FO
  36   36 3196 2929 FO
  36   36 3202 2925 FO
  36   36 3207 2921 FO
  36   36 3212 2918 FO
  36   36 3218 2914 FO
  36   36 3223 2910 FO
  36   36 3228 2906 FO
  36   36 3234 2903 FO
  36   36 3239 2899 FO
  36   36 3244 2895 FO
  36   36 3250 2891 FO
  36   36 3255 2888 FO
  36   36 3260 2884 FO
  36   36 3266 2880 FO
  36   36 3271 2876 FO
  36   36 3277 2873 FO
  36   36 3282 2869 FO
  36   36 3287 2865 FO
  36   36 3293 2861 FO
  36   36 3298 2858 FO
  36   36 3303 2854 FO
  36   36 3309 2850 FO
  36   36 3314 2846 FO
  36   36 3319 2843 FO
  36   36 3325 2839 FO
  36   36 3330 2835 FO
  36   36 3335 2831 FO
  36   36 3341 2828 FO
  36   36 3346 2824 FO
  36   36 3352 2820 FO
  36   36 3357 2816 FO
  36   36 3362 2813 FO
  36   36 3368 2809 FO
  36   36 3373 2805 FO
  36   36 3378 2801 FO
  36   36 3384 2797 FO
  36   36 3389 2794 FO
  36   36 3394 2790 FO
  36   36 3400 2786 FO
  36   36 3405 2782 FO
  36   36 3410 2779 FO
  36   36 3416 2775 FO
  36   36 3421 2771 FO
  36   36 3427 2767 FO
  36   36 3432 2764 FO
  36   36 3437 2760 FO
  36   36 3443 2756 FO
  36   36 3448 2752 FO
  36   36 3453 2749 FO
  36   36 3459 2745 FO
  36   36 3464 2741 FO
  36   36 3469 2737 FO
  36   36 3475 2733 FO
  36   36 3480 2730 FO
  36   36 3485 2726 FO
  36   36 3491 2722 FO
  36   36 3496 2718 FO
  36   36 3502 2715 FO
  36   36 3507 2711 FO
  36   36 3512 2707 FO
  36   36 3518 2703 FO
  36   36 3523 2699 FO
  36   36 3528 2696 FO
  36   36 3534 2692 FO
  36   36 3539 2688 FO
  36   36 3544 2684 FO
  36   36 3550 2681 FO
  36   36 3555 2677 FO
  36   36 3560 2673 FO
  36   36 3566 2669 FO
  36   36 3571 2665 FO
  36   36 3577 2662 FO
  36   36 3582 2658 FO
  36   36 3587 2654 FO
  36   36 3593 2650 FO
  36   36 3598 2647 FO
  36   36 3603 2643 FO
  36   36 3609 2639 FO
  36   36 3614 2635 FO
  36   36 3619 2631 FO
  36   36 3625 2628 FO
  36   36 3630 2624 FO
  36   36 3635 2620 FO
  36   36 3641 2616 FO
  36   36 3646 2613 FO
  36   36 3651 2609 FO
  36   36 3657 2605 FO
  36   36 3662 2601 FO
  36   36 3668 2597 FO
  36   36 3673 2594 FO
  36   36 3678 2590 FO
  36   36 3684 2586 FO
  36   36 3689 2582 FO
  36   36 3694 2578 FO
  36   36 3700 2575 FO
  36   36 3705 2571 FO
  36   36 3710 2567 FO
  36   36 3716 2563 FO
  36   36 3721 2560 FO
  36   36 3726 2556 FO
  36   36 3732 2552 FO
  36   36 3737 2548 FO
  36   36 3743 2544 FO
  36   36 3748 2541 FO
  36   36 3753 2537 FO
  36   36 3759 2533 FO
  36   36 3764 2529 FO
  36   36 3769 2525 FO
  36   36 3775 2522 FO
  36   36 3780 2518 FO
  36   36 3785 2514 FO
  36   36 3791 2510 FO
  36   36 3796 2506 FO
  36   36 3801 2503 FO
  36   36 3807 2499 FO
  36   36 3812 2495 FO
  36   36 3818 2491 FO
  36   36 3823 2487 FO
  36   36 3828 2484 FO
  36   36 3834 2480 FO
  36   36 3839 2476 FO
  36   36 3844 2472 FO
  36   36 3850 2468 FO
  36   36 3855 2465 FO
  36   36 3860 2461 FO
  36   36 3866 2457 FO
  36   36 3871 2453 FO
  36   36 3876 2449 FO
  36   36 3882 2446 FO
  36   36 3887 2442 FO
  36   36 3893 2438 FO
  36   36 3898 2434 FO
  36   36 3903 2430 FO
  36   36 3909 2427 FO
  36   36 3914 2423 FO
  36   36 3919 2419 FO
  36   36 3925 2415 FO
  36   36 3930 2411 FO
  36   36 3935 2407 FO
  36   36 3941 2404 FO
  36   36 3946 2400 FO
  36   36 3951 2396 FO
  36   36 3957 2392 FO
  36   36 3962 2388 FO
  36   36 3967 2385 FO
  36   36 3973 2381 FO
  36   36 3978 2377 FO
  36   36 3984 2373 FO
  36   36 3989 2369 FO
  36   36 3994 2366 FO
  36   36 4000 2362 FO
  36   36 4005 2358 FO
  36   36 4010 2354 FO
  36   36 4016 2350 FO
  36   36 4021 2346 FO
  36   36 4026 2343 FO
  36   36 4032 2339 FO
  36   36 4037 2335 FO
  36   36 4042 2331 FO
  36   36 4048 2327 FO
  36   36 4053 2324 FO
  36   36 4059 2320 FO
  36   36 4064 2316 FO
  36   36 4069 2312 FO
  36   36 4075 2308 FO
  36   36 4080 2304 FO
  36   36 4085 2301 FO
  36   36 4091 2297 FO
  36   36 4096 2293 FO
  36   36 4101 2289 FO
  36   36 4107 2285 FO
  36   36 4112 2282 FO
  36   36 4117 2278 FO
  36   36 4123 2274 FO
  36   36 4128 2270 FO
  36   36 4134 2266 FO
  36   36 4139 2262 FO
  36   36 4144 2259 FO
  36   36 4150 2255 FO
  36   36 4155 2251 FO
  36   36 4160 2247 FO
  36   36 4166 2243 FO
  36   36 4171 2239 FO
  36   36 4176 2236 FO
  36   36 4182 2232 FO
  36   36 4187 2228 FO
  36   36 4192 2224 FO
  36   36 4198 2220 FO
  36   36 4203 2216 FO
  36   36 4209 2213 FO
  36   36 4214 2209 FO
  36   36 4219 2205 FO
  36   36 4225 2201 FO
  36   36 4230 2197 FO
  36   36 4235 2193 FO
  36   36 4241 2190 FO
  36   36 4246 2186 FO
  36   36 4251 2182 FO
  36   36 4257 2178 FO
  36   36 4262 2174 FO
  36   36 4267 2170 FO
  36   36 4273 2167 FO
  36   36 4278 2163 FO
  36   36 4283 2159 FO
  36   36 4289 2155 FO
  36   36 4294 2151 FO
  36   36 4300 2147 FO
  36   36 4305 2144 FO
  36   36 4310 2140 FO
  36   36 4316 2136 FO
  36   36 4321 2132 FO
  36   36 4326 2128 FO
  36   36 4332 2124 FO
  36   36 4337 2121 FO
  36   36 4342 2117 FO
  36   36 4348 2113 FO
  36   36 4353 2109 FO
  36   36 4358 2105 FO
  36   36 4364 2101 FO
  36   36 4369 2097 FO
  36   36 4375 2094 FO
  36   36 4380 2090 FO
  36   36 4385 2086 FO
  36   36 4391 2082 FO
  36   36 4396 2078 FO
  36   36 4401 2074 FO
  36   36 4407 2071 FO
  36   36 4412 2067 FO
  36   36 4417 2063 FO
  36   36 4423 2059 FO
  36   36 4428 2055 FO
  36   36 4433 2051 FO
  36   36 4439 2047 FO
  36   36 4444 2044 FO
  36   36 4450 2040 FO
  36   36 4455 2036 FO
  36   36 4460 2032 FO
  36   36 4466 2028 FO
  36   36 4471 2024 FO
  36   36 4476 2020 FO
  36   36 4482 2017 FO
  36   36 4487 2013 FO
  36   36 4492 2009 FO
  36   36 4498 2005 FO
  36   36 4503 2001 FO
  36   36 4508 1997 FO
  36   36 4514 1993 FO
  36   36 4519 1990 FO
  36   36 4525 1986 FO
  36   36 4530 1982 FO
  36   36 4535 1978 FO
  36   36 4541 1974 FO
  36   36 4546 1970 FO
  36   36 4551 1966 FO
  36   36 4557 1963 FO
  36   36 4562 1959 FO
  36   36 4567 1955 FO
  36   36 4573 1951 FO
  36   36 4578 1947 FO
  36   36 4583 1943 FO
  36   36 4589 1939 FO
  36   36 4594 1936 FO
  36   36 4599 1932 FO
  36   36 4605 1928 FO
  36   36 4610 1924 FO
  36   36 4616 1920 FO
  36   36 4621 1916 FO
  36   36 4626 1912 FO
  36   36 4632 1908 FO
  36   36 4637 1905 FO
  36   36 4642 1901 FO
  36   36 4648 1897 FO
  36   36 4653 1893 FO
  36   36 4658 1889 FO
  36   36 4664 1885 FO
  36   36 4669 1881 FO
  36   36 4674 1878 FO
  36   36 4680 1874 FO
  36   36 4685 1870 FO
  36   36 4691 1866 FO
  36   36 4696 1862 FO
  36   36 4701 1858 FO
  36   36 4707 1854 FO
  36   36 4712 1850 FO
  36   36 4717 1847 FO
  36   36 4723 1843 FO
  36   36 4728 1839 FO
  36   36 4733 1835 FO
  36   36 4739 1831 FO
  36   36 4744 1827 FO
  36   36 4749 1823 FO
  36   36 4755 1819 FO
  36   36 4760 1816 FO
  36   36 4766 1812 FO
  36   36 4771 1808 FO
  36   36 4776 1804 FO
  36   36 4782 1800 FO
  36   36 4787 1796 FO
  36   36 4792 1792 FO
  36   36 4798 1788 FO
  36   36 4803 1784 FO
  36   36 4808 1781 FO
  36   36 4814 1777 FO
  36   36 4819 1773 FO
  36   36 4824 1769 FO
  36   36 4830 1765 FO
  36   36 4835 1761 FO
  36   36 4841 1757 FO
  36   36 4846 1753 FO
  36   36 4851 1750 FO
  36   36 4857 1746 FO
  36   36 4862 1742 FO
  36   36 4867 1738 FO
  36   36 4873 1734 FO
  36   36 4878 1730 FO
  36   36 4883 1726 FO
  36   36 4889 1722 FO
  36   36 4894 1718 FO
  36   36 4899 1715 FO
  36   36 4905 1711 FO
  36   36 4910 1707 FO
  36   36 4916 1703 FO
  36   36 4921 1699 FO
  36   36 4926 1695 FO
  36   36 4932 1691 FO
  36   36 4937 1687 FO
  36   36 4942 1683 FO
  36   36 4948 1680 FO
  36   36 4953 1676 FO
  36   36 4958 1672 FO
  36   36 4964 1668 FO
  36   36 4969 1664 FO
  36   36 4974 1660 FO
  36   36 4980 1656 FO
  36   36 4985 1652 FO
  36   36 4990 1648 FO
  36   36 4996 1644 FO
  36   36 5001 1641 FO
  36   36 5007 1637 FO
  36   36 5012 1633 FO
  36   36 5017 1629 FO
  36   36 5023 1625 FO
  36   36 5028 1621 FO
  36   36 5033 1617 FO
  36   36 5039 1613 FO
  36   36 5044 1609 FO
  36   36 5049 1605 FO
  36   36 5055 1602 FO
  36   36 5060 1598 FO
  36   36 5065 1594 FO
  36   36 5071 1590 FO
  36   36 5076 1586 FO
  36   36 5082 1582 FO
  36   36 5087 1578 FO
  36   36 5092 1574 FO
  36   36 5098 1570 FO
  36   36 5103 1566 FO
  36   36 5108 1562 FO
  36   36 5114 1559 FO
  36   36 5119 1555 FO
  36   36 5124 1551 FO
  36   36 5130 1547 FO
  36   36 5135 1543 FO
  36   36 5140 1539 FO
  36   36 5146 1535 FO
  36   36 5151 1531 FO
  36   36 5157 1527 FO
  36   36 5162 1523 FO
  36   36 5167 1519 FO
  36   36 5173 1516 FO
  36   36 5178 1512 FO
  36   36 5183 1508 FO
  36   36 5189 1504 FO
  36   36 5194 1500 FO
  36   36 5199 1496 FO
  36   36 5205 1492 FO
  36   36 5210 1488 FO
  36   36 5215 1484 FO
  36   36 5221 1480 FO
  36   36 5226 1476 FO
  36   36 5232 1473 FO
  36   36 5237 1469 FO
  36   36 5242 1465 FO
  36   36 5248 1461 FO
  36   36 5253 1457 FO
  36   36 5258 1453 FO
  36   36 5264 1449 FO
  36   36 5269 1445 FO
  36   36 5274 1441 FO
  36   36 5280 1437 FO
  36   36 5285 1433 FO
  36   36 5290 1429 FO
  36   36 5296 1425 FO
  36   36 5301 1422 FO
  36   36 5306 1418 FO
  36   36 5312 1414 FO
  36   36 5317 1410 FO
  36   36 5323 1406 FO
  36   36 5328 1402 FO
  36   36 5333 1398 FO
  36   36 5339 1394 FO
  36   36 5344 1390 FO
  36   36 5349 1386 FO
  36   36 5355 1382 FO
  36   36 5360 1378 FO
  36   36 5365 1374 FO
  36   36 5371 1370 FO
  36   36 5376 1367 FO
  36   36 5381 1363 FO
  36   36 5387 1359 FO
  36   36 5392 1355 FO
  36   36 5398 1351 FO
  36   36 5403 1347 FO
  36   36 5408 1343 FO
  36   36 5414 1339 FO
  36   36 5419 1335 FO
  36   36 5424 1331 FO
  36   36 5430 1327 FO
  36   36 5435 1323 FO
  36   36 5440 1319 FO
  36   36 5446 1315 FO
  36   36 5451 1312 FO
  36   36 5456 1308 FO
  36   36 5462 1304 FO
  36   36 5467 1300 FO
  36   36 5473 1296 FO
  36   36 5478 1292 FO
  36   36 5483 1288 FO
  36   36 5489 1284 FO
  36   36 5494 1280 FO
  36   36 5499 1276 FO
  36   36 5505 1272 FO
  36   36 5510 1268 FO
  36   36 5515 1264 FO
  36   36 5521 1260 FO
  36   36 5526 1256 FO
  36   36 5531 1252 FO
  36   36 5537 1248 FO
  36   36 5542 1245 FO
  36   36 5548 1241 FO
  36   36 5553 1237 FO
  36   36 5558 1233 FO
  36   36 5564 1229 FO
  36   36 5569 1225 FO
  36   36 5574 1221 FO
  36   36 5580 1217 FO
  36   36 5585 1213 FO
  36   36 5590 1209 FO
  36   36 5596 1205 FO
  36   36 5601 1201 FO
  36   36 5606 1197 FO
  36   36 5612 1193 FO
  36   36 5617 1189 FO
  36   36 5622 1185 FO
  36   36 5628 1181 FO
  36   36 5633 1177 FO
  36   36 5639 1173 FO
  36   36 5644 1170 FO
  36   36 5649 1166 FO
  36   36 5655 1162 FO
  36   36 5660 1158 FO
  36   36 5665 1154 FO
  36   36 5671 1150 FO
  36   36 5676 1146 FO
  36   36 5681 1142 FO
  36   36 5687 1138 FO
  36   36 5692 1134 FO
  36   36 5697 1130 FO
  36   36 5703 1126 FO
  36   36 5708 1122 FO
  36   36 5714 1118 FO
  36   36 5719 1114 FO
  36   36 5724 1110 FO
  36   36 5730 1106 FO
  36   36 5735 1102 FO
  36   36 5740 1098 FO
  36   36 5746 1094 FO
  36   36 5751 1090 FO
  36   36 5756 1086 FO
  36   36 5762 1082 FO
  36   36 5767 1079 FO
  36   36 5772 1075 FO
  36   36 5778 1071 FO
  36   36 5783 1067 FO
  36   36 5789 1063 FO
  36   36 5794 1059 FO
  36   36 5799 1055 FO
  36   36 5805 1051 FO
  36   36 5810 1047 FO
  36   36 5815 1043 FO
  36   36 5821 1039 FO
  36   36 5826 1035 FO
  36   36 5831 1031 FO
  36   36 5837 1027 FO
  36   36 5842 1023 FO
  36   36 5847 1019 FO
  36   36 5853 1015 FO
  36   36 5858 1011 FO
  36   36 5864 1007 FO
  36   36 5869 1003 FO
  36   36 5874  999 FO
  36   36 5880  995 FO
  36   36 5885  991 FO
  36   36 5890  987 FO
  36   36 5896  983 FO
  36   36 5901  979 FO
  36   36 5906  975 FO
  36   36 5912  971 FO
  36   36 5917  967 FO
  36   36 5922  963 FO
  36   36 5928  959 FO
  36   36 5933  955 FO
  36   36 5938  951 FO
  36   36 5944  948 FO
  36   36 5949  944 FO
  36   36 5955  940 FO
  36   36 5960  936 FO
  36   36 5965  932 FO
  36   36 5971  928 FO
  36   36 5976  924 FO
  36   36 5981  920 FO
  36   36 5987  916 FO
  36   36 5992  912 FO
  36   36 5997  908 FO
  36   36 6003  904 FO
  36   36 6008  900 FO
  36   36 6013  896 FO
  36   36 6019  892 FO
  36   36 6024  888 FO
  36   36 6030  884 FO
  36   36 6035  880 FO
  36   36 6040  876 FO
  36   36 6046  872 FO
  36   36 6051  868 FO
  36   36 6056  864 FO
  36   36 6062  860 FO
  36   36 6067  856 FO
  36   36 6072  852 FO
  36   36 6078  848 FO
  36   36 6083  844 FO
  36   36 6088  840 FO
  36   36 6094  836 FO
  36   36 6099  832 FO
  36   36 6105  828 FO
  36   36 6110  824 FO
  36   36 6115  820 FO
  36   36 6121  816 FO
  36   36 6126  812 FO
  36   36 6131  808 FO
  36   36 6137  804 FO
  36   36 6142  800 FO
  36   36 6147  796 FO
  36   36 6153  792 FO
  36   36 6158  788 FO
  36   36 6163  784 FO
  36   36 6169  780 FO
  36   36 6174  776 FO
  36   36 6180  772 FO
  36   36 6185  768 FO
  36   36 6190  764 FO
  36   36 6196  760 FO
  36   36 6201  756 FO
  36   36 6206  752 FO
  36   36 6212  748 FO
  36   36 6217  744 FO
  36   36 6222  740 FO
  36   36 6228  736 FO
  36   36 6233  732 FO
  36   36 6238  728 FO
  36   36 6244  724 FO
  36   36 6249  720 FO
  36   36 6255  716 FO
gr

c8
gs 899 389 5357 4227 MR c np
gr

gs 826 666 5504 3925 MR c np
/c9 { 0.000000 1.000000 0.000000 sr} bdef
c9
 879 4488 mt  929 4538 L
 929 4488 mt  879 4538 L
 884 4485 mt  934 4535 L
 934 4485 mt  884 4535 L
 890 4481 mt  940 4531 L
 940 4481 mt  890 4531 L
 895 4477 mt  945 4527 L
 945 4477 mt  895 4527 L
 900 4474 mt  950 4524 L
 950 4474 mt  900 4524 L
 906 4470 mt  956 4520 L
 956 4470 mt  906 4520 L
 911 4467 mt  961 4517 L
 961 4467 mt  911 4517 L
 916 4463 mt  966 4513 L
 966 4463 mt  916 4513 L
 922 4460 mt  972 4510 L
 972 4460 mt  922 4510 L
 927 4456 mt  977 4506 L
 977 4456 mt  927 4506 L
 932 4452 mt  982 4502 L
 982 4452 mt  932 4502 L
 938 4449 mt  988 4499 L
 988 4449 mt  938 4499 L
 943 4445 mt  993 4495 L
 993 4445 mt  943 4495 L
 948 4442 mt  998 4492 L
 998 4442 mt  948 4492 L
 954 4438 mt 1004 4488 L
1004 4438 mt  954 4488 L
 959 4434 mt 1009 4484 L
1009 4434 mt  959 4484 L
 965 4431 mt 1015 4481 L
1015 4431 mt  965 4481 L
 970 4427 mt 1020 4477 L
1020 4427 mt  970 4477 L
 975 4424 mt 1025 4474 L
1025 4424 mt  975 4474 L
 981 4420 mt 1031 4470 L
1031 4420 mt  981 4470 L
 986 4417 mt 1036 4467 L
1036 4417 mt  986 4467 L
 991 4413 mt 1041 4463 L
1041 4413 mt  991 4463 L
 997 4410 mt 1047 4460 L
1047 4410 mt  997 4460 L
1002 4406 mt 1052 4456 L
1052 4406 mt 1002 4456 L
1007 4403 mt 1057 4453 L
1057 4403 mt 1007 4453 L
1013 4399 mt 1063 4449 L
1063 4399 mt 1013 4449 L
1018 4395 mt 1068 4445 L
1068 4395 mt 1018 4445 L
1023 4392 mt 1073 4442 L
1073 4392 mt 1023 4442 L
1029 4388 mt 1079 4438 L
1079 4388 mt 1029 4438 L
1034 4385 mt 1084 4435 L
1084 4385 mt 1034 4435 L
1040 4381 mt 1090 4431 L
1090 4381 mt 1040 4431 L
1045 4377 mt 1095 4427 L
1095 4377 mt 1045 4427 L
1050 4374 mt 1100 4424 L
1100 4374 mt 1050 4424 L
1056 4370 mt 1106 4420 L
1106 4370 mt 1056 4420 L
1061 4367 mt 1111 4417 L
1111 4367 mt 1061 4417 L
1066 4363 mt 1116 4413 L
1116 4363 mt 1066 4413 L
1072 4359 mt 1122 4409 L
1122 4359 mt 1072 4409 L
1077 4356 mt 1127 4406 L
1127 4356 mt 1077 4406 L
1082 4352 mt 1132 4402 L
1132 4352 mt 1082 4402 L
1088 4349 mt 1138 4399 L
1138 4349 mt 1088 4399 L
1093 4345 mt 1143 4395 L
1143 4345 mt 1093 4395 L
1098 4341 mt 1148 4391 L
1148 4341 mt 1098 4391 L
1104 4338 mt 1154 4388 L
1154 4338 mt 1104 4388 L
1109 4334 mt 1159 4384 L
1159 4334 mt 1109 4384 L
1115 4331 mt 1165 4381 L
1165 4331 mt 1115 4381 L
1120 4327 mt 1170 4377 L
1170 4327 mt 1120 4377 L
1125 4323 mt 1175 4373 L
1175 4323 mt 1125 4373 L
1131 4320 mt 1181 4370 L
1181 4320 mt 1131 4370 L
1136 4316 mt 1186 4366 L
1186 4316 mt 1136 4366 L
1141 4313 mt 1191 4363 L
1191 4313 mt 1141 4363 L
1147 4309 mt 1197 4359 L
1197 4309 mt 1147 4359 L
1152 4306 mt 1202 4356 L
1202 4306 mt 1152 4356 L
1157 4302 mt 1207 4352 L
1207 4302 mt 1157 4352 L
1163 4298 mt 1213 4348 L
1213 4298 mt 1163 4348 L
1168 4295 mt 1218 4345 L
1218 4295 mt 1168 4345 L
1173 4291 mt 1223 4341 L
1223 4291 mt 1173 4341 L
1179 4288 mt 1229 4338 L
1229 4288 mt 1179 4338 L
1184 4284 mt 1234 4334 L
1234 4284 mt 1184 4334 L
1190 4280 mt 1240 4330 L
1240 4280 mt 1190 4330 L
1195 4277 mt 1245 4327 L
1245 4277 mt 1195 4327 L
1200 4273 mt 1250 4323 L
1250 4273 mt 1200 4323 L
1206 4270 mt 1256 4320 L
1256 4270 mt 1206 4320 L
1211 4266 mt 1261 4316 L
1261 4266 mt 1211 4316 L
1216 4262 mt 1266 4312 L
1266 4262 mt 1216 4312 L
1222 4259 mt 1272 4309 L
1272 4259 mt 1222 4309 L
1227 4255 mt 1277 4305 L
1277 4255 mt 1227 4305 L
1232 4252 mt 1282 4302 L
1282 4252 mt 1232 4302 L
1238 4248 mt 1288 4298 L
1288 4248 mt 1238 4298 L
1243 4244 mt 1293 4294 L
1293 4244 mt 1243 4294 L
1248 4241 mt 1298 4291 L
1298 4241 mt 1248 4291 L
1254 4237 mt 1304 4287 L
1304 4237 mt 1254 4287 L
1259 4234 mt 1309 4284 L
1309 4234 mt 1259 4284 L
1264 4230 mt 1314 4280 L
1314 4230 mt 1264 4280 L
1270 4226 mt 1320 4276 L
1320 4226 mt 1270 4276 L
1275 4223 mt 1325 4273 L
1325 4223 mt 1275 4273 L
1281 4219 mt 1331 4269 L
1331 4219 mt 1281 4269 L
1286 4216 mt 1336 4266 L
1336 4216 mt 1286 4266 L
1291 4212 mt 1341 4262 L
1341 4212 mt 1291 4262 L
1297 4208 mt 1347 4258 L
1347 4208 mt 1297 4258 L
1302 4205 mt 1352 4255 L
1352 4205 mt 1302 4255 L
1307 4201 mt 1357 4251 L
1357 4201 mt 1307 4251 L
1313 4198 mt 1363 4248 L
1363 4198 mt 1313 4248 L
1318 4194 mt 1368 4244 L
1368 4194 mt 1318 4244 L
1323 4190 mt 1373 4240 L
1373 4190 mt 1323 4240 L
1329 4187 mt 1379 4237 L
1379 4187 mt 1329 4237 L
1334 4183 mt 1384 4233 L
1384 4183 mt 1334 4233 L
1339 4180 mt 1389 4230 L
1389 4180 mt 1339 4230 L
1345 4176 mt 1395 4226 L
1395 4176 mt 1345 4226 L
1350 4173 mt 1400 4223 L
1400 4173 mt 1350 4223 L
1356 4169 mt 1406 4219 L
1406 4169 mt 1356 4219 L
1361 4165 mt 1411 4215 L
1411 4165 mt 1361 4215 L
1366 4162 mt 1416 4212 L
1416 4162 mt 1366 4212 L
1372 4158 mt 1422 4208 L
1422 4158 mt 1372 4208 L
1377 4155 mt 1427 4205 L
1427 4155 mt 1377 4205 L
1382 4151 mt 1432 4201 L
1432 4151 mt 1382 4201 L
1388 4147 mt 1438 4197 L
1438 4147 mt 1388 4197 L
1393 4144 mt 1443 4194 L
1443 4144 mt 1393 4194 L
1398 4140 mt 1448 4190 L
1448 4140 mt 1398 4190 L
1404 4137 mt 1454 4187 L
1454 4137 mt 1404 4187 L
1409 4133 mt 1459 4183 L
1459 4133 mt 1409 4183 L
1414 4129 mt 1464 4179 L
1464 4129 mt 1414 4179 L
1420 4126 mt 1470 4176 L
1470 4126 mt 1420 4176 L
1425 4122 mt 1475 4172 L
1475 4122 mt 1425 4172 L
1431 4119 mt 1481 4169 L
1481 4119 mt 1431 4169 L
1436 4115 mt 1486 4165 L
1486 4115 mt 1436 4165 L
1441 4111 mt 1491 4161 L
1491 4111 mt 1441 4161 L
1447 4108 mt 1497 4158 L
1497 4108 mt 1447 4158 L
1452 4104 mt 1502 4154 L
1502 4104 mt 1452 4154 L
1457 4101 mt 1507 4151 L
1507 4101 mt 1457 4151 L
1463 4097 mt 1513 4147 L
1513 4097 mt 1463 4147 L
1468 4093 mt 1518 4143 L
1518 4093 mt 1468 4143 L
1473 4090 mt 1523 4140 L
1523 4090 mt 1473 4140 L
1479 4086 mt 1529 4136 L
1529 4086 mt 1479 4136 L
1484 4083 mt 1534 4133 L
1534 4083 mt 1484 4133 L
1489 4079 mt 1539 4129 L
1539 4079 mt 1489 4129 L
1495 4075 mt 1545 4125 L
1545 4075 mt 1495 4125 L
1500 4072 mt 1550 4122 L
1550 4072 mt 1500 4122 L
1506 4068 mt 1556 4118 L
1556 4068 mt 1506 4118 L
1511 4065 mt 1561 4115 L
1561 4065 mt 1511 4115 L
1516 4061 mt 1566 4111 L
1566 4061 mt 1516 4111 L
1522 4057 mt 1572 4107 L
1572 4057 mt 1522 4107 L
1527 4054 mt 1577 4104 L
1577 4054 mt 1527 4104 L
1532 4050 mt 1582 4100 L
1582 4050 mt 1532 4100 L
1538 4047 mt 1588 4097 L
1588 4047 mt 1538 4097 L
1543 4043 mt 1593 4093 L
1593 4043 mt 1543 4093 L
1548 4040 mt 1598 4090 L
1598 4040 mt 1548 4090 L
1554 4036 mt 1604 4086 L
1604 4036 mt 1554 4086 L
1559 4032 mt 1609 4082 L
1609 4032 mt 1559 4082 L
1564 4029 mt 1614 4079 L
1614 4029 mt 1564 4079 L
1570 4025 mt 1620 4075 L
1620 4025 mt 1570 4075 L
1575 4022 mt 1625 4072 L
1625 4022 mt 1575 4072 L
1580 4018 mt 1630 4068 L
1630 4018 mt 1580 4068 L
1586 4014 mt 1636 4064 L
1636 4014 mt 1586 4064 L
1591 4011 mt 1641 4061 L
1641 4011 mt 1591 4061 L
1597 4007 mt 1647 4057 L
1647 4007 mt 1597 4057 L
1602 4004 mt 1652 4054 L
1652 4004 mt 1602 4054 L
1607 4000 mt 1657 4050 L
1657 4000 mt 1607 4050 L
1613 3996 mt 1663 4046 L
1663 3996 mt 1613 4046 L
1618 3993 mt 1668 4043 L
1668 3993 mt 1618 4043 L
1623 3989 mt 1673 4039 L
1673 3989 mt 1623 4039 L
1629 3986 mt 1679 4036 L
1679 3986 mt 1629 4036 L
1634 3982 mt 1684 4032 L
1684 3982 mt 1634 4032 L
1639 3978 mt 1689 4028 L
1689 3978 mt 1639 4028 L
1645 3975 mt 1695 4025 L
1695 3975 mt 1645 4025 L
1650 3971 mt 1700 4021 L
1700 3971 mt 1650 4021 L
1655 3968 mt 1705 4018 L
1705 3968 mt 1655 4018 L
1661 3964 mt 1711 4014 L
1711 3964 mt 1661 4014 L
1666 3960 mt 1716 4010 L
1716 3960 mt 1666 4010 L
1672 3957 mt 1722 4007 L
1722 3957 mt 1672 4007 L
1677 3953 mt 1727 4003 L
1727 3953 mt 1677 4003 L
1682 3950 mt 1732 4000 L
1732 3950 mt 1682 4000 L
1688 3946 mt 1738 3996 L
1738 3946 mt 1688 3996 L
1693 3942 mt 1743 3992 L
1743 3942 mt 1693 3992 L
1698 3939 mt 1748 3989 L
1748 3939 mt 1698 3989 L
1704 3935 mt 1754 3985 L
1754 3935 mt 1704 3985 L
1709 3932 mt 1759 3982 L
1759 3932 mt 1709 3982 L
1714 3928 mt 1764 3978 L
1764 3928 mt 1714 3978 L
1720 3924 mt 1770 3974 L
1770 3924 mt 1720 3974 L
1725 3921 mt 1775 3971 L
1775 3921 mt 1725 3971 L
1730 3917 mt 1780 3967 L
1780 3917 mt 1730 3967 L
1736 3914 mt 1786 3964 L
1786 3914 mt 1736 3964 L
1741 3910 mt 1791 3960 L
1791 3910 mt 1741 3960 L
1747 3907 mt 1797 3957 L
1797 3907 mt 1747 3957 L
1752 3903 mt 1802 3953 L
1802 3903 mt 1752 3953 L
1757 3899 mt 1807 3949 L
1807 3899 mt 1757 3949 L
1763 3896 mt 1813 3946 L
1813 3896 mt 1763 3946 L
1768 3892 mt 1818 3942 L
1818 3892 mt 1768 3942 L
1773 3889 mt 1823 3939 L
1823 3889 mt 1773 3939 L
1779 3885 mt 1829 3935 L
1829 3885 mt 1779 3935 L
1784 3881 mt 1834 3931 L
1834 3881 mt 1784 3931 L
1789 3878 mt 1839 3928 L
1839 3878 mt 1789 3928 L
1795 3874 mt 1845 3924 L
1845 3874 mt 1795 3924 L
1800 3871 mt 1850 3921 L
1850 3871 mt 1800 3921 L
1805 3862 mt 1855 3912 L
1855 3862 mt 1805 3912 L
1811 3858 mt 1861 3908 L
1861 3858 mt 1811 3908 L
1816 3854 mt 1866 3904 L
1866 3854 mt 1816 3904 L
1822 3851 mt 1872 3901 L
1872 3851 mt 1822 3901 L
1827 3847 mt 1877 3897 L
1877 3847 mt 1827 3897 L
1832 3844 mt 1882 3894 L
1882 3844 mt 1832 3894 L
1838 3840 mt 1888 3890 L
1888 3840 mt 1838 3890 L
1843 3836 mt 1893 3886 L
1893 3836 mt 1843 3886 L
1848 3833 mt 1898 3883 L
1898 3833 mt 1848 3883 L
1854 3829 mt 1904 3879 L
1904 3829 mt 1854 3879 L
1859 3825 mt 1909 3875 L
1909 3825 mt 1859 3875 L
1864 3822 mt 1914 3872 L
1914 3822 mt 1864 3872 L
1870 3818 mt 1920 3868 L
1920 3818 mt 1870 3868 L
1875 3815 mt 1925 3865 L
1925 3815 mt 1875 3865 L
1880 3811 mt 1930 3861 L
1930 3811 mt 1880 3861 L
1886 3807 mt 1936 3857 L
1936 3807 mt 1886 3857 L
1891 3804 mt 1941 3854 L
1941 3804 mt 1891 3854 L
1896 3800 mt 1946 3850 L
1946 3800 mt 1896 3850 L
1902 3796 mt 1952 3846 L
1952 3796 mt 1902 3846 L
1907 3793 mt 1957 3843 L
1957 3793 mt 1907 3843 L
1913 3789 mt 1963 3839 L
1963 3789 mt 1913 3839 L
1918 3786 mt 1968 3836 L
1968 3786 mt 1918 3836 L
1923 3782 mt 1973 3832 L
1973 3782 mt 1923 3832 L
1929 3778 mt 1979 3828 L
1979 3778 mt 1929 3828 L
1934 3775 mt 1984 3825 L
1984 3775 mt 1934 3825 L
1939 3771 mt 1989 3821 L
1989 3771 mt 1939 3821 L
1945 3767 mt 1995 3817 L
1995 3767 mt 1945 3817 L
1950 3763 mt 2000 3813 L
2000 3763 mt 1950 3813 L
1955 3759 mt 2005 3809 L
2005 3759 mt 1955 3809 L
1961 3756 mt 2011 3806 L
2011 3756 mt 1961 3806 L
1966 3752 mt 2016 3802 L
2016 3752 mt 1966 3802 L
1971 3749 mt 2021 3799 L
2021 3749 mt 1971 3799 L
1977 3745 mt 2027 3795 L
2027 3745 mt 1977 3795 L
1982 3741 mt 2032 3791 L
2032 3741 mt 1982 3791 L
1988 3738 mt 2038 3788 L
2038 3738 mt 1988 3788 L
1993 3734 mt 2043 3784 L
2043 3734 mt 1993 3784 L
1998 3730 mt 2048 3780 L
2048 3730 mt 1998 3780 L
2004 3727 mt 2054 3777 L
2054 3727 mt 2004 3777 L
2009 3723 mt 2059 3773 L
2059 3723 mt 2009 3773 L
2014 3719 mt 2064 3769 L
2064 3719 mt 2014 3769 L
2020 3716 mt 2070 3766 L
2070 3716 mt 2020 3766 L
2025 3712 mt 2075 3762 L
2075 3712 mt 2025 3762 L
2030 3708 mt 2080 3758 L
2080 3708 mt 2030 3758 L
2036 3705 mt 2086 3755 L
2086 3705 mt 2036 3755 L
2041 3701 mt 2091 3751 L
2091 3701 mt 2041 3751 L
2046 3697 mt 2096 3747 L
2096 3697 mt 2046 3747 L
2052 3694 mt 2102 3744 L
2102 3694 mt 2052 3744 L
2057 3690 mt 2107 3740 L
2107 3690 mt 2057 3740 L
2063 3687 mt 2113 3737 L
2113 3687 mt 2063 3737 L
2068 3683 mt 2118 3733 L
2118 3683 mt 2068 3733 L
2073 3679 mt 2123 3729 L
2123 3679 mt 2073 3729 L
2079 3676 mt 2129 3726 L
2129 3676 mt 2079 3726 L
2084 3672 mt 2134 3722 L
2134 3672 mt 2084 3722 L
2089 3669 mt 2139 3719 L
2139 3669 mt 2089 3719 L
2095 3665 mt 2145 3715 L
2145 3665 mt 2095 3715 L
2100 3661 mt 2150 3711 L
2150 3661 mt 2100 3711 L
2105 3658 mt 2155 3708 L
2155 3658 mt 2105 3708 L
2111 3654 mt 2161 3704 L
2161 3654 mt 2111 3704 L
2116 3650 mt 2166 3700 L
2166 3650 mt 2116 3700 L
2121 3647 mt 2171 3697 L
2171 3647 mt 2121 3697 L
2127 3643 mt 2177 3693 L
2177 3643 mt 2127 3693 L
2132 3639 mt 2182 3689 L
2182 3639 mt 2132 3689 L
2138 3636 mt 2188 3686 L
2188 3636 mt 2138 3686 L
2143 3632 mt 2193 3682 L
2193 3632 mt 2143 3682 L
2148 3628 mt 2198 3678 L
2198 3628 mt 2148 3678 L
2154 3625 mt 2204 3675 L
2204 3625 mt 2154 3675 L
2159 3621 mt 2209 3671 L
2209 3621 mt 2159 3671 L
2164 3617 mt 2214 3667 L
2214 3617 mt 2164 3667 L
2170 3614 mt 2220 3664 L
2220 3614 mt 2170 3664 L
2175 3610 mt 2225 3660 L
2225 3610 mt 2175 3660 L
2180 3606 mt 2230 3656 L
2230 3606 mt 2180 3656 L
2186 3603 mt 2236 3653 L
2236 3603 mt 2186 3653 L
2191 3599 mt 2241 3649 L
2241 3599 mt 2191 3649 L
2196 3595 mt 2246 3645 L
2246 3595 mt 2196 3645 L
2202 3592 mt 2252 3642 L
2252 3592 mt 2202 3642 L
2207 3588 mt 2257 3638 L
2257 3588 mt 2207 3638 L
2213 3584 mt 2263 3634 L
2263 3584 mt 2213 3634 L
2218 3581 mt 2268 3631 L
2268 3581 mt 2218 3631 L
2223 3578 mt 2273 3628 L
2273 3578 mt 2223 3628 L
2229 3574 mt 2279 3624 L
2279 3574 mt 2229 3624 L
2234 3570 mt 2284 3620 L
2284 3570 mt 2234 3620 L
2239 3567 mt 2289 3617 L
2289 3567 mt 2239 3617 L
2245 3563 mt 2295 3613 L
2295 3563 mt 2245 3613 L
2250 3559 mt 2300 3609 L
2300 3559 mt 2250 3609 L
2255 3556 mt 2305 3606 L
2305 3556 mt 2255 3606 L
2261 3552 mt 2311 3602 L
2311 3552 mt 2261 3602 L
2266 3548 mt 2316 3598 L
2316 3548 mt 2266 3598 L
2271 3545 mt 2321 3595 L
2321 3545 mt 2271 3595 L
2277 3541 mt 2327 3591 L
2327 3541 mt 2277 3591 L
2282 3537 mt 2332 3587 L
2332 3537 mt 2282 3587 L
2287 3534 mt 2337 3584 L
2337 3534 mt 2287 3584 L
2293 3530 mt 2343 3580 L
2343 3530 mt 2293 3580 L
2298 3526 mt 2348 3576 L
2348 3526 mt 2298 3576 L
2304 3523 mt 2354 3573 L
2354 3523 mt 2304 3573 L
2309 3519 mt 2359 3569 L
2359 3519 mt 2309 3569 L
2314 3515 mt 2364 3565 L
2364 3515 mt 2314 3565 L
2320 3512 mt 2370 3562 L
2370 3512 mt 2320 3562 L
2325 3508 mt 2375 3558 L
2375 3508 mt 2325 3558 L
2330 3504 mt 2380 3554 L
2380 3504 mt 2330 3554 L
2336 3501 mt 2386 3551 L
2386 3501 mt 2336 3551 L
2341 3497 mt 2391 3547 L
2391 3497 mt 2341 3547 L
2346 3493 mt 2396 3543 L
2396 3493 mt 2346 3543 L
2352 3490 mt 2402 3540 L
2402 3490 mt 2352 3540 L
2357 3486 mt 2407 3536 L
2407 3486 mt 2357 3536 L
2362 3483 mt 2412 3533 L
2412 3483 mt 2362 3533 L
2368 3479 mt 2418 3529 L
2418 3479 mt 2368 3529 L
2373 3475 mt 2423 3525 L
2423 3475 mt 2373 3525 L
2379 3472 mt 2429 3522 L
2429 3472 mt 2379 3522 L
2384 3468 mt 2434 3518 L
2434 3468 mt 2384 3518 L
2389 3464 mt 2439 3514 L
2439 3464 mt 2389 3514 L
2395 3461 mt 2445 3511 L
2445 3461 mt 2395 3511 L
2400 3457 mt 2450 3507 L
2450 3457 mt 2400 3507 L
2405 3453 mt 2455 3503 L
2455 3453 mt 2405 3503 L
2411 3450 mt 2461 3500 L
2461 3450 mt 2411 3500 L
2416 3446 mt 2466 3496 L
2466 3446 mt 2416 3496 L
2421 3442 mt 2471 3492 L
2471 3442 mt 2421 3492 L
2427 3439 mt 2477 3489 L
2477 3439 mt 2427 3489 L
2432 3435 mt 2482 3485 L
2482 3435 mt 2432 3485 L
2437 3431 mt 2487 3481 L
2487 3431 mt 2437 3481 L
2443 3428 mt 2493 3478 L
2493 3428 mt 2443 3478 L
2448 3424 mt 2498 3474 L
2498 3424 mt 2448 3474 L
2454 3420 mt 2504 3470 L
2504 3420 mt 2454 3470 L
2459 3416 mt 2509 3466 L
2509 3416 mt 2459 3466 L
2464 3413 mt 2514 3463 L
2514 3413 mt 2464 3463 L
2470 3409 mt 2520 3459 L
2520 3409 mt 2470 3459 L
2475 3405 mt 2525 3455 L
2525 3405 mt 2475 3455 L
2480 3402 mt 2530 3452 L
2530 3402 mt 2480 3452 L
2486 3398 mt 2536 3448 L
2536 3398 mt 2486 3448 L
2491 3394 mt 2541 3444 L
2541 3394 mt 2491 3444 L
2496 3391 mt 2546 3441 L
2546 3391 mt 2496 3441 L
2502 3388 mt 2552 3438 L
2552 3388 mt 2502 3438 L
2507 3384 mt 2557 3434 L
2557 3384 mt 2507 3434 L
2512 3380 mt 2562 3430 L
2562 3380 mt 2512 3430 L
2518 3376 mt 2568 3426 L
2568 3376 mt 2518 3426 L
2523 3373 mt 2573 3423 L
2573 3373 mt 2523 3423 L
2529 3369 mt 2579 3419 L
2579 3369 mt 2529 3419 L
2534 3365 mt 2584 3415 L
2584 3365 mt 2534 3415 L
2539 3362 mt 2589 3412 L
2589 3362 mt 2539 3412 L
2545 3358 mt 2595 3408 L
2595 3358 mt 2545 3408 L
2550 3354 mt 2600 3404 L
2600 3354 mt 2550 3404 L
2555 3351 mt 2605 3401 L
2605 3351 mt 2555 3401 L
2561 3347 mt 2611 3397 L
2611 3347 mt 2561 3397 L
2566 3343 mt 2616 3393 L
2616 3343 mt 2566 3393 L
2571 3339 mt 2621 3389 L
2621 3339 mt 2571 3389 L
2577 3336 mt 2627 3386 L
2627 3336 mt 2577 3386 L
2582 3332 mt 2632 3382 L
2632 3332 mt 2582 3382 L
2587 3328 mt 2637 3378 L
2637 3328 mt 2587 3378 L
2593 3325 mt 2643 3375 L
2643 3325 mt 2593 3375 L
2598 3321 mt 2648 3371 L
2648 3321 mt 2598 3371 L
2603 3317 mt 2653 3367 L
2653 3317 mt 2603 3367 L
2609 3314 mt 2659 3364 L
2659 3314 mt 2609 3364 L
2614 3310 mt 2664 3360 L
2664 3310 mt 2614 3360 L
2620 3306 mt 2670 3356 L
2670 3306 mt 2620 3356 L
2625 3302 mt 2675 3352 L
2675 3302 mt 2625 3352 L
2630 3299 mt 2680 3349 L
2680 3299 mt 2630 3349 L
2636 3295 mt 2686 3345 L
2686 3295 mt 2636 3345 L
2641 3292 mt 2691 3342 L
2691 3292 mt 2641 3342 L
2646 3288 mt 2696 3338 L
2696 3288 mt 2646 3338 L
2652 3285 mt 2702 3335 L
2702 3285 mt 2652 3335 L
2657 3281 mt 2707 3331 L
2707 3281 mt 2657 3331 L
2662 3277 mt 2712 3327 L
2712 3277 mt 2662 3327 L
2668 3273 mt 2718 3323 L
2718 3273 mt 2668 3323 L
2673 3270 mt 2723 3320 L
2723 3270 mt 2673 3320 L
2678 3266 mt 2728 3316 L
2728 3266 mt 2678 3316 L
2684 3262 mt 2734 3312 L
2734 3262 mt 2684 3312 L
2689 3259 mt 2739 3309 L
2739 3259 mt 2689 3309 L
2695 3255 mt 2745 3305 L
2745 3255 mt 2695 3305 L
2700 3251 mt 2750 3301 L
2750 3251 mt 2700 3301 L
2705 3247 mt 2755 3297 L
2755 3247 mt 2705 3297 L
2711 3244 mt 2761 3294 L
2761 3244 mt 2711 3294 L
2716 3240 mt 2766 3290 L
2766 3240 mt 2716 3290 L
2721 3236 mt 2771 3286 L
2771 3236 mt 2721 3286 L
2727 3232 mt 2777 3282 L
2777 3232 mt 2727 3282 L
2732 3229 mt 2782 3279 L
2782 3229 mt 2732 3279 L
2737 3225 mt 2787 3275 L
2787 3225 mt 2737 3275 L
2743 3221 mt 2793 3271 L
2793 3221 mt 2743 3271 L
2748 3218 mt 2798 3268 L
2798 3218 mt 2748 3268 L
2753 3214 mt 2803 3264 L
2803 3214 mt 2753 3264 L
2759 3210 mt 2809 3260 L
2809 3210 mt 2759 3260 L
2764 3206 mt 2814 3256 L
2814 3206 mt 2764 3256 L
2770 3203 mt 2820 3253 L
2820 3203 mt 2770 3253 L
2775 3199 mt 2825 3249 L
2825 3199 mt 2775 3249 L
2780 3196 mt 2830 3246 L
2830 3196 mt 2780 3246 L
2786 3192 mt 2836 3242 L
2836 3192 mt 2786 3242 L
2791 3188 mt 2841 3238 L
2841 3188 mt 2791 3238 L
2796 3185 mt 2846 3235 L
2846 3185 mt 2796 3235 L
2802 3181 mt 2852 3231 L
2852 3181 mt 2802 3231 L
2807 3177 mt 2857 3227 L
2857 3177 mt 2807 3227 L
2812 3173 mt 2862 3223 L
2862 3173 mt 2812 3223 L
2818 3170 mt 2868 3220 L
2868 3170 mt 2818 3220 L
2823 3166 mt 2873 3216 L
2873 3166 mt 2823 3216 L
2828 3162 mt 2878 3212 L
2878 3162 mt 2828 3212 L
2834 3159 mt 2884 3209 L
2884 3159 mt 2834 3209 L
2839 3155 mt 2889 3205 L
2889 3155 mt 2839 3205 L
2845 3151 mt 2895 3201 L
2895 3151 mt 2845 3201 L
2850 3147 mt 2900 3197 L
2900 3147 mt 2850 3197 L
2855 3144 mt 2905 3194 L
2905 3144 mt 2855 3194 L
2861 3140 mt 2911 3190 L
2911 3140 mt 2861 3190 L
2866 3136 mt 2916 3186 L
2916 3136 mt 2866 3186 L
2871 3132 mt 2921 3182 L
2921 3132 mt 2871 3182 L
2877 3129 mt 2927 3179 L
2927 3129 mt 2877 3179 L
2882 3125 mt 2932 3175 L
2932 3125 mt 2882 3175 L
2887 3121 mt 2937 3171 L
2937 3121 mt 2887 3171 L
2893 3118 mt 2943 3168 L
2943 3118 mt 2893 3168 L
2898 3114 mt 2948 3164 L
2948 3114 mt 2898 3164 L
2903 3110 mt 2953 3160 L
2953 3110 mt 2903 3160 L
2909 3106 mt 2959 3156 L
2959 3106 mt 2909 3156 L
2914 3103 mt 2964 3153 L
2964 3103 mt 2914 3153 L
2919 3099 mt 2969 3149 L
2969 3099 mt 2919 3149 L
2925 3096 mt 2975 3146 L
2975 3096 mt 2925 3146 L
2930 3092 mt 2980 3142 L
2980 3092 mt 2930 3142 L
2936 3088 mt 2986 3138 L
2986 3088 mt 2936 3138 L
2941 3084 mt 2991 3134 L
2991 3084 mt 2941 3134 L
2946 3081 mt 2996 3131 L
2996 3081 mt 2946 3131 L
2952 3077 mt 3002 3127 L
3002 3077 mt 2952 3127 L
2957 3073 mt 3007 3123 L
3007 3073 mt 2957 3123 L
2962 3069 mt 3012 3119 L
3012 3069 mt 2962 3119 L
2968 3066 mt 3018 3116 L
3018 3066 mt 2968 3116 L
2973 3062 mt 3023 3112 L
3023 3062 mt 2973 3112 L
2978 3058 mt 3028 3108 L
3028 3058 mt 2978 3108 L
2984 3054 mt 3034 3104 L
3034 3054 mt 2984 3104 L
2989 3051 mt 3039 3101 L
3039 3051 mt 2989 3101 L
2994 3047 mt 3044 3097 L
3044 3047 mt 2994 3097 L
3000 3043 mt 3050 3093 L
3050 3043 mt 3000 3093 L
3005 3039 mt 3055 3089 L
3055 3039 mt 3005 3089 L
3011 3036 mt 3061 3086 L
3061 3036 mt 3011 3086 L
3016 3032 mt 3066 3082 L
3066 3032 mt 3016 3082 L
3021 3028 mt 3071 3078 L
3071 3028 mt 3021 3078 L
3027 3024 mt 3077 3074 L
3077 3024 mt 3027 3074 L
3032 3021 mt 3082 3071 L
3082 3021 mt 3032 3071 L
3037 3017 mt 3087 3067 L
3087 3017 mt 3037 3067 L
3043 3013 mt 3093 3063 L
3093 3013 mt 3043 3063 L
3048 3009 mt 3098 3059 L
3098 3009 mt 3048 3059 L
3053 3006 mt 3103 3056 L
3103 3006 mt 3053 3056 L
3059 3002 mt 3109 3052 L
3109 3002 mt 3059 3052 L
3064 2998 mt 3114 3048 L
3114 2998 mt 3064 3048 L
3069 2994 mt 3119 3044 L
3119 2994 mt 3069 3044 L
3075 2991 mt 3125 3041 L
3125 2991 mt 3075 3041 L
3080 2987 mt 3130 3037 L
3130 2987 mt 3080 3037 L
3086 2983 mt 3136 3033 L
3136 2983 mt 3086 3033 L
3091 2979 mt 3141 3029 L
3141 2979 mt 3091 3029 L
3096 2976 mt 3146 3026 L
3146 2976 mt 3096 3026 L
3102 2972 mt 3152 3022 L
3152 2972 mt 3102 3022 L
3107 2968 mt 3157 3018 L
3157 2968 mt 3107 3018 L
3112 2964 mt 3162 3014 L
3162 2964 mt 3112 3014 L
3118 2961 mt 3168 3011 L
3168 2961 mt 3118 3011 L
3123 2957 mt 3173 3007 L
3173 2957 mt 3123 3007 L
3128 2953 mt 3178 3003 L
3178 2953 mt 3128 3003 L
3134 2949 mt 3184 2999 L
3184 2949 mt 3134 2999 L
3139 2946 mt 3189 2996 L
3189 2946 mt 3139 2996 L
3144 2942 mt 3194 2992 L
3194 2942 mt 3144 2992 L
3150 2938 mt 3200 2988 L
3200 2938 mt 3150 2988 L
3155 2935 mt 3205 2985 L
3205 2935 mt 3155 2985 L
3161 2931 mt 3211 2981 L
3211 2931 mt 3161 2981 L
3166 2927 mt 3216 2977 L
3216 2927 mt 3166 2977 L
3171 2923 mt 3221 2973 L
3221 2923 mt 3171 2973 L
3177 2920 mt 3227 2970 L
3227 2920 mt 3177 2970 L
3182 2916 mt 3232 2966 L
3232 2916 mt 3182 2966 L
3187 2912 mt 3237 2962 L
3237 2912 mt 3187 2962 L
3193 2908 mt 3243 2958 L
3243 2908 mt 3193 2958 L
3198 2905 mt 3248 2955 L
3248 2905 mt 3198 2955 L
3203 2901 mt 3253 2951 L
3253 2901 mt 3203 2951 L
3209 2897 mt 3259 2947 L
3259 2897 mt 3209 2947 L
3214 2893 mt 3264 2943 L
3264 2893 mt 3214 2943 L
3219 2890 mt 3269 2940 L
3269 2890 mt 3219 2940 L
3225 2886 mt 3275 2936 L
3275 2886 mt 3225 2936 L
3230 2882 mt 3280 2932 L
3280 2882 mt 3230 2932 L
3235 2878 mt 3285 2928 L
3285 2878 mt 3235 2928 L
3241 2875 mt 3291 2925 L
3291 2875 mt 3241 2925 L
3246 2871 mt 3296 2921 L
3296 2871 mt 3246 2921 L
3252 2867 mt 3302 2917 L
3302 2867 mt 3252 2917 L
3257 2863 mt 3307 2913 L
3307 2863 mt 3257 2913 L
3262 2860 mt 3312 2910 L
3312 2860 mt 3262 2910 L
3268 2856 mt 3318 2906 L
3318 2856 mt 3268 2906 L
3273 2852 mt 3323 2902 L
3323 2852 mt 3273 2902 L
3278 2848 mt 3328 2898 L
3328 2848 mt 3278 2898 L
3284 2845 mt 3334 2895 L
3334 2845 mt 3284 2895 L
3289 2841 mt 3339 2891 L
3339 2841 mt 3289 2891 L
3294 2837 mt 3344 2887 L
3344 2837 mt 3294 2887 L
3300 2833 mt 3350 2883 L
3350 2833 mt 3300 2883 L
3305 2830 mt 3355 2880 L
3355 2830 mt 3305 2880 L
3310 2826 mt 3360 2876 L
3360 2826 mt 3310 2876 L
3316 2822 mt 3366 2872 L
3366 2822 mt 3316 2872 L
3321 2818 mt 3371 2868 L
3371 2818 mt 3321 2868 L
3327 2815 mt 3377 2865 L
3377 2815 mt 3327 2865 L
3332 2811 mt 3382 2861 L
3382 2811 mt 3332 2861 L
3337 2807 mt 3387 2857 L
3387 2807 mt 3337 2857 L
3343 2803 mt 3393 2853 L
3393 2803 mt 3343 2853 L
3348 2800 mt 3398 2850 L
3398 2800 mt 3348 2850 L
3353 2796 mt 3403 2846 L
3403 2796 mt 3353 2846 L
3359 2792 mt 3409 2842 L
3409 2792 mt 3359 2842 L
3364 2788 mt 3414 2838 L
3414 2788 mt 3364 2838 L
3369 2785 mt 3419 2835 L
3419 2785 mt 3369 2835 L
3375 2781 mt 3425 2831 L
3425 2781 mt 3375 2831 L
3380 2777 mt 3430 2827 L
3430 2777 mt 3380 2827 L
3385 2773 mt 3435 2823 L
3435 2773 mt 3385 2823 L
3391 2770 mt 3441 2820 L
3441 2770 mt 3391 2820 L
3396 2766 mt 3446 2816 L
3446 2766 mt 3396 2816 L
3402 2762 mt 3452 2812 L
3452 2762 mt 3402 2812 L
3407 2758 mt 3457 2808 L
3457 2758 mt 3407 2808 L
3412 2755 mt 3462 2805 L
3462 2755 mt 3412 2805 L
3418 2751 mt 3468 2801 L
3468 2751 mt 3418 2801 L
3423 2747 mt 3473 2797 L
3473 2747 mt 3423 2797 L
3428 2743 mt 3478 2793 L
3478 2743 mt 3428 2793 L
3434 2740 mt 3484 2790 L
3484 2740 mt 3434 2790 L
3439 2736 mt 3489 2786 L
3489 2736 mt 3439 2786 L
3444 2732 mt 3494 2782 L
3494 2732 mt 3444 2782 L
3450 2728 mt 3500 2778 L
3500 2728 mt 3450 2778 L
3455 2725 mt 3505 2775 L
3505 2725 mt 3455 2775 L
3460 2721 mt 3510 2771 L
3510 2721 mt 3460 2771 L
3466 2717 mt 3516 2767 L
3516 2717 mt 3466 2767 L
3471 2714 mt 3521 2764 L
3521 2714 mt 3471 2764 L
3477 2710 mt 3527 2760 L
3527 2710 mt 3477 2760 L
3482 2706 mt 3532 2756 L
3532 2706 mt 3482 2756 L
3487 2702 mt 3537 2752 L
3537 2702 mt 3487 2752 L
3493 2699 mt 3543 2749 L
3543 2699 mt 3493 2749 L
3498 2695 mt 3548 2745 L
3548 2695 mt 3498 2745 L
3503 2691 mt 3553 2741 L
3553 2691 mt 3503 2741 L
3509 2687 mt 3559 2737 L
3559 2687 mt 3509 2737 L
3514 2684 mt 3564 2734 L
3564 2684 mt 3514 2734 L
3519 2680 mt 3569 2730 L
3569 2680 mt 3519 2730 L
3525 2676 mt 3575 2726 L
3575 2676 mt 3525 2726 L
3530 2672 mt 3580 2722 L
3580 2672 mt 3530 2722 L
3535 2669 mt 3585 2719 L
3585 2669 mt 3535 2719 L
3541 2665 mt 3591 2715 L
3591 2665 mt 3541 2715 L
3546 2661 mt 3596 2711 L
3596 2661 mt 3546 2711 L
3552 2657 mt 3602 2707 L
3602 2657 mt 3552 2707 L
3557 2654 mt 3607 2704 L
3607 2654 mt 3557 2704 L
3562 2650 mt 3612 2700 L
3612 2650 mt 3562 2700 L
3568 2646 mt 3618 2696 L
3618 2646 mt 3568 2696 L
3573 2642 mt 3623 2692 L
3623 2642 mt 3573 2692 L
3578 2639 mt 3628 2689 L
3628 2639 mt 3578 2689 L
3584 2635 mt 3634 2685 L
3634 2635 mt 3584 2685 L
3589 2631 mt 3639 2681 L
3639 2631 mt 3589 2681 L
3594 2627 mt 3644 2677 L
3644 2627 mt 3594 2677 L
3600 2624 mt 3650 2674 L
3650 2624 mt 3600 2674 L
3605 2620 mt 3655 2670 L
3655 2620 mt 3605 2670 L
3610 2616 mt 3660 2666 L
3660 2616 mt 3610 2666 L
3616 2612 mt 3666 2662 L
3666 2612 mt 3616 2662 L
3621 2609 mt 3671 2659 L
3671 2609 mt 3621 2659 L
3626 2605 mt 3676 2655 L
3676 2605 mt 3626 2655 L
3632 2601 mt 3682 2651 L
3682 2601 mt 3632 2651 L
3637 2597 mt 3687 2647 L
3687 2597 mt 3637 2647 L
3643 2594 mt 3693 2644 L
3693 2594 mt 3643 2644 L
3648 2590 mt 3698 2640 L
3698 2590 mt 3648 2640 L
3653 2586 mt 3703 2636 L
3703 2586 mt 3653 2636 L
3659 2582 mt 3709 2632 L
3709 2582 mt 3659 2632 L
3664 2579 mt 3714 2629 L
3714 2579 mt 3664 2629 L
3669 2575 mt 3719 2625 L
3719 2575 mt 3669 2625 L
3675 2571 mt 3725 2621 L
3725 2571 mt 3675 2621 L
3680 2567 mt 3730 2617 L
3730 2567 mt 3680 2617 L
3685 2564 mt 3735 2614 L
3735 2564 mt 3685 2614 L
3691 2560 mt 3741 2610 L
3741 2560 mt 3691 2610 L
3696 2556 mt 3746 2606 L
3746 2556 mt 3696 2606 L
3701 2552 mt 3751 2602 L
3751 2552 mt 3701 2602 L
3707 2549 mt 3757 2599 L
3757 2549 mt 3707 2599 L
3712 2545 mt 3762 2595 L
3762 2545 mt 3712 2595 L
3718 2541 mt 3768 2591 L
3768 2541 mt 3718 2591 L
3723 2537 mt 3773 2587 L
3773 2537 mt 3723 2587 L
3728 2534 mt 3778 2584 L
3778 2534 mt 3728 2584 L
3734 2530 mt 3784 2580 L
3784 2530 mt 3734 2580 L
3739 2522 mt 3789 2572 L
3789 2522 mt 3739 2572 L
3744 2518 mt 3794 2568 L
3794 2518 mt 3744 2568 L
3750 2514 mt 3800 2564 L
3800 2514 mt 3750 2564 L
3755 2510 mt 3805 2560 L
3805 2510 mt 3755 2560 L
3760 2507 mt 3810 2557 L
3810 2507 mt 3760 2557 L
3766 2503 mt 3816 2553 L
3816 2503 mt 3766 2553 L
3771 2499 mt 3821 2549 L
3821 2499 mt 3771 2549 L
3776 2495 mt 3826 2545 L
3826 2495 mt 3776 2545 L
3782 2491 mt 3832 2541 L
3832 2491 mt 3782 2541 L
3787 2488 mt 3837 2538 L
3837 2488 mt 3787 2538 L
3793 2484 mt 3843 2534 L
3843 2484 mt 3793 2534 L
3798 2480 mt 3848 2530 L
3848 2480 mt 3798 2530 L
3803 2476 mt 3853 2526 L
3853 2476 mt 3803 2526 L
3809 2473 mt 3859 2523 L
3859 2473 mt 3809 2523 L
3814 2469 mt 3864 2519 L
3864 2469 mt 3814 2519 L
3819 2465 mt 3869 2515 L
3869 2465 mt 3819 2515 L
3825 2461 mt 3875 2511 L
3875 2461 mt 3825 2511 L
3830 2457 mt 3880 2507 L
3880 2457 mt 3830 2507 L
3835 2454 mt 3885 2504 L
3885 2454 mt 3835 2504 L
3841 2450 mt 3891 2500 L
3891 2450 mt 3841 2500 L
3846 2446 mt 3896 2496 L
3896 2446 mt 3846 2496 L
3851 2442 mt 3901 2492 L
3901 2442 mt 3851 2492 L
3857 2439 mt 3907 2489 L
3907 2439 mt 3857 2489 L
3862 2435 mt 3912 2485 L
3912 2435 mt 3862 2485 L
3868 2431 mt 3918 2481 L
3918 2431 mt 3868 2481 L
3873 2427 mt 3923 2477 L
3923 2427 mt 3873 2477 L
3878 2423 mt 3928 2473 L
3928 2423 mt 3878 2473 L
3884 2419 mt 3934 2469 L
3934 2419 mt 3884 2469 L
3889 2415 mt 3939 2465 L
3939 2415 mt 3889 2465 L
3894 2412 mt 3944 2462 L
3944 2412 mt 3894 2462 L
3900 2408 mt 3950 2458 L
3950 2408 mt 3900 2458 L
3905 2404 mt 3955 2454 L
3955 2404 mt 3905 2454 L
3910 2400 mt 3960 2450 L
3960 2400 mt 3910 2450 L
3916 2396 mt 3966 2446 L
3966 2396 mt 3916 2446 L
3921 2393 mt 3971 2443 L
3971 2393 mt 3921 2443 L
3926 2389 mt 3976 2439 L
3976 2389 mt 3926 2439 L
3932 2385 mt 3982 2435 L
3982 2385 mt 3932 2435 L
3937 2381 mt 3987 2431 L
3987 2381 mt 3937 2431 L
3942 2377 mt 3992 2427 L
3992 2377 mt 3942 2427 L
3948 2374 mt 3998 2424 L
3998 2374 mt 3948 2424 L
3953 2370 mt 4003 2420 L
4003 2370 mt 3953 2420 L
3959 2366 mt 4009 2416 L
4009 2366 mt 3959 2416 L
3964 2362 mt 4014 2412 L
4014 2362 mt 3964 2412 L
3969 2358 mt 4019 2408 L
4019 2358 mt 3969 2408 L
3975 2355 mt 4025 2405 L
4025 2355 mt 3975 2405 L
3980 2351 mt 4030 2401 L
4030 2351 mt 3980 2401 L
3985 2347 mt 4035 2397 L
4035 2347 mt 3985 2397 L
3991 2343 mt 4041 2393 L
4041 2343 mt 3991 2393 L
3996 2339 mt 4046 2389 L
4046 2339 mt 3996 2389 L
4001 2336 mt 4051 2386 L
4051 2336 mt 4001 2386 L
4007 2332 mt 4057 2382 L
4057 2332 mt 4007 2382 L
4012 2328 mt 4062 2378 L
4062 2328 mt 4012 2378 L
4017 2325 mt 4067 2375 L
4067 2325 mt 4017 2375 L
4023 2321 mt 4073 2371 L
4073 2321 mt 4023 2371 L
4028 2317 mt 4078 2367 L
4078 2317 mt 4028 2367 L
4034 2313 mt 4084 2363 L
4084 2313 mt 4034 2363 L
4039 2309 mt 4089 2359 L
4089 2309 mt 4039 2359 L
4044 2306 mt 4094 2356 L
4094 2306 mt 4044 2356 L
4050 2302 mt 4100 2352 L
4100 2302 mt 4050 2352 L
4055 2298 mt 4105 2348 L
4105 2298 mt 4055 2348 L
4060 2294 mt 4110 2344 L
4110 2294 mt 4060 2344 L
4066 2290 mt 4116 2340 L
4116 2290 mt 4066 2340 L
4071 2286 mt 4121 2336 L
4121 2286 mt 4071 2336 L
4076 2283 mt 4126 2333 L
4126 2283 mt 4076 2333 L
4082 2279 mt 4132 2329 L
4132 2279 mt 4082 2329 L
4087 2275 mt 4137 2325 L
4137 2275 mt 4087 2325 L
4092 2271 mt 4142 2321 L
4142 2271 mt 4092 2321 L
4098 2267 mt 4148 2317 L
4148 2267 mt 4098 2317 L
4103 2264 mt 4153 2314 L
4153 2264 mt 4103 2314 L
4109 2260 mt 4159 2310 L
4159 2260 mt 4109 2310 L
4114 2256 mt 4164 2306 L
4164 2256 mt 4114 2306 L
4119 2252 mt 4169 2302 L
4169 2252 mt 4119 2302 L
4125 2248 mt 4175 2298 L
4175 2248 mt 4125 2298 L
4130 2245 mt 4180 2295 L
4180 2245 mt 4130 2295 L
4135 2241 mt 4185 2291 L
4185 2241 mt 4135 2291 L
4141 2237 mt 4191 2287 L
4191 2237 mt 4141 2287 L
4146 2233 mt 4196 2283 L
4196 2233 mt 4146 2283 L
4151 2229 mt 4201 2279 L
4201 2229 mt 4151 2279 L
4157 2226 mt 4207 2276 L
4207 2226 mt 4157 2276 L
4162 2222 mt 4212 2272 L
4212 2222 mt 4162 2272 L
4167 2218 mt 4217 2268 L
4217 2218 mt 4167 2268 L
4173 2214 mt 4223 2264 L
4223 2214 mt 4173 2264 L
4178 2210 mt 4228 2260 L
4228 2210 mt 4178 2260 L
4184 2206 mt 4234 2256 L
4234 2206 mt 4184 2256 L
4189 2203 mt 4239 2253 L
4239 2203 mt 4189 2253 L
4194 2199 mt 4244 2249 L
4244 2199 mt 4194 2249 L
4200 2195 mt 4250 2245 L
4250 2195 mt 4200 2245 L
4205 2191 mt 4255 2241 L
4255 2191 mt 4205 2241 L
4210 2187 mt 4260 2237 L
4260 2187 mt 4210 2237 L
4216 2184 mt 4266 2234 L
4266 2184 mt 4216 2234 L
4221 2180 mt 4271 2230 L
4271 2180 mt 4221 2230 L
4226 2176 mt 4276 2226 L
4276 2176 mt 4226 2226 L
4232 2172 mt 4282 2222 L
4282 2172 mt 4232 2222 L
4237 2168 mt 4287 2218 L
4287 2168 mt 4237 2218 L
4242 2165 mt 4292 2215 L
4292 2165 mt 4242 2215 L
4248 2161 mt 4298 2211 L
4298 2161 mt 4248 2211 L
4253 2157 mt 4303 2207 L
4303 2157 mt 4253 2207 L
4258 2153 mt 4308 2203 L
4308 2153 mt 4258 2203 L
4264 2149 mt 4314 2199 L
4314 2149 mt 4264 2199 L
4269 2146 mt 4319 2196 L
4319 2146 mt 4269 2196 L
4275 2142 mt 4325 2192 L
4325 2142 mt 4275 2192 L
4280 2138 mt 4330 2188 L
4330 2138 mt 4280 2188 L
4285 2134 mt 4335 2184 L
4335 2134 mt 4285 2184 L
4291 2130 mt 4341 2180 L
4341 2130 mt 4291 2180 L
4296 2126 mt 4346 2176 L
4346 2126 mt 4296 2176 L
4301 2123 mt 4351 2173 L
4351 2123 mt 4301 2173 L
4307 2119 mt 4357 2169 L
4357 2119 mt 4307 2169 L
4312 2115 mt 4362 2165 L
4362 2115 mt 4312 2165 L
4317 2111 mt 4367 2161 L
4367 2111 mt 4317 2161 L
4323 2107 mt 4373 2157 L
4373 2107 mt 4323 2157 L
4328 2104 mt 4378 2154 L
4378 2104 mt 4328 2154 L
4333 2100 mt 4383 2150 L
4383 2100 mt 4333 2150 L
4339 2096 mt 4389 2146 L
4389 2096 mt 4339 2146 L
4344 2092 mt 4394 2142 L
4394 2092 mt 4344 2142 L
4350 2088 mt 4400 2138 L
4400 2088 mt 4350 2138 L
4355 2085 mt 4405 2135 L
4405 2085 mt 4355 2135 L
4360 2081 mt 4410 2131 L
4410 2081 mt 4360 2131 L
4366 2077 mt 4416 2127 L
4416 2077 mt 4366 2127 L
4371 2073 mt 4421 2123 L
4421 2073 mt 4371 2123 L
4376 2069 mt 4426 2119 L
4426 2069 mt 4376 2119 L
4382 2066 mt 4432 2116 L
4432 2066 mt 4382 2116 L
4387 2062 mt 4437 2112 L
4437 2062 mt 4387 2112 L
4392 2058 mt 4442 2108 L
4442 2058 mt 4392 2108 L
4398 2054 mt 4448 2104 L
4448 2054 mt 4398 2104 L
4403 2050 mt 4453 2100 L
4453 2050 mt 4403 2100 L
4408 2046 mt 4458 2096 L
4458 2046 mt 4408 2096 L
4414 2043 mt 4464 2093 L
4464 2043 mt 4414 2093 L
4419 2039 mt 4469 2089 L
4469 2039 mt 4419 2089 L
4425 2035 mt 4475 2085 L
4475 2035 mt 4425 2085 L
4430 2031 mt 4480 2081 L
4480 2031 mt 4430 2081 L
4435 2027 mt 4485 2077 L
4485 2027 mt 4435 2077 L
4441 2024 mt 4491 2074 L
4491 2024 mt 4441 2074 L
4446 2020 mt 4496 2070 L
4496 2020 mt 4446 2070 L
4451 2016 mt 4501 2066 L
4501 2016 mt 4451 2066 L
4457 2012 mt 4507 2062 L
4507 2012 mt 4457 2062 L
4462 2008 mt 4512 2058 L
4512 2008 mt 4462 2058 L
4467 2005 mt 4517 2055 L
4517 2005 mt 4467 2055 L
4473 2001 mt 4523 2051 L
4523 2001 mt 4473 2051 L
4478 1997 mt 4528 2047 L
4528 1997 mt 4478 2047 L
4483 1993 mt 4533 2043 L
4533 1993 mt 4483 2043 L
4489 1989 mt 4539 2039 L
4539 1989 mt 4489 2039 L
4494 1986 mt 4544 2036 L
4544 1986 mt 4494 2036 L
4500 1982 mt 4550 2032 L
4550 1982 mt 4500 2032 L
4505 1978 mt 4555 2028 L
4555 1978 mt 4505 2028 L
4510 1974 mt 4560 2024 L
4560 1974 mt 4510 2024 L
4516 1970 mt 4566 2020 L
4566 1970 mt 4516 2020 L
4521 1966 mt 4571 2016 L
4571 1966 mt 4521 2016 L
4526 1963 mt 4576 2013 L
4576 1963 mt 4526 2013 L
4532 1959 mt 4582 2009 L
4582 1959 mt 4532 2009 L
4537 1955 mt 4587 2005 L
4587 1955 mt 4537 2005 L
4542 1951 mt 4592 2001 L
4592 1951 mt 4542 2001 L
4548 1947 mt 4598 1997 L
4598 1947 mt 4548 1997 L
4553 1944 mt 4603 1994 L
4603 1944 mt 4553 1994 L
4558 1940 mt 4608 1990 L
4608 1940 mt 4558 1990 L
4564 1936 mt 4614 1986 L
4614 1936 mt 4564 1986 L
4569 1932 mt 4619 1982 L
4619 1932 mt 4569 1982 L
4574 1928 mt 4624 1978 L
4624 1928 mt 4574 1978 L
4580 1925 mt 4630 1975 L
4630 1925 mt 4580 1975 L
4585 1921 mt 4635 1971 L
4635 1921 mt 4585 1971 L
4591 1917 mt 4641 1967 L
4641 1917 mt 4591 1967 L
4596 1913 mt 4646 1963 L
4646 1913 mt 4596 1963 L
4601 1909 mt 4651 1959 L
4651 1909 mt 4601 1959 L
4607 1906 mt 4657 1956 L
4657 1906 mt 4607 1956 L
4612 1902 mt 4662 1952 L
4662 1902 mt 4612 1952 L
4617 1898 mt 4667 1948 L
4667 1898 mt 4617 1948 L
4623 1894 mt 4673 1944 L
4673 1894 mt 4623 1944 L
4628 1890 mt 4678 1940 L
4678 1890 mt 4628 1940 L
4633 1886 mt 4683 1936 L
4683 1886 mt 4633 1936 L
4639 1883 mt 4689 1933 L
4689 1883 mt 4639 1933 L
4644 1879 mt 4694 1929 L
4694 1879 mt 4644 1929 L
4649 1875 mt 4699 1925 L
4699 1875 mt 4649 1925 L
4655 1871 mt 4705 1921 L
4705 1871 mt 4655 1921 L
4660 1867 mt 4710 1917 L
4710 1867 mt 4660 1917 L
4666 1864 mt 4716 1914 L
4716 1864 mt 4666 1914 L
4671 1860 mt 4721 1910 L
4721 1860 mt 4671 1910 L
4676 1856 mt 4726 1906 L
4726 1856 mt 4676 1906 L
4682 1852 mt 4732 1902 L
4732 1852 mt 4682 1902 L
4687 1848 mt 4737 1898 L
4737 1848 mt 4687 1898 L
4692 1845 mt 4742 1895 L
4742 1845 mt 4692 1895 L
4698 1841 mt 4748 1891 L
4748 1841 mt 4698 1891 L
4703 1837 mt 4753 1887 L
4753 1837 mt 4703 1887 L
4708 1833 mt 4758 1883 L
4758 1833 mt 4708 1883 L
4714 1829 mt 4764 1879 L
4764 1829 mt 4714 1879 L
4719 1826 mt 4769 1876 L
4769 1826 mt 4719 1876 L
4724 1822 mt 4774 1872 L
4774 1822 mt 4724 1872 L
4730 1818 mt 4780 1868 L
4780 1818 mt 4730 1868 L
4735 1814 mt 4785 1864 L
4785 1814 mt 4735 1864 L
4741 1810 mt 4791 1860 L
4791 1810 mt 4741 1860 L
4746 1806 mt 4796 1856 L
4796 1806 mt 4746 1856 L
4751 1803 mt 4801 1853 L
4801 1803 mt 4751 1853 L
4757 1799 mt 4807 1849 L
4807 1799 mt 4757 1849 L
4762 1795 mt 4812 1845 L
4812 1795 mt 4762 1845 L
4767 1791 mt 4817 1841 L
4817 1791 mt 4767 1841 L
4773 1787 mt 4823 1837 L
4823 1787 mt 4773 1837 L
4778 1784 mt 4828 1834 L
4828 1784 mt 4778 1834 L
4783 1780 mt 4833 1830 L
4833 1780 mt 4783 1830 L
4789 1776 mt 4839 1826 L
4839 1776 mt 4789 1826 L
4794 1772 mt 4844 1822 L
4844 1772 mt 4794 1822 L
4799 1768 mt 4849 1818 L
4849 1768 mt 4799 1818 L
4805 1765 mt 4855 1815 L
4855 1765 mt 4805 1815 L
4810 1761 mt 4860 1811 L
4860 1761 mt 4810 1811 L
4816 1757 mt 4866 1807 L
4866 1757 mt 4816 1807 L
4821 1753 mt 4871 1803 L
4871 1753 mt 4821 1803 L
4826 1749 mt 4876 1799 L
4876 1749 mt 4826 1799 L
4832 1746 mt 4882 1796 L
4882 1746 mt 4832 1796 L
4837 1742 mt 4887 1792 L
4887 1742 mt 4837 1792 L
4842 1738 mt 4892 1788 L
4892 1738 mt 4842 1788 L
4848 1734 mt 4898 1784 L
4898 1734 mt 4848 1784 L
4853 1730 mt 4903 1780 L
4903 1730 mt 4853 1780 L
4858 1727 mt 4908 1777 L
4908 1727 mt 4858 1777 L
4864 1723 mt 4914 1773 L
4914 1723 mt 4864 1773 L
4869 1719 mt 4919 1769 L
4919 1719 mt 4869 1769 L
4874 1715 mt 4924 1765 L
4924 1715 mt 4874 1765 L
4880 1711 mt 4930 1761 L
4930 1711 mt 4880 1761 L
4885 1707 mt 4935 1757 L
4935 1707 mt 4885 1757 L
4891 1704 mt 4941 1754 L
4941 1704 mt 4891 1754 L
4896 1700 mt 4946 1750 L
4946 1700 mt 4896 1750 L
4901 1696 mt 4951 1746 L
4951 1696 mt 4901 1746 L
4907 1692 mt 4957 1742 L
4957 1692 mt 4907 1742 L
4912 1688 mt 4962 1738 L
4962 1688 mt 4912 1738 L
4917 1685 mt 4967 1735 L
4967 1685 mt 4917 1735 L
4923 1681 mt 4973 1731 L
4973 1681 mt 4923 1731 L
4928 1677 mt 4978 1727 L
4978 1677 mt 4928 1727 L
4933 1673 mt 4983 1723 L
4983 1673 mt 4933 1723 L
4939 1669 mt 4989 1719 L
4989 1669 mt 4939 1719 L
4944 1666 mt 4994 1716 L
4994 1666 mt 4944 1716 L
4949 1662 mt 4999 1712 L
4999 1662 mt 4949 1712 L
4955 1658 mt 5005 1708 L
5005 1658 mt 4955 1708 L
4960 1654 mt 5010 1704 L
5010 1654 mt 4960 1704 L
4965 1650 mt 5015 1700 L
5015 1650 mt 4965 1700 L
4971 1647 mt 5021 1697 L
5021 1647 mt 4971 1697 L
4976 1643 mt 5026 1693 L
5026 1643 mt 4976 1693 L
4982 1639 mt 5032 1689 L
5032 1639 mt 4982 1689 L
4987 1635 mt 5037 1685 L
5037 1635 mt 4987 1685 L
4992 1631 mt 5042 1681 L
5042 1631 mt 4992 1681 L
4998 1627 mt 5048 1677 L
5048 1627 mt 4998 1677 L
5003 1624 mt 5053 1674 L
5053 1624 mt 5003 1674 L
5008 1620 mt 5058 1670 L
5058 1620 mt 5008 1670 L
5014 1616 mt 5064 1666 L
5064 1616 mt 5014 1666 L
5019 1612 mt 5069 1662 L
5069 1612 mt 5019 1662 L
5024 1608 mt 5074 1658 L
5074 1608 mt 5024 1658 L
5030 1605 mt 5080 1655 L
5080 1605 mt 5030 1655 L
5035 1601 mt 5085 1651 L
5085 1601 mt 5035 1651 L
5040 1597 mt 5090 1647 L
5090 1597 mt 5040 1647 L
5046 1593 mt 5096 1643 L
5096 1593 mt 5046 1643 L
5051 1589 mt 5101 1639 L
5101 1589 mt 5051 1639 L
5057 1586 mt 5107 1636 L
5107 1586 mt 5057 1636 L
5062 1582 mt 5112 1632 L
5112 1582 mt 5062 1632 L
5067 1578 mt 5117 1628 L
5117 1578 mt 5067 1628 L
5073 1574 mt 5123 1624 L
5123 1574 mt 5073 1624 L
5078 1570 mt 5128 1620 L
5128 1570 mt 5078 1620 L
5083 1567 mt 5133 1617 L
5133 1567 mt 5083 1617 L
5089 1563 mt 5139 1613 L
5139 1563 mt 5089 1613 L
5094 1559 mt 5144 1609 L
5144 1559 mt 5094 1609 L
5099 1555 mt 5149 1605 L
5149 1555 mt 5099 1605 L
5105 1551 mt 5155 1601 L
5155 1551 mt 5105 1601 L
5110 1547 mt 5160 1597 L
5160 1547 mt 5110 1597 L
5115 1544 mt 5165 1594 L
5165 1544 mt 5115 1594 L
5121 1540 mt 5171 1590 L
5171 1540 mt 5121 1590 L
5126 1536 mt 5176 1586 L
5176 1536 mt 5126 1586 L
5132 1532 mt 5182 1582 L
5182 1532 mt 5132 1582 L
5137 1528 mt 5187 1578 L
5187 1528 mt 5137 1578 L
5142 1525 mt 5192 1575 L
5192 1525 mt 5142 1575 L
5148 1521 mt 5198 1571 L
5198 1521 mt 5148 1571 L
5153 1517 mt 5203 1567 L
5203 1517 mt 5153 1567 L
5158 1513 mt 5208 1563 L
5208 1513 mt 5158 1563 L
5164 1509 mt 5214 1559 L
5214 1509 mt 5164 1559 L
5169 1506 mt 5219 1556 L
5219 1506 mt 5169 1556 L
5174 1502 mt 5224 1552 L
5224 1502 mt 5174 1552 L
5180 1498 mt 5230 1548 L
5230 1498 mt 5180 1548 L
5185 1494 mt 5235 1544 L
5235 1494 mt 5185 1544 L
5190 1490 mt 5240 1540 L
5240 1490 mt 5190 1540 L
5196 1487 mt 5246 1537 L
5246 1487 mt 5196 1537 L
5201 1483 mt 5251 1533 L
5251 1483 mt 5201 1533 L
5207 1479 mt 5257 1529 L
5257 1479 mt 5207 1529 L
5212 1475 mt 5262 1525 L
5262 1475 mt 5212 1525 L
5217 1471 mt 5267 1521 L
5267 1471 mt 5217 1521 L
5223 1467 mt 5273 1517 L
5273 1467 mt 5223 1517 L
5228 1464 mt 5278 1514 L
5278 1464 mt 5228 1514 L
5233 1460 mt 5283 1510 L
5283 1460 mt 5233 1510 L
5239 1456 mt 5289 1506 L
5289 1456 mt 5239 1506 L
5244 1452 mt 5294 1502 L
5294 1452 mt 5244 1502 L
5249 1448 mt 5299 1498 L
5299 1448 mt 5249 1498 L
5255 1445 mt 5305 1495 L
5305 1445 mt 5255 1495 L
5260 1441 mt 5310 1491 L
5310 1441 mt 5260 1491 L
5265 1437 mt 5315 1487 L
5315 1437 mt 5265 1487 L
5271 1433 mt 5321 1483 L
5321 1433 mt 5271 1483 L
5276 1429 mt 5326 1479 L
5326 1429 mt 5276 1479 L
5281 1426 mt 5331 1476 L
5331 1426 mt 5281 1476 L
5287 1422 mt 5337 1472 L
5337 1422 mt 5287 1472 L
5292 1418 mt 5342 1468 L
5342 1418 mt 5292 1468 L
5298 1414 mt 5348 1464 L
5348 1414 mt 5298 1464 L
5303 1410 mt 5353 1460 L
5353 1410 mt 5303 1460 L
5308 1407 mt 5358 1457 L
5358 1407 mt 5308 1457 L
5314 1403 mt 5364 1453 L
5364 1403 mt 5314 1453 L
5319 1399 mt 5369 1449 L
5369 1399 mt 5319 1449 L
5324 1395 mt 5374 1445 L
5374 1395 mt 5324 1445 L
5330 1391 mt 5380 1441 L
5380 1391 mt 5330 1441 L
5335 1387 mt 5385 1437 L
5385 1387 mt 5335 1437 L
5340 1384 mt 5390 1434 L
5390 1384 mt 5340 1434 L
5346 1380 mt 5396 1430 L
5396 1380 mt 5346 1430 L
5351 1376 mt 5401 1426 L
5401 1376 mt 5351 1426 L
5356 1372 mt 5406 1422 L
5406 1372 mt 5356 1422 L
5362 1368 mt 5412 1418 L
5412 1368 mt 5362 1418 L
5367 1365 mt 5417 1415 L
5417 1365 mt 5367 1415 L
5373 1361 mt 5423 1411 L
5423 1361 mt 5373 1411 L
5378 1357 mt 5428 1407 L
5428 1357 mt 5378 1407 L
5383 1353 mt 5433 1403 L
5433 1353 mt 5383 1403 L
5389 1349 mt 5439 1399 L
5439 1349 mt 5389 1399 L
5394 1346 mt 5444 1396 L
5444 1346 mt 5394 1396 L
5399 1342 mt 5449 1392 L
5449 1342 mt 5399 1392 L
5405 1338 mt 5455 1388 L
5455 1338 mt 5405 1388 L
5410 1334 mt 5460 1384 L
5460 1334 mt 5410 1384 L
5415 1330 mt 5465 1380 L
5465 1330 mt 5415 1380 L
5421 1327 mt 5471 1377 L
5471 1327 mt 5421 1377 L
5426 1323 mt 5476 1373 L
5476 1323 mt 5426 1373 L
5431 1319 mt 5481 1369 L
5481 1319 mt 5431 1369 L
5437 1315 mt 5487 1365 L
5487 1315 mt 5437 1365 L
5442 1311 mt 5492 1361 L
5492 1311 mt 5442 1361 L
5448 1307 mt 5498 1357 L
5498 1307 mt 5448 1357 L
5453 1304 mt 5503 1354 L
5503 1304 mt 5453 1354 L
5458 1300 mt 5508 1350 L
5508 1300 mt 5458 1350 L
5464 1296 mt 5514 1346 L
5514 1296 mt 5464 1346 L
5469 1292 mt 5519 1342 L
5519 1292 mt 5469 1342 L
5474 1288 mt 5524 1338 L
5524 1288 mt 5474 1338 L
5480 1285 mt 5530 1335 L
5530 1285 mt 5480 1335 L
5485 1281 mt 5535 1331 L
5535 1281 mt 5485 1331 L
5490 1277 mt 5540 1327 L
5540 1277 mt 5490 1327 L
5496 1273 mt 5546 1323 L
5546 1273 mt 5496 1323 L
5501 1269 mt 5551 1319 L
5551 1269 mt 5501 1319 L
5506 1266 mt 5556 1316 L
5556 1266 mt 5506 1316 L
5512 1262 mt 5562 1312 L
5562 1262 mt 5512 1312 L
5517 1239 mt 5567 1289 L
5567 1239 mt 5517 1289 L
5523 1235 mt 5573 1285 L
5573 1235 mt 5523 1285 L
5528 1231 mt 5578 1281 L
5578 1231 mt 5528 1281 L
5533 1227 mt 5583 1277 L
5583 1227 mt 5533 1277 L
5539 1223 mt 5589 1273 L
5589 1223 mt 5539 1273 L
5544 1219 mt 5594 1269 L
5594 1219 mt 5544 1269 L
5549 1215 mt 5599 1265 L
5599 1215 mt 5549 1265 L
5555 1211 mt 5605 1261 L
5605 1211 mt 5555 1261 L
5560 1208 mt 5610 1258 L
5610 1208 mt 5560 1258 L
5565 1204 mt 5615 1254 L
5615 1204 mt 5565 1254 L
5571 1200 mt 5621 1250 L
5621 1200 mt 5571 1250 L
5576 1196 mt 5626 1246 L
5626 1196 mt 5576 1246 L
5581 1192 mt 5631 1242 L
5631 1192 mt 5581 1242 L
5587 1188 mt 5637 1238 L
5637 1188 mt 5587 1238 L
5592 1184 mt 5642 1234 L
5642 1184 mt 5592 1234 L
5597 1180 mt 5647 1230 L
5647 1180 mt 5597 1230 L
5603 1177 mt 5653 1227 L
5653 1177 mt 5603 1227 L
5608 1173 mt 5658 1223 L
5658 1173 mt 5608 1223 L
5614 1169 mt 5664 1219 L
5664 1169 mt 5614 1219 L
5619 1165 mt 5669 1215 L
5669 1165 mt 5619 1215 L
5624 1161 mt 5674 1211 L
5674 1161 mt 5624 1211 L
5630 1157 mt 5680 1207 L
5680 1157 mt 5630 1207 L
5635 1153 mt 5685 1203 L
5685 1153 mt 5635 1203 L
5640 1149 mt 5690 1199 L
5690 1149 mt 5640 1199 L
5646 1146 mt 5696 1196 L
5696 1146 mt 5646 1196 L
5651 1142 mt 5701 1192 L
5701 1142 mt 5651 1192 L
5656 1136 mt 5706 1186 L
5706 1136 mt 5656 1186 L
5662 1132 mt 5712 1182 L
5712 1132 mt 5662 1182 L
5667 1128 mt 5717 1178 L
5717 1128 mt 5667 1178 L
5672 1124 mt 5722 1174 L
5722 1124 mt 5672 1174 L
5678 1120 mt 5728 1170 L
5728 1120 mt 5678 1170 L
5683 1116 mt 5733 1166 L
5733 1116 mt 5683 1166 L
5689 1113 mt 5739 1163 L
5739 1113 mt 5689 1163 L
5694 1109 mt 5744 1159 L
5744 1109 mt 5694 1159 L
5699 1105 mt 5749 1155 L
5749 1105 mt 5699 1155 L
5705 1101 mt 5755 1151 L
5755 1101 mt 5705 1151 L
5710 1097 mt 5760 1147 L
5760 1097 mt 5710 1147 L
5715 1093 mt 5765 1143 L
5765 1093 mt 5715 1143 L
5721 1089 mt 5771 1139 L
5771 1089 mt 5721 1139 L
5726 1085 mt 5776 1135 L
5776 1085 mt 5726 1135 L
5731 1081 mt 5781 1131 L
5781 1081 mt 5731 1131 L
5737 1077 mt 5787 1127 L
5787 1077 mt 5737 1127 L
5742 1074 mt 5792 1124 L
5792 1074 mt 5742 1124 L
5747 1070 mt 5797 1120 L
5797 1070 mt 5747 1120 L
5753 1066 mt 5803 1116 L
5803 1066 mt 5753 1116 L
5758 1062 mt 5808 1112 L
5808 1062 mt 5758 1112 L
5764 1058 mt 5814 1108 L
5814 1058 mt 5764 1108 L
5769 1054 mt 5819 1104 L
5819 1054 mt 5769 1104 L
5774 1050 mt 5824 1100 L
5824 1050 mt 5774 1100 L
5780 1046 mt 5830 1096 L
5830 1046 mt 5780 1096 L
5785 1042 mt 5835 1092 L
5835 1042 mt 5785 1092 L
5790 1039 mt 5840 1089 L
5840 1039 mt 5790 1089 L
5796 1034 mt 5846 1084 L
5846 1034 mt 5796 1084 L
5801 1030 mt 5851 1080 L
5851 1030 mt 5801 1080 L
5806 1026 mt 5856 1076 L
5856 1026 mt 5806 1076 L
5812 1022 mt 5862 1072 L
5862 1022 mt 5812 1072 L
5817 1018 mt 5867 1068 L
5867 1018 mt 5817 1068 L
5822 1015 mt 5872 1065 L
5872 1015 mt 5822 1065 L
5828 1011 mt 5878 1061 L
5878 1011 mt 5828 1061 L
5833 1007 mt 5883 1057 L
5883 1007 mt 5833 1057 L
5839 1003 mt 5889 1053 L
5889 1003 mt 5839 1053 L
5844  999 mt 5894 1049 L
5894  999 mt 5844 1049 L
5849  995 mt 5899 1045 L
5899  995 mt 5849 1045 L
5855  991 mt 5905 1041 L
5905  991 mt 5855 1041 L
5860  987 mt 5910 1037 L
5910  987 mt 5860 1037 L
5865  983 mt 5915 1033 L
5915  983 mt 5865 1033 L
5871  979 mt 5921 1029 L
5921  979 mt 5871 1029 L
5876  975 mt 5926 1025 L
5926  975 mt 5876 1025 L
5881  972 mt 5931 1022 L
5931  972 mt 5881 1022 L
5887  968 mt 5937 1018 L
5937  968 mt 5887 1018 L
5892  964 mt 5942 1014 L
5942  964 mt 5892 1014 L
5897  960 mt 5947 1010 L
5947  960 mt 5897 1010 L
5903  956 mt 5953 1006 L
5953  956 mt 5903 1006 L
5908  952 mt 5958 1002 L
5958  952 mt 5908 1002 L
5913  948 mt 5963  998 L
5963  948 mt 5913  998 L
5919  944 mt 5969  994 L
5969  944 mt 5919  994 L
5924  940 mt 5974  990 L
5974  940 mt 5924  990 L
5930  936 mt 5980  986 L
5980  936 mt 5930  986 L
5935  932 mt 5985  982 L
5985  932 mt 5935  982 L
5940  928 mt 5990  978 L
5990  928 mt 5940  978 L
5946  924 mt 5996  974 L
5996  924 mt 5946  974 L
5951  920 mt 6001  970 L
6001  920 mt 5951  970 L
5956  917 mt 6006  967 L
6006  917 mt 5956  967 L
5962  913 mt 6012  963 L
6012  913 mt 5962  963 L
5967  909 mt 6017  959 L
6017  909 mt 5967  959 L
5972  905 mt 6022  955 L
6022  905 mt 5972  955 L
5978  901 mt 6028  951 L
6028  901 mt 5978  951 L
5983  897 mt 6033  947 L
6033  897 mt 5983  947 L
5988  893 mt 6038  943 L
6038  893 mt 5988  943 L
5994  889 mt 6044  939 L
6044  889 mt 5994  939 L
5999  885 mt 6049  935 L
6049  885 mt 5999  935 L
6005  881 mt 6055  931 L
6055  881 mt 6005  931 L
6010  877 mt 6060  927 L
6060  877 mt 6010  927 L
6015  873 mt 6065  923 L
6065  873 mt 6015  923 L
6021  869 mt 6071  919 L
6071  869 mt 6021  919 L
6026  866 mt 6076  916 L
6076  866 mt 6026  916 L
6031  862 mt 6081  912 L
6081  862 mt 6031  912 L
6037  858 mt 6087  908 L
6087  858 mt 6037  908 L
6042  854 mt 6092  904 L
6092  854 mt 6042  904 L
6047  850 mt 6097  900 L
6097  850 mt 6047  900 L
6053  846 mt 6103  896 L
6103  846 mt 6053  896 L
6058  842 mt 6108  892 L
6108  842 mt 6058  892 L
6063  838 mt 6113  888 L
6113  838 mt 6063  888 L
6069  834 mt 6119  884 L
6119  834 mt 6069  884 L
6074  830 mt 6124  880 L
6124  830 mt 6074  880 L
6080  826 mt 6130  876 L
6130  826 mt 6080  876 L
6085  822 mt 6135  872 L
6135  822 mt 6085  872 L
6090  818 mt 6140  868 L
6140  818 mt 6090  868 L
6096  814 mt 6146  864 L
6146  814 mt 6096  864 L
6101  810 mt 6151  860 L
6151  810 mt 6101  860 L
6106  806 mt 6156  856 L
6156  806 mt 6106  856 L
6112  802 mt 6162  852 L
6162  802 mt 6112  852 L
6117  798 mt 6167  848 L
6167  798 mt 6117  848 L
6122  794 mt 6172  844 L
6172  794 mt 6122  844 L
6128  791 mt 6178  841 L
6178  791 mt 6128  841 L
6133  787 mt 6183  837 L
6183  787 mt 6133  837 L
6138  783 mt 6188  833 L
6188  783 mt 6138  833 L
6144  779 mt 6194  829 L
6194  779 mt 6144  829 L
6149  775 mt 6199  825 L
6199  775 mt 6149  825 L
6155  771 mt 6205  821 L
6205  771 mt 6155  821 L
6160  767 mt 6210  817 L
6210  767 mt 6160  817 L
6165  763 mt 6215  813 L
6215  763 mt 6165  813 L
6171  759 mt 6221  809 L
6221  759 mt 6171  809 L
6176  755 mt 6226  805 L
6226  755 mt 6176  805 L
6181  751 mt 6231  801 L
6231  751 mt 6181  801 L
6187  747 mt 6237  797 L
6237  747 mt 6187  797 L
6192  743 mt 6242  793 L
6242  743 mt 6192  793 L
6197  739 mt 6247  789 L
6247  739 mt 6197  789 L
6203  735 mt 6253  785 L
6253  735 mt 6203  785 L
6208  731 mt 6258  781 L
6258  731 mt 6208  781 L
6213  727 mt 6263  777 L
6263  727 mt 6213  777 L
6219  723 mt 6269  773 L
6269  723 mt 6219  773 L
6224  719 mt 6274  769 L
6274  719 mt 6224  769 L
6230  715 mt 6280  765 L
6280  715 mt 6230  765 L
gr

c9
gs 899 389 5357 4227 MR c np
12 w
gr

12 w
gs 826 656 5504 3926 MR c np
/c10 { 1.000000 0.000000 0.000000 sr} bdef
c10
  36   36 1016 4430 FO
  36   36 1830 3880 FO
  36   36 1970 3786 FO
  36   36 2109 3691 FO
  36   36 2248 3596 FO
  36   36 2387 3501 FO
  36   36 2527 3405 FO
  36   36 2666 3309 FO
  36   36 2805 3212 FO
  36   36 2944 3116 FO
  36   36 3764 2541 FO
  36   36 3903 2442 FO
  36   36 4042 2343 FO
  36   36 5542 1257 FO
  36   36 5681 1155 FO
  36   36 5821 1052 FO
  36   36 5960  949 FO
  36   36 6099  845 FO
  36   36 6238  741 FO
gr

c10
gs 899 389 5357 4227 MR c np
gr

0 sg
3316 4903 mt 
(Tempo [s]) s
 549 2813 mt  -90 rotate
(Posi\347\343o [m]) s
90 rotate
2227  294 mt 
(Traject\363ria do Mergulhador: Real e Estimada, em y) s
 870 4670 mt 
( ) s
6227  443 mt 
( ) s
6 w
1 sg
0 521 1157 0 0 -521 5057 4547 4 MP
PP
-1157 0 0 521 1157 0 0 -521 5057 4547 5 MP stroke
4 w
DO
SO
6 w
0 sg
5057 4547 mt 6214 4547 L
5057 4026 mt 6214 4026 L
5057 4547 mt 5057 4026 L
6214 4547 mt 6214 4026 L
5057 4547 mt 6214 4547 L
5057 4547 mt 5057 4026 L
5057 4547 mt 6214 4547 L
5057 4026 mt 6214 4026 L
5057 4547 mt 5057 4026 L
6214 4547 mt 6214 4026 L
5525 4169 mt 
(Real) s
gs 5057 4026 1158 522 MR c np
gs 5236 4053 147 147 MR c np
c8
  36   36 5309 4126 FO
gr

c8
gr

c8
0 sg
5525 4329 mt 
(Kalman) s
gs 5057 4026 1158 522 MR c np
gs 5236 4213 147 147 MR c np
c9
5284 4261 mt 5334 4311 L
5334 4261 mt 5284 4311 L
gr

c9
gr

c9
0 sg
5525 4489 mt 
(Trilatera\347\343o) s
gs 5057 4026 1158 522 MR c np
12 w
gs 5236 4373 147 147 MR c np
c10
  36   36 5309 4446 FO
gr

c10
6 w
gr

c10

end %%Color Dict

eplot
%%EndObject

epage
end

showpage

%%Trailer
%%EOF
