%!PS-Adobe-2.0 EPSF-1.2
%%Creator: MATLAB, The Mathworks, Inc. Version 7.9.0.529 (R2009b). Operating System: Darwin 10.8.0 Darwin Kernel Version 10.8.0: Tue Jun  7 16:33:36 PDT 2011; root:xnu-1504.15.3~1/RELEASE_I386 i386.
%%Title: ./vD_vV_erro_velocidade.eps
%%CreationDate: 10/23/2011  03:41:29
%%DocumentNeededFonts: Helvetica
%%DocumentProcessColors: Cyan Magenta Yellow Black
%%Extensions: CMYK
%%Pages: 1
%%BoundingBox:    52   199   545   602
%%EndComments

%%BeginProlog
% MathWorks dictionary
/MathWorks 160 dict begin
% definition operators
/bdef {bind def} bind def
/ldef {load def} bind def
/xdef {exch def} bdef
/xstore {exch store} bdef
% operator abbreviations
/c  /clip ldef
/cc /concat ldef
/cp /closepath ldef
/gr /grestore ldef
/gs /gsave ldef
/mt /moveto ldef
/np /newpath ldef
/cm /currentmatrix ldef
/sm /setmatrix ldef
/rm /rmoveto ldef
/rl /rlineto ldef
/s {show newpath} bdef
/sc {setcmykcolor} bdef
/sr /setrgbcolor ldef
/sg /setgray ldef
/w /setlinewidth ldef
/j /setlinejoin ldef
/cap /setlinecap ldef
/rc {rectclip} bdef
/rf {rectfill} bdef
% page state control
/pgsv () def
/bpage {/pgsv save def} bdef
/epage {pgsv restore} bdef
/bplot /gsave ldef
/eplot {stroke grestore} bdef
% orientation switch
/portraitMode 0 def /landscapeMode 1 def /rotateMode 2 def
% coordinate system mappings
/dpi2point 0 def
% font control
/FontSize 0 def
/FMS {/FontSize xstore findfont [FontSize 0 0 FontSize neg 0 0]
  makefont setfont} bdef
/reencode {exch dup where {pop load} {pop StandardEncoding} ifelse
  exch dup 3 1 roll findfont dup length dict begin
  { 1 index /FID ne {def}{pop pop} ifelse } forall
  /Encoding exch def currentdict end definefont pop} bdef
/isroman {findfont /CharStrings get /Agrave known} bdef
/FMSR {3 1 roll 1 index dup isroman {reencode} {pop pop} ifelse
  exch FMS} bdef
/csm {1 dpi2point div -1 dpi2point div scale neg translate
 dup landscapeMode eq {pop -90 rotate}
  {rotateMode eq {90 rotate} if} ifelse} bdef
% line types: solid, dotted, dashed, dotdash
/SO { [] 0 setdash } bdef
/DO { [.5 dpi2point mul 4 dpi2point mul] 0 setdash } bdef
/DA { [6 dpi2point mul] 0 setdash } bdef
/DD { [.5 dpi2point mul 4 dpi2point mul 6 dpi2point mul 4
  dpi2point mul] 0 setdash } bdef
% macros for lines and objects
/L {lineto stroke} bdef
/MP {3 1 roll moveto 1 sub {rlineto} repeat} bdef
/AP {{rlineto} repeat} bdef
/PDlw -1 def
/W {/PDlw currentlinewidth def setlinewidth} def
/PP {closepath eofill} bdef
/DP {closepath stroke} bdef
/MR {4 -2 roll moveto dup  0 exch rlineto exch 0 rlineto
  neg 0 exch rlineto closepath} bdef
/FR {MR stroke} bdef
/PR {MR fill} bdef
/L1i {{currentfile picstr readhexstring pop} image} bdef
/tMatrix matrix def
/MakeOval {newpath tMatrix currentmatrix pop translate scale
0 0 1 0 360 arc tMatrix setmatrix} bdef
/FO {MakeOval stroke} bdef
/PO {MakeOval fill} bdef
/PD {currentlinewidth 2 div 0 360 arc fill
   PDlw -1 eq not {PDlw w /PDlw -1 def} if} def
/FA {newpath tMatrix currentmatrix pop translate scale
  0 0 1 5 -2 roll arc tMatrix setmatrix stroke} bdef
/PA {newpath tMatrix currentmatrix pop	translate 0 0 moveto scale
  0 0 1 5 -2 roll arc closepath tMatrix setmatrix fill} bdef
/FAn {newpath tMatrix currentmatrix pop translate scale
  0 0 1 5 -2 roll arcn tMatrix setmatrix stroke} bdef
/PAn {newpath tMatrix currentmatrix pop translate 0 0 moveto scale
  0 0 1 5 -2 roll arcn closepath tMatrix setmatrix fill} bdef
/vradius 0 def /hradius 0 def /lry 0 def
/lrx 0 def /uly 0 def /ulx 0 def /rad 0 def
/MRR {/vradius xdef /hradius xdef /lry xdef /lrx xdef /uly xdef
  /ulx xdef newpath tMatrix currentmatrix pop ulx hradius add uly
  vradius add translate hradius vradius scale 0 0 1 180 270 arc 
  tMatrix setmatrix lrx hradius sub uly vradius add translate
  hradius vradius scale 0 0 1 270 360 arc tMatrix setmatrix
  lrx hradius sub lry vradius sub translate hradius vradius scale
  0 0 1 0 90 arc tMatrix setmatrix ulx hradius add lry vradius sub
  translate hradius vradius scale 0 0 1 90 180 arc tMatrix setmatrix
  closepath} bdef
/FRR {MRR stroke } bdef
/PRR {MRR fill } bdef
/MlrRR {/lry xdef /lrx xdef /uly xdef /ulx xdef /rad lry uly sub 2 div def
  newpath tMatrix currentmatrix pop ulx rad add uly rad add translate
  rad rad scale 0 0 1 90 270 arc tMatrix setmatrix lrx rad sub lry rad
  sub translate rad rad scale 0 0 1 270 90 arc tMatrix setmatrix
  closepath} bdef
/FlrRR {MlrRR stroke } bdef
/PlrRR {MlrRR fill } bdef
/MtbRR {/lry xdef /lrx xdef /uly xdef /ulx xdef /rad lrx ulx sub 2 div def
  newpath tMatrix currentmatrix pop ulx rad add uly rad add translate
  rad rad scale 0 0 1 180 360 arc tMatrix setmatrix lrx rad sub lry rad
  sub translate rad rad scale 0 0 1 0 180 arc tMatrix setmatrix
  closepath} bdef
/FtbRR {MtbRR stroke } bdef
/PtbRR {MtbRR fill } bdef
/stri 6 array def /dtri 6 array def
/smat 6 array def /dmat 6 array def
/tmat1 6 array def /tmat2 6 array def /dif 3 array def
/asub {/ind2 exch def /ind1 exch def dup dup
  ind1 get exch ind2 get sub exch } bdef
/tri_to_matrix {
  2 0 asub 3 1 asub 4 0 asub 5 1 asub
  dup 0 get exch 1 get 7 -1 roll astore } bdef
/compute_transform {
  dmat dtri tri_to_matrix tmat1 invertmatrix 
  smat stri tri_to_matrix tmat2 concatmatrix } bdef
/ds {stri astore pop} bdef
/dt {dtri astore pop} bdef
/db {2 copy /cols xdef /rows xdef mul dup 3 mul string
  currentfile exch readhexstring pop
  dup 0 3 index getinterval /rbmap xdef
  dup 2 index dup getinterval /gbmap xdef
  1 index dup 2 mul exch getinterval /bbmap xdef pop pop}bdef
/it {gs np dtri aload pop moveto lineto lineto cp c
  cols rows 8 compute_transform 
  rbmap gbmap bbmap true 3 colorimage gr}bdef
/il {newpath moveto lineto stroke}bdef
currentdict end def
%%EndProlog

%%BeginSetup
MathWorks begin

0 cap

end
%%EndSetup

%%Page: 1 1
%%BeginPageSetup
%%PageBoundingBox:    52   199   545   602
MathWorks begin
bpage
%%EndPageSetup

%%BeginObject: obj1
bplot

/dpi2point 12 def
portraitMode 0216 7344 csm

  410   110  5923  4845 MR c np
86 dict begin %Colortable dictionary
/c0 { 0.000000 0.000000 0.000000 sr} bdef
/c1 { 1.000000 1.000000 1.000000 sr} bdef
/c2 { 0.900000 0.000000 0.000000 sr} bdef
/c3 { 0.000000 0.820000 0.000000 sr} bdef
/c4 { 0.000000 0.000000 0.800000 sr} bdef
/c5 { 0.910000 0.820000 0.320000 sr} bdef
/c6 { 1.000000 0.260000 0.820000 sr} bdef
/c7 { 0.000000 0.820000 0.820000 sr} bdef
c0
1 j
1 sg
   0    0 6913 5186 PR
6 w
0 4226 5356 0 0 -4226 899 4615 4 MP
PP
-5356 0 0 4226 5356 0 0 -4226 899 4615 5 MP stroke
4 w
DO
0 sg
 911 4615 mt  911  389 L
 911  389 mt  911  389 L
1761 4615 mt 1761  389 L
1761  389 mt 1761  389 L
2612 4615 mt 2612  389 L
2612  389 mt 2612  389 L
3463 4615 mt 3463  389 L
3463  389 mt 3463  389 L
4313 4615 mt 4313  389 L
4313  389 mt 4313  389 L
5164 4615 mt 5164  389 L
5164  389 mt 5164  389 L
6015 4615 mt 6015  389 L
6015  389 mt 6015  389 L
 899 4087 mt 6255 4087 L
6255 4087 mt 6255 4087 L
 899 3407 mt 6255 3407 L
6255 3407 mt 6255 3407 L
 899 2728 mt 6255 2728 L
6255 2728 mt 6255 2728 L
 899 2048 mt 6255 2048 L
6255 2048 mt 6255 2048 L
 899 1369 mt 6255 1369 L
6255 1369 mt 6255 1369 L
 899  690 mt 6255  690 L
6255  690 mt 6255  690 L
SO
6 w
 899 4615 mt 6255 4615 L
 899  389 mt 6255  389 L
 899 4615 mt  899  389 L
6255 4615 mt 6255  389 L
 899 4615 mt 6255 4615 L
 899 4615 mt  899  389 L
 911 4615 mt  911 4561 L
 911  389 mt  911  442 L
%%IncludeResource: font Helvetica
/Helvetica /ISOLatin1Encoding 120 FMSR

 878 4760 mt 
(0) s
1761 4615 mt 1761 4561 L
1761  389 mt 1761  442 L
1695 4760 mt 
(20) s
2612 4615 mt 2612 4561 L
2612  389 mt 2612  442 L
2546 4760 mt 
(40) s
3463 4615 mt 3463 4561 L
3463  389 mt 3463  442 L
3397 4760 mt 
(60) s
4313 4615 mt 4313 4561 L
4313  389 mt 4313  442 L
4247 4760 mt 
(80) s
5164 4615 mt 5164 4561 L
5164  389 mt 5164  442 L
5064 4760 mt 
(100) s
6015 4615 mt 6015 4561 L
6015  389 mt 6015  442 L
5915 4760 mt 
(120) s
 899 4087 mt  952 4087 L
6255 4087 mt 6201 4087 L
 628 4131 mt 
(-0.2) s
 899 3407 mt  952 3407 L
6255 3407 mt 6201 3407 L
 798 3451 mt 
(0) s
 899 2728 mt  952 2728 L
6255 2728 mt 6201 2728 L
 698 2772 mt 
(0.2) s
 899 2048 mt  952 2048 L
6255 2048 mt 6201 2048 L
 698 2092 mt 
(0.4) s
 899 1369 mt  952 1369 L
6255 1369 mt 6201 1369 L
 698 1413 mt 
(0.6) s
 899  690 mt  952  690 L
6255  690 mt 6201  690 L
 698  734 mt 
(0.8) s
 899 4615 mt 6255 4615 L
 899  389 mt 6255  389 L
 899 4615 mt  899  389 L
6255 4615 mt 6255  389 L
gs 899 389 5357 4227 MR c np
/c8 { 0.000000 0.000000 1.000000 sr} bdef
c8
1 0 1 0 1 0 1 0 1 0 1 1 0 -22 1 0 
1 0 1 0 1 0 1 1 1 0 1 0 1 0 1 0 
1 0 1 1 1 0 1 -5 1 0 1 0 1 0 1 1 
1 0 1 0 1 0 1 0 1 1 1 0 1 0 1 0 
0 6 1 0 1 0 1 0 1 0 1 1 1 0 1 0 
1 0 1 0 1 1 1 0 1 0 1 0 0 -22 1 1 
1 0 1 0 1 0 1 0 1 0 1 1 1 0 1 0 
1 0 1 0 1 1 1 0 0 10 1 0 1 0 1 0 
1 1 1 0 1 0 1 0 1 0 1 1 1 0 1 0 
1 0 1 -56 1 0 1 0 1 1 1 0 1 0 1 0 
1 0 1 1 1 0 1 0 1 0 1 0 1 -41 1 0 
1 1 1 0 1 0 1 0 1 0 1 0 1 1 1 0 
1 0 1 0 1 0 6161 3529 100 MP stroke
0 43 1 0 1 0 1 0 1 1 1 0 1 0 1 0 
1 0 1 0 1 1 1 0 1 0 1 0 0 19 1 0 
1 0 1 1 1 0 1 0 1 0 1 0 1 1 1 0 
1 0 1 0 1 0 1 -6 1 1 1 0 1 0 1 0 
1 0 1 1 1 0 1 0 1 0 1 0 1 0 1 1 
0 -54 1 0 1 0 1 0 1 0 1 0 1 1 1 0 
1 0 1 0 1 0 1 1 1 0 0 -40 1 0 1 0 
1 0 1 0 1 0 1 0 1 1 1 0 1 0 1 0 
1 0 1 1 1 10 1 0 1 0 1 1 1 0 1 0 
1 0 1 0 1 0 1 1 1 0 1 0 1 0 0 8 
1 0 1 1 1 0 1 0 1 0 1 0 1 1 1 0 
1 0 1 0 1 0 1 0 0 1 0 -1 1 -23 1 0 
1 1 1 0 1 0 6069 3556 100 MP stroke
1 0 1 0 1 0 1 1 1 0 1 0 1 0 1 58 
1 0 1 0 1 0 1 0 1 0 1 1 1 0 1 0 
1 0 1 0 1 1 1 0 1 -1 1 1 1 0 1 0 
1 0 1 0 1 1 1 0 1 0 1 0 1 0 1 1 
0 -31 1 0 1 0 1 0 1 0 1 1 1 0 1 0 
1 0 1 0 1 1 1 0 1 0 1 -21 1 0 1 1 
1 0 1 0 1 0 1 0 1 1 1 0 1 0 1 0 
1 0 1 0 0 9 1 0 1 1 1 0 1 0 1 0 
1 0 1 0 1 1 1 0 1 0 1 0 1 0 0 -17 
1 0 1 0 1 0 1 0 1 1 1 0 1 0 1 0 
1 0 1 1 1 0 1 0 1 -17 1 0 1 0 1 0 
1 0 1 1 1 0 1 0 1 0 1 0 1 0 1 1 
1 0 0 17 1 0 5974 3543 100 MP stroke
1 0 1 0 1 0 1 1 1 0 1 0 1 0 1 0 
1 0 1 1 1 0 0 25 1 0 1 0 1 0 1 1 
1 0 1 0 1 0 1 0 1 0 1 1 1 0 1 0 
1 5 1 0 1 0 1 1 1 0 1 0 1 0 1 0 
1 1 1 0 1 0 1 0 1 0 0 32 1 0 1 0 
1 0 1 0 1 0 1 1 1 0 1 0 1 0 1 0 
1 0 1 1 0 -38 1 0 1 0 1 0 1 0 1 0 
1 0 1 1 1 0 1 0 1 0 1 0 1 0 -1 0 
2 45 1 0 1 0 1 0 1 0 1 0 1 1 1 0 
1 0 1 0 1 0 1 1 1 0 0 -29 1 0 1 1 
1 0 1 0 1 0 1 0 1 0 1 1 1 0 1 0 
1 0 1 0 0 -47 1 0 1 0 1 1 1 0 1 0 
1 0 1 0 1 0 5881 3536 100 MP stroke
1 1 1 0 1 0 1 0 1 3 1 0 1 0 1 0 
1 0 1 0 1 1 1 0 1 0 1 0 1 0 1 1 
1 0 0 22 1 0 1 0 1 1 1 0 1 0 1 0 
1 0 1 1 1 0 1 0 1 0 1 0 1 13 1 0 
1 0 1 0 1 1 1 0 1 0 1 0 1 0 1 0 
1 1 1 0 1 -23 1 0 1 0 1 0 1 0 1 0 
1 1 1 0 1 0 1 0 1 0 1 0 1 1 0 10 
1 0 1 0 1 0 1 1 1 0 1 0 1 0 1 0 
1 0 1 1 1 0 1 0 1 -37 1 0 1 0 1 1 
1 0 1 0 1 0 1 0 1 0 1 1 1 0 1 0 
1 25 1 0 1 0 1 0 1 0 1 0 1 1 1 0 
1 0 1 0 1 0 1 0 1 1 0 -18 1 0 1 0 
1 0 1 1 1 0 5785 3525 100 MP stroke
1 0 1 0 1 0 1 0 1 1 1 0 1 0 1 -16 
1 0 1 0 1 0 1 1 1 0 1 0 1 0 1 0 
1 1 1 0 1 0 1 -9 1 0 1 0 1 0 1 1 
1 0 1 0 1 0 1 0 1 0 1 1 1 0 1 0 
0 -49 1 0 1 0 1 0 1 0 1 0 1 1 1 0 
1 0 1 0 1 0 1 0 1 1 1 45 1 0 1 0 
1 0 1 0 1 1 1 0 1 0 1 0 1 0 1 0 
1 1 1 -26 1 1 1 0 1 0 1 0 1 0 1 0 
1 1 1 0 1 0 1 0 1 0 1 0 0 40 1 0 
1 1 1 0 1 0 1 0 1 0 1 0 1 1 1 0 
1 0 1 0 1 0 1 -16 1 0 1 0 1 0 1 1 
1 0 1 0 1 0 1 0 1 0 1 1 1 0 1 -1 
1 0 1 1 1 0 5688 3541 100 MP stroke
1 0 1 0 1 0 1 0 1 1 1 0 1 0 1 0 
1 0 0 10 1 1 1 0 1 0 1 0 1 0 1 0 
1 1 1 0 1 0 1 0 1 0 1 0 1 15 1 1 
1 0 1 0 1 0 1 0 1 0 1 1 1 0 1 0 
1 0 1 0 1 -34 1 0 1 0 1 0 1 0 1 0 
1 1 1 0 1 0 1 0 1 0 1 0 1 1 0 41 
1 0 1 0 1 1 1 0 1 0 1 0 1 0 1 0 
1 1 1 0 1 0 1 0 1 6 1 1 1 0 1 0 
1 0 1 0 1 0 1 1 1 0 1 0 1 0 1 0 
1 -16 1 0 1 0 1 0 1 0 1 1 1 0 1 0 
1 0 1 0 1 0 1 1 1 0 0 44 1 0 1 0 
1 1 1 0 1 0 1 0 1 0 1 0 1 1 1 0 
1 0 1 0 1 -20 5592 3480 100 MP stroke
1 1 1 0 1 0 1 0 1 0 1 1 1 0 1 0 
1 0 1 0 1 0 1 -57 1 1 1 0 1 0 1 0 
1 0 1 0 1 1 1 0 1 0 1 0 1 0 1 0 
0 58 1 0 1 0 1 1 1 0 1 0 1 0 1 0 
1 0 1 1 1 0 1 0 1 0 1 -23 1 0 1 0 
1 1 1 0 1 0 1 0 1 0 1 0 1 1 1 0 
1 0 1 -20 1 1 1 0 1 0 1 0 1 0 1 0 
1 1 1 0 1 0 1 0 1 0 1 0 0 6 1 0 
1 0 1 0 1 0 1 1 1 0 1 0 1 0 1 0 
1 0 1 1 1 0 1 7 1 0 1 0 1 0 1 0 
1 0 1 1 1 0 1 0 1 0 1 0 1 0 -1 0 
2 47 1 0 1 1 1 0 1 0 1 0 1 0 1 0 
1 1 1 0 1 0 5496 3447 100 MP stroke
1 0 1 0 0 -16 1 0 1 0 1 0 1 1 1 0 
1 0 1 0 1 0 1 0 1 1 1 0 1 0 1 -72 
1 1 1 0 1 0 1 0 1 0 1 0 1 1 1 0 
1 0 1 0 1 0 1 14 1 0 1 0 1 0 1 0 
1 0 1 0 1 1 1 0 1 0 1 0 1 0 1 0 
0 4 1 1 1 0 1 0 1 0 1 0 1 0 1 1 
1 0 1 0 1 0 1 0 1 0 1 -14 1 0 1 0 
1 0 1 1 1 0 1 0 1 0 1 0 1 1 1 0 
1 0 1 21 1 0 1 0 1 0 1 0 1 0 1 1 
1 0 1 0 1 0 1 0 1 0 1 1 0 15 1 0 
1 0 1 0 1 0 1 1 1 0 1 0 1 0 1 0 
1 0 1 1 1 0 1 -22 1 0 1 0 1 1 1 0 
1 0 1 0 1 0 5400 3503 100 MP stroke
1 0 1 1 1 0 1 0 1 35 1 0 1 0 1 0 
1 1 1 0 1 0 1 0 1 0 1 0 1 1 1 0 
1 0 0 17 1 0 1 0 1 0 1 1 1 0 1 0 
1 0 1 0 1 0 1 0 1 1 1 0 1 -1 1 0 
1 0 1 0 1 1 1 0 1 0 1 0 1 0 1 0 
1 1 1 0 0 16 1 0 1 0 1 0 1 1 1 0 
1 0 1 0 1 0 1 0 1 1 1 0 1 0 0 -10 
1 0 1 0 1 0 1 0 1 0 1 1 1 0 1 0 
1 0 1 0 1 0 1 1 0 -14 1 0 1 0 1 0 
1 0 1 0 1 1 1 0 1 0 1 0 1 0 1 0 
1 0 0 -79 1 0 1 1 1 0 1 0 1 0 1 0 
1 0 1 1 1 0 1 0 1 0 1 0 0 31 1 0 
1 0 1 0 1 0 5307 3494 100 MP stroke
1 1 1 0 1 0 1 0 1 0 1 0 1 0 1 1 
0 -55 1 1 1 0 1 0 1 0 1 0 1 0 1 0 
1 1 1 0 1 0 1 0 1 0 0 44 1 0 1 0 
1 0 1 0 1 1 1 0 1 0 1 0 1 0 1 0 
1 0 -1 0 2 -18 1 0 1 0 1 0 1 0 1 1 
1 0 1 0 1 0 1 0 1 0 1 1 1 19 1 0 
1 0 1 0 1 1 1 0 1 0 1 0 1 0 1 0 
1 0 1 1 1 -29 1 0 1 0 1 1 1 0 1 0 
1 0 1 0 1 0 1 1 1 0 1 0 1 -7 1 0 
1 0 1 0 1 0 1 0 1 1 1 0 1 0 1 0 
1 0 1 0 0 42 1 0 1 0 1 0 1 1 1 0 
1 0 1 0 1 0 1 0 1 1 1 0 1 0 0 -71 
1 0 1 0 1 1 5213 3554 100 MP stroke
1 0 1 0 1 0 1 0 1 0 1 1 1 0 1 0 
1 0 0 -22 1 0 1 0 1 0 1 0 1 0 1 1 
1 0 1 0 1 0 1 0 1 0 1 1 0 -15 1 0 
1 1 1 0 1 0 1 0 1 0 1 0 1 0 1 1 
1 0 1 0 1 0 0 68 1 0 1 1 1 0 1 0 
1 0 1 0 1 0 1 1 1 0 1 0 1 0 1 0 
0 25 1 0 1 0 1 0 1 0 1 0 1 0 1 1 
1 0 1 0 1 0 1 0 1 0 0 -34 1 0 1 0 
1 0 1 0 1 0 1 1 1 0 1 0 1 0 1 0 
1 0 1 -61 1 0 1 1 1 0 1 0 1 0 1 0 
1 0 1 0 1 1 1 0 1 0 1 16 1 0 1 0 
1 0 1 1 1 0 1 0 1 0 1 0 1 0 1 1 
1 0 1 0 1 0 5119 3564 100 MP stroke
1 0 1 0 1 0 1 0 1 1 1 0 1 0 1 0 
1 0 1 0 1 41 1 0 1 0 1 0 1 0 1 0 
1 0 1 1 1 0 1 0 1 0 1 0 0 9 1 0 
1 0 1 0 1 0 1 0 1 0 1 1 1 0 1 0 
1 0 1 0 1 0 0 16 1 1 1 0 1 0 1 0 
1 0 1 0 1 0 1 1 1 0 1 0 1 0 1 0 
0 9 1 0 1 0 1 1 1 0 1 0 1 0 1 0 
1 0 1 0 1 1 1 0 1 0 0 49 1 0 1 1 
1 0 1 0 1 0 1 0 1 0 1 1 1 0 1 0 
1 0 1 0 0 45 1 0 1 0 1 0 1 0 1 0 
1 0 1 1 1 0 1 0 1 0 1 0 1 0 0 -67 
1 0 1 0 1 0 1 1 1 0 1 0 1 0 1 0 
1 0 1 0 1 1 5026 3450 100 MP stroke
1 0 0 10 1 0 1 0 1 0 1 0 1 1 1 0 
1 0 1 0 1 0 1 0 1 0 -1 0 2 -22 1 0 
1 0 1 1 1 0 1 0 1 0 1 0 1 0 1 0 
1 1 1 0 1 -7 1 0 1 0 1 0 1 0 1 0 
1 1 1 0 1 0 1 0 1 0 1 0 1 -39 1 0 
1 1 1 0 1 0 1 0 1 0 1 0 1 0 1 1 
1 0 1 0 1 -45 1 0 1 0 1 0 1 0 1 0 
1 0 1 1 1 0 1 0 1 0 1 0 0 -14 1 0 
1 1 1 0 1 0 1 0 1 0 1 0 1 0 1 1 
1 0 1 0 1 0 0 -48 1 0 1 1 1 0 1 0 
1 0 1 0 1 0 1 0 1 1 1 0 1 0 1 0 
0 2 1 0 1 0 1 1 1 0 1 0 1 0 1 0 
1 0 1 0 1 1 4932 3600 100 MP stroke
1 0 1 0 0 -30 1 0 1 0 1 1 1 0 1 0 
1 0 1 0 1 0 1 0 1 1 1 0 1 0 0 -3 
1 0 1 0 1 0 1 0 1 1 1 0 1 0 1 0 
1 0 1 0 1 0 1 0 0 34 1 0 1 0 1 0 
1 1 1 0 1 0 1 0 1 0 1 0 1 1 1 0 
1 0 0 58 1 0 1 0 1 0 1 0 1 1 1 0 
1 0 1 0 1 0 1 0 1 0 -1 0 2 42 1 0 
1 0 1 1 1 0 1 0 1 0 1 0 1 0 1 0 
1 1 1 0 1 5 1 0 1 0 1 1 1 0 1 0 
1 0 1 0 1 0 1 0 1 1 1 0 1 -14 1 0 
1 1 1 0 1 0 1 0 1 0 1 0 1 0 1 1 
1 0 1 0 1 -48 1 0 1 0 1 1 1 0 1 0 
1 0 1 0 1 0 4838 3543 100 MP stroke
1 0 1 1 1 0 1 35 1 1 1 0 1 0 1 0 
1 0 1 0 1 0 1 1 1 0 1 0 1 0 0 18 
1 0 1 0 1 0 1 0 1 0 1 1 1 0 1 0 
1 0 1 0 1 0 1 0 0 -4 1 1 1 0 1 0 
1 0 1 0 1 0 1 0 1 0 1 1 1 0 1 0 
1 0 0 14 1 0 1 0 1 0 1 0 1 0 1 0 
1 1 1 0 1 0 1 0 1 0 1 0 0 -11 1 0 
1 0 1 0 1 0 1 1 1 0 1 0 1 0 1 0 
1 0 1 0 1 1 0 -34 1 0 1 0 1 0 1 0 
1 0 1 0 1 1 1 0 1 0 1 0 1 0 1 0 
0 -6 1 0 1 0 1 1 1 0 1 0 1 0 1 0 
1 0 1 0 1 1 1 0 1 7 1 0 1 0 1 0 
1 0 1 0 1 1 4745 3511 100 MP stroke
1 0 1 0 1 0 1 0 1 0 1 25 1 0 1 1 
1 0 1 0 1 0 1 0 1 0 1 0 1 1 1 0 
1 0 1 15 1 0 1 0 1 0 1 1 1 0 1 0 
1 0 1 0 1 0 1 0 1 1 1 -10 1 1 1 0 
1 0 1 0 1 0 1 0 1 0 1 1 1 0 1 0 
1 0 1 3 1 0 1 0 1 0 1 0 1 0 1 0 
1 1 1 0 1 0 1 0 1 0 0 -12 1 0 1 0 
1 0 1 0 1 0 1 0 1 0 1 1 1 0 1 0 
1 0 1 0 0 34 1 0 1 0 1 0 1 0 1 0 
1 0 1 1 1 0 1 0 1 0 1 0 1 0 0 -87 
1 0 1 0 1 0 1 1 1 0 1 0 1 0 1 0 
1 0 1 0 1 1 1 0 0 30 1 0 1 0 1 0 
1 0 1 1 1 0 4650 3501 100 MP stroke
1 0 1 0 1 0 1 0 1 0 1 0 0 75 1 0 
1 0 1 1 1 0 1 0 1 0 1 0 1 0 1 0 
1 1 1 0 1 0 0 -31 1 0 1 0 1 0 1 0 
1 0 1 0 1 0 1 1 1 0 1 0 1 0 1 -80 
1 0 1 0 1 0 1 0 1 0 1 0 1 1 1 0 
1 0 1 0 1 0 0 45 1 0 1 0 1 0 1 1 
1 0 1 0 1 0 1 0 1 0 1 0 1 0 -1 0 
2 -66 1 0 1 0 1 1 1 0 1 0 1 0 1 0 
1 0 1 0 1 0 1 1 0 15 1 0 1 0 1 0 
1 0 1 0 1 0 1 1 1 0 1 0 1 0 1 0 
1 12 1 0 1 1 1 0 1 0 1 0 1 0 1 0 
1 0 1 1 1 0 1 0 0 9 1 0 1 0 1 0 
1 0 1 0 1 0 4557 3512 100 MP stroke
1 1 1 0 1 0 1 0 1 0 1 -28 1 0 1 0 
1 0 1 0 1 1 1 0 1 0 1 0 1 0 1 0 
1 0 0 -15 1 0 1 0 1 0 1 0 1 0 1 1 
1 0 1 0 1 0 1 0 1 0 1 -54 1 0 1 0 
1 0 1 1 1 0 1 0 1 0 1 0 1 0 1 0 
1 0 0 17 1 0 1 1 1 0 1 0 1 0 1 0 
1 0 1 0 1 1 1 0 1 0 1 16 1 0 1 0 
1 1 1 0 1 0 1 0 1 0 1 0 1 0 1 0 
1 1 0 -17 1 0 1 0 1 0 1 1 1 0 1 0 
1 0 1 0 1 0 1 0 1 1 1 16 1 0 1 0 
1 1 1 0 1 0 1 0 1 0 1 0 1 0 1 0 
1 1 0 31 1 0 1 1 1 0 1 0 1 0 1 0 
1 0 1 0 1 1 4462 3532 100 MP stroke
1 0 1 0 1 6 1 0 1 1 1 0 1 0 1 0 
1 0 1 0 1 0 1 0 1 1 1 0 0 -22 1 0 
1 1 1 0 1 0 1 0 1 0 1 0 1 0 1 0 
1 1 1 0 1 3 1 0 1 0 1 0 1 1 1 0 
1 0 1 0 1 0 1 0 1 0 1 1 0 22 1 0 
1 0 1 0 1 0 1 0 1 0 1 1 1 0 1 0 
1 0 1 0 1 -61 1 0 1 0 1 1 1 0 1 0 
1 0 1 0 1 0 1 0 1 0 1 1 0 13 1 0 
1 0 1 1 1 0 1 0 1 0 1 0 1 0 1 0 
1 0 1 1 1 -8 1 0 1 0 1 1 1 0 1 0 
1 0 1 0 1 0 1 0 1 0 1 1 0 26 1 0 
1 0 1 0 1 0 1 0 1 0 1 0 1 0 1 1 
1 0 1 0 1 -13 4367 3552 100 MP stroke
1 1 1 0 1 0 1 0 1 0 1 0 1 0 1 0 
1 1 1 0 1 0 0 21 1 0 1 0 1 1 1 0 
1 0 1 0 1 0 1 0 1 0 1 0 1 1 1 -21 
1 0 1 0 1 0 1 1 1 0 1 0 1 0 1 0 
1 0 1 0 1 0 0 54 1 1 1 0 1 0 1 0 
1 0 1 0 1 0 1 0 1 1 1 0 1 0 0 15 
1 0 1 0 1 0 1 1 1 0 1 0 1 0 1 0 
1 0 1 0 1 0 1 1 0 19 1 0 1 0 1 0 
1 0 1 0 1 1 1 0 1 0 1 0 1 0 1 0 
0 -91 1 0 1 0 1 0 1 1 1 0 1 0 1 0 
1 0 1 0 1 0 1 0 -1 0 2 -8 1 1 1 0 
1 0 1 0 1 0 1 0 1 0 1 0 1 1 1 0 
1 0 0 44 1 1 4275 3505 100 MP stroke
1 0 1 0 1 0 1 0 1 0 1 0 1 0 1 1 
1 0 1 0 1 -23 1 0 1 0 1 0 1 0 1 0 
1 1 1 0 1 0 1 0 1 0 1 0 0 -23 1 0 
1 0 1 0 1 0 1 0 1 1 1 0 1 0 1 0 
1 0 1 0 1 -28 1 0 1 0 1 0 1 0 1 0 
1 1 1 0 1 0 1 0 1 0 1 0 0 61 1 0 
1 0 1 0 1 0 1 0 1 0 1 0 1 0 1 1 
1 0 1 0 1 -23 1 0 1 0 1 0 1 0 1 0 
1 0 1 1 1 0 1 0 1 0 1 0 0 37 1 0 
1 0 1 0 1 0 1 1 1 0 1 0 1 0 1 0 
1 0 1 0 1 7 1 0 1 1 1 0 1 0 1 0 
1 0 1 0 1 0 1 0 1 0 1 1 0 12 1 0 
1 0 1 0 1 1 4180 3475 100 MP stroke
1 0 1 0 1 0 1 0 1 0 1 0 1 0 1 -5 
1 0 1 0 1 0 1 0 1 0 1 0 1 1 1 0 
1 0 1 0 1 0 0 22 1 0 1 0 1 1 1 0 
1 0 1 0 1 0 1 0 1 0 1 0 1 1 1 -49 
1 0 1 0 1 0 1 0 1 1 1 0 1 0 1 0 
1 0 1 0 1 0 0 4 1 0 1 0 1 1 1 0 
1 0 1 0 1 0 1 0 1 0 1 0 1 1 1 -12 
1 0 1 0 1 1 1 0 1 0 1 0 1 0 1 0 
1 0 1 0 1 1 0 68 1 0 1 0 1 0 1 0 
1 0 1 0 1 0 1 0 1 1 1 0 1 0 1 -19 
1 1 1 0 1 0 1 0 1 0 1 0 1 0 1 0 
1 1 1 0 1 0 0 28 1 0 1 0 1 0 1 1 
1 0 1 0 1 0 4085 3426 100 MP stroke
1 0 1 0 1 0 1 0 1 -129 1 0 1 1 1 0 
1 0 1 0 1 0 1 0 1 0 1 0 1 1 1 0 
0 45 1 0 1 0 1 0 1 0 1 0 1 1 1 0 
1 0 1 0 1 0 1 0 1 18 1 0 1 1 1 0 
1 0 1 0 1 0 1 0 1 0 1 0 1 0 1 1 
1 0 1 0 1 1 1 0 1 0 1 0 1 0 1 0 
1 0 1 0 1 0 -1 0 2 -67 1 0 1 0 1 0 
1 1 1 0 1 0 1 0 1 0 1 0 1 0 1 0 
0 -68 1 0 1 0 1 0 1 1 1 0 1 0 1 0 
1 0 1 0 1 0 1 0 1 18 1 0 1 0 1 0 
1 1 1 0 1 0 1 0 1 0 1 0 1 0 1 0 
0 44 1 0 1 0 1 1 1 0 1 0 1 0 1 0 
1 0 1 0 1 0 3990 3555 100 MP stroke
1 0 -1 0 2 19 1 0 1 0 1 0 1 0 1 0 
1 0 1 0 1 1 1 0 1 0 1 0 0 -14 1 0 
1 0 1 0 1 1 1 0 1 0 1 0 1 0 1 0 
1 0 1 0 0 2 1 0 1 0 1 0 1 0 1 0 
1 0 1 1 1 0 1 0 1 0 1 0 1 0 0 -19 
1 0 1 0 1 0 1 0 1 0 1 0 1 1 1 0 
1 0 1 0 1 0 0 6 1 0 1 0 1 0 1 0 
1 0 1 1 1 0 1 0 1 0 1 0 1 0 1 0 
0 10 1 1 1 0 1 0 1 0 1 0 1 0 1 0 
1 0 1 0 1 1 1 0 0 -34 1 0 1 0 1 1 
1 0 1 0 1 0 1 0 1 0 1 0 1 0 1 0 
1 84 1 1 1 0 1 0 1 0 1 0 1 0 1 0 
1 0 1 0 1 1 3898 3491 100 MP stroke
1 0 0 3 1 0 1 0 1 0 1 1 1 0 1 0 
1 0 1 0 1 0 1 0 1 0 1 -50 1 0 1 0 
1 0 1 0 1 0 1 0 1 1 1 0 1 0 1 0 
1 0 0 -2 1 0 1 1 1 0 1 0 1 0 1 0 
1 0 1 0 1 0 1 0 1 1 0 14 1 0 1 0 
1 1 1 0 1 0 1 0 1 0 1 0 1 0 1 0 
1 0 0 1 0 -1 1 54 1 0 1 0 1 0 1 0 
1 0 1 0 1 0 1 0 1 1 1 0 1 33 1 0 
1 0 1 0 1 0 1 0 1 1 1 0 1 0 1 0 
1 0 1 11 1 0 1 0 1 0 1 0 1 0 1 0 
1 0 1 0 1 1 1 0 1 -64 1 0 1 0 1 0 
1 0 1 0 1 1 1 0 1 0 1 0 1 0 1 -17 
1 0 1 1 1 0 3804 3499 100 MP stroke
1 0 1 0 1 0 1 0 1 0 1 0 1 0 1 -12 
1 0 1 0 1 0 1 1 1 0 1 0 1 0 1 0 
1 0 1 0 1 -12 1 0 1 0 1 0 1 0 1 0 
1 1 1 0 1 0 1 0 1 0 1 40 1 0 1 0 
1 0 1 0 1 0 1 0 1 0 1 0 1 1 1 0 
1 0 0 32 1 1 1 0 1 0 1 0 1 0 1 0 
1 0 1 0 1 0 1 0 1 1 0 -34 1 0 1 0 
1 0 1 0 1 0 1 0 1 1 1 0 1 0 1 0 
1 0 0 -71 1 0 1 0 1 0 1 1 1 0 1 0 
1 0 1 0 1 0 1 0 1 0 0 -25 1 0 1 0 
1 0 1 0 1 0 1 0 1 0 1 0 1 0 1 1 
1 0 0 -14 1 0 1 1 1 0 1 0 1 0 1 0 
1 0 1 0 1 0 3710 3586 100 MP stroke
1 0 1 0 0 -18 1 0 1 0 1 0 1 0 1 0 
1 0 1 0 1 1 1 0 1 0 1 0 0 -24 1 0 
1 0 1 0 1 0 1 0 1 0 1 0 1 0 1 0 
1 1 1 0 0 52 1 1 1 0 1 0 1 0 1 0 
1 0 1 0 1 0 1 0 1 0 1 1 0 7 1 1 
1 0 1 0 1 0 1 0 1 0 1 0 1 0 1 0 
1 0 1 1 0 88 1 0 1 0 1 0 1 0 1 0 
1 1 1 0 1 0 1 0 1 0 1 0 1 -18 1 0 
1 0 1 1 1 0 1 0 1 0 1 0 1 0 1 0 
1 0 1 -11 1 1 1 0 1 0 1 0 1 0 1 0 
1 0 1 0 1 0 1 1 1 -22 1 1 1 0 1 0 
1 0 1 0 1 0 1 0 1 0 1 0 1 1 1 23 
1 0 1 0 1 0 3616 3497 100 MP stroke
1 0 1 1 1 0 1 0 1 0 1 0 1 0 1 -56 
1 1 1 0 1 0 1 0 1 0 1 0 1 0 1 0 
1 0 1 0 -1 0 2 -63 1 0 1 0 1 0 1 0 
1 0 1 0 1 1 1 0 1 0 1 0 1 16 1 0 
1 0 1 0 1 0 1 0 1 0 1 0 1 1 1 0 
1 0 1 0 0 -22 1 0 1 1 1 0 1 0 1 0 
1 0 1 0 1 0 1 0 1 0 1 0 0 64 1 0 
1 0 1 0 1 0 1 0 1 0 1 0 1 1 1 0 
1 0 1 0 0 78 1 0 1 0 1 0 1 0 1 0 
1 0 1 0 1 0 1 0 1 1 1 0 0 -5 1 0 
1 0 1 0 1 1 1 0 1 0 1 0 1 0 1 0 
1 0 1 0 0 -21 1 0 1 0 1 0 1 0 1 1 
1 0 1 0 1 0 3523 3497 100 MP stroke
1 0 1 0 1 0 0 -30 1 0 1 0 1 0 1 0 
1 0 1 1 1 0 1 0 1 0 1 0 1 0 0 -44 
1 0 1 0 1 1 1 0 1 0 1 0 1 0 1 0 
1 0 1 0 1 0 0 25 1 0 1 1 1 0 1 0 
1 0 1 0 1 0 1 0 1 0 1 0 1 0 0 33 
1 0 1 0 1 0 1 0 1 1 1 0 1 0 1 0 
1 0 1 0 1 0 0 85 1 0 1 0 1 0 1 0 
1 0 1 0 1 0 1 1 1 0 1 0 1 0 1 -17 
1 0 1 0 1 1 1 0 1 0 1 0 1 0 1 0 
1 0 1 0 1 -56 1 1 1 0 1 0 1 0 1 0 
1 0 1 0 1 0 1 0 1 0 1 -1 1 0 1 0 
1 0 1 1 1 0 1 0 1 0 1 0 1 0 1 0 
1 4 1 0 1 0 3429 3490 100 MP stroke
1 0 1 0 1 0 1 0 1 0 1 0 1 1 1 0 
1 33 1 0 1 0 1 0 1 0 1 0 1 0 1 1 
1 0 1 0 1 0 1 -15 1 0 1 0 1 0 1 0 
1 0 1 1 1 0 1 0 1 0 1 0 1 25 1 0 
1 1 1 0 1 0 1 0 1 0 1 0 1 0 1 0 
1 0 1 0 0 -42 1 0 1 0 1 0 1 0 1 1 
1 0 1 0 1 0 1 0 1 0 1 0 0 -26 1 1 
1 0 1 0 1 0 1 0 1 0 1 0 1 0 1 0 
1 0 1 0 0 35 1 0 1 0 1 0 1 0 1 0 
1 1 1 0 1 0 1 0 1 0 1 0 0 -8 1 0 
1 0 1 0 1 0 1 0 1 0 1 0 1 0 1 0 
1 0 1 1 0 -26 1 0 1 0 1 0 1 0 1 0 
1 0 1 0 1 0 3335 3506 100 MP stroke
1 0 1 0 1 1 0 -25 1 0 1 0 1 0 1 0 
1 0 1 0 1 0 1 1 1 0 1 0 1 0 0 -2 
1 0 1 0 1 0 1 0 1 0 1 0 1 0 1 1 
1 0 1 0 1 0 0 7 1 0 1 0 1 0 1 0 
1 0 1 0 1 0 1 0 1 0 1 0 1 0 0 3 
1 0 1 0 1 1 1 0 1 0 1 0 1 0 1 0 
1 0 1 0 1 0 0 -19 1 0 1 0 1 0 1 0 
1 0 1 0 1 0 1 0 1 0 1 0 1 0 -1 0 
2 2 1 0 1 0 1 0 1 1 1 0 1 0 1 0 
1 0 1 0 1 0 1 -36 1 0 1 0 1 0 1 1 
1 0 1 0 1 0 1 0 1 0 1 0 1 5 1 0 
1 0 1 0 1 0 1 0 1 0 1 0 1 0 1 0 
1 1 1 -15 1 0 3242 3579 100 MP stroke
1 0 1 0 1 0 1 0 1 0 1 1 1 0 1 0 
1 0 1 52 1 0 1 0 1 1 1 0 1 0 1 0 
1 0 1 0 1 0 1 0 1 33 1 0 1 0 1 0 
1 0 1 0 1 0 1 0 1 0 1 0 1 0 1 -46 
1 0 1 0 1 1 1 0 1 0 1 0 1 0 1 0 
1 0 1 0 1 0 0 -6 1 1 1 0 1 0 1 0 
1 0 1 0 1 0 1 0 1 0 1 0 1 0 0 -3 
1 0 1 1 1 0 1 0 1 0 1 0 1 0 1 0 
1 0 1 0 1 0 0 44 1 0 1 0 1 0 1 0 
1 0 1 0 1 0 1 0 1 0 1 0 1 0 0 24 
1 0 1 0 1 0 1 0 1 1 1 0 1 0 1 0 
1 0 1 0 1 0 0 -22 1 0 1 0 1 0 1 0 
1 0 1 0 1 0 3148 3497 100 MP stroke
1 0 1 0 1 0 1 1 1 1 1 0 1 1 1 0 
1 0 1 0 1 0 1 0 1 0 1 0 1 0 0 34 
1 0 1 0 1 0 1 0 1 0 1 0 1 0 1 0 
1 1 1 0 1 0 0 -47 1 0 1 0 1 0 1 0 
1 0 1 0 1 1 1 0 1 0 1 0 1 0 0 -2 
1 0 1 0 1 0 1 1 1 0 1 0 1 0 1 0 
1 0 1 0 1 -63 1 0 1 0 1 0 1 0 1 0 
1 0 1 0 1 0 1 0 1 1 0 -8 1 0 1 0 
1 1 1 0 1 0 1 0 1 0 1 0 1 0 1 0 
1 -17 1 0 1 0 1 0 1 0 1 0 1 0 1 0 
1 0 1 0 1 0 -1 0 2 29 1 0 1 0 1 0 
1 0 1 0 1 0 1 1 1 0 1 0 1 0 0 -14 
1 0 1 0 1 0 3055 3576 100 MP stroke
1 0 1 0 1 0 1 0 1 0 1 0 1 0 1 14 
1 0 1 0 1 0 1 0 1 0 1 0 1 1 1 0 
1 0 1 0 0 51 1 0 1 0 1 0 1 0 1 0 
1 0 1 0 1 0 1 0 1 0 1 0 0 -23 1 0 
1 0 1 0 1 0 1 0 1 0 1 0 1 1 1 0 
1 0 1 0 1 0 1 0 1 0 1 1 1 0 1 0 
1 0 1 0 1 0 1 0 0 -36 1 0 1 0 1 0 
1 0 1 0 1 0 1 0 1 0 1 0 1 0 1 0 
0 -53 1 0 1 0 1 0 1 0 1 0 1 0 1 0 
1 0 1 0 1 0 1 59 1 0 1 0 1 0 1 0 
1 0 1 1 1 0 1 0 1 0 1 0 0 30 1 0 
1 0 1 1 1 0 1 0 1 0 1 0 1 0 1 0 
1 0 1 -30 1 0 2961 3559 100 MP stroke
1 0 1 0 1 0 1 0 1 0 1 0 1 0 1 0 
1 0 1 45 1 0 1 0 1 0 1 0 1 0 1 0 
1 0 1 0 1 0 1 0 0 33 1 1 1 0 1 0 
1 0 1 0 1 0 1 0 1 0 1 0 1 0 1 11 
1 0 1 0 1 0 1 0 1 0 1 0 1 0 1 0 
1 0 1 0 0 -17 1 0 1 1 1 0 1 0 1 0 
1 0 1 0 1 0 1 0 1 0 1 0 0 9 1 0 
1 0 1 0 1 0 1 0 1 0 1 0 1 0 1 0 
1 0 1 -15 1 0 1 0 1 0 1 1 1 0 1 0 
1 0 1 0 1 0 1 0 1 0 1 0 1 0 1 0 
1 0 1 0 1 0 1 0 1 0 1 1 1 0 0 -38 
1 0 1 0 1 0 1 0 1 0 1 0 1 0 1 0 
1 0 1 0 -1 0 2868 3527 100 MP stroke
2 -44 1 0 1 0 1 0 1 0 1 1 1 0 1 0 
1 0 1 0 1 0 0 -9 1 0 1 0 1 0 1 0 
1 0 1 0 1 0 1 0 1 0 1 0 1 0 1 0 
1 0 1 0 1 0 1 0 1 0 1 0 1 0 1 1 
1 0 1 0 1 0 1 1 1 0 1 0 1 0 1 0 
1 0 1 0 1 0 1 0 0 -39 1 0 1 0 1 0 
1 0 1 0 1 0 1 0 1 0 1 0 1 0 -1 0 
2 40 1 0 1 0 1 0 1 0 1 0 1 0 1 1 
1 0 1 0 1 0 0 65 1 0 1 0 1 0 1 0 
1 0 1 0 1 0 1 0 1 0 1 0 1 0 0 4 
1 1 1 0 1 0 1 0 1 0 1 0 1 0 1 0 
1 0 1 0 1 41 1 1 1 0 1 0 1 0 1 0 
1 0 1 0 1 0 2773 3463 100 MP stroke
1 0 1 0 0 -27 1 0 1 0 1 1 1 0 1 0 
1 0 1 0 1 0 1 0 1 0 1 52 1 0 1 0 
1 0 1 0 1 0 1 0 1 0 1 0 1 0 1 1 
1 -29 1 0 1 0 1 0 1 0 1 0 1 0 1 0 
1 0 1 0 1 0 0 3 1 0 1 0 1 0 1 0 
1 0 1 0 1 1 1 0 1 0 1 0 1 9 1 0 
1 0 1 0 1 0 1 0 1 0 1 0 1 0 1 0 
1 0 0 -50 1 0 1 0 1 0 1 0 1 0 1 0 
1 0 1 0 1 0 1 1 1 0 0 -38 1 0 1 0 
1 0 1 0 1 0 1 0 1 1 1 0 1 0 1 0 
1 18 1 0 1 0 1 0 1 0 1 0 1 0 1 0 
1 1 1 0 1 0 1 1 1 0 1 0 1 0 1 0 
1 0 1 0 1 0 2678 3518 100 MP stroke
1 0 1 0 1 0 0 -7 1 0 1 0 1 0 1 0 
1 0 1 0 1 0 1 0 1 0 1 0 1 14 1 0 
1 0 1 0 1 0 1 0 1 0 1 0 1 0 1 0 
1 0 0 -39 1 0 1 0 1 0 1 0 1 1 1 0 
1 0 1 0 1 0 1 0 1 17 1 0 1 1 1 0 
1 0 1 0 1 0 1 0 1 0 1 0 1 0 1 -11 
1 0 1 0 1 0 1 0 1 0 1 0 1 0 1 0 
1 0 1 0 0 31 1 0 1 1 1 0 1 0 1 0 
1 0 1 0 1 0 1 0 1 0 1 20 1 0 1 0 
1 0 1 0 1 0 1 0 1 0 1 0 1 0 1 0 
0 -40 1 0 1 0 1 0 1 0 1 0 1 0 1 0 
1 0 1 1 1 0 1 0 0 48 1 0 1 0 1 0 
1 0 1 0 1 0 2584 3481 100 MP stroke
1 0 1 0 1 0 1 0 1 9 1 0 1 0 1 0 
1 0 1 0 1 0 1 0 1 0 1 0 1 0 0 -88 
1 0 1 0 1 0 1 0 1 0 1 0 1 0 1 1 
1 0 1 0 1 0 0 38 1 1 1 0 1 0 1 0 
1 0 1 0 1 0 1 0 1 0 1 0 1 -5 1 1 
1 0 1 0 1 0 1 0 1 0 1 0 1 0 1 0 
1 0 0 -2 1 0 1 0 1 0 1 0 1 0 1 0 
1 1 1 0 1 0 1 0 1 -26 1 0 1 0 1 0 
1 0 1 0 1 0 1 0 1 0 1 0 1 0 1 -1 
1 0 1 0 1 0 1 0 1 0 1 0 1 0 1 0 
1 1 1 0 0 -45 1 0 1 0 1 0 1 0 1 0 
1 0 1 0 1 0 1 0 1 1 1 -17 1 0 1 0 
1 0 1 0 1 0 2489 3612 100 MP stroke
1 0 1 0 1 0 1 0 1 0 0 23 1 1 1 0 
1 0 1 0 1 0 1 0 1 0 1 0 1 0 1 0 
1 0 0 -31 1 0 1 0 1 0 1 0 1 0 1 0 
1 0 1 0 1 1 1 0 1 17 1 0 1 0 1 0 
1 0 1 0 1 0 1 0 1 0 1 0 1 0 1 1 
1 0 1 0 1 0 1 0 1 0 1 0 1 0 1 0 
1 0 -1 0 2 -49 1 0 1 0 1 1 1 0 1 0 
1 0 1 0 1 0 1 0 1 0 1 91 1 0 1 0 
1 0 1 0 1 0 1 0 1 0 1 0 1 0 1 0 
0 21 1 0 1 0 1 0 1 0 1 0 1 0 1 0 
1 0 1 0 1 0 1 33 1 0 1 0 1 0 1 0 
1 0 1 0 1 0 1 0 1 1 1 0 0 22 1 0 
1 0 1 0 1 0 2395 3480 100 MP stroke
1 0 1 0 1 0 1 0 1 0 1 0 1 0 0 -34 
1 1 1 0 1 0 1 0 1 0 1 0 1 0 1 0 
1 0 1 0 1 -21 1 0 1 0 1 0 1 0 1 0 
1 0 1 0 1 0 1 0 1 0 0 45 1 0 1 0 
1 0 1 0 1 1 1 0 1 0 1 0 1 0 1 0 
1 0 0 -28 1 0 1 0 1 0 1 0 1 0 1 0 
1 0 1 0 1 0 1 0 0 -8 1 0 1 0 1 1 
1 0 1 0 1 0 1 0 1 0 1 0 1 0 0 -10 
1 0 1 0 1 0 1 0 1 0 1 0 1 0 1 0 
1 0 1 0 1 -14 1 0 1 0 1 0 1 0 1 0 
1 1 1 0 1 0 1 0 1 -10 1 0 1 0 1 0 
1 0 1 0 1 0 1 0 1 0 1 0 1 0 1 -1 
1 0 1 0 1 0 2301 3557 100 MP stroke
1 0 1 0 1 0 1 0 1 0 1 0 0 -21 1 0 
1 0 1 0 1 0 1 0 1 0 1 0 1 0 1 1 
1 0 0 59 1 1 1 0 1 0 1 0 1 0 1 0 
1 0 1 0 1 0 1 0 1 -70 1 1 1 0 1 0 
1 0 1 0 1 0 1 0 1 0 1 0 1 -63 1 0 
1 0 1 0 1 0 1 0 1 1 1 0 1 0 1 0 
1 0 0 8 1 0 1 0 1 0 1 0 1 0 1 0 
1 0 1 0 1 0 1 0 0 21 1 0 1 0 1 0 
1 0 1 0 1 0 1 0 1 0 1 0 1 0 0 32 
1 0 1 0 1 0 1 0 1 0 1 0 1 0 1 0 
1 0 1 0 1 70 1 0 1 0 1 0 1 0 1 0 
1 0 1 0 1 0 1 1 1 32 1 0 1 0 1 1 
1 0 1 0 1 0 2207 3483 100 MP stroke
1 0 1 0 1 0 1 0 0 6 1 0 1 0 1 0 
1 0 1 1 1 0 1 0 1 0 1 0 1 0 0 -7 
1 0 1 0 1 0 1 0 1 0 1 0 1 0 1 0 
1 0 1 0 -1 0 2 -5 1 0 1 0 1 0 1 0 
1 0 1 0 1 0 1 0 1 0 1 4 1 0 1 0 
1 0 1 0 1 0 1 0 1 1 1 0 1 0 1 0 
0 -8 1 0 1 0 1 0 1 1 1 0 1 0 1 0 
1 0 1 0 1 0 0 -67 1 0 1 0 1 0 1 0 
1 1 1 0 1 0 1 0 1 0 1 0 0 -35 1 0 
1 0 1 0 1 0 1 0 1 0 1 0 1 0 1 0 
1 0 1 22 1 0 1 0 1 0 1 0 1 0 1 0 
1 1 1 0 1 0 1 -2 1 0 1 0 1 0 1 0 
1 0 1 0 1 0 2114 3570 100 MP stroke
1 0 1 0 1 0 0 -10 1 0 1 0 1 0 1 0 
1 0 1 0 1 0 1 0 1 0 1 0 0 12 1 0 
1 1 1 0 1 0 1 0 1 0 1 0 1 0 1 0 
1 0 1 1 1 0 1 0 1 0 1 0 1 0 1 0 
1 1 1 0 1 0 1 0 1 0 1 0 1 0 1 0 
1 0 1 0 1 0 1 0 1 0 1 44 1 0 1 0 
1 0 1 0 1 0 1 0 1 0 1 0 1 0 1 0 
0 42 1 0 1 0 1 0 1 0 1 0 1 0 1 0 
1 0 1 1 1 0 0 56 1 0 1 0 1 0 1 0 
1 0 1 0 1 0 1 0 1 0 1 0 0 -19 1 0 
1 0 1 0 1 0 1 0 1 0 1 0 1 0 1 0 
1 0 1 -26 1 0 1 1 1 0 1 0 1 0 1 0 
1 0 1 0 1 0 2020 3466 100 MP stroke
1 -50 1 0 1 0 1 0 1 0 1 0 1 0 1 0 
1 0 1 0 1 0 0 -12 1 0 1 0 1 0 1 0 
1 0 1 0 1 0 1 1 1 0 1 0 0 -9 1 0 
1 0 1 0 1 0 1 0 1 0 1 0 1 0 1 0 
1 0 0 2 1 0 1 0 1 0 1 1 1 0 1 0 
1 0 1 0 1 0 1 0 1 21 1 0 1 0 1 0 
1 0 1 1 1 0 1 0 1 0 1 0 1 -9 1 0 
1 0 1 0 1 0 1 0 1 1 1 0 1 0 1 0 
1 0 0 32 1 0 1 0 1 0 1 0 1 0 1 0 
1 0 1 0 1 0 1 0 0 -49 1 0 1 0 1 0 
1 0 1 0 1 0 1 0 1 0 1 0 1 0 1 12 
1 0 1 0 1 0 1 0 1 1 1 0 1 0 1 0 
1 0 1 -60 1 0 1926 3583 100 MP stroke
1 0 1 0 1 0 1 0 1 0 1 0 1 0 1 0 
1 0 0 22 1 0 1 0 1 0 1 1 1 0 1 0 
1 0 1 0 1 0 1 0 0 9 1 0 1 0 1 0 
1 0 1 0 1 0 1 0 1 0 1 0 1 0 0 32 
1 0 1 0 1 0 1 0 1 0 1 1 1 0 1 0 
1 0 1 0 1 13 1 0 1 0 1 0 1 0 1 0 
1 0 1 0 1 0 1 0 1 8 1 0 1 0 1 0 
1 0 1 0 1 0 1 0 1 0 1 0 1 0 0 26 
1 0 1 0 1 0 1 0 1 0 1 0 1 0 1 0 
1 0 1 0 0 -27 1 0 1 0 1 0 1 0 1 0 
1 0 1 0 1 0 1 0 1 0 0 -59 1 0 1 0 
1 0 1 0 1 0 1 0 1 0 1 0 1 0 1 0 
1 -36 1 0 1 0 1833 3593 100 MP stroke
1 0 1 0 1 0 1 0 1 0 1 0 1 1 1 53 
1 0 1 0 1 0 1 0 1 0 1 0 1 0 1 0 
1 0 1 0 0 35 1 0 1 0 1 0 1 0 1 0 
1 0 1 0 1 0 1 0 1 0 0 -36 1 0 1 0 
1 0 1 0 1 0 1 0 1 0 1 0 1 0 1 0 
0 38 1 0 1 0 1 0 1 0 1 0 1 0 1 0 
1 0 1 0 1 0 1 30 1 0 1 0 1 0 1 0 
1 0 1 0 1 0 1 0 1 0 1 -8 1 0 1 0 
1 0 1 0 1 0 1 0 1 0 1 0 1 0 1 0 
0 -46 1 0 1 0 1 0 1 0 1 0 1 0 1 0 
1 0 1 0 1 0 0 52 1 0 1 0 1 0 1 0 
1 0 1 0 1 0 1 0 1 0 1 0 0 -30 1 0 
1 0 1 0 1 0 1740 3504 100 MP stroke
1 0 1 0 1 0 1 0 1 0 1 0 1 44 1 0 
1 0 1 0 1 0 1 0 1 0 1 0 1 0 1 0 
1 -9 1 0 1 0 1 0 1 0 1 0 1 0 1 0 
1 0 1 0 1 0 0 -27 1 0 1 1 1 0 1 0 
1 0 1 0 1 0 1 0 1 0 1 0 1 1 1 0 
1 0 1 0 1 0 1 0 1 0 1 0 1 0 1 0 
1 -15 1 0 1 0 1 0 1 0 1 0 1 0 1 0 
1 0 1 1 1 -6 1 0 1 0 1 0 1 0 1 0 
1 0 1 0 1 0 1 0 1 0 0 16 1 0 1 0 
1 0 1 0 1 0 1 0 1 0 1 0 1 0 1 0 
1 1 1 0 1 0 1 0 1 0 1 0 1 0 1 0 
1 0 1 0 0 -8 1 0 1 0 1 0 1 0 1 0 
1 0 1 0 1 0 1644 3505 100 MP stroke
1 0 1 0 1 -47 1 0 1 0 1 0 1 0 1 0 
1 1 1 0 1 0 1 0 1 -55 1 0 1 0 1 0 
1 0 1 0 1 0 1 0 1 0 1 0 1 0 0 38 
1 0 1 0 1 0 1 0 1 0 1 0 1 0 1 0 
1 0 1 0 0 -23 1 0 1 0 1 0 1 0 1 0 
1 0 1 1 1 0 1 0 1 0 0 40 1 0 1 0 
1 0 1 0 1 0 1 0 1 0 1 0 1 0 1 0 
1 -24 1 0 1 0 1 0 1 0 1 0 1 0 1 0 
1 0 1 0 1 4 1 0 1 0 1 0 1 0 1 0 
1 0 1 0 1 0 1 0 1 0 0 -23 1 0 1 0 
1 0 1 1 1 0 1 0 1 0 1 0 1 0 1 0 
0 14 1 0 1 1 1 0 1 0 1 0 1 0 1 0 
1 0 1 0 1 0 1550 3577 100 MP stroke
0 114 1 0 1 0 1 0 1 0 1 0 1 0 1 0 
1 0 1 0 1 -15 1 0 1 0 1 0 1 0 1 0 
1 0 1 0 1 0 1 0 1 -38 1 0 1 0 1 0 
1 0 1 0 1 0 1 0 1 0 1 0 0 -61 1 0 
1 0 1 0 1 0 1 0 1 0 1 0 1 0 1 0 
1 0 0 -15 1 0 1 0 1 0 1 0 1 0 1 0 
1 0 1 0 1 0 1 0 0 -41 1 0 1 0 1 0 
1 0 1 0 1 0 1 0 1 0 1 0 1 -14 1 0 
1 0 1 0 1 0 1 0 1 1 1 0 1 0 1 0 
1 99 1 0 1 0 1 0 1 0 1 0 1 0 1 0 
1 0 1 0 0 16 1 0 1 0 1 0 1 0 1 0 
1 0 1 0 1 0 1 0 1 0 0 55 1 1 1 0 
1 0 1 0 1 0 1457 3475 100 MP stroke
1 0 1 0 1 0 1 0 1 23 1 0 1 0 1 0 
1 0 1 0 1 0 1 0 1 0 1 0 1 -76 1 0 
1 0 1 0 1 0 1 0 1 0 1 0 1 0 1 0 
0 -35 1 0 1 0 1 0 1 0 1 0 1 0 1 0 
1 0 1 0 1 0 1 1 1 0 1 0 1 0 1 0 
1 0 1 0 1 0 1 0 1 0 0 57 1 0 1 0 
1 0 1 0 1 0 1 0 1 0 1 0 1 0 1 -34 
1 0 1 0 1 0 1 0 1 0 1 0 1 0 1 0 
1 0 1 21 1 0 1 0 1 0 1 0 1 0 1 0 
1 0 1 0 1 0 0 -11 1 0 1 0 1 0 1 0 
1 0 1 0 1 0 1 0 1 0 1 0 0 -30 1 0 
1 0 1 0 1 0 1 0 1 1 1 0 1 0 1 0 
1 -17 1 0 1 0 1362 3575 100 MP stroke
1 0 1 0 1 0 1 0 1 0 1 0 1 0 1 30 
1 0 1 0 1 0 1 0 1 0 1 0 1 0 1 0 
1 0 0 34 1 0 1 0 1 0 1 0 1 0 1 0 
1 0 1 0 1 0 1 0 0 -39 1 0 1 0 1 0 
1 0 1 0 1 0 1 1 1 0 1 0 1 0 0 -21 
1 0 1 0 1 0 1 0 1 0 1 0 1 0 1 0 
1 0 1 -6 1 0 1 0 1 0 1 0 1 0 1 0 
1 0 1 0 1 0 1 16 1 0 1 0 1 0 1 0 
1 0 1 0 1 0 1 0 1 0 0 29 1 0 1 0 
1 0 1 0 1 0 1 0 1 0 1 0 1 0 1 0 
0 56 1 0 1 0 1 0 1 0 1 0 1 0 1 0 
1 0 1 0 1 0 0 -40 1 0 1 0 1 0 1 0 
1 0 1 0 1 0 1269 3515 100 MP stroke
1 0 1 0 1 -73 1 0 1 0 1 0 1 0 1 0 
1 0 1 0 1 0 1 0 1 8 1 0 1 0 1 0 
1 0 1 0 1 0 1 0 1 0 1 0 0 -35 1 0 
1 0 1 0 1 0 1 0 1 0 1 0 1 0 1 0 
1 0 0 8 1 0 1 0 1 0 1 0 1 0 1 0 
1 0 1 0 1 0 1 33 1 0 1 0 1 0 1 0 
1 0 1 0 1 0 1 0 1 0 1 10 1 0 1 0 
1 0 1 0 1 0 1 0 1 0 1 0 1 0 0 33 
1 0 1 0 1 0 1 0 1 0 1 0 1 0 1 0 
1 0 1 0 0 12 1 0 1 0 1 0 1 0 1 0 
1 0 1 0 1 0 1 0 1 1 0 63 1 0 1 0 
1 0 1 0 1 0 1 0 1 0 1 0 1 0 1 -16 
1 0 1 0 1 0 1175 3471 100 MP stroke
1 0 1 0 1 0 1 0 1 0 1 0 1 83 1 0 
1 0 1 0 1 0 1 0 1 0 1 0 1 0 1 0 
0 88 1 0 1 0 1 0 1 0 1 0 1 0 1 0 
1 0 1 0 1 0 0 49 1 0 1 0 1 0 1 0 
1 0 1 0 1 0 1 0 1 0 1 55 1 0 1 0 
1 0 1 0 1 0 1 0 1 0 1 0 1 0 1 53 
1 0 1 0 1 0 1 0 1 0 1 0 1 0 1 0 
1 0 0 17 1 0 1 0 1 0 1 0 1 0 1 0 
1 0 1 0 1 0 1 0 0 93 1 0 1 0 1 0 
1 0 1 0 1 0 1 0 1 0 1 0 1 0 0 145 
1 0 1 0 1 0 1 0 1 0 1 0 1 0 1 0 
1 0 1 100 1 0 1 0 1 0 1 0 1 0 1 0 
1 0 1 0 1 0 1081 2788 100 MP stroke
1 153 1 0 1 0 1 0 1 0 1 0 1 0 1 0 
1 0 1 0 0 224 1 0 1 0 1 0 1 0 1 0 
1 0 1 0 1 0 1 0 1 0 0 174 1 0 1 0 
1 0 1 0 1 0 1 0 1 0 1 0 1 0 1 0 
0 211 1 0 1 0 1 0 1 0 1 0 1 0 1 0 
1 0 1 0 1 223 1 0 1 0 1 0 1 0 1 0 
1 0 1 0 1 0 1 0 1 241 1 0 1 0 1 0 
1 0 1 0 1 0 1 0 1 0 1 0 0 195 1 0 
1 0 1 0 1 0 1 0 1 0 1 0 1 0 1 0 
1 0 0 187 1 0 1 0 1 0 1 0 1 0 1 0 
1 0 1 0 1 0 1 183 1 0 1 0 1 0 1 0 
1 0 1 0 1 0 1 0 1 0 1 182 1 0 1 0 
1 0 1 0 1 0 987 815 100 MP stroke
1 0 1 0 1 0 1 0 0 177 1 0 1 0 1 0 
1 0 1 0 1 0 1 0 1 0 1 0 1 0 0 91 
1 0 1 0 1 0 1 0 1 0 1 0 1 0 1 0 
1 0 1 0 0 -75 1 0 1 0 1 0 1 0 1 0 
1 0 1 0 1 0 1 0 1 0 1 0 1 0 1 0 
1 0 1 0 1 0 1 0 1 0 1 0 1 0 1 0 
1 0 1 0 1 0 1 0 1 0 1 0 1 0 1 0 
1 0 1 0 1 0 1 0 1 0 1 0 1 0 1 0 
1 0 1 0 1 0 1 0 1 0 1 0 1 0 1 0 
1 0 1 0 1 0 1 0 1 0 1 0 1 0 911 622 80 MP stroke
/c9 { 1.000000 0.000000 0.000000 sr} bdef
c9
1 0 1 -1 1 0 1 0 1 0 1 -1 0 -16 1 0 
1 0 1 0 1 -1 1 0 1 0 1 -1 1 0 1 0 
1 0 1 -1 1 0 1 1 1 -1 1 0 1 0 1 0 
1 -1 1 0 1 0 1 0 1 -1 1 0 1 0 1 0 
0 11 1 0 1 0 1 -1 1 0 1 0 1 0 1 -1 
1 0 1 0 1 -1 1 0 1 0 1 0 0 -16 1 0 
1 -1 1 0 1 0 1 0 1 -1 1 0 1 0 1 0 
1 -1 1 0 1 0 1 0 0 16 1 -1 1 0 1 0 
1 0 1 -1 1 0 1 0 1 0 1 -1 1 0 1 0 
1 -1 1 -50 1 0 1 -1 1 0 1 0 1 0 1 -1 
1 0 1 0 1 0 1 -1 1 0 1 0 1 -36 1 0 
1 0 1 -1 1 0 1 0 1 0 1 -1 1 0 1 0 
1 0 1 -1 1 0 6161 3464 100 MP stroke
0 48 1 0 1 0 1 0 1 -1 1 0 1 0 1 0 
1 -1 1 0 1 0 1 -1 1 0 1 0 0 25 1 -1 
1 0 1 0 1 0 1 -1 1 0 1 0 1 0 1 -1 
1 0 1 0 1 0 1 -1 1 0 1 -1 1 0 1 0 
1 0 1 -1 1 0 1 0 1 0 1 -1 1 0 1 0 
0 -49 1 0 1 0 1 0 1 -1 1 0 1 0 1 0 
1 -1 1 0 1 0 1 -1 1 0 0 -35 1 0 1 0 
1 0 1 -1 1 0 1 0 1 0 1 -1 1 0 1 0 
1 0 1 -1 1 16 1 0 1 0 1 -1 1 0 1 0 
1 -1 1 0 1 0 1 0 1 -1 1 0 1 0 0 14 
1 -1 1 0 1 0 1 0 1 -1 1 0 1 0 1 0 
1 -1 1 0 1 0 1 0 0 -18 1 -1 1 0 1 0 
1 0 1 -1 1 0 6068 3487 100 MP stroke
1 0 1 0 1 -1 1 0 1 0 1 0 -1 0 2 62 
1 0 1 0 1 -1 1 0 1 0 1 0 1 -1 1 0 
1 0 1 -1 1 0 1 0 0 5 1 0 1 0 1 -1 
1 0 1 0 1 0 1 -1 1 0 1 0 1 0 1 -1 
1 0 0 -25 1 0 1 -1 1 0 1 0 1 0 1 -1 
1 0 1 0 1 0 1 -1 1 0 1 0 1 -16 1 0 
1 0 1 0 1 -1 1 0 1 0 1 0 1 -1 1 0 
1 0 1 0 1 -1 0 15 1 0 1 -1 1 0 1 0 
1 -1 1 0 1 0 1 0 1 -1 1 0 1 0 1 0 
0 -1 0 1 1 -13 1 0 1 0 1 -1 1 0 1 0 
1 0 1 -1 1 0 1 0 1 0 1 -1 1 -12 1 0 
1 0 1 0 1 -1 1 0 1 0 1 0 1 -1 1 0 
1 0 1 -1 1 0 5975 3493 100 MP stroke
0 23 1 0 1 -1 1 0 1 0 1 -1 1 0 1 0 
1 0 1 -1 1 0 1 0 1 0 0 -1 0 1 1 30 
1 0 1 -1 1 0 1 0 1 0 1 -1 1 0 1 0 
1 0 1 -1 1 0 1 10 1 0 1 0 1 0 1 -1 
1 0 1 0 1 0 1 -1 1 0 1 0 1 -1 1 0 
0 37 1 0 1 -1 1 0 1 0 1 0 1 -1 1 0 
1 0 1 0 1 -1 1 0 1 0 0 -33 1 0 1 0 
1 0 1 -1 1 0 1 0 1 -1 1 0 1 0 1 0 
1 -1 1 0 1 49 1 0 1 0 1 0 1 -1 1 0 
1 0 1 0 1 -1 1 0 1 0 1 -1 1 0 0 -23 
1 0 1 0 1 0 1 -1 1 0 1 0 1 0 1 -1 
1 0 1 0 1 -1 1 0 0 -42 1 0 1 0 1 0 
1 -1 1 0 1 0 5883 3464 100 MP stroke
1 0 1 -1 1 0 1 0 1 0 1 -1 1 8 1 0 
1 -1 1 0 1 0 1 0 1 -1 1 0 1 0 1 0 
1 -1 1 0 1 0 0 28 1 0 1 -1 1 0 1 0 
1 -1 1 0 1 0 1 0 1 -1 1 0 1 0 1 0 
-1 0 2 17 1 0 1 0 1 0 1 -1 1 0 1 0 
1 0 1 -1 1 0 1 0 1 0 -1 0 2 -19 1 0 
1 0 1 0 1 -1 1 0 1 0 1 0 1 -1 1 0 
1 0 1 -1 1 0 0 16 1 0 1 -1 1 0 1 0 
1 0 1 -1 1 0 1 0 1 0 1 -1 1 0 1 0 
1 -32 1 0 1 0 1 -1 1 0 1 0 1 0 1 -1 
1 0 1 0 1 0 1 -1 1 30 1 0 1 -1 1 0 
1 0 1 0 1 -1 1 0 1 0 1 -1 1 0 1 0 
1 0 0 -12 1 -1 5789 3451 100 MP stroke
1 0 1 0 1 0 1 -1 1 0 1 0 1 -1 1 0 
1 0 1 0 1 -1 1 -10 1 -1 1 0 1 0 1 -1 
1 0 1 0 1 0 1 -1 1 0 1 0 1 0 -1 0 
2 -4 1 0 1 -1 1 0 1 0 1 0 1 -1 1 0 
1 0 1 -1 1 0 1 0 1 0 0 -44 1 0 1 -1 
1 0 1 0 1 -1 1 0 1 0 1 0 1 -1 1 0 
1 0 1 0 -1 0 2 50 1 0 1 -1 1 0 1 0 
1 0 1 -1 1 0 1 0 1 -1 1 0 1 0 1 -20 
1 0 1 -1 1 0 1 0 1 0 1 -1 1 0 1 0 
1 -1 1 0 1 0 1 0 0 45 1 0 1 -1 1 0 
1 0 1 0 1 -1 1 0 1 0 1 0 1 -1 1 0 
1 0 1 -11 1 -1 1 0 1 0 1 -1 1 0 1 0 
1 0 1 -1 1 0 5694 3469 100 MP stroke
1 0 1 0 -1 0 2 4 1 0 1 0 1 -1 1 0 
1 0 1 0 1 -1 1 0 1 0 1 0 1 -1 1 0 
0 16 1 -1 1 0 1 0 1 0 1 -1 1 0 1 0 
1 0 1 -1 1 0 1 0 1 -1 1 21 1 -1 1 0 
1 0 1 -1 1 0 1 0 1 0 1 -1 1 0 1 0 
1 0 -1 0 2 -30 1 0 1 0 1 -1 1 0 1 0 
1 -1 1 0 1 0 1 0 1 -1 1 0 1 0 0 47 
1 0 1 -1 1 0 1 0 1 0 1 -1 1 0 1 0 
1 0 1 -1 1 0 1 0 1 11 1 0 1 0 1 -1 
1 0 1 0 1 -1 1 0 1 0 1 0 1 -1 1 0 
1 -11 1 0 1 -1 1 0 1 0 1 0 1 -1 1 0 
1 0 1 -1 1 0 1 0 1 0 0 49 1 0 1 0 
1 0 1 -1 1 0 5600 3385 100 MP stroke
1 0 1 0 1 -1 1 0 1 0 1 -1 1 0 1 -14 
1 0 1 -1 1 0 1 0 1 0 1 -1 1 0 1 0 
1 -1 1 0 1 0 1 -52 1 0 1 0 1 -1 1 0 
1 0 1 -1 1 0 1 0 1 0 1 -1 1 0 1 0 
0 63 1 0 1 -1 1 0 1 0 1 0 1 -1 1 0 
1 0 1 0 1 -1 1 0 1 0 1 -18 1 0 1 0 
1 -1 1 0 1 0 1 -1 1 0 1 0 1 0 1 -1 
1 0 1 -14 1 -1 1 0 1 0 1 0 1 -1 1 0 
1 0 1 0 1 -1 1 0 1 0 1 -1 0 11 1 0 
1 0 1 0 1 -1 1 0 1 0 1 0 1 -1 1 0 
1 0 1 -1 1 0 1 12 1 0 1 0 1 -1 1 0 
1 0 1 0 1 -1 1 0 1 0 1 -1 1 0 1 52 
1 0 1 0 1 -1 5503 3370 100 MP stroke
1 0 1 0 1 0 1 -1 1 0 1 0 1 0 1 -1 
1 0 0 -11 1 0 1 0 1 0 1 -1 1 0 1 0 
1 -1 1 0 1 0 1 0 1 -1 1 0 1 -66 1 -1 
1 0 1 0 1 0 1 -1 1 0 1 0 1 0 1 -1 
1 0 1 0 1 18 1 0 1 0 1 -1 1 0 1 0 
1 0 1 -1 1 0 1 0 1 0 1 -1 1 0 0 9 
1 0 1 0 1 0 1 0 1 -1 1 0 1 0 1 -1 
1 0 1 0 1 0 1 -1 1 -9 1 0 1 0 1 0 
1 -1 1 0 1 0 1 -1 1 0 1 0 1 0 1 -1 
1 26 1 0 1 0 1 -1 1 0 1 0 1 0 1 -1 
1 0 1 0 1 0 1 -1 1 0 0 21 1 0 1 -1 
1 0 1 0 1 0 1 -1 1 0 1 0 1 -1 1 0 
1 0 1 0 1 -17 5407 3422 100 MP stroke
1 0 1 0 1 0 1 -1 1 0 1 0 1 -1 1 0 
1 0 1 0 1 -1 1 40 1 0 1 0 1 0 1 -1 
1 0 1 0 1 0 1 -1 1 0 1 0 1 -1 1 0 
0 23 1 -1 1 0 1 0 1 0 1 -1 1 0 1 0 
1 -1 1 0 1 0 1 0 1 -1 1 5 1 -1 1 0 
1 0 1 -1 1 0 1 0 1 0 1 -1 1 0 1 0 
1 -1 0 22 1 0 1 -1 1 0 1 0 1 0 1 -1 
1 0 1 0 1 0 1 -1 1 0 1 0 0 -5 1 0 
1 -1 1 0 1 0 1 -1 1 0 1 0 1 0 1 -1 
1 0 1 0 1 -1 0 -8 1 0 1 -1 1 0 1 0 
1 0 1 -1 1 0 1 0 1 -1 1 0 1 0 1 0 
0 -74 1 0 1 -1 1 0 1 0 1 -1 1 0 1 0 
1 0 1 -1 1 0 5313 3446 100 MP stroke
1 0 1 0 0 35 1 0 1 0 1 0 1 -1 1 0 
1 0 1 -1 1 0 1 0 1 0 1 -1 1 0 0 -49 
1 0 1 0 1 -1 1 0 1 0 1 -1 1 0 1 0 
1 0 1 -1 1 0 1 0 0 49 1 -1 1 0 1 0 
1 0 1 -1 1 0 1 0 1 -1 1 0 1 0 1 0 
-1 0 2 -14 1 0 1 -1 1 0 1 0 1 0 1 -1 
1 0 1 0 1 -1 1 0 1 0 1 24 1 0 1 -1 
1 0 1 0 1 0 1 -1 1 0 1 0 1 0 1 -1 
1 0 1 -24 1 0 1 0 1 0 1 -1 1 0 1 0 
1 -1 1 0 1 0 1 0 1 -1 1 -2 1 0 1 0 
1 -1 1 0 1 0 1 0 1 -1 1 0 1 0 1 -1 
1 0 0 47 1 0 1 -1 1 0 1 0 1 0 1 -1 
1 0 1 0 1 0 5219 3403 100 MP stroke
1 -1 1 0 1 0 0 -66 1 0 1 0 1 -1 1 0 
1 0 1 0 1 -1 1 0 1 0 1 -1 1 0 1 0 
0 -17 1 0 1 -1 1 0 1 0 1 0 1 -1 1 0 
1 0 1 -1 1 0 1 0 1 0 0 -10 1 0 1 0 
1 0 1 -1 1 0 1 0 1 0 1 -1 1 0 1 0 
1 -1 1 0 0 74 1 0 1 -1 1 0 1 0 1 -1 
1 0 1 0 1 0 1 -1 1 0 1 0 1 0 0 29 
1 0 1 0 1 -1 1 0 1 0 1 0 1 -1 1 0 
1 0 1 -1 1 0 1 0 0 -30 1 0 1 0 1 -1 
1 0 1 0 1 0 1 -1 1 0 1 0 1 0 1 -1 
1 -56 1 0 1 0 1 -1 1 0 1 0 1 -1 1 0 
1 0 1 0 1 -1 1 0 1 21 1 0 1 -1 1 0 
1 0 1 0 1 -1 5126 3482 100 MP stroke
1 0 1 0 1 0 1 -1 1 0 1 5 1 0 1 -1 
1 0 1 0 1 -1 1 0 1 0 1 0 1 -1 1 0 
1 0 1 45 1 0 1 -1 1 0 1 0 1 0 1 -1 
1 0 1 0 1 -1 1 0 1 0 0 13 1 0 1 0 
1 0 1 -1 1 0 1 0 1 -1 1 0 1 0 1 0 
1 -1 1 0 0 21 1 0 1 0 1 0 1 -1 1 0 
1 0 1 -1 1 0 1 0 1 0 1 -1 1 0 0 14 
1 0 1 0 1 -1 1 0 1 0 1 0 1 -1 1 0 
1 0 1 -1 1 0 1 0 0 54 1 0 1 0 1 0 
1 0 1 -1 1 0 1 0 1 -1 1 0 1 0 1 -1 
1 0 0 50 1 0 1 -1 1 0 1 0 1 0 1 -1 
1 0 1 0 1 -1 1 0 1 0 1 0 0 -63 1 0 
1 0 1 0 1 -1 5033 3366 100 MP stroke
1 0 1 0 1 -1 1 0 1 0 1 0 1 -1 1 0 
0 15 1 0 1 0 1 0 1 -1 1 0 1 0 1 0 
1 -1 1 0 1 0 1 -1 1 -17 1 0 1 -1 1 0 
1 0 1 0 1 -1 1 0 1 0 1 -1 1 0 1 0 
1 -2 1 -1 1 0 1 0 1 -1 1 0 1 0 1 0 
1 -1 1 0 1 0 1 -1 1 -34 1 0 1 0 1 -1 
1 0 1 0 1 0 1 -1 1 0 1 0 1 -1 1 0 
1 -40 1 -1 1 0 1 0 1 0 1 -1 1 0 1 0 
1 0 1 -1 1 0 1 0 0 -9 1 0 1 -1 1 0 
1 0 1 0 1 -1 1 0 1 0 1 -1 1 0 1 0 
1 0 0 -1 0 1 1 -43 1 0 1 -1 1 0 1 0 
1 0 1 -1 1 0 1 0 1 -1 1 0 1 0 0 7 
1 0 1 0 1 -1 4939 3514 100 MP stroke
1 0 1 0 1 -1 1 0 1 0 1 -1 1 0 1 0 
1 0 0 -25 1 0 1 0 1 -1 1 0 1 0 1 0 
1 -1 1 0 1 0 1 -1 1 0 1 0 0 2 1 0 
1 -1 1 0 1 0 1 0 1 -1 1 0 1 0 1 -1 
1 0 1 0 1 0 0 38 1 0 1 0 1 0 1 -1 
1 0 1 0 1 -1 1 0 1 0 1 0 1 -1 1 0 
0 63 1 0 1 0 1 0 1 -1 1 0 1 0 1 -1 
1 0 1 0 1 0 1 -1 1 47 1 -1 1 0 1 0 
1 0 1 -1 1 0 1 0 1 0 1 -1 1 0 1 0 
-1 0 2 10 1 0 1 -1 1 0 1 0 1 0 1 -1 
1 0 1 0 1 -1 1 0 1 0 1 -9 1 0 1 0 
1 -1 1 0 1 0 1 0 1 -1 1 0 1 0 1 -1 
1 0 1 -43 1 0 4845 3454 100 MP stroke
1 0 1 -1 1 0 1 0 1 0 1 -1 1 0 1 0 
1 -1 1 0 1 41 1 -1 1 0 1 0 1 0 1 -1 
1 0 1 0 1 -1 1 0 1 0 1 0 0 -1 0 1 
1 22 1 0 1 0 1 -1 1 0 1 0 1 0 1 -1 
1 0 1 0 1 -1 1 0 1 1 1 0 1 -1 1 0 
1 0 1 0 1 -1 1 0 1 0 1 0 1 -1 1 0 
0 19 1 -1 1 0 1 0 1 0 1 -1 1 0 1 0 
1 -1 1 0 1 0 1 0 1 -1 0 -6 1 0 1 0 
1 -1 1 0 1 0 1 0 1 -1 1 0 1 0 1 -1 
1 0 1 0 0 -29 1 0 1 0 1 -1 1 0 1 0 
1 -1 1 0 1 0 1 0 1 -1 1 0 1 0 1 -1 
1 -1 1 0 1 0 1 0 1 -1 1 0 1 0 1 -1 
1 0 1 0 1 12 4751 3420 100 MP stroke
1 -1 1 0 1 0 1 0 1 -1 1 0 1 0 1 0 
1 -1 1 0 1 0 -1 0 2 30 1 -1 1 0 1 0 
1 -1 1 0 1 0 1 0 1 -1 1 0 1 0 1 -1 
1 21 1 -1 1 0 1 0 1 -1 1 0 1 0 1 -1 
1 0 1 0 1 0 1 -1 1 -4 1 0 1 0 1 -1 
1 0 1 0 1 0 1 -1 1 0 1 0 1 -1 1 0 
1 8 1 -1 1 0 1 0 1 0 1 -1 1 0 1 0 
1 -1 1 0 1 0 1 0 0 -1 0 1 1 -8 1 0 
1 -1 1 0 1 0 1 0 1 -1 1 0 1 0 1 -1 
1 0 1 0 0 39 1 -1 1 0 1 0 1 0 1 -1 
1 0 1 0 1 -1 1 0 1 0 1 0 1 -1 0 -82 
1 0 1 0 1 0 1 -1 1 0 1 0 1 -1 1 0 
1 0 1 0 1 -1 4657 3443 100 MP stroke
1 0 0 35 1 0 1 0 1 0 1 -1 1 0 1 0 
1 -1 1 0 1 0 1 0 1 -1 1 0 0 80 1 0 
1 -1 1 0 1 0 1 0 1 -1 1 0 1 0 1 -1 
1 0 1 0 1 0 0 -27 1 0 1 0 1 0 1 -1 
1 0 1 0 1 -1 1 0 1 0 1 0 1 -1 1 -76 
1 0 1 0 1 0 1 -1 1 0 1 0 1 -1 1 0 
1 0 1 0 1 -1 0 50 1 0 1 0 1 -1 1 0 
1 0 1 0 1 -1 1 0 1 0 1 -1 1 0 1 -62 
1 0 1 0 1 -1 1 0 1 0 1 0 1 -1 1 0 
1 0 1 -1 1 0 0 20 1 0 1 0 1 -1 1 0 
1 0 1 -1 1 0 1 0 1 0 1 -1 1 0 1 17 
1 0 1 -1 1 0 1 0 1 -1 1 0 1 0 1 -1 
1 0 1 0 1 0 4563 3430 100 MP stroke
0 13 1 0 1 0 1 0 1 -1 1 0 1 0 1 0 
1 -1 1 0 1 0 1 -1 1 -23 1 -1 1 0 1 0 
1 0 1 -1 1 0 1 0 1 -1 1 0 1 0 1 0 
0 -11 1 0 1 -1 1 0 1 0 1 0 1 -1 1 0 
1 0 1 -1 1 0 1 0 1 -50 1 0 1 0 1 -1 
1 0 1 0 1 -1 1 0 1 0 1 0 1 -1 1 0 
0 22 1 0 1 -1 1 0 1 0 1 -1 1 0 1 0 
1 0 1 -1 1 0 1 0 1 21 1 -1 1 0 1 0 
1 0 1 -1 1 0 1 0 1 -1 1 0 1 0 1 -1 
0 -11 1 0 1 -1 1 0 1 0 1 -1 1 0 1 0 
1 0 1 -1 1 0 1 0 1 21 1 0 1 -1 1 0 
1 0 1 -1 1 0 1 0 1 0 1 -1 1 0 1 0 
0 36 1 0 1 0 4469 3437 100 MP stroke
1 0 1 -1 1 0 1 0 1 0 1 -1 1 0 1 0 
1 -1 1 11 1 0 1 0 1 0 1 -1 1 0 1 0 
1 -1 1 0 1 0 1 -1 1 0 0 -16 1 0 1 -1 
1 0 1 0 1 -1 1 0 1 0 1 -1 1 0 1 0 
1 0 -1 0 2 8 1 -1 1 0 1 0 1 -1 1 0 
1 0 1 -1 1 0 1 0 1 0 1 -1 0 27 1 0 
1 0 1 0 1 -1 1 0 1 0 1 -1 1 0 1 0 
1 -1 1 0 1 -56 1 0 1 -1 1 0 1 0 1 0 
1 -1 1 0 1 0 1 -1 1 0 1 0 0 18 1 0 
1 0 1 -1 1 0 1 0 1 0 1 -1 1 0 1 0 
1 -1 1 0 1 -3 1 0 1 0 1 -1 1 0 1 0 
1 0 1 -1 1 0 1 0 1 -1 1 0 0 31 1 0 
1 -1 1 0 1 0 4375 3443 100 MP stroke
1 -1 1 0 1 0 1 0 1 -1 1 0 1 0 1 -8 
1 0 1 -1 1 0 1 0 1 -1 1 0 1 0 1 0 
1 -1 1 0 1 0 0 26 1 0 1 -1 1 0 1 0 
1 -1 1 0 1 0 1 0 1 -1 1 0 1 0 1 -16 
1 -1 1 0 1 0 1 0 1 -1 1 0 1 0 1 -1 
1 0 1 0 1 0 0 58 1 0 1 0 1 0 1 -1 
1 0 1 0 1 -1 1 0 1 0 1 -1 1 0 0 20 
1 0 1 0 1 0 1 -1 1 0 1 0 1 -1 1 0 
1 0 1 0 1 -1 1 0 0 24 1 0 1 0 1 -1 
1 0 1 0 1 -1 1 0 1 0 1 -1 1 0 1 0 
0 -86 1 0 1 -1 1 0 1 0 1 -1 1 0 1 0 
1 -1 1 0 1 0 1 0 -1 0 2 -4 1 0 1 0 
1 -1 1 0 1 0 4282 3453 100 MP stroke
1 -1 1 0 1 0 1 -1 1 0 1 0 0 49 1 0 
1 0 1 0 1 -1 1 0 1 0 1 -1 1 0 1 0 
1 -1 1 0 1 -18 1 -1 1 0 1 0 1 0 1 -1 
1 0 1 0 1 -1 1 0 1 0 1 0 0 -1 0 1 
1 -19 1 0 1 -1 1 0 1 0 1 -1 1 0 1 0 
1 -1 1 0 1 0 1 -24 1 0 1 0 1 -1 1 0 
1 0 1 -1 1 0 1 0 1 -1 1 0 1 0 0 65 
1 0 1 0 1 -1 1 0 1 0 1 -1 1 0 1 0 
1 -1 1 0 1 0 1 -19 1 0 1 0 1 -1 1 0 
1 0 1 -1 1 0 1 0 1 0 1 -1 1 0 0 42 
1 0 1 -1 1 0 1 0 1 -1 1 0 1 0 1 0 
1 -1 1 0 1 0 -1 0 2 11 1 0 1 0 1 -1 
1 0 1 0 1 -1 4189 3391 100 MP stroke
1 0 1 0 1 -1 1 0 1 0 0 17 1 0 1 0 
1 -1 1 0 1 0 1 -1 1 0 1 0 1 0 1 -1 
1 0 1 -1 1 0 1 -1 1 0 1 0 1 -1 1 0 
1 0 1 -1 1 0 1 0 1 0 0 27 1 -1 1 0 
1 0 1 0 1 -1 1 0 1 0 1 -1 1 0 1 0 
1 -1 1 -44 1 0 1 0 1 -1 1 0 1 0 1 0 
1 -1 1 0 1 0 1 -1 1 0 0 9 1 0 1 -1 
1 0 1 0 1 0 1 -1 1 0 1 0 1 -1 1 0 
1 0 1 -7 1 0 1 -1 1 0 1 0 1 0 1 -1 
1 0 1 0 1 -1 1 0 1 0 0 73 1 -1 1 0 
1 0 1 -1 1 0 1 0 1 0 1 -1 1 0 1 0 
1 -1 1 -13 1 -1 1 0 1 0 1 0 1 -1 1 0 
1 -1 1 0 1 0 4094 3357 100 MP stroke
1 0 1 -1 0 33 1 0 1 0 1 0 1 -1 1 0 
1 0 1 0 1 -1 1 0 1 0 1 -1 1 -124 1 -1 
1 0 1 0 1 0 1 -1 1 0 1 0 1 -1 1 0 
1 0 1 0 0 50 1 0 1 -1 1 0 1 0 1 -1 
1 0 1 0 1 -1 1 0 1 0 1 -1 1 23 1 0 
1 0 1 -1 1 0 1 0 1 -1 1 0 1 0 1 0 
1 -1 1 0 0 5 1 0 1 0 1 0 1 -1 1 0 
1 0 1 -1 1 0 1 0 1 0 1 -1 1 -62 1 -1 
1 0 1 0 1 -1 1 0 1 0 1 -1 1 0 1 0 
1 -1 1 0 0 -63 1 0 1 -1 1 0 1 0 1 -1 
1 0 1 0 1 0 1 -1 1 0 1 0 -1 0 2 22 
1 0 1 -1 1 0 1 0 1 0 1 -1 1 0 1 0 
1 -1 1 0 1 0 4000 3500 100 MP stroke
0 48 1 0 1 0 1 0 1 -1 1 0 1 0 1 -1 
1 0 1 0 1 0 1 -1 1 23 1 0 1 -1 1 0 
1 0 1 0 1 -1 1 0 1 0 1 -1 1 0 1 0 
0 -9 1 0 1 0 1 -1 1 0 1 0 1 -1 1 0 
1 0 1 0 1 -1 1 0 0 6 1 0 1 0 1 -1 
1 0 1 0 1 0 1 -1 1 0 1 0 1 -1 1 0 
1 0 0 -15 1 0 1 0 1 0 1 -1 1 0 1 0 
1 -1 1 0 1 0 1 -1 1 0 0 11 1 0 1 0 
1 -1 1 0 1 0 1 -1 1 0 1 0 1 0 1 -1 
1 0 1 0 0 15 1 0 1 -1 1 0 1 0 1 -1 
1 0 1 0 1 0 1 -1 1 0 1 0 0 -29 1 0 
1 0 1 -1 1 0 1 0 1 -1 1 0 1 0 1 0 
1 -1 1 0 1 88 3908 3386 100 MP stroke
1 0 1 0 1 0 1 -1 1 0 1 0 1 -1 1 0 
1 0 1 0 1 -1 0 9 1 -1 1 0 1 0 1 0 
1 -1 1 0 1 0 1 -1 1 0 1 0 1 -1 1 -46 
1 0 1 0 1 -1 1 0 1 0 1 0 1 -1 1 0 
1 0 1 -1 1 0 0 3 1 0 1 0 1 -1 1 0 
1 0 1 -1 1 0 1 0 1 -1 1 0 1 0 0 19 
1 0 1 0 1 -1 1 0 1 0 1 -1 1 0 1 0 
1 -1 1 0 1 0 0 57 1 0 1 0 1 0 1 -1 
1 0 1 0 1 -1 1 0 1 0 1 0 1 -1 1 38 
1 -1 1 0 1 0 1 0 1 -1 1 0 1 0 1 -1 
1 0 1 0 1 15 1 -1 1 0 1 0 1 -1 1 0 
1 0 1 -1 1 0 1 0 1 0 -1 0 2 -60 1 0 
1 -1 1 0 1 0 3814 3377 100 MP stroke
1 0 1 -1 1 0 1 0 1 -1 1 0 1 -12 1 -1 
1 0 1 0 1 0 1 -1 1 0 1 0 1 -1 1 0 
1 0 1 -8 1 -1 1 0 1 0 1 0 1 -1 1 0 
1 0 1 -1 1 0 1 0 -1 0 2 -8 1 -1 1 0 
1 0 1 -1 1 0 1 0 1 0 1 -1 1 0 1 0 
-1 0 2 43 1 0 1 0 1 0 1 -1 1 0 1 0 
1 -1 1 0 1 0 1 -1 1 0 0 37 1 0 1 0 
1 0 1 -1 1 0 1 0 1 -1 1 0 1 0 1 -1 
1 0 0 -29 1 0 1 0 1 -1 1 0 1 0 1 -1 
1 0 1 0 1 -1 1 0 1 0 0 -67 1 0 1 0 
1 0 1 -1 1 0 1 0 1 -1 1 0 1 0 1 0 
1 -1 0 -21 1 0 1 0 1 -1 1 0 1 0 1 -1 
1 0 1 0 1 -1 3721 3468 100 MP stroke
1 0 1 0 0 -9 1 0 1 -1 1 0 1 0 1 0 
1 -1 1 0 1 0 1 -1 1 0 1 0 0 -14 1 -1 
1 0 1 0 1 0 1 -1 1 0 1 0 1 -1 1 0 
1 0 1 -1 0 -19 1 -1 1 0 1 0 1 0 1 -1 
1 0 1 0 1 -1 1 0 1 0 1 -1 0 58 1 -1 
1 0 1 0 1 0 1 -1 1 0 1 0 1 -1 1 0 
1 0 1 -1 0 13 1 0 1 -1 1 0 1 0 1 -1 
1 0 1 0 1 0 1 -1 1 0 1 0 0 -1 0 1 
1 92 1 0 1 0 1 -1 1 0 1 0 1 -1 1 0 
1 0 1 0 1 -1 1 -13 1 -1 1 0 1 0 1 -1 
1 0 1 0 1 0 1 -1 1 0 1 0 1 -7 1 0 
1 0 1 -1 1 0 1 0 1 -1 1 0 1 0 1 -1 
1 0 1 -17 1 0 3629 3411 100 MP stroke
1 0 1 -1 1 0 1 0 1 0 1 -1 1 0 1 0 
1 -1 1 28 1 0 1 -1 1 0 1 0 1 0 1 -1 
1 0 1 0 1 -1 1 0 1 -51 1 -1 1 0 1 0 
1 -1 1 0 1 0 1 0 1 -1 1 0 1 0 -1 0 
2 -60 1 0 1 0 1 -1 1 0 1 0 1 -1 1 0 
1 0 1 -1 1 0 1 20 1 0 1 0 1 -1 1 0 
1 0 1 -1 1 0 1 0 1 0 1 -1 1 0 0 -17 
1 0 1 -1 1 0 1 0 1 0 1 -1 1 0 1 0 
1 -1 1 0 1 0 0 68 1 -1 1 0 1 0 1 -1 
1 0 1 0 1 -1 1 0 1 0 1 0 1 -1 0 83 
1 -1 1 0 1 0 1 -1 1 0 1 0 1 -1 1 0 
1 0 1 0 1 -1 1 0 1 0 1 -1 1 0 1 0 
1 0 1 -1 1 0 3534 3368 100 MP stroke
1 0 1 -1 1 0 0 -17 1 0 1 0 1 0 1 -1 
1 0 1 0 1 -1 1 0 1 0 1 -1 1 0 0 -26 
1 0 1 0 1 0 1 -1 1 0 1 0 1 -1 1 0 
1 0 1 -1 1 0 0 -39 1 0 1 -1 1 0 1 0 
1 0 1 -1 1 0 1 0 1 -1 1 0 1 0 0 29 
1 0 1 0 1 -1 1 0 1 0 1 -1 1 0 1 0 
1 -1 1 0 1 0 0 37 1 0 1 0 1 -1 1 0 
1 0 1 -1 1 0 1 0 1 -1 1 0 1 0 0 89 
1 0 1 -1 1 0 1 0 1 -1 1 0 1 0 1 0 
1 -1 1 0 1 0 1 -13 1 0 1 0 1 -1 1 0 
1 0 1 -1 1 0 1 0 1 -1 1 0 1 -51 1 -1 
1 0 1 0 1 -1 1 0 1 0 1 -1 1 0 1 0 
1 -1 1 3 1 0 3441 3382 100 MP stroke
1 0 1 0 1 -1 1 0 1 0 1 -1 1 0 1 0 
1 -1 1 8 1 0 1 0 1 -1 1 0 1 0 1 -1 
1 0 1 0 1 -1 1 0 1 38 1 -1 1 0 1 0 
1 -1 1 0 1 0 1 -1 1 0 1 0 1 0 -1 0 
2 -11 1 0 1 -1 1 0 1 0 1 -1 1 0 1 0 
1 -1 1 0 1 0 1 29 1 0 1 0 1 -1 1 0 
1 0 1 -1 1 0 1 0 1 0 1 -1 1 0 0 -38 
1 0 1 0 1 -1 1 0 1 0 1 -1 1 0 1 0 
1 -1 1 0 1 0 0 -21 1 -1 1 0 1 0 1 -1 
1 0 1 0 1 0 1 -1 1 0 1 0 1 -1 0 39 
1 0 1 0 1 0 1 -1 1 0 1 0 1 -1 1 0 
1 0 1 -1 1 0 0 -4 1 0 1 0 1 -1 1 0 
1 0 1 -1 1 0 3347 3369 100 MP stroke
1 0 1 0 1 -1 1 0 0 -22 1 0 1 0 1 0 
1 -1 1 0 1 0 1 -1 1 0 1 0 1 -1 1 0 
0 -20 1 0 1 -1 1 0 1 0 1 0 1 -1 1 0 
1 -1 1 0 1 0 1 0 0 2 1 0 1 0 1 -1 
1 0 1 0 1 -1 1 0 1 0 1 -1 1 0 1 0 
0 11 1 0 1 -1 1 0 1 0 1 0 1 -1 1 0 
1 0 1 -1 1 0 1 0 0 7 1 0 1 0 1 -1 
1 0 1 0 1 -1 1 0 1 0 1 -1 1 0 1 0 
0 -16 1 0 1 0 1 0 1 -1 1 0 1 0 1 -1 
1 0 1 0 1 -1 1 0 1 6 1 0 1 0 1 -1 
1 0 1 0 1 -1 1 0 1 0 1 -1 1 0 1 -31 
1 -1 1 0 1 0 1 -1 1 0 1 0 1 -1 1 0 
1 0 1 -1 1 9 3254 3449 100 MP stroke
1 0 1 0 1 -1 1 0 1 0 1 -1 1 0 1 0 
1 0 1 -1 1 -10 1 0 1 -1 1 0 1 0 1 -1 
1 0 1 0 1 -1 1 0 1 0 1 57 1 -1 1 0 
1 0 1 -1 1 0 1 0 1 -1 1 0 1 0 1 0 
-1 0 2 36 1 0 1 0 1 -1 1 0 1 0 1 -1 
1 0 1 0 1 -1 1 0 1 -42 1 0 1 0 1 -1 
1 0 1 0 1 -1 1 0 1 0 1 0 1 -1 1 0 
1 -1 1 -1 1 0 1 0 1 -1 1 0 1 0 1 0 
1 -1 1 0 1 0 1 1 1 0 1 -1 1 0 1 0 
1 0 1 -1 1 0 1 0 1 -1 1 0 0 48 1 0 
1 -1 1 0 1 0 1 -1 1 0 1 0 1 0 1 -1 
1 0 1 0 0 28 1 0 1 -1 1 0 1 0 1 -1 
1 0 1 0 1 -1 3158 3359 100 MP stroke
1 0 1 0 1 0 0 -18 1 0 1 -1 1 0 1 0 
1 -1 1 0 1 0 1 -1 1 0 1 0 1 -1 0 7 
1 0 1 -1 1 0 1 0 1 -1 1 0 1 0 1 -1 
1 0 1 0 1 -1 0 38 1 0 1 0 1 0 1 -1 
1 0 1 0 1 -1 1 0 1 0 1 -1 1 0 0 -42 
1 -1 1 0 1 0 1 0 1 -1 1 0 1 0 1 -1 
1 0 1 0 1 -1 0 3 1 0 1 -1 1 0 1 0 
1 -1 1 0 1 0 1 0 1 -1 1 0 1 -59 1 -1 
1 0 1 0 1 -1 1 0 1 0 1 -1 1 0 1 0 
1 -1 0 -3 1 0 1 0 1 -1 1 0 1 0 1 0 
1 -1 1 0 1 0 1 -1 1 -13 1 0 1 -1 1 0 
1 0 1 -1 1 0 1 0 1 -1 1 0 1 0 1 32 
1 0 1 0 1 -1 3065 3443 100 MP stroke
1 0 1 0 1 -1 1 0 1 0 1 -1 1 0 0 -10 
1 0 1 0 1 -1 1 0 1 0 1 -1 1 0 1 0 
1 -1 1 0 1 18 1 -1 1 0 1 0 1 -1 1 0 
1 0 1 -1 1 0 1 0 1 -1 0 55 1 0 1 0 
1 0 1 -1 1 0 1 0 1 -1 1 0 1 0 1 -1 
1 0 0 -19 1 -1 1 0 1 0 1 0 1 -1 1 0 
1 0 1 -1 1 0 1 0 1 4 1 0 1 0 1 -1 
1 0 1 0 1 -1 1 0 1 0 1 -1 1 0 0 -32 
1 0 1 -1 1 0 1 0 1 -1 1 0 1 0 1 0 
1 -1 1 0 1 0 0 -50 1 0 1 -1 1 0 1 0 
1 -1 1 0 1 0 1 -1 1 0 1 0 1 62 1 0 
1 0 1 0 1 -1 1 0 1 0 1 -1 1 0 1 0 
1 -1 0 35 1 0 2972 3407 100 MP stroke
1 -1 1 0 1 0 1 -1 1 0 1 0 1 0 1 -1 
1 0 1 -27 1 0 1 0 1 -1 1 0 1 0 1 -1 
1 0 1 0 1 -1 1 0 1 48 1 0 1 0 1 -1 
1 0 1 0 1 -1 1 0 1 0 1 -1 1 0 0 37 
1 0 1 0 1 0 1 -1 1 0 1 0 1 -1 1 0 
1 0 1 -1 1 15 1 -1 1 0 1 0 1 -1 1 0 
1 0 1 0 1 -1 1 0 1 0 0 -1 0 1 1 -13 
1 -1 1 0 1 0 1 -1 1 0 1 0 1 -1 1 0 
1 0 1 -1 0 13 1 0 1 0 1 -1 1 0 1 0 
1 -1 1 0 1 0 1 -1 1 0 1 -11 1 0 1 -1 
1 0 1 0 1 -1 1 0 1 0 1 -1 1 0 1 0 
0 3 1 0 1 0 1 0 1 -1 1 0 1 0 1 -1 
1 0 1 0 1 0 2878 3369 100 MP stroke
1 -1 0 -33 1 -1 1 0 1 0 1 -1 1 0 1 0 
1 -1 1 0 1 0 1 0 -1 0 2 -41 1 0 1 -1 
1 0 1 0 1 -1 1 0 1 0 1 0 1 -1 1 0 
0 -5 1 -1 1 0 1 0 1 0 1 -1 1 0 1 0 
1 -1 1 0 1 0 -1 0 2 3 1 0 1 0 1 -1 
1 0 1 0 1 -1 1 0 1 0 1 -1 1 0 0 5 
1 0 1 -1 1 0 1 0 1 -1 1 0 1 0 1 -1 
1 0 1 0 1 0 0 -36 1 0 1 0 1 -1 1 0 
1 0 1 0 1 -1 1 0 1 0 1 -1 1 44 1 -1 
1 0 1 0 1 -1 1 0 1 0 1 0 1 -1 1 0 
1 0 0 -1 0 70 1 -1 1 0 1 0 1 -1 1 0 
1 0 1 0 1 -1 1 0 1 0 1 -1 0 8 1 0 
1 0 1 0 1 -1 2788 3382 100 MP stroke
1 0 1 0 1 -1 1 0 1 0 1 -1 1 45 1 0 
1 0 1 0 1 -1 1 0 1 0 1 -1 1 0 1 0 
1 -1 0 -22 1 -1 1 0 1 0 1 -1 1 0 1 0 
1 0 1 -1 1 0 1 0 -1 0 2 55 1 0 1 0 
1 -1 1 0 1 0 1 -1 1 0 1 0 1 -1 1 0 
1 -25 1 0 1 -1 1 0 1 0 1 -1 1 0 1 0 
1 0 1 -1 1 0 0 7 1 -1 1 0 1 0 1 0 
1 -1 1 0 1 0 1 -1 1 0 1 0 -1 0 2 12 
1 0 1 0 1 -1 1 0 1 0 1 -1 1 0 1 0 
1 -1 1 0 0 -46 1 0 1 -1 1 0 1 0 1 -1 
1 0 1 0 1 -1 1 0 1 0 1 0 0 -34 1 0 
1 0 1 -1 1 0 1 0 1 -1 1 0 1 0 1 -1 
1 0 1 22 1 0 2695 3394 100 MP stroke
1 -1 1 0 1 0 1 -1 1 0 1 0 1 0 1 -1 
1 0 0 5 1 0 1 -1 1 0 1 0 1 -1 1 0 
1 0 1 -1 1 0 1 0 1 0 0 -4 1 0 1 -1 
1 0 1 0 1 -1 1 0 1 0 1 0 1 -1 1 0 
1 17 1 0 1 -1 1 0 1 0 1 0 1 -1 1 0 
1 0 1 -1 1 0 0 -35 1 0 1 -1 1 0 1 0 
1 0 1 -1 1 0 1 -1 1 0 1 0 1 21 1 0 
1 0 1 -1 1 0 1 0 1 -1 1 0 1 0 1 -1 
1 0 1 -7 1 -1 1 0 1 0 1 -1 1 0 1 0 
1 -1 1 0 1 0 1 -1 0 35 1 0 1 0 1 0 
1 -1 1 0 1 0 1 -1 1 0 1 0 1 -1 1 24 
1 0 1 -1 1 0 1 0 1 -1 1 0 1 0 1 -1 
1 0 1 0 0 -37 2601 3403 100 MP stroke
1 0 1 0 1 0 1 -1 1 0 1 0 1 -1 1 0 
1 0 1 -1 1 0 0 52 1 0 1 0 1 -1 1 0 
1 0 1 0 1 -1 1 0 1 0 1 -1 1 12 1 0 
1 0 1 0 1 -1 1 0 1 0 1 -1 1 0 1 0 
1 -1 0 -84 1 0 1 0 1 -1 1 0 1 0 1 -1 
1 0 1 0 1 -1 1 0 1 0 0 43 1 -1 1 0 
1 0 1 -1 1 0 1 0 1 -1 1 0 1 0 1 -1 
1 0 1 -1 1 0 1 0 1 -1 1 0 1 0 1 -1 
1 0 1 0 1 -1 0 3 1 -1 1 0 1 0 1 -1 
1 0 1 0 1 0 1 -1 1 0 1 0 -1 0 2 -23 
1 0 1 0 1 0 1 -1 1 0 1 0 1 -1 1 0 
1 0 1 -1 0 3 1 0 1 0 1 -1 1 0 1 0 
1 -1 1 0 1 0 2508 3425 100 MP stroke
1 -1 1 0 1 0 0 -41 1 0 1 0 1 -1 1 0 
1 0 1 -1 1 0 1 0 1 0 1 -1 1 -13 1 0 
1 0 1 -1 1 0 1 0 1 0 1 -1 1 0 1 0 
1 -1 0 27 1 0 1 0 1 0 1 -1 1 0 1 0 
1 -1 1 0 1 0 1 -1 1 0 0 -27 1 0 1 0 
1 -1 1 0 1 0 1 0 1 -1 1 0 1 0 1 -1 
1 21 1 0 1 -1 1 0 1 0 1 0 1 -1 1 0 
1 0 1 -1 1 0 0 5 1 0 1 0 1 -1 1 0 
1 0 1 -1 1 0 1 0 1 -1 1 0 1 -45 1 -1 
1 0 1 0 1 0 1 -1 1 0 1 0 1 -1 1 0 
1 0 1 95 1 -1 1 0 1 0 1 -1 1 0 1 0 
1 -1 1 0 1 0 1 0 0 24 1 0 1 0 1 -1 
1 0 1 0 1 -1 2414 3406 100 MP stroke
1 0 1 0 1 -1 1 0 1 37 1 0 1 -1 1 0 
1 0 1 -1 1 0 1 0 1 -1 1 0 1 0 0 26 
1 0 1 0 1 -1 1 0 1 0 1 -1 1 0 1 0 
1 -1 1 0 1 0 0 -30 1 0 1 0 1 -1 1 0 
1 0 1 -1 1 0 1 0 1 -1 1 0 1 -17 1 0 
1 -1 1 0 1 0 1 -1 1 0 1 0 1 -1 1 0 
1 0 0 48 1 0 1 0 1 0 1 -1 1 0 1 0 
1 -1 1 0 1 0 1 0 1 -1 0 -24 1 0 1 -1 
1 0 1 0 1 -1 1 0 1 0 1 -1 1 0 1 0 
0 -4 1 0 1 -1 1 0 1 0 1 -1 1 0 1 0 
1 -1 1 0 1 0 0 -7 1 0 1 0 1 -1 1 0 
1 0 1 -1 1 0 1 0 1 -1 1 0 1 -10 1 -1 
1 0 1 0 1 -1 2321 3414 100 MP stroke
1 0 1 0 1 -1 1 0 1 0 1 -7 1 0 1 0 
1 -1 1 0 1 0 1 0 1 -1 1 0 1 0 1 -1 
0 3 1 -1 1 0 1 0 1 -1 1 0 1 0 1 0 
1 -1 1 0 1 0 0 -18 1 0 1 0 1 -1 1 0 
1 0 1 -1 1 0 1 0 1 -1 1 0 0 64 1 -1 
1 0 1 0 1 -1 1 0 1 0 1 0 1 -1 1 0 
1 0 -1 0 2 -66 1 -1 1 0 1 0 1 -1 1 0 
1 0 1 -1 1 0 1 0 1 -59 1 -1 1 0 1 0 
1 -1 1 0 1 0 1 -1 1 0 1 0 1 -1 0 12 
1 0 1 0 1 0 1 -1 1 0 1 0 1 -1 1 0 
1 0 1 -1 0 24 1 0 1 0 1 -1 1 0 1 0 
1 -1 1 0 1 0 1 -1 1 0 0 36 1 -1 1 0 
1 0 1 0 1 -1 2229 3453 100 MP stroke
1 0 1 0 1 -1 1 0 1 0 -1 0 2 73 1 0 
1 -1 1 0 1 0 1 -1 1 0 1 0 1 -1 1 0 
1 36 1 0 1 0 1 -1 1 0 1 0 1 -1 1 0 
1 0 1 0 1 -1 0 10 1 0 1 0 1 0 1 -1 
1 0 1 0 1 -1 1 0 1 0 1 -1 0 -3 1 0 
1 0 1 -1 1 0 1 0 1 0 1 -1 1 0 1 0 
1 -1 1 -2 1 -1 1 0 1 0 1 0 1 -1 1 0 
1 0 1 -1 1 0 1 8 1 -1 1 0 1 0 1 -1 
1 0 1 0 1 0 1 -1 1 0 1 0 0 -4 1 0 
1 -1 1 0 1 0 1 -1 1 0 1 0 1 0 1 -1 
1 0 0 -63 1 0 1 0 1 -1 1 0 1 0 1 -1 
1 0 1 0 1 -1 1 0 0 -31 1 0 1 -1 1 0 
1 0 1 -1 1 0 2136 3456 100 MP stroke
1 0 1 -1 1 0 1 0 1 25 1 0 1 0 1 -1 
1 0 1 0 1 -1 1 0 1 0 1 -1 1 2 1 -1 
1 0 1 0 1 0 1 -1 1 0 1 0 1 -1 1 0 
1 0 0 -7 1 0 1 -1 1 0 1 0 1 0 1 -1 
1 0 1 0 1 -1 1 0 0 16 1 0 1 -1 1 0 
1 0 1 -1 1 0 1 0 1 -1 1 0 1 0 0 5 
1 0 1 -1 1 0 1 0 1 -1 1 0 1 0 1 -1 
1 0 1 0 1 4 1 -1 1 0 1 0 1 -1 1 0 
1 0 1 -1 1 0 1 0 1 47 1 -1 1 0 1 0 
1 0 1 -1 1 0 1 0 1 -1 1 0 1 0 0 45 
1 0 1 -1 1 0 1 0 1 0 1 -1 1 0 1 0 
1 -1 1 0 0 60 1 0 1 -1 1 0 1 0 1 -1 
1 0 1 0 1 -1 2042 3287 100 MP stroke
1 0 1 0 0 -16 1 0 1 -1 1 0 1 0 1 -1 
1 0 1 0 1 -1 1 0 1 0 1 -22 1 -1 1 0 
1 0 1 -1 1 0 1 0 1 -1 1 0 1 0 1 -47 
1 0 1 -1 1 0 1 0 1 -1 1 0 1 0 1 0 
1 -1 1 0 0 -8 1 -1 1 0 1 0 1 -1 1 0 
1 0 1 0 1 -1 1 0 1 0 0 -5 1 0 1 -1 
1 0 1 0 1 -1 1 0 1 0 1 -1 1 0 1 0 
0 5 1 0 1 0 1 -1 1 0 1 0 1 0 1 -1 
1 0 1 0 1 -1 1 25 1 0 1 0 1 -1 1 0 
1 0 1 -1 1 0 1 0 1 -1 1 -5 1 0 1 0 
1 -1 1 0 1 0 1 -1 1 0 1 0 1 -1 1 0 
0 36 1 0 1 0 1 -1 1 0 1 0 1 -1 1 0 
1 0 1 0 1 -1 1948 3351 100 MP stroke
0 -46 1 0 1 -1 1 0 1 0 1 0 1 -1 1 0 
1 0 1 -1 1 0 1 16 1 -1 1 0 1 0 1 -1 
1 0 1 0 1 -1 1 0 1 0 1 -57 1 0 1 0 
1 -1 1 0 1 0 1 0 1 -1 1 0 1 0 1 -1 
0 26 1 0 1 -1 1 0 1 0 1 -1 1 0 1 0 
1 0 1 -1 1 0 0 13 1 -1 1 0 1 0 1 -1 
1 0 1 0 1 0 1 -1 1 0 1 0 0 -1 0 1 
1 35 1 0 1 -1 1 0 1 0 1 -1 1 0 1 0 
1 -1 1 0 1 17 1 -1 1 0 1 0 1 0 1 -1 
1 0 1 0 1 -1 1 0 1 11 1 -1 1 0 1 0 
1 0 1 -1 1 0 1 0 1 -1 1 0 1 0 0 29 
1 0 1 -1 1 0 1 0 1 0 1 -1 1 0 1 0 
1 -1 1 0 0 -24 1856 3358 100 MP stroke
1 0 1 0 1 0 1 -1 1 0 1 0 1 -1 1 0 
1 0 1 -1 0 -56 1 0 1 0 1 0 1 -1 1 0 
1 0 1 -1 1 0 1 0 1 -1 1 -32 1 -1 1 0 
1 0 1 -1 1 0 1 0 1 -1 1 0 1 0 1 57 
1 -1 1 0 1 0 1 0 1 -1 1 0 1 0 1 -1 
1 0 1 0 0 38 1 -1 1 0 1 0 1 -1 1 0 
1 0 1 -1 1 0 1 0 1 0 0 -33 1 -1 1 0 
1 0 1 -1 1 0 1 0 1 0 1 -1 1 0 1 0 
0 -1 0 1 1 41 1 0 1 0 1 -1 1 0 1 0 
1 -1 1 0 1 0 1 -1 1 33 1 0 1 0 1 -1 
1 0 1 0 1 -1 1 0 1 0 1 0 -1 0 2 -6 
1 0 1 0 1 -1 1 0 1 0 1 -1 1 0 1 0 
1 -1 1 0 0 -43 1764 3385 100 MP stroke
1 0 1 0 1 -1 1 0 1 0 1 -1 1 0 1 0 
1 -1 1 0 0 56 1 0 1 -1 1 0 1 0 1 -1 
1 0 1 0 1 -1 1 0 1 0 0 -27 1 0 1 -1 
1 0 1 0 1 -1 1 0 1 0 1 -1 1 0 1 0 
1 47 1 0 1 -1 1 0 1 0 1 -1 1 0 1 0 
1 -1 1 0 1 -6 1 0 1 0 1 -1 1 0 1 0 
1 -1 1 0 1 0 1 -1 1 0 0 -23 1 0 1 0 
1 -1 1 0 1 0 1 -1 1 0 1 0 1 -1 1 0 
0 5 1 0 1 0 1 -1 1 0 1 0 1 -1 1 0 
1 0 1 -1 1 0 1 -12 1 0 1 0 1 0 1 -1 
1 0 1 -1 1 0 1 0 1 0 -1 0 2 -2 1 -1 
1 0 1 0 1 0 1 -1 1 0 1 0 1 -1 1 0 
1 0 0 19 1 0 1671 3354 100 MP stroke
1 -1 1 0 1 0 1 -1 1 0 1 0 1 0 1 -1 
1 0 0 4 1 0 1 0 1 -1 1 0 1 0 1 -1 
1 0 1 0 1 -1 1 0 0 -4 1 -1 1 0 1 0 
1 -1 1 0 1 0 1 -1 1 0 1 0 1 0 -1 0 
2 -43 1 -1 1 0 1 0 1 -1 1 0 1 0 1 -1 
1 0 1 0 -1 0 2 -52 1 0 1 0 1 0 1 -1 
1 0 1 0 1 -1 1 0 1 0 1 -1 0 42 1 -1 
1 0 1 0 1 -1 1 0 1 0 1 -1 1 0 1 0 
1 0 0 -19 1 0 1 -1 1 0 1 0 1 -1 1 0 
1 0 1 0 1 -1 1 0 0 44 1 0 1 -1 1 0 
1 0 1 -1 1 0 1 0 1 0 1 -1 1 0 1 -21 
1 0 1 0 1 -1 1 0 1 0 1 -1 1 0 1 0 
1 -1 1 8 1 0 1579 3422 100 MP stroke
1 -1 1 0 1 0 1 -1 1 0 1 0 1 -1 1 0 
1 0 0 -20 1 0 1 0 1 0 1 -1 1 0 1 0 
1 -1 1 0 1 0 1 -1 0 19 1 -1 1 0 1 0 
1 -1 1 0 1 0 1 -1 1 0 1 0 1 0 0 117 
1 0 1 -1 1 0 1 0 1 0 1 -1 1 0 1 0 
1 -1 1 -12 1 0 1 0 1 -1 1 0 1 0 1 -1 
1 0 1 0 1 0 -1 0 2 -35 1 0 1 -1 1 0 
1 0 1 -1 1 0 1 0 1 -1 1 0 0 -58 1 0 
1 0 1 -1 1 0 1 0 1 0 1 -1 1 0 1 0 
1 -1 0 -11 1 -1 1 0 1 0 1 -1 1 0 1 0 
1 0 1 -1 1 0 1 0 0 -38 1 0 1 -1 1 0 
1 0 1 -1 1 0 1 0 1 0 1 -1 1 -10 1 0 
1 -1 1 0 1 0 1487 3497 100 MP stroke
1 -1 1 0 1 0 1 -1 1 0 1 103 1 0 1 0 
1 -1 1 0 1 0 1 -1 1 0 1 0 1 -1 0 20 
1 0 1 0 1 -1 1 0 1 0 1 -1 1 0 1 0 
1 -1 1 0 0 59 1 0 1 0 1 0 1 -1 1 0 
1 0 1 -1 1 0 1 0 -1 0 2 27 1 -1 1 0 
1 0 1 -1 1 0 1 0 1 -1 1 0 1 0 1 -72 
1 0 1 -1 1 0 1 0 1 -1 1 0 1 0 1 -1 
1 0 0 -30 1 0 1 0 1 -1 1 0 1 0 1 -1 
1 0 1 0 1 -1 1 0 0 5 1 0 1 0 1 0 
1 -1 1 0 1 0 1 -1 1 0 1 0 1 -1 0 62 
1 0 1 0 1 -1 1 0 1 0 1 0 1 -1 1 0 
1 -1 1 -28 1 -1 1 0 1 0 1 -1 1 0 1 0 
1 -1 1 0 1 0 1394 3379 100 MP stroke
1 26 1 0 1 0 1 -1 1 0 1 0 1 -1 1 0 
1 0 1 -1 0 -6 1 0 1 0 1 0 1 -1 1 0 
1 0 1 -1 1 0 1 0 1 0 0 -24 1 0 1 0 
1 -1 1 0 1 0 1 -1 1 0 1 0 1 0 -1 0 
2 -11 1 0 1 -1 1 0 1 0 1 0 1 -1 1 0 
1 0 1 -1 1 36 1 0 1 0 1 -1 1 0 1 0 
1 -1 1 0 1 0 1 -1 0 40 1 0 1 0 1 0 
1 -1 1 0 1 0 1 -1 1 0 1 0 1 -1 0 -32 
1 0 1 0 1 0 1 -1 1 0 1 0 1 -1 1 0 
1 0 1 -1 0 -14 1 0 1 0 1 0 1 -1 1 0 
1 0 1 -1 1 0 1 0 1 -1 1 0 1 -1 1 0 
1 0 1 -1 1 0 1 0 1 -1 1 0 1 22 1 0 
1 -1 1 0 1 0 1301 3368 100 MP stroke
1 0 1 -1 1 0 1 0 1 -1 0 34 1 0 1 -1 
1 0 1 0 1 -1 1 0 1 0 1 -1 1 0 1 0 
0 59 1 0 1 -1 1 0 1 0 1 -1 1 0 1 0 
1 -1 1 0 1 0 0 -37 1 0 1 -1 1 0 1 0 
1 -1 1 0 1 0 1 -1 1 0 1 -74 1 0 1 0 
1 -1 1 0 1 0 1 0 1 -1 1 0 1 0 -1 0 
2 6 1 -1 1 0 1 0 1 -1 1 0 1 0 1 -1 
1 0 1 0 0 -41 1 0 1 0 1 -1 1 0 1 0 
1 -1 1 0 1 0 1 -1 1 0 1 -1 1 0 1 -1 
1 0 1 0 1 -1 1 0 1 0 1 -1 1 20 1 -1 
1 0 1 0 1 -1 1 0 1 0 1 -1 1 0 1 0 
1 -10 1 -1 1 0 1 0 1 -1 1 0 1 0 1 -1 
1 0 1 0 0 7 1208 3433 100 MP stroke
1 0 1 -1 1 0 1 0 1 -1 1 0 1 0 1 -1 
1 0 1 0 0 -22 1 0 1 -1 1 0 1 0 1 0 
1 -1 1 0 1 0 1 -1 1 0 0 20 1 -1 1 0 
1 0 1 0 1 -1 1 0 1 0 1 -1 1 0 1 -70 
1 0 1 -1 1 0 1 0 1 -1 1 0 1 0 1 -1 
1 0 1 16 1 0 1 -1 1 0 1 0 1 -1 1 0 
1 0 1 0 1 -1 0 8 1 0 1 -1 1 0 1 0 
1 -1 1 0 1 0 1 -1 1 0 1 0 0 -48 1 0 
1 0 1 0 1 -1 1 0 1 0 1 -1 1 0 1 0 
-1 0 2 -58 1 0 1 0 1 -1 1 0 1 0 1 -1 
1 0 1 0 1 -1 1 -78 1 -1 1 0 1 0 1 -1 
1 0 1 0 1 -1 1 0 1 0 0 -135 1 0 1 0 
1 0 1 -1 1 0 1115 3827 100 MP stroke
1 0 1 -1 1 0 1 0 1 -1 0 -79 1 0 1 0 
1 0 1 -1 1 0 1 0 1 -1 1 0 1 0 1 -1 
0 -49 1 0 1 0 1 0 1 -1 1 0 1 0 1 -1 
1 0 1 0 -1 0 2 -115 1 0 1 -1 1 0 1 0 
1 -1 1 0 1 0 1 -1 1 0 1 -81 1 -1 1 0 
1 0 1 -1 1 0 1 0 1 -1 1 0 1 0 0 -28 
1 0 1 0 1 -1 1 0 1 0 1 -1 1 0 1 0 
1 -1 1 0 0 -92 1 0 1 -1 1 0 1 0 1 -1 
1 0 1 0 1 -1 1 0 1 0 0 -64 1 0 1 0 
1 0 1 -1 1 0 1 -1 1 0 1 0 1 -1 1 -51 
1 0 1 -1 1 0 1 0 1 -1 1 0 1 0 1 -1 
1 0 1 -23 1 0 1 -1 1 0 1 0 1 -1 1 0 
1 0 1 0 1 -1 1022 4437 100 MP stroke
0 -46 1 0 1 0 1 -1 1 0 1 0 1 -1 1 0 
1 0 1 -1 1 0 0 -13 1 0 1 -1 1 0 1 0 
1 -1 1 0 1 0 1 -1 1 0 1 43 1 0 1 -1 
1 0 1 0 1 -1 1 0 1 0 1 -1 1 0 1 129 
1 -1 1 0 1 0 1 -1 1 0 1 0 1 -1 1 0 
1 0 0 244 1 0 1 0 1 0 1 -1 1 0 1 0 
1 -1 1 0 1 0 1 -1 0 335 1 0 1 -1 1 0 
1 0 1 -1 1 0 1 0 1 -1 1 0 1 0 0 440 
1 0 1 0 1 0 1 -1 1 0 1 0 1 -1 1 0 
1 0 1 -1 1 0 1 0 1 -1 1 0 1 0 1 -1 
1 0 1 0 1 -1 1 0 1 0 1 -1 1 0 1 0 
1 0 1 -1 1 0 1 0 1 -1 1 0 1 0 1 -1 
1 0 1 0 1 -1 928 3334 100 MP stroke
1 0 1 0 1 -1 1 0 1 0 1 -1 1 0 1 0 
1 -1 1 0 1 0 1 -1 1 0 1 0 1 0 1 -1 
1 0 911 3339 18 MP stroke
/c10 { 0.000000 1.000000 0.000000 sr} bdef
c10
1 0 1 0 1 0 1 0 1 0 1 0 0 -19 1 0 
1 0 1 0 1 0 1 0 1 0 1 0 1 0 1 0 
1 0 1 0 1 0 1 -2 1 0 1 0 1 0 1 0 
1 0 1 0 1 0 1 0 1 0 1 0 1 0 1 0 
0 8 1 0 1 0 1 0 1 0 1 0 1 0 1 0 
1 0 1 0 1 0 1 0 1 0 1 0 0 -19 1 0 
1 0 1 0 1 0 1 0 1 0 1 0 1 0 1 0 
1 0 1 0 1 0 1 0 0 12 1 0 1 0 1 0 
1 0 1 0 1 0 1 0 1 0 1 0 1 0 1 0 
1 0 1 -53 1 0 1 0 1 0 1 0 1 0 1 0 
1 0 1 0 1 0 1 0 1 0 1 0 1 -39 1 0 
1 0 1 0 1 0 1 0 1 0 1 0 1 0 1 0 
1 0 1 0 1 0 6161 3431 100 MP stroke
0 45 1 0 1 0 1 0 1 0 1 0 1 0 1 0 
1 0 1 0 1 0 1 0 1 0 1 0 0 22 1 0 
1 0 1 0 1 0 1 0 1 0 1 0 1 0 1 0 
1 0 1 0 1 0 1 -4 1 0 1 0 1 0 1 0 
1 0 1 0 1 0 1 0 1 0 1 0 1 0 1 0 
0 -52 1 0 1 0 1 0 1 0 1 0 1 0 1 0 
1 0 1 0 1 0 1 0 1 0 0 -38 1 0 1 0 
1 0 1 0 1 0 1 0 1 0 1 0 1 0 1 0 
1 0 1 0 1 13 1 0 1 0 1 0 1 0 1 0 
1 0 1 0 1 0 1 0 1 0 1 0 1 0 0 10 
1 0 1 0 1 0 1 0 1 0 1 0 1 0 1 0 
1 0 1 0 1 0 1 0 0 -21 1 0 1 0 1 0 
1 0 1 0 1 0 6068 3456 100 MP stroke
1 0 1 0 1 0 1 0 1 0 1 0 1 59 1 0 
1 0 1 0 1 0 1 0 1 0 1 0 1 0 1 0 
1 0 1 0 1 0 0 2 1 0 1 0 1 0 1 0 
1 0 1 0 1 0 1 0 1 0 1 0 1 0 1 0 
0 -28 1 0 1 0 1 0 1 0 1 0 1 0 1 0 
1 0 1 0 1 0 1 0 1 0 1 -19 1 0 1 0 
1 0 1 0 1 0 1 0 1 0 1 0 1 0 1 0 
1 0 1 0 0 11 1 0 1 0 1 0 1 0 1 0 
1 0 1 0 1 0 1 0 1 0 1 0 1 0 0 -15 
1 0 1 0 1 0 1 0 1 0 1 0 1 0 1 0 
1 0 1 0 1 0 1 0 1 -15 1 0 1 0 1 0 
1 0 1 0 1 0 1 0 1 0 1 0 1 0 1 0 
1 0 0 19 1 0 5974 3442 100 MP stroke
1 0 1 0 1 0 1 0 1 0 1 0 1 0 1 0 
1 0 1 0 1 0 0 27 1 0 1 0 1 0 1 0 
1 0 1 0 1 0 1 0 1 0 1 0 1 0 1 0 
1 7 1 0 1 0 1 0 1 0 1 0 1 0 1 0 
1 0 1 0 1 0 1 0 1 0 0 34 1 0 1 0 
1 0 1 0 1 0 1 0 1 0 1 0 1 0 1 0 
1 0 1 0 0 -36 1 0 1 0 1 0 1 0 1 0 
1 0 1 0 1 0 1 0 1 0 1 0 1 0 1 46 
1 0 1 0 1 0 1 0 1 0 1 0 1 0 1 0 
1 0 1 0 1 0 1 0 0 -26 1 0 1 0 1 0 
1 0 1 0 1 0 1 0 1 0 1 0 1 0 1 0 
1 0 0 -46 1 0 1 0 1 0 1 0 1 0 1 0 
1 0 1 0 1 0 5880 3436 100 MP stroke
1 0 1 0 1 0 1 5 1 0 1 0 1 0 1 0 
1 0 1 0 1 0 1 0 1 0 1 0 1 0 1 0 
0 25 1 0 1 0 1 0 1 0 1 0 1 0 1 0 
1 0 1 0 1 0 1 0 1 0 1 14 1 0 1 0 
1 0 1 0 1 0 1 0 1 0 1 0 1 0 1 0 
1 0 1 -21 1 0 1 0 1 0 1 0 1 0 1 0 
1 0 1 0 1 0 1 0 1 0 1 0 0 12 1 0 
1 0 1 0 1 0 1 0 1 0 1 0 1 0 1 0 
1 0 1 0 1 0 1 -34 1 0 1 0 1 0 1 0 
1 0 1 0 1 0 1 0 1 0 1 0 1 0 1 26 
1 0 1 0 1 0 1 0 1 0 1 0 1 0 1 0 
1 0 1 0 1 0 1 0 0 -15 1 0 1 0 1 0 
1 0 1 0 1 0 5784 3424 100 MP stroke
1 0 1 0 1 0 1 0 1 0 1 0 1 -15 1 0 
1 0 1 0 1 0 1 0 1 0 1 0 1 0 1 0 
1 0 1 0 1 -6 1 0 1 0 1 0 1 0 1 0 
1 0 1 0 1 0 1 0 1 0 1 0 1 0 0 -48 
1 0 1 0 1 0 1 0 1 0 1 0 1 0 1 0 
1 0 1 0 1 0 1 0 1 47 1 0 1 0 1 0 
1 0 1 0 1 0 1 0 1 0 1 0 1 0 1 0 
1 -23 1 0 1 0 1 0 1 0 1 0 1 0 1 0 
1 0 1 0 1 0 1 0 1 0 0 42 1 0 1 0 
1 0 1 0 1 0 1 0 1 0 1 0 1 0 1 0 
1 0 1 0 1 -14 1 0 1 0 1 0 1 0 1 0 
1 0 1 0 1 0 1 0 1 0 1 0 1 1 1 0 
1 0 1 0 1 0 5687 3440 100 MP stroke
1 0 1 0 1 0 1 0 1 0 1 0 1 0 1 0 
0 12 1 0 1 0 1 0 1 0 1 0 1 0 1 0 
1 0 1 0 1 0 1 0 1 0 1 17 1 0 1 0 
1 0 1 0 1 0 1 0 1 0 1 0 1 0 1 0 
1 0 1 -32 1 0 1 0 1 0 1 0 1 0 1 0 
1 0 1 0 1 0 1 0 1 0 1 0 0 43 1 0 
1 0 1 0 1 0 1 0 1 0 1 0 1 0 1 0 
1 0 1 0 1 0 1 8 1 0 1 0 1 0 1 0 
1 0 1 0 1 0 1 0 1 0 1 0 1 0 1 -14 
1 0 1 0 1 0 1 0 1 0 1 0 1 0 1 0 
1 0 1 0 1 0 1 0 0 46 1 0 1 0 1 0 
1 0 1 0 1 0 1 0 1 0 1 0 1 0 1 0 
1 0 1 -17 1 0 5591 3377 100 MP stroke
1 0 1 0 1 0 1 0 1 0 1 0 1 0 1 0 
1 0 1 0 1 -55 1 0 1 0 1 0 1 0 1 0 
1 0 1 0 1 0 1 0 1 0 1 0 1 0 0 59 
1 0 1 0 1 0 1 0 1 0 1 0 1 0 1 0 
1 0 1 0 1 0 1 0 1 -20 1 0 1 0 1 0 
1 0 1 0 1 0 1 0 1 0 1 0 1 0 1 0 
1 -18 1 0 1 0 1 0 1 0 1 0 1 0 1 0 
1 0 1 0 1 0 1 0 1 0 0 8 1 0 1 0 
1 0 1 0 1 0 1 0 1 0 1 0 1 0 1 0 
1 0 1 0 1 8 1 0 1 0 1 0 1 0 1 0 
1 0 1 0 1 0 1 0 1 0 1 0 1 49 1 0 
1 0 1 0 1 0 1 0 1 0 1 0 1 0 1 0 
1 0 1 0 1 0 5494 3346 100 MP stroke
0 -14 1 0 1 0 1 0 1 0 1 0 1 0 1 0 
1 0 1 0 1 0 1 0 1 0 1 -69 1 0 1 0 
1 0 1 0 1 0 1 0 1 0 1 0 1 0 1 0 
1 0 1 15 1 0 1 0 1 0 1 0 1 0 1 0 
1 0 1 0 1 0 1 0 1 0 1 0 0 7 1 0 
1 0 1 0 1 0 1 0 1 0 1 0 1 0 1 0 
1 0 1 0 1 0 1 -13 1 0 1 0 1 0 1 0 
1 0 1 0 1 0 1 0 1 0 1 0 1 0 1 23 
1 0 1 0 1 0 1 0 1 0 1 0 1 0 1 0 
1 0 1 0 1 0 1 0 0 18 1 0 1 0 1 0 
1 0 1 0 1 0 1 0 1 0 1 0 1 0 1 0 
1 0 1 -20 1 0 1 0 1 0 1 0 1 0 1 0 
1 0 1 0 1 0 5398 3399 100 MP stroke
1 0 1 0 1 38 1 0 1 0 1 0 1 0 1 0 
1 0 1 0 1 0 1 0 1 0 1 0 1 0 0 19 
1 0 1 0 1 0 1 0 1 0 1 0 1 0 1 0 
1 0 1 0 1 0 1 0 1 1 1 0 1 0 1 0 
1 0 1 0 1 0 1 0 1 0 1 0 1 0 1 0 
0 18 1 0 1 0 1 0 1 0 1 0 1 0 1 0 
1 0 1 0 1 0 1 0 1 0 0 -8 1 0 1 0 
1 0 1 0 1 0 1 0 1 0 1 0 1 0 1 0 
1 0 1 0 0 -13 1 0 1 0 1 0 1 0 1 0 
1 0 1 0 1 0 1 0 1 0 1 0 1 0 0 -77 
1 0 1 0 1 0 1 0 1 0 1 0 1 0 1 0 
1 0 1 0 1 0 1 0 0 33 1 0 1 0 1 0 
1 0 1 0 1 0 5305 3388 100 MP stroke
1 0 1 0 1 0 1 0 1 0 1 0 0 -53 1 0 
1 0 1 0 1 0 1 0 1 0 1 0 1 0 1 0 
1 0 1 0 1 0 0 46 1 0 1 0 1 0 1 0 
1 0 1 0 1 0 1 0 1 0 1 0 1 0 1 -17 
1 0 1 0 1 0 1 0 1 0 1 0 1 0 1 0 
1 0 1 0 1 0 1 21 1 0 1 0 1 0 1 0 
1 0 1 0 1 0 1 0 1 0 1 0 1 0 1 -27 
1 0 1 0 1 0 1 0 1 0 1 0 1 0 1 0 
1 0 1 0 1 0 1 -5 1 0 1 0 1 0 1 0 
1 0 1 0 1 0 1 0 1 0 1 0 1 0 0 43 
1 0 1 0 1 0 1 0 1 0 1 0 1 0 1 0 
1 0 1 0 1 0 1 0 0 -69 1 0 1 0 1 0 
1 0 1 0 1 0 5210 3449 100 MP stroke
1 0 1 0 1 0 1 0 1 0 1 0 0 -20 1 0 
1 0 1 0 1 0 1 0 1 0 1 0 1 0 1 0 
1 0 1 0 1 0 0 -13 1 0 1 0 1 0 1 0 
1 0 1 0 1 0 1 0 1 0 1 0 1 0 1 0 
0 70 1 0 1 0 1 0 1 0 1 0 1 0 1 0 
1 0 1 0 1 0 1 0 1 0 0 27 1 0 1 0 
1 0 1 0 1 0 1 0 1 0 1 0 1 0 1 0 
1 0 1 0 0 -33 1 0 1 0 1 0 1 0 1 0 
1 0 1 0 1 0 1 0 1 0 1 0 1 -60 1 0 
1 0 1 0 1 0 1 0 1 0 1 0 1 0 1 0 
1 0 1 0 1 18 1 0 1 0 1 0 1 0 1 0 
1 0 1 0 1 0 1 0 1 0 1 0 1 2 1 0 
1 0 1 0 1 0 5116 3458 100 MP stroke
1 0 1 0 1 0 1 0 1 0 1 0 1 0 1 42 
1 0 1 0 1 0 1 0 1 0 1 0 1 0 1 0 
1 0 1 0 1 0 0 10 1 0 1 0 1 0 1 0 
1 0 1 0 1 0 1 0 1 0 1 0 1 0 1 0 
0 18 1 0 1 0 1 0 1 0 1 0 1 0 1 0 
1 0 1 0 1 0 1 0 1 0 0 11 1 0 1 0 
1 0 1 0 1 0 1 0 1 0 1 0 1 0 1 0 
1 0 1 0 0 51 1 0 1 0 1 0 1 0 1 0 
1 0 1 0 1 0 1 0 1 0 1 0 1 0 0 46 
1 0 1 0 1 0 1 0 1 0 1 0 1 0 1 0 
1 0 1 0 1 0 1 0 0 -66 1 0 1 0 1 0 
1 0 1 0 1 0 1 0 1 0 1 0 1 0 1 0 
1 0 0 12 1 0 5024 3334 100 MP stroke
1 0 1 0 1 0 1 0 1 0 1 0 1 0 1 0 
1 0 1 0 1 -20 1 0 1 0 1 0 1 0 1 0 
1 0 1 0 1 0 1 0 1 0 1 0 1 -6 1 0 
1 0 1 0 1 0 1 0 1 0 1 0 1 0 1 0 
1 0 1 0 1 -37 1 0 1 0 1 0 1 0 1 0 
1 0 1 0 1 0 1 0 1 0 1 0 1 -44 1 0 
1 0 1 0 1 0 1 0 1 0 1 0 1 0 1 0 
1 0 1 0 0 -12 1 0 1 0 1 0 1 0 1 0 
1 0 1 0 1 0 1 0 1 0 1 0 1 0 0 -46 
1 0 1 0 1 0 1 0 1 0 1 0 1 0 1 0 
1 0 1 0 1 0 1 0 0 4 1 0 1 0 1 0 
1 0 1 0 1 0 1 0 1 0 1 0 1 0 1 0 
1 0 0 -28 1 0 4929 3523 100 MP stroke
1 0 1 0 1 0 1 0 1 0 1 0 1 0 1 0 
1 0 1 0 1 0 0 -2 1 0 1 0 1 0 1 0 
1 0 1 0 1 0 1 0 1 0 1 0 1 0 1 0 
0 36 1 0 1 0 1 0 1 0 1 0 1 0 1 0 
1 0 1 0 1 0 1 0 1 0 0 60 1 0 1 0 
1 0 1 0 1 0 1 0 1 0 1 0 1 0 1 0 
1 0 1 43 1 0 1 0 1 0 1 0 1 0 1 0 
1 0 1 0 1 0 1 0 1 0 1 7 1 0 1 0 
1 0 1 0 1 0 1 0 1 0 1 0 1 0 1 0 
1 0 1 -12 1 0 1 0 1 0 1 0 1 0 1 0 
1 0 1 0 1 0 1 0 1 0 1 -46 1 0 1 0 
1 0 1 0 1 0 1 0 1 0 1 0 1 0 1 0 
1 0 1 37 1 0 4833 3400 100 MP stroke
1 0 1 0 1 0 1 0 1 0 1 0 1 0 1 0 
1 0 1 0 0 20 1 0 1 0 1 0 1 0 1 0 
1 0 1 0 1 0 1 0 1 0 1 0 1 0 0 -2 
1 0 1 0 1 0 1 0 1 0 1 0 1 0 1 0 
1 0 1 0 1 0 1 0 0 15 1 0 1 0 1 0 
1 0 1 0 1 0 1 0 1 0 1 0 1 0 1 0 
1 0 0 -10 1 0 1 0 1 0 1 0 1 0 1 0 
1 0 1 0 1 0 1 0 1 0 1 0 0 -32 1 0 
1 0 1 0 1 0 1 0 1 0 1 0 1 0 1 0 
1 0 1 0 1 0 0 -4 1 0 1 0 1 0 1 0 
1 0 1 0 1 0 1 0 1 0 1 0 1 0 1 9 
1 0 1 0 1 0 1 0 1 0 1 0 1 0 1 0 
1 0 1 0 1 0 4740 3404 100 MP stroke
1 26 1 0 1 0 1 0 1 0 1 0 1 0 1 0 
1 0 1 0 1 0 1 0 1 17 1 0 1 0 1 0 
1 0 1 0 1 0 1 0 1 0 1 0 1 0 1 0 
1 -7 1 0 1 0 1 0 1 0 1 0 1 0 1 0 
1 0 1 0 1 0 1 0 1 5 1 0 1 0 1 0 
1 0 1 0 1 0 1 0 1 0 1 0 1 0 1 0 
0 -11 1 0 1 0 1 0 1 0 1 0 1 0 1 0 
1 0 1 0 1 0 1 0 1 0 0 35 1 0 1 0 
1 0 1 0 1 0 1 0 1 0 1 0 1 0 1 0 
1 0 1 0 0 -85 1 0 1 0 1 0 1 0 1 0 
1 0 1 0 1 0 1 0 1 0 1 0 1 0 0 32 
1 0 1 0 1 0 1 0 1 0 1 0 1 0 1 0 
1 0 1 0 1 0 4645 3392 100 MP stroke
1 0 0 77 1 0 1 0 1 0 1 0 1 0 1 0 
1 0 1 0 1 0 1 0 1 0 1 0 0 -30 1 0 
1 0 1 0 1 0 1 0 1 0 1 0 1 0 1 0 
1 0 1 0 1 -79 1 0 1 0 1 0 1 0 1 0 
1 0 1 0 1 0 1 0 1 0 1 0 0 47 1 0 
1 0 1 0 1 0 1 0 1 0 1 0 1 0 1 0 
1 0 1 0 1 -65 1 0 1 0 1 0 1 0 1 0 
1 0 1 0 1 0 1 0 1 0 1 0 0 16 1 0 
1 0 1 0 1 0 1 0 1 0 1 0 1 0 1 0 
1 0 1 0 1 14 1 0 1 0 1 0 1 0 1 0 
1 0 1 0 1 0 1 0 1 0 1 0 0 11 1 0 
1 0 1 0 1 0 1 0 1 0 1 0 1 0 1 0 
1 0 1 0 1 -27 4551 3428 100 MP stroke
1 0 1 0 1 0 1 0 1 0 1 0 1 0 1 0 
1 0 1 0 1 0 0 -14 1 0 1 0 1 0 1 0 
1 0 1 0 1 0 1 0 1 0 1 0 1 0 1 -53 
1 0 1 0 1 0 1 0 1 0 1 0 1 0 1 0 
1 0 1 0 1 0 0 18 1 0 1 0 1 0 1 0 
1 0 1 0 1 0 1 0 1 0 1 0 1 0 1 18 
1 0 1 0 1 0 1 0 1 0 1 0 1 0 1 0 
1 0 1 0 1 0 0 -15 1 0 1 0 1 0 1 0 
1 0 1 0 1 0 1 0 1 0 1 0 1 0 1 18 
1 0 1 0 1 0 1 0 1 0 1 0 1 0 1 0 
1 0 1 0 1 0 0 33 1 0 1 0 1 0 1 0 
1 0 1 0 1 0 1 0 1 0 1 0 1 0 1 8 
1 0 1 0 1 0 4456 3415 100 MP stroke
1 0 1 0 1 0 1 0 1 0 1 0 1 0 1 0 
0 -20 1 0 1 0 1 0 1 0 1 0 1 0 1 0 
1 0 1 0 1 0 1 0 1 5 1 0 1 0 1 0 
1 0 1 0 1 0 1 0 1 0 1 0 1 0 1 0 
0 24 1 0 1 0 1 0 1 0 1 0 1 0 1 0 
1 0 1 0 1 0 1 0 1 -60 1 0 1 0 1 0 
1 0 1 0 1 0 1 0 1 0 1 0 1 0 1 0 
0 15 1 0 1 0 1 0 1 0 1 0 1 0 1 0 
1 0 1 0 1 0 1 0 1 -6 1 0 1 0 1 0 
1 0 1 0 1 0 1 0 1 0 1 0 1 0 1 0 
0 27 1 0 1 0 1 0 1 0 1 0 1 0 1 0 
1 0 1 0 1 0 1 0 1 -11 1 0 1 0 1 0 
1 0 1 0 1 0 4361 3441 100 MP stroke
1 0 1 0 1 0 1 0 1 0 0 23 1 0 1 0 
1 0 1 0 1 0 1 0 1 0 1 0 1 0 1 0 
1 0 1 -19 1 0 1 0 1 0 1 0 1 0 1 0 
1 0 1 0 1 0 1 0 1 0 0 56 1 0 1 0 
1 0 1 0 1 0 1 0 1 0 1 0 1 0 1 0 
1 0 0 16 1 0 1 0 1 0 1 0 1 0 1 0 
1 0 1 0 1 0 1 0 1 0 1 0 0 21 1 0 
1 0 1 0 1 0 1 0 1 0 1 0 1 0 1 0 
1 0 1 0 0 -90 1 0 1 0 1 0 1 0 1 0 
1 0 1 0 1 0 1 0 1 0 1 0 1 -6 1 0 
1 0 1 0 1 0 1 0 1 0 1 0 1 0 1 0 
1 0 1 0 0 46 1 0 1 0 1 0 1 0 1 0 
1 0 1 0 1 0 4268 3394 100 MP stroke
1 0 1 0 1 0 1 -22 1 0 1 0 1 0 1 0 
1 0 1 0 1 0 1 0 1 0 1 0 1 0 0 -22 
1 0 1 0 1 0 1 0 1 0 1 0 1 0 1 0 
1 0 1 0 1 0 1 -27 1 0 1 0 1 0 1 0 
1 0 1 0 1 0 1 0 1 0 1 0 1 0 0 62 
1 0 1 0 1 0 1 0 1 0 1 0 1 0 1 0 
1 0 1 0 1 0 1 -22 1 0 1 0 1 0 1 0 
1 0 1 0 1 0 1 0 1 0 1 0 1 0 0 38 
1 0 1 0 1 0 1 0 1 0 1 0 1 0 1 0 
1 0 1 0 1 0 1 8 1 0 1 0 1 0 1 0 
1 0 1 0 1 0 1 0 1 0 1 0 1 0 0 14 
1 0 1 0 1 0 1 0 1 0 1 0 1 0 1 0 
1 0 1 0 1 0 4173 3365 100 MP stroke
1 -4 1 0 1 0 1 0 1 0 1 0 1 0 1 0 
1 0 1 0 1 0 1 0 0 24 1 0 1 0 1 0 
1 0 1 0 1 0 1 0 1 0 1 0 1 0 1 0 
1 -48 1 0 1 0 1 0 1 0 1 0 1 0 1 0 
1 0 1 0 1 0 1 0 0 6 1 0 1 0 1 0 
1 0 1 0 1 0 1 0 1 0 1 0 1 0 1 0 
1 -11 1 0 1 0 1 0 1 0 1 0 1 0 1 0 
1 0 1 0 1 0 1 0 0 70 1 0 1 0 1 0 
1 0 1 0 1 0 1 0 1 0 1 0 1 0 1 0 
1 -17 1 0 1 0 1 0 1 0 1 0 1 0 1 0 
1 0 1 0 1 0 1 0 0 30 1 0 1 0 1 0 
1 0 1 0 1 0 1 0 1 0 1 0 1 0 1 0 
1 -128 1 0 1 0 4078 3443 100 MP stroke
1 0 1 0 1 0 1 0 1 0 1 0 1 0 1 0 
1 0 0 46 1 0 1 0 1 0 1 0 1 0 1 0 
1 0 1 0 1 0 1 0 1 0 1 20 1 0 1 0 
1 0 1 0 1 0 1 0 1 0 1 0 1 0 1 0 
1 0 0 2 1 0 1 0 1 0 1 0 1 0 1 0 
1 0 1 0 1 0 1 0 1 0 1 -66 1 0 1 0 
1 0 1 0 1 0 1 0 1 0 1 0 1 0 1 0 
1 0 0 -67 1 0 1 0 1 0 1 0 1 0 1 0 
1 0 1 0 1 0 1 0 1 0 1 19 1 0 1 0 
1 0 1 0 1 0 1 0 1 0 1 0 1 0 1 0 
1 0 0 46 1 0 1 0 1 0 1 0 1 0 1 0 
1 0 1 0 1 0 1 0 1 0 1 19 1 0 1 0 
1 0 1 0 1 0 3983 3424 100 MP stroke
1 0 1 0 1 0 1 0 1 0 1 0 0 -12 1 0 
1 0 1 0 1 0 1 0 1 0 1 0 1 0 1 0 
1 0 1 0 0 3 1 0 1 0 1 0 1 0 1 0 
1 0 1 0 1 0 1 0 1 0 1 0 1 0 0 -18 
1 0 1 0 1 0 1 0 1 0 1 0 1 0 1 0 
1 0 1 0 1 0 0 8 1 0 1 0 1 0 1 0 
1 0 1 0 1 0 1 0 1 0 1 0 1 0 1 0 
0 12 1 0 1 0 1 0 1 0 1 0 1 0 1 0 
1 0 1 0 1 0 1 0 0 -32 1 0 1 0 1 0 
1 0 1 0 1 0 1 0 1 0 1 0 1 0 1 0 
1 85 1 0 1 0 1 0 1 0 1 0 1 0 1 0 
1 0 1 0 1 0 1 0 0 5 1 0 1 0 1 0 
1 0 1 0 1 0 3891 3373 100 MP stroke
1 0 1 0 1 0 1 0 1 0 1 -49 1 0 1 0 
1 0 1 0 1 0 1 0 1 0 1 0 1 0 1 0 
1 0 1 0 1 0 1 0 1 0 1 0 1 0 1 0 
1 0 1 0 1 0 1 0 0 16 1 0 1 0 1 0 
1 0 1 0 1 0 1 0 1 0 1 0 1 0 1 0 
0 54 1 0 1 0 1 0 1 0 1 0 1 0 1 0 
1 0 1 0 1 0 1 0 1 34 1 0 1 0 1 0 
1 0 1 0 1 0 1 0 1 0 1 0 1 0 1 12 
1 0 1 0 1 0 1 0 1 0 1 0 1 0 1 0 
1 0 1 0 1 -63 1 0 1 0 1 0 1 0 1 0 
1 0 1 0 1 0 1 0 1 0 1 -15 1 0 1 0 
1 0 1 0 1 0 1 0 1 0 1 0 1 0 1 0 
1 -11 1 0 1 0 3794 3395 100 MP stroke
1 0 1 0 1 0 1 0 1 0 1 0 1 0 1 0 
1 -12 1 0 1 0 1 0 1 0 1 0 1 0 1 0 
1 0 1 0 1 0 1 41 1 0 1 0 1 0 1 0 
1 0 1 0 1 0 1 0 1 0 1 0 1 0 0 34 
1 0 1 0 1 0 1 0 1 0 1 0 1 0 1 0 
1 0 1 0 1 0 0 -33 1 0 1 0 1 0 1 0 
1 0 1 0 1 0 1 0 1 0 1 0 1 0 0 -69 
1 0 1 0 1 0 1 0 1 0 1 0 1 0 1 0 
1 0 1 0 1 0 0 -25 1 0 1 0 1 0 1 0 
1 0 1 0 1 0 1 0 1 0 1 0 1 0 0 -12 
1 0 1 0 1 0 1 0 1 0 1 0 1 0 1 0 
1 0 1 0 1 0 0 -18 1 0 1 0 1 0 1 0 
1 0 1 0 1 0 3701 3489 100 MP stroke
1 0 1 0 1 0 1 0 0 -23 1 0 1 0 1 0 
1 0 1 0 1 0 1 0 1 0 1 0 1 0 1 0 
0 54 1 0 1 0 1 0 1 0 1 0 1 0 1 0 
1 0 1 0 1 0 1 0 0 9 1 0 1 0 1 0 
1 0 1 0 1 0 1 0 1 0 1 0 1 0 1 0 
0 89 1 0 1 0 1 0 1 0 1 0 1 0 1 0 
1 0 1 0 1 0 1 0 1 -16 1 0 1 0 1 0 
1 0 1 0 1 0 1 0 1 0 1 0 1 0 1 -10 
1 0 1 0 1 0 1 0 1 0 1 0 1 0 1 0 
1 0 1 0 1 -20 1 0 1 0 1 0 1 0 1 0 
1 0 1 0 1 0 1 0 1 0 1 25 1 0 1 0 
1 0 1 0 1 0 1 0 1 0 1 0 1 0 1 0 
1 -55 1 0 1 0 3606 3436 100 MP stroke
1 0 1 0 1 0 1 0 1 0 1 0 1 0 1 0 
1 -63 1 0 1 0 1 0 1 0 1 0 1 0 1 0 
1 0 1 0 1 0 1 17 1 0 1 0 1 0 1 0 
1 0 1 0 1 0 1 0 1 0 1 0 1 0 0 -20 
1 0 1 0 1 0 1 0 1 0 1 0 1 0 1 0 
1 0 1 0 1 0 0 64 1 0 1 0 1 0 1 0 
1 0 1 0 1 0 1 0 1 0 1 0 1 0 0 79 
1 0 1 0 1 0 1 0 1 0 1 0 1 0 1 0 
1 0 1 0 1 0 0 -3 1 0 1 0 1 0 1 0 
1 0 1 0 1 0 1 0 1 0 1 0 1 0 0 -20 
1 0 1 0 1 0 1 0 1 0 1 0 1 0 1 0 
1 0 1 0 1 0 0 -29 1 0 1 0 1 0 1 0 
1 0 1 0 1 0 3513 3411 100 MP stroke
1 0 1 0 1 0 1 0 0 -43 1 0 1 0 1 0 
1 0 1 0 1 0 1 0 1 0 1 0 1 0 1 0 
0 26 1 0 1 0 1 0 1 0 1 0 1 0 1 0 
1 0 1 0 1 0 1 0 0 34 1 0 1 0 1 0 
1 0 1 0 1 0 1 0 1 0 1 0 1 0 1 0 
0 85 1 0 1 0 1 0 1 0 1 0 1 0 1 0 
1 0 1 0 1 0 1 0 1 -15 1 0 1 0 1 0 
1 0 1 0 1 0 1 0 1 0 1 0 1 0 1 -55 
1 0 1 0 1 0 1 0 1 0 1 0 1 0 1 0 
1 0 1 0 1 0 1 0 1 0 1 0 1 0 1 0 
1 0 1 0 1 0 1 0 1 0 1 4 1 0 1 0 
1 0 1 0 1 0 1 0 1 0 1 0 1 0 1 0 
1 34 1 0 1 0 3418 3341 100 MP stroke
1 0 1 0 1 0 1 0 1 0 1 0 1 0 1 0 
1 -14 1 0 1 0 1 0 1 0 1 0 1 0 1 0 
1 0 1 0 1 0 1 27 1 0 1 0 1 0 1 0 
1 0 1 0 1 0 1 0 1 0 1 0 1 0 0 -41 
1 0 1 0 1 0 1 0 1 0 1 0 1 0 1 0 
1 0 1 0 1 0 0 -25 1 0 1 0 1 0 1 0 
1 0 1 0 1 0 1 0 1 0 1 0 1 0 0 36 
1 0 1 0 1 0 1 0 1 0 1 0 1 0 1 0 
1 0 1 0 1 0 0 -8 1 0 1 0 1 0 1 0 
1 0 1 0 1 0 1 0 1 0 1 0 1 0 0 -25 
1 0 1 0 1 0 1 0 1 0 1 0 1 0 1 0 
1 0 1 0 1 0 0 -23 1 0 1 0 1 0 1 0 
1 0 1 0 1 0 3325 3414 100 MP stroke
1 0 1 0 1 0 1 0 1 -1 1 0 1 0 1 0 
1 0 1 0 1 0 1 0 1 0 1 0 1 0 0 7 
1 0 1 0 1 0 1 0 1 0 1 0 1 0 1 0 
1 0 1 0 1 0 0 4 1 0 1 0 1 0 1 0 
1 0 1 0 1 0 1 0 1 0 1 0 1 0 0 -18 
1 0 1 0 1 0 1 0 1 0 1 0 1 0 1 0 
1 0 1 0 1 0 1 2 1 0 1 0 1 0 1 0 
1 0 1 0 1 0 1 0 1 0 1 0 1 -34 1 0 
1 0 1 0 1 0 1 0 1 0 1 0 1 0 1 0 
1 0 1 5 1 0 1 0 1 0 1 0 1 0 1 0 
1 0 1 0 1 0 1 0 1 -13 1 0 1 0 1 0 
1 0 1 0 1 0 1 0 1 0 1 0 1 0 1 53 
1 0 1 0 1 0 3229 3409 100 MP stroke
1 0 1 0 1 0 1 0 1 0 1 0 1 0 1 34 
1 0 1 0 1 0 1 0 1 0 1 0 1 0 1 0 
1 0 1 0 1 -45 1 0 1 0 1 0 1 0 1 0 
1 0 1 0 1 0 1 0 1 0 1 0 0 -5 1 0 
1 0 1 0 1 0 1 0 1 0 1 0 1 0 1 0 
1 0 1 0 1 -1 1 0 1 0 1 0 1 0 1 0 
1 0 1 0 1 0 1 0 1 0 0 44 1 0 1 0 
1 0 1 0 1 0 1 0 1 0 1 0 1 0 1 0 
1 0 0 25 1 0 1 0 1 0 1 0 1 0 1 0 
1 0 1 0 1 0 1 0 1 0 0 -21 1 0 1 0 
1 0 1 0 1 0 1 0 1 0 1 0 1 0 1 0 
1 0 0 3 1 0 1 0 1 0 1 0 1 0 1 0 
1 0 1 0 1 0 3135 3375 100 MP stroke
1 0 1 0 0 35 1 0 1 0 1 0 1 0 1 0 
1 0 1 0 1 0 1 0 1 0 1 0 0 -46 1 0 
1 0 1 0 1 0 1 0 1 0 1 0 1 0 1 0 
1 0 1 0 1 -1 1 0 1 0 1 0 1 0 1 0 
1 0 1 0 1 0 1 0 1 -62 1 0 1 0 1 0 
1 0 1 0 1 0 1 0 1 0 1 0 1 0 0 -7 
1 0 1 0 1 0 1 0 1 0 1 0 1 0 1 0 
1 0 1 0 1 -17 1 0 1 0 1 0 1 0 1 0 
1 0 1 0 1 0 1 0 1 0 1 30 1 0 1 0 
1 0 1 0 1 0 1 0 1 0 1 0 1 0 1 0 
0 -14 1 0 1 0 1 0 1 0 1 0 1 0 1 0 
1 0 1 0 1 0 1 15 1 0 1 0 1 0 1 0 
1 0 1 0 1 0 3040 3442 100 MP stroke
1 0 1 0 1 0 0 51 1 0 1 0 1 0 1 0 
1 0 1 0 1 0 1 0 1 0 1 0 1 0 0 -22 
1 0 1 0 1 0 1 0 1 0 1 0 1 0 1 0 
1 0 1 0 1 1 1 0 1 0 1 0 1 0 1 0 
1 0 1 0 1 0 1 0 1 0 0 -36 1 0 1 0 
1 0 1 0 1 0 1 0 1 0 1 0 1 0 1 0 
1 0 0 -53 1 0 1 0 1 0 1 0 1 0 1 0 
1 0 1 0 1 0 1 0 1 60 1 0 1 0 1 0 
1 0 1 0 1 0 1 0 1 0 1 0 1 0 0 31 
1 0 1 0 1 0 1 0 1 0 1 0 1 0 1 0 
1 0 1 0 1 -30 1 0 1 0 1 0 1 0 1 0 
1 0 1 0 1 0 1 0 1 0 1 45 1 0 1 0 
1 0 1 0 1 0 2946 3395 100 MP stroke
1 0 1 0 1 0 1 0 1 0 0 34 1 0 1 0 
1 0 1 0 1 0 1 0 1 0 1 0 1 0 1 0 
1 11 1 0 1 0 1 0 1 0 1 0 1 0 1 0 
1 0 1 0 1 0 0 -16 1 0 1 0 1 0 1 0 
1 0 1 0 1 0 1 0 1 0 1 0 1 0 0 9 
1 0 1 0 1 0 1 0 1 0 1 0 1 0 1 0 
1 0 1 0 1 -14 1 0 1 0 1 0 1 0 1 0 
1 0 1 0 1 0 1 0 1 0 1 0 1 0 1 0 
1 0 1 0 1 0 1 0 1 0 1 0 1 0 1 0 
0 -37 1 0 1 0 1 0 1 0 1 0 1 0 1 0 
1 0 1 0 1 0 1 -43 1 0 1 0 1 0 1 0 
1 0 1 0 1 0 1 0 1 0 1 0 0 -9 1 0 
1 0 1 0 1 0 2852 3460 100 MP stroke
1 0 1 0 1 0 1 0 1 0 1 0 1 0 1 0 
1 0 1 0 1 0 1 0 1 0 1 0 1 0 1 0 
1 0 0 2 1 0 1 0 1 0 1 0 1 0 1 0 
1 0 1 0 1 0 1 0 1 0 0 -39 1 0 1 0 
1 0 1 0 1 0 1 0 1 0 1 0 1 0 1 0 
1 41 1 0 1 0 1 0 1 0 1 0 1 0 1 0 
1 0 1 0 1 0 0 65 1 0 1 0 1 0 1 0 
1 0 1 0 1 0 1 0 1 0 1 0 1 0 0 5 
1 0 1 0 1 0 1 0 1 0 1 0 1 0 1 0 
1 0 1 0 1 42 1 0 1 0 1 0 1 0 1 0 
1 0 1 0 1 0 1 0 1 0 0 -26 1 0 1 0 
1 0 1 0 1 0 1 0 1 0 1 0 1 0 1 0 
1 52 1 0 1 0 2758 3318 100 MP stroke
1 0 1 0 1 0 1 0 1 0 1 0 1 0 1 0 
1 -28 1 0 1 0 1 0 1 0 1 0 1 0 1 0 
1 0 1 0 1 0 0 4 1 0 1 0 1 0 1 0 
1 0 1 0 1 0 1 0 1 0 1 0 1 9 1 0 
1 0 1 0 1 0 1 0 1 0 1 0 1 0 1 0 
1 0 0 -50 1 0 1 0 1 0 1 0 1 0 1 0 
1 0 1 0 1 0 1 0 1 0 0 -36 1 0 1 0 
1 0 1 0 1 0 1 0 1 0 1 0 1 0 1 0 
1 18 1 0 1 0 1 0 1 0 1 0 1 0 1 0 
1 0 1 0 1 0 0 2 1 0 1 0 1 0 1 0 
1 0 1 0 1 0 1 0 1 0 1 0 1 0 0 -7 
1 0 1 0 1 0 1 0 1 0 1 0 1 0 1 0 
1 0 1 0 1 14 2664 3392 100 MP stroke
1 0 1 0 1 0 1 0 1 0 1 0 1 0 1 0 
1 0 1 0 0 -38 1 0 1 0 1 0 1 0 1 0 
1 0 1 0 1 0 1 0 1 0 1 18 1 0 1 0 
1 0 1 0 1 0 1 0 1 0 1 0 1 0 1 0 
1 -11 1 0 1 0 1 0 1 0 1 0 1 0 1 0 
1 0 1 0 1 0 0 32 1 0 1 0 1 0 1 0 
1 0 1 0 1 0 1 0 1 0 1 0 1 20 1 0 
1 0 1 0 1 0 1 0 1 0 1 0 1 0 1 0 
1 0 0 -40 1 0 1 0 1 0 1 0 1 0 1 0 
1 0 1 0 1 0 1 0 1 0 0 49 1 0 1 0 
1 0 1 0 1 0 1 0 1 0 1 0 1 0 1 0 
1 9 1 0 1 0 1 0 1 0 1 0 1 0 1 0 
1 0 1 0 1 0 2569 3353 100 MP stroke
0 -87 1 0 1 0 1 0 1 0 1 0 1 0 1 0 
1 0 1 0 1 0 1 0 0 39 1 0 1 0 1 0 
1 0 1 0 1 0 1 0 1 0 1 0 1 0 1 -4 
1 0 1 0 1 0 1 0 1 0 1 0 1 0 1 0 
1 0 1 0 1 -1 1 0 1 0 1 0 1 0 1 0 
1 0 1 0 1 0 1 0 1 -25 1 0 1 0 1 0 
1 0 1 0 1 0 1 0 1 0 1 0 1 0 1 -1 
1 0 1 0 1 0 1 0 1 0 1 0 1 0 1 0 
1 0 1 0 0 -44 1 0 1 0 1 0 1 0 1 0 
1 0 1 0 1 0 1 0 1 0 1 -16 1 0 1 0 
1 0 1 0 1 0 1 0 1 0 1 0 1 0 1 0 
0 24 1 0 1 0 1 0 1 0 1 0 1 0 1 0 
1 0 1 0 1 0 2474 3468 100 MP stroke
1 0 0 -30 1 0 1 0 1 0 1 0 1 0 1 0 
1 0 1 0 1 0 1 0 1 18 1 0 1 0 1 0 
1 0 1 0 1 0 1 0 1 0 1 0 1 0 1 1 
1 0 1 0 1 0 1 0 1 0 1 0 1 0 1 0 
1 0 1 -48 1 0 1 0 1 0 1 0 1 0 1 0 
1 0 1 0 1 0 1 0 1 92 1 0 1 0 1 0 
1 0 1 0 1 0 1 0 1 0 1 0 1 0 0 21 
1 0 1 0 1 0 1 0 1 0 1 0 1 0 1 0 
1 0 1 0 1 34 1 0 1 0 1 0 1 0 1 0 
1 0 1 0 1 0 1 0 1 0 0 23 1 0 1 0 
1 0 1 0 1 0 1 0 1 0 1 0 1 0 1 0 
1 0 0 -33 1 0 1 0 1 0 1 0 1 0 1 0 
1 0 1 0 1 0 2379 3390 100 MP stroke
1 0 1 -20 1 0 1 0 1 0 1 0 1 0 1 0 
1 0 1 0 1 0 1 0 0 45 1 0 1 0 1 0 
1 0 1 0 1 0 1 0 1 0 1 0 1 0 1 0 
0 -27 1 0 1 0 1 0 1 0 1 0 1 0 1 0 
1 0 1 0 1 0 0 -8 1 0 1 0 1 0 1 0 
1 0 1 0 1 0 1 0 1 0 1 0 0 -10 1 0 
1 0 1 0 1 0 1 0 1 0 1 0 1 0 1 0 
1 0 1 -13 1 0 1 0 1 0 1 0 1 0 1 0 
1 0 1 0 1 0 1 -9 1 0 1 0 1 0 1 0 
1 0 1 0 1 0 1 0 1 0 1 0 1 -1 1 0 
1 0 1 0 1 0 1 0 1 0 1 0 1 0 1 0 
0 -21 1 0 1 0 1 0 1 0 1 0 1 0 1 0 
1 0 1 0 1 0 2285 3454 100 MP stroke
0 60 1 0 1 0 1 0 1 0 1 0 1 0 1 0 
1 0 1 0 1 0 1 -69 1 0 1 0 1 0 1 0 
1 0 1 0 1 0 1 0 1 0 1 -62 1 0 1 0 
1 0 1 0 1 0 1 0 1 0 1 0 1 0 1 0 
0 9 1 0 1 0 1 0 1 0 1 0 1 0 1 0 
1 0 1 0 1 0 0 20 1 0 1 0 1 0 1 0 
1 0 1 0 1 0 1 0 1 0 1 0 0 33 1 0 
1 0 1 0 1 0 1 0 1 0 1 0 1 0 1 0 
1 0 1 70 1 0 1 0 1 0 1 0 1 0 1 0 
1 0 1 0 1 0 1 33 1 0 1 0 1 0 1 0 
1 0 1 0 1 0 1 0 1 0 1 0 0 7 1 0 
1 0 1 0 1 0 1 0 1 0 1 0 1 0 1 0 
1 0 0 -6 1 0 2192 3359 100 MP stroke
1 0 1 0 1 0 1 0 1 0 1 0 1 0 1 0 
1 0 1 -6 1 0 1 0 1 0 1 0 1 0 1 0 
1 0 1 0 1 0 1 5 1 0 1 0 1 0 1 0 
1 0 1 0 1 0 1 0 1 0 1 0 0 -7 1 0 
1 0 1 0 1 0 1 0 1 0 1 0 1 0 1 0 
1 0 0 -66 1 0 1 0 1 0 1 0 1 0 1 0 
1 0 1 0 1 0 1 0 0 -35 1 0 1 0 1 0 
1 0 1 0 1 0 1 0 1 0 1 0 1 0 1 23 
1 0 1 0 1 0 1 0 1 0 1 0 1 0 1 0 
1 0 1 -2 1 0 1 0 1 0 1 0 1 0 1 0 
1 0 1 0 1 0 1 0 0 -10 1 0 1 0 1 0 
1 0 1 0 1 0 1 0 1 0 1 0 1 0 0 13 
1 0 1 0 1 0 2098 3444 100 MP stroke
1 0 1 0 1 0 1 0 1 0 1 0 1 0 0 2 
1 0 1 0 1 0 1 0 1 0 1 0 1 0 1 0 
1 0 1 0 1 0 1 0 1 0 1 0 1 0 1 0 
1 0 1 0 1 0 1 0 1 44 1 0 1 0 1 0 
1 0 1 0 1 0 1 0 1 0 1 0 1 0 0 42 
1 0 1 0 1 0 1 0 1 0 1 0 1 0 1 0 
1 0 1 0 0 57 1 0 1 0 1 0 1 0 1 0 
1 0 1 0 1 0 1 0 1 0 0 -19 1 0 1 0 
1 0 1 0 1 0 1 0 1 0 1 0 1 0 1 0 
1 -25 1 0 1 0 1 0 1 0 1 0 1 0 1 0 
1 0 1 0 1 -50 1 0 1 0 1 0 1 0 1 0 
1 0 1 0 1 0 1 0 1 0 0 -12 1 0 1 0 
1 0 1 0 1 0 2004 3405 100 MP stroke
1 0 1 0 1 0 1 0 1 0 0 -8 1 0 1 0 
1 0 1 0 1 0 1 0 1 0 1 0 1 0 1 0 
0 3 1 0 1 0 1 0 1 0 1 0 1 0 1 0 
1 0 1 0 1 0 1 21 1 0 1 0 1 0 1 0 
1 0 1 0 1 0 1 0 1 0 1 -8 1 0 1 0 
1 0 1 0 1 0 1 0 1 0 1 0 1 0 1 0 
0 33 1 0 1 0 1 0 1 0 1 0 1 0 1 0 
1 0 1 0 1 0 0 -49 1 0 1 0 1 0 1 0 
1 0 1 0 1 0 1 0 1 0 1 0 1 12 1 0 
1 0 1 0 1 0 1 0 1 0 1 0 1 0 1 0 
1 -59 1 0 1 0 1 0 1 0 1 0 1 0 1 0 
1 0 1 0 1 0 0 22 1 0 1 0 1 0 1 0 
1 0 1 0 1 0 1910 3438 100 MP stroke
1 0 1 0 1 0 0 10 1 0 1 0 1 0 1 0 
1 0 1 0 1 0 1 0 1 0 1 0 0 32 1 0 
1 0 1 0 1 0 1 0 1 0 1 0 1 0 1 0 
1 0 1 14 1 0 1 0 1 0 1 0 1 0 1 0 
1 0 1 0 1 0 1 8 1 0 1 0 1 0 1 0 
1 0 1 0 1 0 1 0 1 0 1 0 0 26 1 0 
1 0 1 0 1 0 1 0 1 0 1 0 1 0 1 0 
1 0 0 -27 1 0 1 0 1 0 1 0 1 0 1 0 
1 0 1 0 1 0 1 0 0 -59 1 0 1 0 1 0 
1 0 1 0 1 0 1 0 1 0 1 0 1 0 1 -36 
1 0 1 0 1 0 1 0 1 0 1 0 1 0 1 0 
1 0 1 54 1 0 1 0 1 0 1 0 1 0 1 0 
1 0 1 0 1 0 1816 3416 100 MP stroke
1 0 0 35 1 0 1 0 1 0 1 0 1 0 1 0 
1 0 1 0 1 0 1 0 0 -37 1 0 1 0 1 0 
1 0 1 0 1 0 1 0 1 0 1 0 1 0 0 39 
1 0 1 0 1 0 1 0 1 0 1 0 1 0 1 0 
1 0 1 0 1 30 1 0 1 0 1 0 1 0 1 0 
1 0 1 0 1 0 1 0 1 -9 1 0 1 0 1 0 
1 0 1 0 1 0 1 0 1 0 1 0 1 0 0 -46 
1 0 1 0 1 0 1 0 1 0 1 0 1 0 1 0 
1 0 1 0 0 53 1 0 1 0 1 0 1 0 1 0 
1 0 1 0 1 0 1 0 1 0 0 -30 1 0 1 0 
1 0 1 0 1 0 1 0 1 0 1 0 1 0 1 0 
1 44 1 0 1 0 1 0 1 0 1 0 1 0 1 0 
1 0 1 0 1 -9 1723 3346 100 MP stroke
1 0 1 0 1 0 1 0 1 0 1 0 1 0 1 0 
1 0 1 0 0 -26 1 0 1 0 1 0 1 0 1 0 
1 0 1 0 1 0 1 0 1 0 1 1 1 0 1 0 
1 0 1 0 1 0 1 0 1 0 1 0 1 0 1 -14 
1 0 1 0 1 0 1 0 1 0 1 0 1 0 1 0 
1 0 1 -5 1 0 1 0 1 0 1 0 1 0 1 0 
1 0 1 0 1 0 1 0 0 16 1 0 1 0 1 0 
1 0 1 0 1 0 1 0 1 0 1 0 1 0 1 1 
1 0 1 0 1 0 1 0 1 0 1 0 1 0 1 0 
1 0 0 -8 1 0 1 0 1 0 1 0 1 0 1 0 
1 0 1 0 1 0 1 0 1 -46 1 0 1 0 1 0 
1 0 1 0 1 0 1 0 1 0 1 0 1 -54 1 0 
1 0 1 0 1 0 1627 3481 100 MP stroke
1 0 1 0 1 0 1 0 1 0 1 0 0 38 1 0 
1 0 1 0 1 0 1 0 1 0 1 0 1 0 1 0 
1 0 0 -22 1 0 1 0 1 0 1 0 1 0 1 0 
1 0 1 0 1 0 1 0 0 41 1 0 1 0 1 0 
1 0 1 0 1 0 1 0 1 0 1 0 1 0 1 -24 
1 0 1 0 1 0 1 0 1 0 1 0 1 0 1 0 
1 0 1 5 1 0 1 0 1 0 1 0 1 0 1 0 
1 0 1 0 1 0 1 0 0 -23 1 0 1 0 1 0 
1 0 1 0 1 0 1 0 1 0 1 0 1 0 0 15 
1 0 1 0 1 0 1 0 1 0 1 0 1 0 1 0 
1 0 1 0 0 115 1 0 1 0 1 0 1 0 1 0 
1 0 1 0 1 0 1 0 1 -15 1 0 1 0 1 0 
1 0 1 0 1 0 1534 3351 100 MP stroke
1 0 1 0 1 0 1 -38 1 0 1 0 1 0 1 0 
1 0 1 0 1 0 1 0 1 0 0 -61 1 0 1 0 
1 0 1 0 1 0 1 0 1 0 1 0 1 0 1 0 
0 -14 1 0 1 0 1 0 1 0 1 0 1 0 1 0 
1 0 1 0 1 0 0 -41 1 0 1 0 1 0 1 0 
1 0 1 0 1 0 1 0 1 0 1 -13 1 0 1 0 
1 0 1 0 1 0 1 0 1 0 1 0 1 0 1 100 
1 0 1 0 1 0 1 0 1 0 1 0 1 0 1 0 
1 0 0 16 1 0 1 0 1 0 1 0 1 0 1 0 
1 0 1 0 1 0 1 0 0 57 1 0 1 0 1 0 
1 0 1 0 1 0 1 0 1 0 1 0 1 24 1 0 
1 0 1 0 1 0 1 0 1 0 1 0 1 0 1 0 
1 -75 1 0 1 0 1440 3396 100 MP stroke
1 0 1 0 1 0 1 0 1 0 1 0 1 0 0 -33 
1 0 1 0 1 0 1 0 1 0 1 0 1 0 1 0 
1 0 1 0 0 2 1 0 1 0 1 0 1 0 1 0 
1 0 1 0 1 0 1 0 1 0 0 59 1 0 1 0 
1 0 1 0 1 0 1 0 1 0 1 0 1 0 1 -32 
1 0 1 0 1 0 1 0 1 0 1 0 1 0 1 0 
1 0 1 23 1 0 1 0 1 0 1 0 1 0 1 0 
1 0 1 0 1 0 0 -8 1 0 1 0 1 0 1 0 
1 0 1 0 1 0 1 0 1 0 1 0 0 -27 1 0 
1 0 1 0 1 0 1 0 1 0 1 0 1 0 1 0 
1 -13 1 0 1 0 1 0 1 0 1 0 1 0 1 0 
1 0 1 0 1 33 1 0 1 0 1 0 1 0 1 0 
1 0 1 0 1 0 1346 3392 100 MP stroke
1 0 0 37 1 0 1 0 1 0 1 0 1 0 1 0 
1 0 1 0 1 0 1 0 0 -35 1 0 1 0 1 0 
1 0 1 0 1 0 1 0 1 0 1 0 1 0 0 -17 
1 0 1 0 1 0 1 0 1 0 1 0 1 0 1 0 
1 0 1 -4 1 0 1 0 1 0 1 0 1 0 1 0 
1 0 1 0 1 0 1 19 1 0 1 0 1 0 1 0 
1 0 1 0 1 0 1 0 1 0 0 30 1 0 1 0 
1 0 1 0 1 0 1 0 1 0 1 0 1 0 1 0 
0 56 1 0 1 0 1 0 1 0 1 0 1 0 1 0 
1 0 1 0 1 0 0 -40 1 0 1 0 1 0 1 0 
1 0 1 0 1 0 1 0 1 0 1 -76 1 0 1 0 
1 0 1 0 1 0 1 0 1 0 1 0 1 0 1 3 
1 0 1 0 1 0 1253 3419 100 MP stroke
1 0 1 0 1 0 1 0 1 0 1 0 0 -44 1 0 
1 0 1 0 1 0 1 0 1 0 1 0 1 0 1 0 
1 0 0 -4 1 0 1 0 1 0 1 0 1 0 1 0 
1 0 1 0 1 0 1 16 1 0 1 0 1 0 1 0 
1 0 1 0 1 0 1 0 1 0 1 -13 1 0 1 0 
1 0 1 0 1 0 1 0 1 0 1 0 1 0 0 4 
1 0 1 0 1 0 1 0 1 0 1 0 1 0 1 0 
1 0 1 0 0 -25 1 0 1 0 1 0 1 0 1 0 
1 0 1 0 1 0 1 0 1 0 0 17 1 0 1 0 
1 0 1 0 1 0 1 0 1 0 1 0 1 0 1 -73 
1 0 1 0 1 0 1 0 1 0 1 0 1 0 1 0 
1 0 1 13 1 0 1 0 1 0 1 0 1 0 1 0 
1 0 1 0 1 0 1159 3528 100 MP stroke
0 4 1 0 1 0 1 0 1 0 1 0 1 0 1 0 
1 0 1 0 1 0 0 -50 1 0 1 0 1 0 1 0 
1 0 1 0 1 0 1 0 1 0 1 -61 1 0 1 0 
1 0 1 0 1 0 1 0 1 0 1 0 1 0 1 -81 
1 0 1 0 1 0 1 0 1 0 1 0 1 0 1 0 
1 0 0 -138 1 0 1 0 1 0 1 0 1 0 1 0 
1 0 1 0 1 0 1 0 0 -82 1 0 1 0 1 0 
1 0 1 0 1 0 1 0 1 0 1 0 1 0 0 -53 
1 0 1 0 1 0 1 0 1 0 1 0 1 0 1 0 
1 0 1 -118 1 0 1 0 1 0 1 0 1 0 1 0 
1 0 1 0 1 0 1 -84 1 0 1 0 1 0 1 0 
1 0 1 0 1 0 1 0 1 0 0 -32 1 0 1 0 
1 0 1 0 1 0 1066 4223 100 MP stroke
1 0 1 0 1 0 1 0 1 0 0 -96 1 0 1 0 
1 0 1 0 1 0 1 0 1 0 1 0 1 0 1 0 
0 -67 1 0 1 0 1 0 1 0 1 0 1 0 1 0 
1 0 1 0 1 -56 1 0 1 0 1 0 1 0 1 0 
1 0 1 0 1 0 1 0 1 -27 1 0 1 0 1 0 
1 0 1 0 1 0 1 0 1 0 1 0 0 -50 1 0 
1 0 1 0 1 0 1 0 1 0 1 0 1 0 1 0 
1 0 0 -18 1 0 1 0 1 0 1 0 1 0 1 0 
1 0 1 0 1 0 1 39 1 0 1 0 1 0 1 0 
1 0 1 0 1 0 1 0 1 0 1 123 1 0 1 0 
1 0 1 0 1 0 1 0 1 0 1 0 1 0 0 240 
1 0 1 0 1 0 1 0 1 0 1 0 1 0 1 0 
1 0 1 0 0 328 973 3807 100 MP stroke
1 0 1 0 1 0 1 0 1 0 1 0 1 0 1 0 
1 0 1 0 0 434 1 0 1 0 1 0 1 0 1 0 
1 0 1 0 1 0 1 0 1 0 1 0 1 0 1 0 
1 0 1 0 1 0 1 0 1 0 1 0 1 0 1 0 
1 0 1 0 1 0 1 0 1 0 1 0 1 0 1 0 
1 0 1 0 1 0 1 0 1 0 1 0 1 0 1 0 
1 0 1 0 1 0 1 0 1 0 1 0 1 0 1 0 
1 0 1 0 1 0 1 0 1 0 1 0 1 0 911 3373 64 MP stroke
gr

c10
0 sg
3316 4903 mt 
(Tempo [s]) s
 546 3152 mt  -90 rotate
(Erro da Velocidade [m/s]) s
90 rotate
2705  294 mt 
(Erro na estimativa da Velocidade) s
 870 4670 mt 
( ) s
6227  443 mt 
( ) s
1 sg
0 520 648 0 0 -520 5303 1146 4 MP
PP
-648 0 0 520 648 0 0 -520 5303 1146 5 MP stroke
4 w
DO
SO
6 w
0 sg
5303 1146 mt 5951 1146 L
5303  626 mt 5951  626 L
5303 1146 mt 5303  626 L
5951 1146 mt 5951  626 L
5303 1146 mt 5951 1146 L
5303 1146 mt 5303  626 L
5303 1146 mt 5951 1146 L
5303  626 mt 5951  626 L
5303 1146 mt 5303  626 L
5951 1146 mt 5951  626 L
5772  769 mt 
(vx) s
gs 5303 626 649 521 MR c np
c8
360 0 5375 726 2 MP stroke
gr

c8
0 sg
5772  929 mt 
(vy) s
gs 5303 626 649 521 MR c np
c9
360 0 5375 886 2 MP stroke
gr

c9
0 sg
5772 1088 mt 
(vz) s
gs 5303 626 649 521 MR c np
c10
360 0 5375 1045 2 MP stroke
gr

c10

end %%Color Dict

eplot
%%EndObject

epage
end

showpage

%%Trailer
%%EOF
