%!PS-Adobe-2.0 EPSF-1.2
%%Creator: MATLAB, The Mathworks, Inc. Version 7.9.0.529 (R2009b). Operating System: Darwin 10.8.0 Darwin Kernel Version 10.8.0: Tue Jun  7 16:33:36 PDT 2011; root:xnu-1504.15.3~1/RELEASE_I386 i386.
%%Title: ./vD_vV_falhas_distancias_zoom.eps
%%CreationDate: 08/27/2011  23:34:59
%%DocumentNeededFonts: Helvetica
%%DocumentProcessColors: Cyan Magenta Yellow Black
%%Extensions: CMYK
%%Pages: 1
%%BoundingBox:    60   199   548   602
%%EndComments

%%BeginProlog
% MathWorks dictionary
/MathWorks 160 dict begin
% definition operators
/bdef {bind def} bind def
/ldef {load def} bind def
/xdef {exch def} bdef
/xstore {exch store} bdef
% operator abbreviations
/c  /clip ldef
/cc /concat ldef
/cp /closepath ldef
/gr /grestore ldef
/gs /gsave ldef
/mt /moveto ldef
/np /newpath ldef
/cm /currentmatrix ldef
/sm /setmatrix ldef
/rm /rmoveto ldef
/rl /rlineto ldef
/s {show newpath} bdef
/sc {setcmykcolor} bdef
/sr /setrgbcolor ldef
/sg /setgray ldef
/w /setlinewidth ldef
/j /setlinejoin ldef
/cap /setlinecap ldef
/rc {rectclip} bdef
/rf {rectfill} bdef
% page state control
/pgsv () def
/bpage {/pgsv save def} bdef
/epage {pgsv restore} bdef
/bplot /gsave ldef
/eplot {stroke grestore} bdef
% orientation switch
/portraitMode 0 def /landscapeMode 1 def /rotateMode 2 def
% coordinate system mappings
/dpi2point 0 def
% font control
/FontSize 0 def
/FMS {/FontSize xstore findfont [FontSize 0 0 FontSize neg 0 0]
  makefont setfont} bdef
/reencode {exch dup where {pop load} {pop StandardEncoding} ifelse
  exch dup 3 1 roll findfont dup length dict begin
  { 1 index /FID ne {def}{pop pop} ifelse } forall
  /Encoding exch def currentdict end definefont pop} bdef
/isroman {findfont /CharStrings get /Agrave known} bdef
/FMSR {3 1 roll 1 index dup isroman {reencode} {pop pop} ifelse
  exch FMS} bdef
/csm {1 dpi2point div -1 dpi2point div scale neg translate
 dup landscapeMode eq {pop -90 rotate}
  {rotateMode eq {90 rotate} if} ifelse} bdef
% line types: solid, dotted, dashed, dotdash
/SO { [] 0 setdash } bdef
/DO { [.5 dpi2point mul 4 dpi2point mul] 0 setdash } bdef
/DA { [6 dpi2point mul] 0 setdash } bdef
/DD { [.5 dpi2point mul 4 dpi2point mul 6 dpi2point mul 4
  dpi2point mul] 0 setdash } bdef
% macros for lines and objects
/L {lineto stroke} bdef
/MP {3 1 roll moveto 1 sub {rlineto} repeat} bdef
/AP {{rlineto} repeat} bdef
/PDlw -1 def
/W {/PDlw currentlinewidth def setlinewidth} def
/PP {closepath eofill} bdef
/DP {closepath stroke} bdef
/MR {4 -2 roll moveto dup  0 exch rlineto exch 0 rlineto
  neg 0 exch rlineto closepath} bdef
/FR {MR stroke} bdef
/PR {MR fill} bdef
/L1i {{currentfile picstr readhexstring pop} image} bdef
/tMatrix matrix def
/MakeOval {newpath tMatrix currentmatrix pop translate scale
0 0 1 0 360 arc tMatrix setmatrix} bdef
/FO {MakeOval stroke} bdef
/PO {MakeOval fill} bdef
/PD {currentlinewidth 2 div 0 360 arc fill
   PDlw -1 eq not {PDlw w /PDlw -1 def} if} def
/FA {newpath tMatrix currentmatrix pop translate scale
  0 0 1 5 -2 roll arc tMatrix setmatrix stroke} bdef
/PA {newpath tMatrix currentmatrix pop	translate 0 0 moveto scale
  0 0 1 5 -2 roll arc closepath tMatrix setmatrix fill} bdef
/FAn {newpath tMatrix currentmatrix pop translate scale
  0 0 1 5 -2 roll arcn tMatrix setmatrix stroke} bdef
/PAn {newpath tMatrix currentmatrix pop translate 0 0 moveto scale
  0 0 1 5 -2 roll arcn closepath tMatrix setmatrix fill} bdef
/vradius 0 def /hradius 0 def /lry 0 def
/lrx 0 def /uly 0 def /ulx 0 def /rad 0 def
/MRR {/vradius xdef /hradius xdef /lry xdef /lrx xdef /uly xdef
  /ulx xdef newpath tMatrix currentmatrix pop ulx hradius add uly
  vradius add translate hradius vradius scale 0 0 1 180 270 arc 
  tMatrix setmatrix lrx hradius sub uly vradius add translate
  hradius vradius scale 0 0 1 270 360 arc tMatrix setmatrix
  lrx hradius sub lry vradius sub translate hradius vradius scale
  0 0 1 0 90 arc tMatrix setmatrix ulx hradius add lry vradius sub
  translate hradius vradius scale 0 0 1 90 180 arc tMatrix setmatrix
  closepath} bdef
/FRR {MRR stroke } bdef
/PRR {MRR fill } bdef
/MlrRR {/lry xdef /lrx xdef /uly xdef /ulx xdef /rad lry uly sub 2 div def
  newpath tMatrix currentmatrix pop ulx rad add uly rad add translate
  rad rad scale 0 0 1 90 270 arc tMatrix setmatrix lrx rad sub lry rad
  sub translate rad rad scale 0 0 1 270 90 arc tMatrix setmatrix
  closepath} bdef
/FlrRR {MlrRR stroke } bdef
/PlrRR {MlrRR fill } bdef
/MtbRR {/lry xdef /lrx xdef /uly xdef /ulx xdef /rad lrx ulx sub 2 div def
  newpath tMatrix currentmatrix pop ulx rad add uly rad add translate
  rad rad scale 0 0 1 180 360 arc tMatrix setmatrix lrx rad sub lry rad
  sub translate rad rad scale 0 0 1 0 180 arc tMatrix setmatrix
  closepath} bdef
/FtbRR {MtbRR stroke } bdef
/PtbRR {MtbRR fill } bdef
/stri 6 array def /dtri 6 array def
/smat 6 array def /dmat 6 array def
/tmat1 6 array def /tmat2 6 array def /dif 3 array def
/asub {/ind2 exch def /ind1 exch def dup dup
  ind1 get exch ind2 get sub exch } bdef
/tri_to_matrix {
  2 0 asub 3 1 asub 4 0 asub 5 1 asub
  dup 0 get exch 1 get 7 -1 roll astore } bdef
/compute_transform {
  dmat dtri tri_to_matrix tmat1 invertmatrix 
  smat stri tri_to_matrix tmat2 concatmatrix } bdef
/ds {stri astore pop} bdef
/dt {dtri astore pop} bdef
/db {2 copy /cols xdef /rows xdef mul dup 3 mul string
  currentfile exch readhexstring pop
  dup 0 3 index getinterval /rbmap xdef
  dup 2 index dup getinterval /gbmap xdef
  1 index dup 2 mul exch getinterval /bbmap xdef pop pop}bdef
/it {gs np dtri aload pop moveto lineto lineto cp c
  cols rows 8 compute_transform 
  rbmap gbmap bbmap true 3 colorimage gr}bdef
/il {newpath moveto lineto stroke}bdef
currentdict end def
%%EndProlog

%%BeginSetup
MathWorks begin

0 cap

end
%%EndSetup

%%Page: 1 1
%%BeginPageSetup
%%PageBoundingBox:    60   199   548   602
MathWorks begin
bpage
%%EndPageSetup

%%BeginObject: obj1
bplot

/dpi2point 12 def
portraitMode 0216 7344 csm

  513   110  5858  4845 MR c np
88 dict begin %Colortable dictionary
/c0 { 0.000000 0.000000 0.000000 sr} bdef
/c1 { 1.000000 1.000000 1.000000 sr} bdef
/c2 { 0.900000 0.000000 0.000000 sr} bdef
/c3 { 0.000000 0.820000 0.000000 sr} bdef
/c4 { 0.000000 0.000000 0.800000 sr} bdef
/c5 { 0.910000 0.820000 0.320000 sr} bdef
/c6 { 1.000000 0.260000 0.820000 sr} bdef
/c7 { 0.000000 0.820000 0.820000 sr} bdef
c0
1 j
1 sg
   0    0 6913 5186 PR
6 w
0 4226 5356 0 0 -4226 899 4615 4 MP
PP
-5356 0 0 4226 5356 0 0 -4226 899 4615 5 MP stroke
4 w
DO
0 sg
 899 4615 mt  899  389 L
 899  389 mt  899  389 L
1434 4615 mt 1434  389 L
1434  389 mt 1434  389 L
1970 4615 mt 1970  389 L
1970  389 mt 1970  389 L
2505 4615 mt 2505  389 L
2505  389 mt 2505  389 L
3041 4615 mt 3041  389 L
3041  389 mt 3041  389 L
3577 4615 mt 3577  389 L
3577  389 mt 3577  389 L
4112 4615 mt 4112  389 L
4112  389 mt 4112  389 L
4648 4615 mt 4648  389 L
4648  389 mt 4648  389 L
5183 4615 mt 5183  389 L
5183  389 mt 5183  389 L
5719 4615 mt 5719  389 L
5719  389 mt 5719  389 L
6255 4615 mt 6255  389 L
6255  389 mt 6255  389 L
 899 4063 mt 6255 4063 L
6255 4063 mt 6255 4063 L
 899 3451 mt 6255 3451 L
6255 3451 mt 6255 3451 L
 899 2838 mt 6255 2838 L
6255 2838 mt 6255 2838 L
 899 2226 mt 6255 2226 L
6255 2226 mt 6255 2226 L
 899 1613 mt 6255 1613 L
6255 1613 mt 6255 1613 L
 899 1001 mt 6255 1001 L
6255 1001 mt 6255 1001 L
 899  389 mt 6255  389 L
6255  389 mt 6255  389 L
SO
6 w
 899 4615 mt 6255 4615 L
 899  389 mt 6255  389 L
 899 4615 mt  899  389 L
6255 4615 mt 6255  389 L
 899 4615 mt 6255 4615 L
 899 4615 mt  899  389 L
 899 4615 mt  899 4561 L
 899  389 mt  899  442 L
%%IncludeResource: font Helvetica
/Helvetica /ISOLatin1Encoding 120 FMSR

 833 4760 mt 
(70) s
1434 4615 mt 1434 4561 L
1434  389 mt 1434  442 L
1368 4760 mt 
(71) s
1970 4615 mt 1970 4561 L
1970  389 mt 1970  442 L
1904 4760 mt 
(72) s
2505 4615 mt 2505 4561 L
2505  389 mt 2505  442 L
2439 4760 mt 
(73) s
3041 4615 mt 3041 4561 L
3041  389 mt 3041  442 L
2975 4760 mt 
(74) s
3577 4615 mt 3577 4561 L
3577  389 mt 3577  442 L
3511 4760 mt 
(75) s
4112 4615 mt 4112 4561 L
4112  389 mt 4112  442 L
4046 4760 mt 
(76) s
4648 4615 mt 4648 4561 L
4648  389 mt 4648  442 L
4582 4760 mt 
(77) s
5183 4615 mt 5183 4561 L
5183  389 mt 5183  442 L
5117 4760 mt 
(78) s
5719 4615 mt 5719 4561 L
5719  389 mt 5719  442 L
5653 4760 mt 
(79) s
6255 4615 mt 6255 4561 L
6255  389 mt 6255  442 L
6189 4760 mt 
(80) s
 899 4063 mt  952 4063 L
6255 4063 mt 6201 4063 L
 731 4107 mt 
(10) s
 899 3451 mt  952 3451 L
6255 3451 mt 6201 3451 L
 731 3495 mt 
(20) s
 899 2838 mt  952 2838 L
6255 2838 mt 6201 2838 L
 731 2882 mt 
(30) s
 899 2226 mt  952 2226 L
6255 2226 mt 6201 2226 L
 731 2270 mt 
(40) s
 899 1613 mt  952 1613 L
6255 1613 mt 6201 1613 L
 731 1657 mt 
(50) s
 899 1001 mt  952 1001 L
6255 1001 mt 6201 1001 L
 731 1045 mt 
(60) s
 899  389 mt  952  389 L
6255  389 mt 6201  389 L
 731  433 mt 
(70) s
 899 4615 mt 6255 4615 L
 899  389 mt 6255  389 L
 899 4615 mt  899  389 L
6255 4615 mt 6255  389 L
gs 899 389 5357 4227 MR c np
/c8 { 0.000000 1.000000 0.000000 sr} bdef
c8
1 0 6 0 5 -1 6 0 5 -1 5 0 6 -1 5 0 
5 -1 6 0 5 -1 5 0 6 -1 5 0 5 -1 6 0 
5 -1 6 0 5 -1 5 0 6 -1 5 0 5 -1 6 0 
5 -1 5 0 6 -1 5 0 5 -1 6 0 5 -1 6 0 
5 -1 5 0 6 -1 5 0 5 -1 6 0 5 -1 5 0 
6 -1 5 0 5 -1 6 0 5 -1 6 0 5 -1 5 0 
6 -1 5 0 5 -1 6 0 5 -1 5 0 6 -1 5 0 
5 0 6 -1 5 0 6 -1 5 0 5 -1 6 0 5 -1 
5 0 6 -1 5 0 5 -1 6 0 5 -1 5 0 6 -1 
5 0 5 -1 6 0 5 -1 6 0 5 -1 5 0 6 -1 
5 0 5 -1 6 0 5 -1 5 0 6 -1 5 0 5 -1 
6 0 5 -1 6 0 5 -1 5 0 6 -1 5 0 5 -1 
6 0 5 -1 5 0 5730 687 100 MP stroke
6 -1 5 0 5 -1 6 0 5 -1 6 0 5 -1 5 0 
6 -1 5 0 5 -1 6 0 5 -1 5 0 6 -1 5 0 
5 -1 6 0 5 -1 6 0 5 -1 5 0 6 -1 5 0 
5 -1 6 0 5 -1 5 0 6 -1 5 0 5 0 6 -1 
5 0 5 -1 6 0 5 -1 6 0 5 -1 5 0 6 -1 
5 0 5 -1 6 0 5 -1 5 0 6 -1 5 0 5 -1 
6 0 5 -1 6 0 5 -1 5 0 6 -1 5 0 5 -1 
6 0 5 -1 5 0 6 -1 5 0 5 -1 6 0 5 -1 
6 0 5 -1 5 0 6 -1 5 0 5 -1 6 0 5 -1 
5 0 6 -1 5 0 5 -1 6 0 5 -1 6 0 5 -1 
5 0 6 -1 5 0 5 -1 6 0 5 -1 5 0 6 -1 
5 0 5 -1 6 0 5 -1 5 0 6 -1 5 0 6 -1 
5 0 5 -1 6 0 5199 736 100 MP stroke
5 -1 5 0 6 -1 5 0 5 0 6 -1 5 0 5 -1 
6 0 5 -1 6 0 5 -1 5 0 6 -1 5 0 5 -1 
6 0 5 -1 5 0 6 -1 5 0 5 -1 6 0 5 -1 
6 0 5 -1 5 0 6 -1 5 0 5 -1 6 0 5 -1 
5 0 6 -1 5 0 5 -1 6 0 5 -1 6 0 5 -1 
5 0 6 -1 5 0 5 -1 6 0 5 -1 5 0 6 -1 
5 0 5 -1 6 0 5 -1 5 0 6 -1 5 0 6 -1 
5 0 5 -1 6 0 5 -1 5 0 6 -1 5 0 5 -1 
6 0 5 -1 5 0 6 -1 5 0 6 -1 5 0 5 -1 
6 0 5 -1 5 0 6 -1 5 0 5 0 6 -1 5 0 
5 -1 6 0 5 -1 6 0 5 -1 5 0 6 -1 5 0 
5 -1 6 0 5 -1 5 0 6 -1 5 0 5 -1 6 0 
5 -1 6 0 5 -1 4669 785 100 MP stroke
5 0 6 -1 5 0 5 -1 6 0 5 -1 5 0 6 -1 
5 0 5 -1 6 0 5 -1 6 0 5 -1 5 0 6 -1 
5 0 5 -1 6 0 5 -1 5 0 6 -1 5 0 5 -1 
6 0 5 -1 5 0 6 -1 5 0 6 -1 5 0 5 -1 
6 0 5 -1 5 0 6 -1 5 0 5 -1 6 0 5 -1 
5 0 6 -1 5 0 6 -1 5 0 5 -1 6 0 5 -1 
5 0 6 -1 5 0 5 0 6 -1 5 0 5 -1 6 0 
5 -1 6 0 5 -1 5 0 6 -1 5 0 5 -1 6 0 
5 -1 5 0 6 -1 5 0 5 -1 6 0 5 -1 6 0 
5 -1 5 0 6 -1 5 0 5 -1 6 0 5 -1 5 0 
6 -1 5 0 5 -1 6 0 5 -1 5 0 6 -1 5 0 
6 -1 5 0 5 -1 6 0 5 -1 5 0 6 -1 5 0 
5 -1 6 0 5 -1 4139 834 100 MP stroke
5 0 6 -1 5 0 6 -1 5 0 5 -1 6 0 5 -1 
5 0 6 -1 5 0 5 -1 6 0 5 -1 5 0 6 -1 
5 0 6 -1 5 0 5 -1 6 0 5 -1 5 0 6 -1 
5 0 5 -1 6 0 5 0 5 -1 6 0 5 -1 6 0 
5 -1 5 0 6 -1 5 0 5 -1 6 0 5 -1 5 0 
6 -1 5 0 5 -1 6 0 5 -1 5 0 6 -1 5 0 
6 -1 5 0 5 -1 6 0 5 -1 5 0 6 -1 5 0 
5 -1 6 0 5 -1 5 0 6 -1 5 0 6 -1 5 0 
5 -1 6 0 5 -1 5 0 6 -1 5 0 5 -1 6 0 
5 -1 5 0 6 -1 5 0 6 -1 5 0 5 -1 6 0 
5 -1 5 0 6 -1 5 0 5 -1 6 0 5 -1 5 0 
6 -1 5 0 6 -1 5 0 5 -1 6 0 5 -1 5 0 
6 -1 5 0 5 -1 3609 883 100 MP stroke
6 0 5 -1 5 0 6 0 5 -1 5 0 6 -1 5 0 
6 -1 5 0 5 -1 6 0 5 -1 5 0 6 -1 5 0 
5 -1 6 0 5 -1 5 0 6 -1 5 0 6 -1 5 0 
5 -1 6 0 5 -1 5 0 6 -1 5 0 5 -1 6 0 
5 -1 5 0 6 -1 5 0 6 -1 5 0 5 -1 6 0 
5 -1 5 0 6 -1 5 0 5 -1 6 0 5 -1 5 0 
6 -1 5 0 6 -1 5 0 5 -1 6 0 5 -1 5 0 
6 -1 5 0 5 -1 6 0 5 -1 5 0 6 -1 5 0 
6 -1 5 0 5 -1 6 0 5 -1 5 0 6 -1 5 0 
5 -1 6 0 5 -1 5 0 6 -1 5 0 5 -1 6 0 
5 0 6 -1 5 0 5 -1 6 0 5 -1 5 0 6 -1 
5 0 5 -1 6 0 5 -1 5 0 6 -1 5 0 6 -1 
5 0 5 -1 6 0 3078 931 100 MP stroke
5 -1 5 0 6 -1 5 0 5 -1 6 0 5 -1 5 0 
6 -1 5 0 6 -1 5 0 5 -1 6 0 5 -1 5 0 
6 -1 5 0 5 -1 6 0 5 -1 5 0 6 -1 5 0 
6 -1 5 0 5 -1 6 0 5 -1 5 0 6 -1 5 0 
5 -1 6 0 5 -1 5 0 6 -1 5 0 5 -1 6 0 
5 -1 6 0 5 -1 5 0 6 -1 5 0 5 -1 6 0 
5 -1 5 0 6 -1 5 0 5 -1 6 0 5 -1 6 0 
5 -1 5 0 6 0 5 -1 5 0 6 -1 5 0 5 -1 
6 0 5 -1 5 0 6 -1 5 0 6 -1 5 0 5 -1 
6 0 5 -1 5 0 6 -1 5 0 5 -1 6 0 5 -1 
5 0 6 -1 5 0 6 -1 5 0 5 -1 6 0 5 -1 
5 0 6 -1 5 0 5 -1 6 0 5 -1 5 0 6 -1 
5 0 5 -1 6 0 2548 980 100 MP stroke
5 -1 6 0 5 -1 5 0 6 -1 5 0 5 -1 6 0 
5 -1 5 0 6 -1 5 0 5 -1 6 0 5 -1 6 0 
5 -1 5 0 6 -1 5 0 5 -1 6 0 5 -1 5 0 
6 -1 5 0 5 -1 6 0 5 -1 6 0 5 -1 5 0 
6 -1 5 0 5 -1 6 0 5 0 5 -1 6 0 5 -1 
5 0 6 -1 5 0 6 -1 5 0 5 -1 6 0 5 -1 
5 0 6 -1 5 0 5 -1 6 0 5 -1 5 0 6 -1 
5 0 5 -1 6 0 5 -1 6 0 5 -1 5 0 6 -1 
5 0 5 -1 6 0 5 -1 5 0 6 -1 5 0 5 -1 
6 0 5 -1 6 0 5 -1 5 0 6 -1 5 0 5 -1 
6 0 5 -1 5 0 6 -1 5 0 5 -1 6 0 5 -1 
6 0 5 -1 5 0 6 -1 5 0 5 -1 6 0 5 -1 
5 0 6 -1 5 0 2018 1029 100 MP stroke
5 -1 6 0 5 -1 6 0 5 -1 5 0 6 -1 5 0 
5 -1 6 0 5 -1 5 0 6 -1 5 0 5 0 6 -1 
5 0 6 -1 5 0 5 -1 6 0 5 -1 5 0 6 -1 
5 0 5 -1 6 0 5 -1 5 0 6 -1 5 0 5 -1 
6 0 5 -1 6 0 5 -1 5 0 6 -1 5 0 5 -1 
6 0 5 -1 5 0 6 -1 5 0 5 -1 6 0 5 -1 
6 0 5 -1 5 0 6 -1 5 0 5 -1 6 0 5 -1 
5 0 6 -1 5 0 5 -1 6 0 5 -1 6 0 5 -1 
5 0 6 -1 5 0 5 -1 6 0 5 -1 5 0 6 -1 
5 0 5 -1 6 0 5 -1 6 0 5 -1 5 0 6 -1 
5 0 5 -1 6 0 5 -1 5 0 6 -1 5 0 5 -1 
6 0 5 -1 5 0 6 -1 5 0 6 0 5 -1 5 0 
6 -1 5 0 5 -1 1488 1078 100 MP stroke
6 0 5 -1 5 0 6 -1 5 0 5 -1 6 0 5 -1 
6 0 5 -1 5 0 6 -1 5 0 5 -1 6 0 5 -1 
5 0 6 -1 5 0 5 -1 6 0 5 -1 6 0 5 -1 
5 0 6 -1 5 0 5 -1 6 0 5 -1 5 0 6 -1 
5 0 5 -1 6 0 5 -1 6 0 5 -1 5 0 6 -1 
5 0 5 -1 6 0 5 -1 5 0 6 -1 5 0 5 -1 
6 0 5 -1 5 0 6 -1 5 0 6 -1 5 0 5 -1 
6 0 5 -1 5 0 6 -1 5 0 5 -1 6 0 5 -1 
5 0 6 -1 5 0 6 -1 5 0 5 -1 6 0 5 -1 
5 0 6 0 5 -1 5 0 6 -1 5 0 5 -1 6 0 
5 -1 6 0 5 -1 5 0 6 -1 5 0 5 -1 6 0 
5 -1 5 0 6 -1 5 0 5 -1 6 0 5 -1 6 0 
5 -1 5 0 6 -1 957 1127 100 MP stroke
5 0 5 -1 6 0 5 -1 5 0 6 -1 5 0 5 -1 
6 0 5 -1 5 0 899 1132 12 MP stroke
/c9 { 1.000000 0.000000 0.000000 sr} bdef
c9
1 0 6 0 5 0 6 0 5 0 5 0 6 0 5 0 
5 0 6 0 5 0 5 0 6 0 5 0 5 0 6 0 
5 0 6 0 5 0 5 0 6 0 5 0 5 0 6 0 
5 0 5 0 6 0 5 0 5 0 6 0 5 0 6 0 
5 0 5 0 6 0 5 0 5 0 6 0 5 0 5 0 
6 0 5 0 5 0 6 0 5 0 6 0 5 0 5 0 
6 0 5 0 5 0 6 0 5 0 5 1 6 0 5 0 
5 0 6 0 5 0 6 0 5 0 5 0 6 0 5 0 
5 0 6 0 5 0 5 0 6 0 5 0 5 0 6 0 
5 0 5 0 6 0 5 0 6 0 5 0 5 0 6 0 
5 0 5 0 6 0 5 0 5 0 6 0 5 0 5 0 
6 0 5 0 6 0 5 0 5 0 6 0 5 0 5 0 
6 0 5 0 5 0 5730 3966 100 MP stroke
6 0 5 0 5 0 6 0 5 0 6 0 5 0 5 0 
6 0 5 0 5 0 6 0 5 0 5 0 6 0 5 0 
5 0 6 0 5 0 6 0 5 0 5 0 6 0 5 0 
5 0 6 0 5 1 5 0 6 0 5 0 5 0 6 0 
5 0 5 0 6 0 5 0 6 0 5 0 5 0 6 0 
5 0 5 0 6 0 5 0 5 0 6 0 5 0 5 0 
6 0 5 0 6 0 5 0 5 0 6 0 5 0 5 0 
6 0 5 0 5 0 6 0 5 0 5 0 6 0 5 0 
6 0 5 0 5 0 6 0 5 0 5 0 6 0 5 0 
5 0 6 0 5 0 5 0 6 0 5 0 6 0 5 0 
5 0 6 0 5 0 5 0 6 0 5 0 5 0 6 0 
5 0 5 0 6 0 5 0 5 0 6 0 5 0 6 0 
5 0 5 0 6 1 5199 3964 100 MP stroke
5 0 5 0 6 0 5 0 5 0 6 0 5 0 5 0 
6 0 5 0 6 0 5 0 5 0 6 0 5 0 5 0 
6 0 5 0 5 0 6 0 5 0 5 0 6 0 5 0 
6 0 5 0 5 0 6 0 5 0 5 0 6 0 5 0 
5 0 6 0 5 0 5 0 6 0 5 0 6 0 5 0 
5 0 6 0 5 0 5 0 6 0 5 0 5 0 6 0 
5 0 5 0 6 0 5 0 5 0 6 0 5 0 6 0 
5 0 5 0 6 0 5 0 5 0 6 0 5 0 5 0 
6 0 5 0 5 0 6 0 5 0 6 0 5 0 5 1 
6 0 5 0 5 0 6 0 5 0 5 0 6 0 5 0 
5 0 6 0 5 0 6 0 5 0 5 0 6 0 5 0 
5 0 6 0 5 0 5 0 6 0 5 0 5 0 6 0 
5 0 6 0 5 0 4669 3963 100 MP stroke
5 0 6 0 5 0 5 0 6 0 5 0 5 0 6 0 
5 0 5 0 6 0 5 0 6 0 5 0 5 0 6 0 
5 0 5 0 6 0 5 0 5 0 6 0 5 0 5 0 
6 0 5 0 5 0 6 0 5 0 6 0 5 0 5 0 
6 0 5 0 5 0 6 0 5 0 5 0 6 0 5 0 
5 0 6 0 5 0 6 0 5 1 5 0 6 0 5 0 
5 0 6 0 5 0 5 0 6 0 5 0 5 0 6 0 
5 0 6 0 5 0 5 0 6 0 5 0 5 0 6 0 
5 0 5 0 6 0 5 0 5 0 6 0 5 0 6 0 
5 0 5 0 6 0 5 0 5 0 6 0 5 0 5 0 
6 0 5 0 5 0 6 0 5 0 5 0 6 0 5 0 
6 0 5 0 5 0 6 0 5 0 5 0 6 0 5 0 
5 0 6 0 5 0 4139 3962 100 MP stroke
5 0 6 0 5 0 6 0 5 0 5 0 6 0 5 0 
5 0 6 0 5 0 5 0 6 0 5 0 5 0 6 0 
5 0 6 1 5 0 5 0 6 0 5 0 5 0 6 0 
5 0 5 0 6 0 5 0 5 0 6 0 5 0 6 0 
5 0 5 0 6 0 5 0 5 0 6 0 5 0 5 0 
6 0 5 0 5 0 6 0 5 0 5 0 6 0 5 0 
6 0 5 0 5 0 6 0 5 0 5 0 6 0 5 0 
5 0 6 0 5 0 5 0 6 0 5 0 6 0 5 0 
5 0 6 0 5 0 5 0 6 0 5 0 5 0 6 0 
5 0 5 0 6 0 5 0 6 0 5 0 5 0 6 0 
5 0 5 0 6 0 5 0 5 0 6 0 5 0 5 0 
6 0 5 1 6 0 5 0 5 0 6 0 5 0 5 0 
6 0 5 0 5 0 3609 3960 100 MP stroke
6 0 5 0 5 0 6 0 5 0 5 0 6 0 5 0 
6 0 5 0 5 0 6 0 5 0 5 0 6 0 5 0 
5 0 6 0 5 0 5 0 6 0 5 0 6 0 5 0 
5 0 6 0 5 0 5 0 6 0 5 0 5 0 6 0 
5 0 5 0 6 0 5 0 6 0 5 0 5 0 6 0 
5 0 5 0 6 0 5 0 5 0 6 0 5 0 5 0 
6 0 5 0 6 0 5 0 5 0 6 0 5 0 5 0 
6 0 5 0 5 0 6 0 5 0 5 1 6 0 5 0 
6 0 5 0 5 0 6 0 5 0 5 0 6 0 5 0 
5 0 6 0 5 0 5 0 6 0 5 0 5 0 6 0 
5 0 6 0 5 0 5 0 6 0 5 0 5 0 6 0 
5 0 5 0 6 0 5 0 5 0 6 0 5 0 6 0 
5 0 5 0 6 0 3078 3959 100 MP stroke
5 0 5 0 6 0 5 0 5 0 6 0 5 0 5 0 
6 0 5 0 6 0 5 0 5 0 6 0 5 0 5 0 
6 0 5 0 5 0 6 0 5 0 5 0 6 0 5 0 
6 0 5 0 5 0 6 0 5 0 5 0 6 0 5 0 
5 0 6 0 5 1 5 0 6 0 5 0 5 0 6 0 
5 0 6 0 5 0 5 0 6 0 5 0 5 0 6 0 
5 0 5 0 6 0 5 0 5 0 6 0 5 0 6 0 
5 0 5 0 6 0 5 0 5 0 6 0 5 0 5 0 
6 0 5 0 5 0 6 0 5 0 6 0 5 0 5 0 
6 0 5 0 5 0 6 0 5 0 5 0 6 0 5 0 
5 0 6 0 5 0 6 0 5 0 5 0 6 0 5 0 
5 0 6 0 5 0 5 0 6 0 5 0 5 0 6 0 
5 0 5 0 6 0 2548 3958 100 MP stroke
5 0 6 0 5 0 5 0 6 0 5 0 5 0 6 1 
5 0 5 0 6 0 5 0 5 0 6 0 5 0 6 0 
5 0 5 0 6 0 5 0 5 0 6 0 5 0 5 0 
6 0 5 0 5 0 6 0 5 0 6 0 5 0 5 0 
6 0 5 0 5 0 6 0 5 0 5 0 6 0 5 0 
5 0 6 0 5 0 6 0 5 0 5 0 6 0 5 0 
5 0 6 0 5 0 5 0 6 0 5 0 5 0 6 0 
5 0 5 0 6 0 5 0 6 0 5 0 5 0 6 0 
5 0 5 0 6 0 5 0 5 0 6 0 5 0 5 0 
6 0 5 0 6 0 5 0 5 0 6 0 5 1 5 0 
6 0 5 0 5 0 6 0 5 0 5 0 6 0 5 0 
6 0 5 0 5 0 6 0 5 0 5 0 6 0 5 0 
5 0 6 0 5 0 2018 3956 100 MP stroke
5 0 6 0 5 0 6 0 5 0 5 0 6 0 5 0 
5 0 6 0 5 0 5 0 6 0 5 0 5 0 6 0 
5 0 6 0 5 0 5 0 6 0 5 0 5 0 6 0 
5 0 5 0 6 0 5 0 5 0 6 0 5 0 5 0 
6 0 5 0 6 0 5 0 5 0 6 0 5 0 5 0 
6 0 5 0 5 0 6 0 5 0 5 0 6 0 5 0 
6 0 5 0 5 0 6 1 5 0 5 0 6 0 5 0 
5 0 6 0 5 0 5 0 6 0 5 0 6 0 5 0 
5 0 6 0 5 0 5 0 6 0 5 0 5 0 6 0 
5 0 5 0 6 0 5 0 6 0 5 0 5 0 6 0 
5 0 5 0 6 0 5 0 5 0 6 0 5 0 5 0 
6 0 5 0 5 0 6 0 5 0 6 0 5 0 5 0 
6 0 5 0 5 0 1488 3955 100 MP stroke
6 0 5 0 5 0 6 0 5 0 5 0 6 0 5 0 
6 0 5 0 5 0 6 0 5 0 5 0 6 0 5 0 
5 0 6 0 5 0 5 0 6 0 5 0 6 0 5 1 
5 0 6 0 5 0 5 0 6 0 5 0 5 0 6 0 
5 0 5 0 6 0 5 0 6 0 5 0 5 0 6 0 
5 0 5 0 6 0 5 0 5 0 6 0 5 0 5 0 
6 0 5 0 5 0 6 0 5 0 6 0 5 0 5 0 
6 0 5 0 5 0 6 0 5 0 5 0 6 0 5 0 
5 0 6 0 5 0 6 0 5 0 5 0 6 0 5 0 
5 0 6 0 5 0 5 0 6 0 5 0 5 0 6 0 
5 0 6 0 5 0 5 0 6 0 5 0 5 0 6 0 
5 0 5 0 6 0 5 0 5 0 6 0 5 1 6 0 
5 0 5 0 6 0 957 3953 100 MP stroke
5 0 5 0 6 0 5 0 5 0 6 0 5 0 5 0 
6 0 5 0 5 0 899 3953 12 MP stroke
/c10 { 0.000000 0.000000 1.000000 sr} bdef
c10
1 0 6 0 5 0 6 0 5 0 5 0 6 0 5 0 
5 0 6 0 5 0 5 0 6 0 5 0 5 0 6 0 
5 0 6 0 5 0 5 0 6 0 5 0 5 0 6 0 
5 0 5 0 6 0 5 0 5 0 6 0 5 0 6 0 
5 0 5 0 6 0 5 0 5 0 6 0 5 0 5 0 
6 0 5 0 5 0 6 0 5 0 6 0 5 0 5 0 
6 0 5 0 5 0 6 0 5 0 5 0 6 0 5 0 
5 0 6 0 5 0 6 0 5 0 5 0 6 0 5 0 
5 0 6 0 5 0 5 0 6 0 5 0 5 0 6 0 
5 0 5 0 6 0 5 0 6 0 5 0 5 0 6 0 
5 0 5 0 6 0 5 0 5 0 6 0 5 0 5 0 
6 0 5 0 6 0 5 0 5 0 6 0 5 0 5 0 
6 0 5 0 5 0 5730 3816 100 MP stroke
6 0 5 0 5 0 6 0 5 0 6 0 5 0 5 0 
6 0 5 0 5 0 6 0 5 0 5 0 6 0 5 0 
5 0 6 0 5 0 6 0 5 0 5 0 6 0 5 0 
5 0 6 0 5 0 5 0 6 0 5 0 5 0 6 0 
5 0 5 0 6 0 5 0 6 0 5 0 5 0 6 0 
5 0 5 0 6 0 5 0 5 0 6 0 5 0 5 0 
6 0 5 0 6 0 5 0 5 0 6 0 5 0 5 0 
6 0 5 0 5 0 6 0 5 0 5 0 6 0 5 0 
6 0 5 0 5 0 6 0 5 0 5 0 6 0 5 0 
5 0 6 0 5 0 5 0 6 0 5 0 6 0 5 0 
5 0 6 0 5 0 5 0 6 0 5 0 5 0 6 0 
5 0 5 0 6 0 5 0 5 0 6 0 5 0 6 0 
5 0 5 0 6 0 5199 3816 100 MP stroke
5 0 5 0 6 0 5 0 5 0 6 0 5 0 5 0 
6 0 5 0 6 0 5 0 5 0 6 0 5 0 5 0 
6 0 5 0 5 0 6 0 5 0 5 0 6 0 5 0 
6 0 5 0 5 0 6 0 5 0 5 0 6 0 5 0 
5 0 6 0 5 0 5 0 6 0 5 0 6 0 5 0 
5 0 6 0 5 0 5 0 6 0 5 0 5 0 6 0 
5 0 5 0 6 0 5 0 5 0 6 0 5 0 6 0 
5 0 5 0 6 0 5 0 5 0 6 0 5 0 5 0 
6 0 5 0 5 0 6 0 5 0 6 0 5 0 5 0 
6 0 5 0 5 0 6 0 5 0 5 0 6 0 5 0 
5 0 6 0 5 0 6 0 5 0 5 0 6 0 5 0 
5 0 6 0 5 0 5 0 6 0 5 0 5 0 6 0 
5 0 6 0 5 0 4669 3816 100 MP stroke
5 0 6 0 5 0 5 0 6 0 5 0 5 0 6 0 
5 0 5 0 6 0 5 0 6 0 5 0 5 0 6 0 
5 0 5 0 6 0 5 0 5 0 6 0 5 0 5 0 
6 0 5 0 5 0 6 0 5 0 6 0 5 0 5 0 
6 0 5 0 5 0 6 0 5 0 5 0 6 0 5 0 
5 0 6 0 5 0 6 0 5 0 5 0 6 0 5 0 
5 0 6 0 5 0 5 0 6 0 5 0 5 0 6 0 
5 0 6 0 5 0 5 0 6 0 5 0 5 0 6 0 
5 0 5 0 6 0 5 0 5 0 6 0 5 0 6 0 
5 0 5 0 6 0 5 0 5 0 6 0 5 0 5 0 
6 0 5 0 5 0 6 0 5 0 5 0 6 0 5 0 
6 0 5 0 5 0 6 0 5 0 5 0 6 0 5 0 
5 0 6 0 5 0 4139 3816 100 MP stroke
5 0 6 0 5 0 6 0 5 0 5 0 6 0 5 0 
5 0 6 0 5 0 5 0 6 0 5 0 5 0 6 0 
5 0 6 0 5 0 5 0 6 0 5 0 5 0 6 0 
5 0 5 0 6 0 5 0 5 0 6 0 5 0 6 0 
5 0 5 0 6 0 5 0 5 0 6 0 5 0 5 0 
6 0 5 0 5 0 6 0 5 0 5 0 6 0 5 0 
6 0 5 0 5 0 6 0 5 0 5 0 6 0 5 0 
5 0 6 0 5 0 5 0 6 0 5 0 6 0 5 0 
5 0 6 0 5 0 5 0 6 0 5 0 5 0 6 0 
5 0 5 0 6 0 5 0 6 0 5 0 5 0 6 0 
5 0 5 0 6 0 5 0 5 0 6 0 5 0 5 0 
6 0 5 0 6 0 5 0 5 0 6 0 5 0 5 0 
6 0 5 0 5 0 3609 3816 100 MP stroke
6 0 5 0 5 0 6 0 5 0 5 0 6 0 5 0 
6 0 5 0 5 0 6 0 5 0 5 0 6 0 5 0 
5 0 6 0 5 0 5 0 6 0 5 0 6 0 5 0 
5 0 6 0 5 0 5 0 6 0 5 0 5 0 6 0 
5 0 5 0 6 0 5 0 6 0 5 0 5 0 6 0 
5 0 5 0 6 0 5 0 5 0 6 0 5 0 5 0 
6 0 5 0 6 0 5 0 5 0 6 0 5 0 5 0 
6 0 5 0 5 0 6 0 5 0 5 0 6 0 5 0 
6 0 5 0 5 0 6 0 5 0 5 0 6 0 5 0 
5 0 6 0 5 0 5 0 6 0 5 0 5 0 6 0 
5 0 6 0 5 0 5 0 6 0 5 0 5 0 6 0 
5 0 5 0 6 0 5 0 5 0 6 0 5 0 6 0 
5 0 5 0 6 0 3078 3816 100 MP stroke
5 0 5 0 6 0 5 0 5 0 6 0 5 0 5 0 
6 0 5 0 6 0 5 0 5 0 6 0 5 0 5 0 
6 0 5 0 5 0 6 0 5 0 5 0 6 0 5 0 
6 0 5 0 5 0 6 0 5 0 5 0 6 0 5 0 
5 0 6 0 5 0 5 0 6 0 5 0 5 0 6 0 
5 0 6 0 5 0 5 0 6 0 5 0 5 0 6 0 
5 0 5 0 6 0 5 0 5 0 6 0 5 0 6 0 
5 0 5 0 6 0 5 0 5 0 6 0 5 0 5 0 
6 0 5 0 5 0 6 0 5 0 6 0 5 0 5 0 
6 0 5 0 5 0 6 0 5 0 5 0 6 0 5 0 
5 0 6 0 5 0 6 0 5 0 5 0 6 0 5 0 
5 0 6 0 5 0 5 0 6 0 5 0 5 0 6 0 
5 0 5 0 6 0 2548 3816 100 MP stroke
5 0 6 0 5 0 5 0 6 0 5 0 5 0 6 0 
5 0 5 0 6 0 5 0 5 0 6 0 5 0 6 0 
5 0 5 0 6 0 5 0 5 0 6 0 5 0 5 0 
6 0 5 0 5 0 6 0 5 0 6 0 5 0 5 0 
6 0 5 0 5 0 6 0 5 0 5 0 6 0 5 0 
5 0 6 0 5 0 6 0 5 0 5 0 6 0 5 0 
5 0 6 0 5 0 5 0 6 0 5 0 5 0 6 0 
5 0 5 0 6 0 5 0 6 0 5 0 5 0 6 0 
5 0 5 0 6 0 5 0 5 0 6 0 5 0 5 0 
6 0 5 0 6 0 5 0 5 0 6 0 5 0 5 0 
6 0 5 0 5 0 6 0 5 0 5 0 6 0 5 0 
6 0 5 0 5 0 6 0 5 0 5 0 6 0 5 0 
5 0 6 0 5 0 2018 3816 100 MP stroke
5 0 6 0 5 0 6 0 5 0 5 0 6 0 5 0 
5 0 6 0 5 0 5 0 6 0 5 0 5 0 6 0 
5 0 6 0 5 0 5 0 6 0 5 0 5 0 6 0 
5 0 5 0 6 0 5 0 5 0 6 0 5 0 5 0 
6 0 5 0 6 0 5 0 5 0 6 0 5 0 5 0 
6 0 5 0 5 0 6 0 5 0 5 0 6 0 5 0 
6 0 5 0 5 0 6 0 5 0 5 0 6 0 5 0 
5 0 6 0 5 0 5 0 6 0 5 0 6 0 5 0 
5 0 6 0 5 0 5 0 6 0 5 0 5 0 6 0 
5 0 5 0 6 0 5 0 6 0 5 0 5 0 6 0 
5 0 5 0 6 0 5 0 5 0 6 0 5 0 5 0 
6 0 5 0 5 0 6 0 5 0 6 0 5 0 5 0 
6 0 5 0 5 0 1488 3816 100 MP stroke
6 0 5 0 5 0 6 0 5 0 5 0 6 0 5 0 
6 0 5 0 5 0 6 0 5 0 5 0 6 0 5 0 
5 0 6 0 5 0 5 0 6 0 5 0 6 0 5 0 
5 0 6 0 5 0 5 0 6 0 5 0 5 0 6 0 
5 0 5 0 6 0 5 0 6 0 5 0 5 0 6 0 
5 0 5 0 6 0 5 0 5 0 6 0 5 0 5 0 
6 0 5 0 5 0 6 0 5 0 6 0 5 0 5 0 
6 0 5 0 5 0 6 0 5 0 5 0 6 0 5 0 
5 0 6 0 5 0 6 0 5 0 5 0 6 0 5 0 
5 0 6 0 5 0 5 0 6 0 5 0 5 0 6 0 
5 0 6 0 5 0 5 0 6 0 5 0 5 0 6 0 
5 0 5 0 6 0 5 0 5 0 6 0 5 0 6 0 
5 0 5 0 6 0 957 3816 100 MP stroke
5 0 5 0 6 0 5 0 5 0 6 0 5 0 5 0 
6 0 5 0 5 0 899 3816 12 MP stroke
/c11 { 0.000000 1.000000 1.000000 sr} bdef
c11
1 0 6 0 5 0 6 0 5 0 5 0 6 0 5 0 
5 0 6 0 5 0 5 0 6 0 5 0 5 0 6 0 
5 0 6 0 5 0 5 0 6 0 5 0 5 0 6 0 
5 0 5 0 6 0 5 0 5 0 6 0 5 0 6 0 
5 0 5 0 6 0 5 0 5 0 6 0 5 0 5 0 
6 0 5 0 5 0 6 0 5 0 6 0 5 0 5 0 
6 0 5 0 5 0 6 0 5 0 5 0 6 0 5 0 
5 0 6 0 5 0 6 0 5 0 5 0 6 0 5 0 
5 0 6 0 5 0 5 0 6 0 5 0 5 0 6 0 
5 0 5 0 6 0 5 0 6 0 5 0 5 0 6 0 
5 0 5 0 6 0 5 0 5 0 6 0 5 0 5 0 
6 0 5 0 6 0 5 0 5 0 6 0 5 0 5 0 
6 0 5 0 5 0 5730 3816 100 MP stroke
6 0 5 0 5 0 6 0 5 0 6 0 5 0 5 0 
6 0 5 0 5 0 6 0 5 0 5 0 6 0 5 0 
5 0 6 0 5 0 6 0 5 0 5 0 6 0 5 0 
5 0 6 0 5 0 5 0 6 0 5 0 5 0 6 0 
5 0 5 0 6 0 5 0 6 0 5 0 5 0 6 0 
5 0 5 0 6 0 5 0 5 0 6 0 5 0 5 0 
6 0 5 0 6 0 5 0 5 0 6 0 5 0 5 0 
6 0 5 0 5 0 6 0 5 0 5 0 6 0 5 0 
6 0 5 0 5 0 6 0 5 0 5 0 6 0 5 0 
5 0 6 0 5 0 5 0 6 0 5 0 6 0 5 0 
5 0 6 0 5 0 5 0 6 0 5 0 5 0 6 0 
5 0 5 0 6 0 5 0 5 0 6 0 5 0 6 0 
5 0 5 0 6 0 5199 3816 100 MP stroke
5 0 5 0 6 0 5 0 5 0 6 0 5 0 5 0 
6 0 5 0 6 0 5 0 5 0 6 0 5 0 5 0 
6 0 5 0 5 0 6 0 5 0 5 0 6 0 5 0 
6 0 5 0 5 0 6 0 5 0 5 0 6 0 5 0 
5 0 6 0 5 0 5 0 6 0 5 0 6 0 5 0 
5 0 6 0 5 0 5 0 6 0 5 0 5 0 6 0 
5 0 5 0 6 0 5 0 5 0 6 0 5 0 6 0 
5 0 5 0 6 0 5 0 5 0 6 0 5 0 5 0 
6 0 5 0 5 0 6 0 5 0 6 0 5 0 5 0 
6 0 5 0 5 0 6 0 5 0 5 0 6 0 5 0 
5 0 6 0 5 0 6 0 5 0 5 0 6 0 5 0 
5 0 6 0 5 0 5 0 6 0 5 0 5 0 6 0 
5 0 6 0 5 0 4669 3816 100 MP stroke
5 0 6 0 5 0 5 0 6 0 5 0 5 0 6 0 
5 0 5 0 6 0 5 0 6 0 5 0 5 0 6 0 
5 0 5 0 6 0 5 0 5 0 6 0 5 0 5 0 
6 0 5 0 5 0 6 0 5 0 6 0 5 0 5 0 
6 0 5 0 5 0 6 0 5 0 5 0 6 0 5 0 
5 0 6 0 5 0 6 0 5 0 5 0 6 0 5 0 
5 0 6 0 5 0 5 0 6 0 5 0 5 0 6 0 
5 0 6 0 5 0 5 0 6 0 5 0 5 0 6 0 
5 0 5 0 6 0 5 0 5 0 6 0 5 0 6 0 
5 0 5 0 6 0 5 0 5 0 6 0 5 0 5 0 
6 0 5 0 5 0 6 0 5 0 5 0 6 0 5 0 
6 0 5 0 5 0 6 0 5 0 5 0 6 0 5 0 
5 0 6 0 5 0 4139 3816 100 MP stroke
5 0 6 0 5 0 6 0 5 0 5 0 6 0 5 0 
5 0 6 0 5 0 5 0 6 0 5 0 5 0 6 0 
5 0 6 0 5 0 5 0 6 0 5 0 5 0 6 0 
5 0 5 0 6 0 5 0 5 0 6 0 5 0 6 0 
5 0 5 0 6 0 5 0 5 0 6 0 5 0 5 0 
6 0 5 0 5 0 6 0 5 0 5 0 6 0 5 0 
6 0 5 0 5 0 6 0 5 0 5 0 6 0 5 0 
5 0 6 0 5 0 5 0 6 0 5 0 6 0 5 0 
5 0 6 0 5 0 5 0 6 0 5 0 5 0 6 0 
5 0 5 0 6 0 5 0 6 0 5 0 5 0 6 0 
5 0 5 0 6 0 5 0 5 0 6 0 5 0 5 0 
6 0 5 0 6 0 5 0 5 0 6 0 5 0 5 0 
6 0 5 0 5 0 3609 3816 100 MP stroke
6 0 5 0 5 0 6 0 5 0 5 0 6 0 5 0 
6 0 5 0 5 0 6 0 5 0 5 0 6 0 5 0 
5 0 6 0 5 0 5 0 6 0 5 0 6 0 5 0 
5 0 6 0 5 0 5 0 6 0 5 0 5 0 6 0 
5 0 5 0 6 0 5 0 6 0 5 0 5 0 6 0 
5 0 5 0 6 0 5 0 5 0 6 0 5 0 5 0 
6 0 5 0 6 0 5 0 5 0 6 0 5 0 5 0 
6 0 5 0 5 0 6 0 5 0 5 0 6 0 5 0 
6 0 5 0 5 0 6 0 5 0 5 0 6 0 5 0 
5 0 6 0 5 0 5 0 6 0 5 0 5 0 6 0 
5 0 6 0 5 0 5 0 6 0 5 0 5 0 6 0 
5 0 5 0 6 0 5 0 5 0 6 0 5 0 6 0 
5 0 5 0 6 0 3078 3816 100 MP stroke
5 0 5 0 6 0 5 0 5 0 6 0 5 0 5 0 
6 0 5 0 6 0 5 0 5 0 6 0 5 0 5 0 
6 0 5 0 5 0 6 0 5 0 5 0 6 0 5 0 
6 0 5 0 5 0 6 0 5 0 5 0 6 0 5 0 
5 0 6 0 5 0 5 0 6 0 5 0 5 0 6 0 
5 0 6 0 5 0 5 0 6 0 5 0 5 0 6 0 
5 0 5 0 6 0 5 0 5 0 6 0 5 0 6 0 
5 0 5 0 6 0 5 0 5 0 6 0 5 0 5 0 
6 0 5 0 5 0 6 0 5 0 6 0 5 0 5 0 
6 0 5 0 5 0 6 0 5 0 5 0 6 0 5 0 
5 0 6 0 5 0 6 0 5 0 5 0 6 0 5 0 
5 0 6 0 5 0 5 0 6 0 5 0 5 0 6 0 
5 0 5 0 6 0 2548 3816 100 MP stroke
5 0 6 0 5 0 5 0 6 0 5 0 5 0 6 0 
5 0 5 0 6 0 5 0 5 0 6 0 5 0 6 0 
5 0 5 0 6 0 5 0 5 0 6 0 5 0 5 0 
6 0 5 0 5 0 6 0 5 0 6 0 5 0 5 0 
6 0 5 0 5 0 6 0 5 0 5 0 6 0 5 0 
5 0 6 0 5 0 6 0 5 0 5 0 6 0 5 0 
5 0 6 0 5 0 5 0 6 0 5 0 5 0 6 0 
5 0 5 0 6 0 5 0 6 0 5 0 5 0 6 0 
5 0 5 0 6 0 5 0 5 0 6 0 5 0 5 0 
6 0 5 0 6 0 5 0 5 0 6 0 5 0 5 0 
6 0 5 0 5 0 6 0 5 0 5 0 6 0 5 0 
6 0 5 0 5 0 6 0 5 0 5 0 6 0 5 0 
5 0 6 0 5 0 2018 3816 100 MP stroke
5 0 6 0 5 0 6 0 5 0 5 0 6 0 5 0 
5 0 6 0 5 0 5 0 6 0 5 0 5 0 6 0 
5 0 6 0 5 0 5 0 6 0 5 0 5 0 6 0 
5 0 5 0 6 0 5 0 5 0 6 0 5 0 5 0 
6 0 5 0 6 0 5 0 5 0 6 0 5 0 5 0 
6 0 5 0 5 0 6 0 5 0 5 0 6 0 5 0 
6 0 5 0 5 0 6 0 5 0 5 0 6 0 5 0 
5 0 6 0 5 0 5 0 6 0 5 0 6 0 5 0 
5 0 6 0 5 0 5 0 6 0 5 0 5 0 6 0 
5 0 5 0 6 0 5 0 6 0 5 0 5 0 6 0 
5 0 5 0 6 0 5 0 5 0 6 0 5 0 5 0 
6 0 5 0 5 0 6 0 5 0 6 0 5 0 5 0 
6 0 5 0 5 0 1488 3816 100 MP stroke
6 0 5 0 5 0 6 0 5 0 5 0 6 0 5 0 
6 0 5 0 5 0 6 0 5 0 5 0 6 0 5 0 
5 0 6 0 5 0 5 0 6 0 5 0 6 0 5 0 
5 0 6 0 5 0 5 0 6 0 5 0 5 0 6 0 
5 0 5 0 6 0 5 0 6 0 5 0 5 0 6 0 
5 0 5 0 6 0 5 0 5 0 6 0 5 0 5 0 
6 0 5 0 5 0 6 0 5 0 6 0 5 0 5 0 
6 0 5 0 5 0 6 0 5 0 5 0 6 0 5 0 
5 0 6 0 5 0 6 0 5 0 5 0 6 0 5 0 
5 0 6 0 5 0 5 0 6 0 5 0 5 0 6 0 
5 0 6 0 5 0 5 0 6 0 5 0 5 0 6 0 
5 0 5 0 6 0 5 0 5 0 6 0 5 0 6 0 
5 0 5 0 6 0 957 3816 100 MP stroke
5 0 5 0 6 0 5 0 5 0 6 0 5 0 5 0 
6 0 5 0 5 0 899 3816 12 MP stroke
/c12 { 1.000000 1.000000 0.000000 sr} bdef
c12
1 0 6 0 5 0 6 0 5 0 5 0 6 0 5 0 
5 0 6 0 5 0 5 0 6 0 5 0 5 0 6 0 
5 0 6 0 5 0 5 0 6 0 5 0 5 0 6 0 
5 0 5 0 6 0 5 0 5 0 6 0 5 0 6 0 
5 0 5 0 6 0 5 0 5 0 6 0 5 0 5 0 
6 0 5 0 5 0 6 0 5 0 6 0 5 0 5 0 
6 0 5 0 5 -1 6 0 5 0 5 0 6 0 5 0 
5 0 6 0 5 0 6 0 5 0 5 0 6 0 5 0 
5 0 6 0 5 0 5 0 6 0 5 0 5 0 6 0 
5 0 5 0 6 0 5 0 6 0 5 0 5 0 6 0 
5 0 5 0 6 0 5 0 5 0 6 0 5 0 5 0 
6 0 5 0 6 0 5 0 5 0 6 0 5 0 5 0 
6 0 5 0 5 0 5730 3723 100 MP stroke
6 0 5 0 5 0 6 0 5 0 6 0 5 0 5 0 
6 0 5 0 5 0 6 0 5 0 5 0 6 0 5 0 
5 0 6 0 5 0 6 0 5 0 5 0 6 0 5 0 
5 0 6 0 5 0 5 0 6 0 5 0 5 0 6 0 
5 0 5 0 6 0 5 0 6 -1 5 0 5 0 6 0 
5 0 5 0 6 0 5 0 5 0 6 0 5 0 5 0 
6 0 5 0 6 0 5 0 5 0 6 0 5 0 5 0 
6 0 5 0 5 0 6 0 5 0 5 0 6 0 5 0 
6 0 5 0 5 0 6 0 5 0 5 0 6 0 5 0 
5 0 6 0 5 0 5 0 6 0 5 0 6 0 5 0 
5 0 6 0 5 0 5 0 6 0 5 0 5 0 6 0 
5 0 5 0 6 0 5 0 5 0 6 0 5 0 6 0 
5 0 5 0 6 0 5199 3724 100 MP stroke
5 0 5 0 6 0 5 0 5 0 6 0 5 0 5 0 
6 0 5 0 6 0 5 0 5 0 6 0 5 0 5 0 
6 0 5 0 5 0 6 0 5 0 5 0 6 -1 5 0 
6 0 5 0 5 0 6 0 5 0 5 0 6 0 5 0 
5 0 6 0 5 0 5 0 6 0 5 0 6 0 5 0 
5 0 6 0 5 0 5 0 6 0 5 0 5 0 6 0 
5 0 5 0 6 0 5 0 5 0 6 0 5 0 6 0 
5 0 5 0 6 0 5 0 5 0 6 0 5 0 5 0 
6 0 5 0 5 0 6 0 5 0 6 0 5 0 5 0 
6 0 5 0 5 0 6 0 5 0 5 0 6 0 5 0 
5 0 6 0 5 0 6 0 5 0 5 0 6 0 5 0 
5 0 6 0 5 0 5 0 6 0 5 0 5 0 6 0 
5 0 6 0 5 0 4669 3725 100 MP stroke
5 0 6 0 5 0 5 0 6 0 5 0 5 0 6 0 
5 -1 5 0 6 0 5 0 6 0 5 0 5 0 6 0 
5 0 5 0 6 0 5 0 5 0 6 0 5 0 5 0 
6 0 5 0 5 0 6 0 5 0 6 0 5 0 5 0 
6 0 5 0 5 0 6 0 5 0 5 0 6 0 5 0 
5 0 6 0 5 0 6 0 5 0 5 0 6 0 5 0 
5 0 6 0 5 0 5 0 6 0 5 0 5 0 6 0 
5 0 6 0 5 0 5 0 6 0 5 0 5 0 6 0 
5 0 5 0 6 0 5 0 5 0 6 0 5 0 6 0 
5 0 5 0 6 0 5 0 5 0 6 0 5 0 5 0 
6 0 5 0 5 0 6 0 5 0 5 0 6 0 5 0 
6 0 5 0 5 0 6 0 5 0 5 0 6 -1 5 0 
5 0 6 0 5 0 4139 3727 100 MP stroke
5 0 6 0 5 0 6 0 5 0 5 0 6 0 5 0 
5 0 6 0 5 0 5 0 6 0 5 0 5 0 6 0 
5 0 6 0 5 0 5 0 6 0 5 0 5 0 6 0 
5 0 5 0 6 0 5 0 5 0 6 0 5 0 6 0 
5 0 5 0 6 0 5 0 5 0 6 0 5 0 5 0 
6 0 5 0 5 0 6 0 5 0 5 0 6 0 5 0 
6 0 5 0 5 0 6 0 5 0 5 0 6 0 5 0 
5 0 6 0 5 0 5 0 6 0 5 0 6 0 5 0 
5 0 6 0 5 0 5 0 6 0 5 0 5 0 6 0 
5 0 5 0 6 0 5 0 6 0 5 0 5 0 6 0 
5 0 5 -1 6 0 5 0 5 0 6 0 5 0 5 0 
6 0 5 0 6 0 5 0 5 0 6 0 5 0 5 0 
6 0 5 0 5 0 3609 3728 100 MP stroke
6 0 5 0 5 0 6 0 5 0 5 0 6 0 5 0 
6 0 5 0 5 0 6 0 5 0 5 0 6 0 5 0 
5 0 6 0 5 0 5 0 6 0 5 0 6 0 5 0 
5 0 6 0 5 0 5 0 6 0 5 0 5 0 6 0 
5 0 5 0 6 0 5 0 6 0 5 0 5 0 6 0 
5 0 5 0 6 0 5 0 5 0 6 0 5 0 5 0 
6 0 5 0 6 0 5 0 5 0 6 0 5 0 5 0 
6 0 5 0 5 0 6 0 5 0 5 0 6 0 5 0 
6 0 5 0 5 0 6 -1 5 0 5 0 6 0 5 0 
5 0 6 0 5 0 5 0 6 0 5 0 5 0 6 0 
5 0 6 0 5 0 5 0 6 0 5 0 5 0 6 0 
5 0 5 0 6 0 5 0 5 0 6 0 5 0 6 0 
5 0 5 0 6 0 3078 3729 100 MP stroke
5 0 5 0 6 0 5 0 5 0 6 0 5 0 5 0 
6 0 5 0 6 0 5 0 5 0 6 0 5 0 5 0 
6 0 5 0 5 0 6 0 5 0 5 0 6 0 5 0 
6 0 5 0 5 0 6 0 5 0 5 0 6 0 5 0 
5 0 6 0 5 0 5 0 6 0 5 0 5 0 6 0 
5 0 6 0 5 0 5 0 6 0 5 0 5 0 6 0 
5 0 5 0 6 0 5 0 5 0 6 0 5 -1 6 0 
5 0 5 0 6 0 5 0 5 0 6 0 5 0 5 0 
6 0 5 0 5 0 6 0 5 0 6 0 5 0 5 0 
6 0 5 0 5 0 6 0 5 0 5 0 6 0 5 0 
5 0 6 0 5 0 6 0 5 0 5 0 6 0 5 0 
5 0 6 0 5 0 5 0 6 0 5 0 5 0 6 0 
5 0 5 0 6 0 2548 3730 100 MP stroke
5 0 6 0 5 0 5 0 6 0 5 0 5 0 6 0 
5 0 5 0 6 0 5 0 5 0 6 0 5 0 6 0 
5 0 5 0 6 0 5 0 5 0 6 0 5 0 5 0 
6 0 5 0 5 0 6 0 5 0 6 0 5 0 5 0 
6 0 5 0 5 0 6 0 5 0 5 0 6 0 5 0 
5 0 6 -1 5 0 6 0 5 0 5 0 6 0 5 0 
5 0 6 0 5 0 5 0 6 0 5 0 5 0 6 0 
5 0 5 0 6 0 5 0 6 0 5 0 5 0 6 0 
5 0 5 0 6 0 5 0 5 0 6 0 5 0 5 0 
6 0 5 0 6 0 5 0 5 0 6 0 5 0 5 0 
6 0 5 0 5 0 6 0 5 0 5 0 6 0 5 0 
6 0 5 0 5 0 6 0 5 0 5 0 6 0 5 0 
5 0 6 0 5 0 2018 3731 100 MP stroke
5 0 6 0 5 0 6 0 5 0 5 0 6 0 5 0 
5 0 6 0 5 0 5 0 6 0 5 0 5 0 6 0 
5 0 6 0 5 0 5 0 6 0 5 0 5 0 6 0 
5 0 5 0 6 0 5 0 5 -1 6 0 5 0 5 0 
6 0 5 0 6 0 5 0 5 0 6 0 5 0 5 0 
6 0 5 0 5 0 6 0 5 0 5 0 6 0 5 0 
6 0 5 0 5 0 6 0 5 0 5 0 6 0 5 0 
5 0 6 0 5 0 5 0 6 0 5 0 6 0 5 0 
5 0 6 0 5 0 5 0 6 0 5 0 5 0 6 0 
5 0 5 0 6 0 5 0 6 0 5 0 5 0 6 0 
5 0 5 0 6 0 5 0 5 0 6 0 5 0 5 0 
6 0 5 0 5 0 6 0 5 0 6 0 5 0 5 0 
6 0 5 0 5 0 1488 3732 100 MP stroke
6 0 5 0 5 0 6 0 5 0 5 0 6 0 5 0 
6 0 5 0 5 0 6 0 5 0 5 0 6 0 5 0 
5 -1 6 0 5 0 5 0 6 0 5 0 6 0 5 0 
5 0 6 0 5 0 5 0 6 0 5 0 5 0 6 0 
5 0 5 0 6 0 5 0 6 0 5 0 5 0 6 0 
5 0 5 0 6 0 5 0 5 0 6 0 5 0 5 0 
6 0 5 0 5 0 6 0 5 0 6 0 5 0 5 0 
6 0 5 0 5 0 6 0 5 0 5 0 6 0 5 0 
5 0 6 0 5 0 6 0 5 0 5 0 6 0 5 0 
5 0 6 0 5 0 5 0 6 0 5 0 5 0 6 0 
5 0 6 0 5 0 5 0 6 0 5 0 5 0 6 0 
5 0 5 0 6 0 5 0 5 0 6 0 5 0 6 0 
5 0 5 0 6 0 957 3733 100 MP stroke
5 0 5 0 6 0 5 -1 5 0 6 0 5 0 5 0 
6 0 5 0 5 0 899 3734 12 MP stroke
gr

c12
gs 938 576 5380 4114 MR c np
c8
  36   36 1016 1131 FO
gr

c8
gs 899 389 5357 4227 MR c np
gr

gs 938 576 5380 4114 MR c np
  36   36 1830 1056 FO
gr

gs 899 389 5357 4227 MR c np
gr

gs 938 576 5380 4114 MR c np
  36   36 1970 1043 FO
gr

gs 899 389 5357 4227 MR c np
gr

gs 938 576 5380 4114 MR c np
  36   36 2109 1030 FO
gr

gs 899 389 5357 4227 MR c np
gr

gs 938 576 5380 4114 MR c np
  36   36 2248 1017 FO
gr

gs 899 389 5357 4227 MR c np
gr

gs 938 576 5380 4114 MR c np
  36   36 2387 1004 FO
gr

gs 899 389 5357 4227 MR c np
gr

gs 938 576 5380 4114 MR c np
  36   36 2527  991 FO
gr

gs 899 389 5357 4227 MR c np
gr

gs 938 576 5380 4114 MR c np
  36   36 2666  979 FO
gr

gs 899 389 5357 4227 MR c np
gr

gs 938 576 5380 4114 MR c np
  36   36 2805  966 FO
gr

gs 899 389 5357 4227 MR c np
gr

gs 938 576 5380 4114 MR c np
  36   36 2944  953 FO
gr

gs 899 389 5357 4227 MR c np
gr

gs 938 576 5380 4114 MR c np
  36   36 3764  877 FO
gr

gs 899 389 5357 4227 MR c np
gr

gs 938 576 5380 4114 MR c np
  36   36 3903  865 FO
gr

gs 899 389 5357 4227 MR c np
gr

gs 938 576 5380 4114 MR c np
  36   36 4042  852 FO
gr

gs 899 389 5357 4227 MR c np
gr

gs 938 576 5380 4114 MR c np
  36   36 5542  714 FO
gr

gs 899 389 5357 4227 MR c np
gr

gs 938 576 5380 4114 MR c np
  36   36 5681  701 FO
gr

gs 899 389 5357 4227 MR c np
gr

gs 938 576 5380 4114 MR c np
  36   36 5821  688 FO
gr

gs 899 389 5357 4227 MR c np
gr

gs 938 576 5380 4114 MR c np
  36   36 5960  675 FO
gr

gs 899 389 5357 4227 MR c np
gr

gs 938 576 5380 4114 MR c np
  36   36 6099  662 FO
gr

gs 899 389 5357 4227 MR c np
gr

gs 938 576 5380 4114 MR c np
  36   36 6238  649 FO
gr

gs 899 389 5357 4227 MR c np
gr

gs 938 3884 5379 806 MR c np
c9
  36   36 1016 3957 FO
gr

c9
gs 899 389 5357 4227 MR c np
gr

gs 938 3884 5379 806 MR c np
  36   36 1830 3959 FO
gr

gs 899 389 5357 4227 MR c np
gr

gs 938 3884 5379 806 MR c np
  36   36 1970 3960 FO
gr

gs 899 389 5357 4227 MR c np
gr

gs 938 3884 5379 806 MR c np
  36   36 2109 3960 FO
gr

gs 899 389 5357 4227 MR c np
gr

gs 938 3884 5379 806 MR c np
  36   36 2248 3960 FO
gr

gs 899 389 5357 4227 MR c np
gr

gs 938 3884 5379 806 MR c np
  36   36 2387 3961 FO
gr

gs 899 389 5357 4227 MR c np
gr

gs 938 3884 5379 806 MR c np
  36   36 2527 3961 FO
gr

gs 899 389 5357 4227 MR c np
gr

gs 938 3884 5379 806 MR c np
  36   36 2666 3961 FO
gr

gs 899 389 5357 4227 MR c np
gr

gs 938 3884 5379 806 MR c np
  36   36 2805 3962 FO
gr

gs 899 389 5357 4227 MR c np
gr

gs 938 3884 5379 806 MR c np
  36   36 2944 3962 FO
gr

gs 899 389 5357 4227 MR c np
gr

gs 938 3884 5379 806 MR c np
  36   36 3764 3964 FO
gr

gs 899 389 5357 4227 MR c np
gr

gs 938 3884 5379 806 MR c np
  36   36 3903 3965 FO
gr

gs 899 389 5357 4227 MR c np
gr

gs 938 3884 5379 806 MR c np
  36   36 4042 3965 FO
gr

gs 899 389 5357 4227 MR c np
gr

gs 938 3884 5379 806 MR c np
  36   36 5542 3969 FO
gr

gs 899 389 5357 4227 MR c np
gr

gs 938 3884 5379 806 MR c np
  36   36 5681 3969 FO
gr

gs 899 389 5357 4227 MR c np
gr

gs 938 3884 5379 806 MR c np
  36   36 5821 3970 FO
gr

gs 899 389 5357 4227 MR c np
gr

gs 938 3884 5379 806 MR c np
  36   36 5960 3970 FO
gr

gs 899 389 5357 4227 MR c np
gr

gs 938 3884 5379 806 MR c np
  36   36 6099 3970 FO
gr

gs 899 389 5357 4227 MR c np
gr

gs 938 3884 5379 806 MR c np
  36   36 6238 3971 FO
gr

gs 899 389 5357 4227 MR c np
gr

gs 938 3746 5379 944 MR c np
c10
  36   36 1016 3820 FO
gr

c10
gs 899 389 5357 4227 MR c np
gr

gs 938 3746 5379 944 MR c np
  36   36 1830 3820 FO
gr

gs 899 389 5357 4227 MR c np
gr

gs 938 3746 5379 944 MR c np
  36   36 1970 3820 FO
gr

gs 899 389 5357 4227 MR c np
gr

gs 938 3746 5379 944 MR c np
  36   36 2109 3820 FO
gr

gs 899 389 5357 4227 MR c np
gr

gs 938 3746 5379 944 MR c np
  36   36 2248 3820 FO
gr

gs 899 389 5357 4227 MR c np
gr

gs 938 3746 5379 944 MR c np
  36   36 2387 3820 FO
gr

gs 899 389 5357 4227 MR c np
gr

gs 938 3746 5379 944 MR c np
  36   36 2527 3820 FO
gr

gs 899 389 5357 4227 MR c np
gr

gs 938 3746 5379 944 MR c np
  36   36 2666 3820 FO
gr

gs 899 389 5357 4227 MR c np
gr

gs 938 3746 5379 944 MR c np
  36   36 2805 3820 FO
gr

gs 899 389 5357 4227 MR c np
gr

gs 938 3746 5379 944 MR c np
  36   36 2944 3820 FO
gr

gs 899 389 5357 4227 MR c np
gr

gs 938 3746 5379 944 MR c np
  36   36 3764 3820 FO
gr

gs 899 389 5357 4227 MR c np
gr

gs 938 3746 5379 944 MR c np
  36   36 3903 3820 FO
gr

gs 899 389 5357 4227 MR c np
gr

gs 938 3746 5379 944 MR c np
  36   36 4042 3820 FO
gr

gs 899 389 5357 4227 MR c np
gr

gs 938 3746 5379 944 MR c np
  36   36 5542 3819 FO
gr

gs 899 389 5357 4227 MR c np
gr

gs 938 3746 5379 944 MR c np
  36   36 5681 3819 FO
gr

gs 899 389 5357 4227 MR c np
gr

gs 938 3746 5379 944 MR c np
  36   36 5821 3819 FO
gr

gs 899 389 5357 4227 MR c np
gr

gs 938 3746 5379 944 MR c np
  36   36 5960 3819 FO
gr

gs 899 389 5357 4227 MR c np
gr

gs 938 3746 5379 944 MR c np
  36   36 6099 3819 FO
gr

gs 899 389 5357 4227 MR c np
gr

gs 938 3746 5379 944 MR c np
  36   36 6238 3819 FO
gr

gs 899 389 5357 4227 MR c np
gr

gs 938 3746 5379 944 MR c np
c11
  36   36 1016 3819 FO
gr

c11
gs 899 389 5357 4227 MR c np
gr

gs 938 3746 5379 944 MR c np
  36   36 1830 3820 FO
gr

gs 899 389 5357 4227 MR c np
gr

gs 938 3746 5379 944 MR c np
  36   36 1970 3820 FO
gr

gs 899 389 5357 4227 MR c np
gr

gs 938 3746 5379 944 MR c np
  36   36 2109 3820 FO
gr

gs 899 389 5357 4227 MR c np
gr

gs 938 3746 5379 944 MR c np
  36   36 2248 3820 FO
gr

gs 899 389 5357 4227 MR c np
gr

gs 938 3746 5379 944 MR c np
  36   36 2387 3820 FO
gr

gs 899 389 5357 4227 MR c np
gr

gs 938 3746 5379 944 MR c np
  36   36 2527 3820 FO
gr

gs 899 389 5357 4227 MR c np
gr

gs 938 3746 5379 944 MR c np
  36   36 2666 3820 FO
gr

gs 899 389 5357 4227 MR c np
gr

gs 938 3746 5379 944 MR c np
  36   36 2805 3820 FO
gr

gs 899 389 5357 4227 MR c np
gr

gs 938 3746 5379 944 MR c np
  36   36 2944 3820 FO
gr

gs 899 389 5357 4227 MR c np
gr

gs 938 3746 5379 944 MR c np
  36   36 3764 3819 FO
gr

gs 899 389 5357 4227 MR c np
gr

gs 938 3746 5379 944 MR c np
  36   36 3903 3819 FO
gr

gs 899 389 5357 4227 MR c np
gr

gs 938 3746 5379 944 MR c np
  36   36 4042 3819 FO
gr

gs 899 389 5357 4227 MR c np
gr

gs 938 3746 5379 944 MR c np
  36   36 5542 3819 FO
gr

gs 899 389 5357 4227 MR c np
gr

gs 938 3746 5379 944 MR c np
  36   36 5681 3819 FO
gr

gs 899 389 5357 4227 MR c np
gr

gs 938 3746 5379 944 MR c np
  36   36 5821 3819 FO
gr

gs 899 389 5357 4227 MR c np
gr

gs 938 3746 5379 944 MR c np
  36   36 5960 3819 FO
gr

gs 899 389 5357 4227 MR c np
gr

gs 938 3746 5379 944 MR c np
  36   36 6099 3819 FO
gr

gs 899 389 5357 4227 MR c np
gr

gs 938 3746 5379 944 MR c np
  36   36 6238 3819 FO
gr

gs 899 389 5357 4227 MR c np
gr

gs 938 3653 5379 1037 MR c np
c12
  36   36 1016 3737 FO
gr

c12
gs 899 389 5357 4227 MR c np
gr

gs 938 3653 5379 1037 MR c np
  36   36 1830 3735 FO
gr

gs 899 389 5357 4227 MR c np
gr

gs 938 3653 5379 1037 MR c np
  36   36 1970 3735 FO
gr

gs 899 389 5357 4227 MR c np
gr

gs 938 3653 5379 1037 MR c np
  36   36 2109 3735 FO
gr

gs 899 389 5357 4227 MR c np
gr

gs 938 3653 5379 1037 MR c np
  36   36 2248 3735 FO
gr

gs 899 389 5357 4227 MR c np
gr

gs 938 3653 5379 1037 MR c np
  36   36 2387 3734 FO
gr

gs 899 389 5357 4227 MR c np
gr

gs 938 3653 5379 1037 MR c np
  36   36 2527 3734 FO
gr

gs 899 389 5357 4227 MR c np
gr

gs 938 3653 5379 1037 MR c np
  36   36 2666 3734 FO
gr

gs 899 389 5357 4227 MR c np
gr

gs 938 3653 5379 1037 MR c np
  36   36 2805 3733 FO
gr

gs 899 389 5357 4227 MR c np
gr

gs 938 3653 5379 1037 MR c np
  36   36 2944 3733 FO
gr

gs 899 389 5357 4227 MR c np
gr

gs 938 3653 5379 1037 MR c np
  36   36 3764 3731 FO
gr

gs 899 389 5357 4227 MR c np
gr

gs 938 3653 5379 1037 MR c np
  36   36 3903 3731 FO
gr

gs 899 389 5357 4227 MR c np
gr

gs 938 3653 5379 1037 MR c np
  36   36 4042 3731 FO
gr

gs 899 389 5357 4227 MR c np
gr

gs 938 3653 5379 1037 MR c np
  36   36 5542 3728 FO
gr

gs 899 389 5357 4227 MR c np
gr

gs 938 3653 5379 1037 MR c np
  36   36 5681 3727 FO
gr

gs 899 389 5357 4227 MR c np
gr

gs 938 3653 5379 1037 MR c np
  36   36 5821 3727 FO
gr

gs 899 389 5357 4227 MR c np
gr

gs 938 3653 5379 1037 MR c np
  36   36 5960 3727 FO
gr

gs 899 389 5357 4227 MR c np
gr

gs 938 3653 5379 1037 MR c np
  36   36 6099 3726 FO
gr

gs 899 389 5357 4227 MR c np
gr

gs 938 3653 5379 1037 MR c np
  36   36 6238 3726 FO
gr

gs 899 389 5357 4227 MR c np
gr

0 sg
3316 4903 mt 
(Tempo [s]) s
 649 2850 mt  -90 rotate
(Dist\342ncia [m]) s
90 rotate
2113  294 mt 
(Dist\342ncia real e estimada do Mergulhador aos Ve\355culos) s
 870 4670 mt 
( ) s
6227  443 mt 
( ) s
1 sg
0 1638 1186 0 0 -1638 4600 3555 4 MP
PP
-1186 0 0 1638 1186 0 0 -1638 4600 3555 5 MP stroke
4 w
DO
SO
6 w
0 sg
4600 3555 mt 5786 3555 L
4600 1917 mt 5786 1917 L
4600 3555 mt 4600 1917 L
5786 3555 mt 5786 1917 L
4600 3555 mt 5786 3555 L
4600 3555 mt 4600 1917 L
4600 3555 mt 5786 3555 L
4600 1917 mt 5786 1917 L
4600 3555 mt 4600 1917 L
5786 3555 mt 5786 1917 L
5069 2060 mt 
(V1 real) s
gs 4600 1917 1187 1639 MR c np
c8
360 0 4672 2017 2 MP stroke
gr

c8
0 sg
5069 2220 mt 
(V2 real) s
gs 4600 1917 1187 1639 MR c np
c9
360 0 4672 2177 2 MP stroke
gr

c9
0 sg
5069 2379 mt 
(V3 real) s
gs 4600 1917 1187 1639 MR c np
c10
360 0 4672 2337 2 MP stroke
gr

c10
0 sg
5069 2539 mt 
(V4 real) s
gs 4600 1917 1187 1639 MR c np
c11
360 0 4672 2496 2 MP stroke
gr

c11
0 sg
5069 2699 mt 
(V5 real) s
gs 4600 1917 1187 1639 MR c np
c12
360 0 4672 2656 2 MP stroke
gr

c12
0 sg
5069 2858 mt 
(V1 estimada) s
gs 4600 1917 1187 1639 MR c np
gs 4779 2742 147 147 MR c np
c8
  36   36 4852 2815 FO
gr

c8
gr

c8
0 sg
5069 3018 mt 
(V2 estimada) s
gs 4600 1917 1187 1639 MR c np
gs 4779 2902 147 147 MR c np
c9
  36   36 4852 2975 FO
gr

c9
gr

c9
0 sg
5069 3178 mt 
(V3 estimada) s
gs 4600 1917 1187 1639 MR c np
gs 4779 3062 147 147 MR c np
c10
  36   36 4852 3135 FO
gr

c10
gr

c10
0 sg
5069 3337 mt 
(V4 estimada) s
gs 4600 1917 1187 1639 MR c np
gs 4779 3221 147 147 MR c np
c11
  36   36 4852 3294 FO
gr

c11
gr

c11
0 sg
5069 3497 mt 
(V5 estimada) s
gs 4600 1917 1187 1639 MR c np
gs 4779 3381 147 147 MR c np
c12
  36   36 4852 3454 FO
gr

c12
gr

c12

end %%Color Dict

eplot
%%EndObject

epage
end

showpage

%%Trailer
%%EOF
