%!PS-Adobe-2.0 EPSF-1.2
%%Creator: MATLAB, The Mathworks, Inc. Version 7.9.0.529 (R2009b). Operating System: Darwin 10.8.0 Darwin Kernel Version 10.8.0: Tue Jun  7 16:33:36 PDT 2011; root:xnu-1504.15.3~1/RELEASE_I386 i386.
%%Title: ./vD_vV_falhas_tempos_veiculos_zoom_mau.eps
%%CreationDate: 12/06/2011  00:56:03
%%DocumentNeededFonts: Helvetica
%%DocumentProcessColors: Cyan Magenta Yellow Black
%%Extensions: CMYK
%%Pages: 1
%%BoundingBox:    60   208   551   595
%%EndComments

%%BeginProlog
% MathWorks dictionary
/MathWorks 160 dict begin
% definition operators
/bdef {bind def} bind def
/ldef {load def} bind def
/xdef {exch def} bdef
/xstore {exch store} bdef
% operator abbreviations
/c  /clip ldef
/cc /concat ldef
/cp /closepath ldef
/gr /grestore ldef
/gs /gsave ldef
/mt /moveto ldef
/np /newpath ldef
/cm /currentmatrix ldef
/sm /setmatrix ldef
/rm /rmoveto ldef
/rl /rlineto ldef
/s {show newpath} bdef
/sc {setcmykcolor} bdef
/sr /setrgbcolor ldef
/sg /setgray ldef
/w /setlinewidth ldef
/j /setlinejoin ldef
/cap /setlinecap ldef
/rc {rectclip} bdef
/rf {rectfill} bdef
% page state control
/pgsv () def
/bpage {/pgsv save def} bdef
/epage {pgsv restore} bdef
/bplot /gsave ldef
/eplot {stroke grestore} bdef
% orientation switch
/portraitMode 0 def /landscapeMode 1 def /rotateMode 2 def
% coordinate system mappings
/dpi2point 0 def
% font control
/FontSize 0 def
/FMS {/FontSize xstore findfont [FontSize 0 0 FontSize neg 0 0]
  makefont setfont} bdef
/reencode {exch dup where {pop load} {pop StandardEncoding} ifelse
  exch dup 3 1 roll findfont dup length dict begin
  { 1 index /FID ne {def}{pop pop} ifelse } forall
  /Encoding exch def currentdict end definefont pop} bdef
/isroman {findfont /CharStrings get /Agrave known} bdef
/FMSR {3 1 roll 1 index dup isroman {reencode} {pop pop} ifelse
  exch FMS} bdef
/csm {1 dpi2point div -1 dpi2point div scale neg translate
 dup landscapeMode eq {pop -90 rotate}
  {rotateMode eq {90 rotate} if} ifelse} bdef
% line types: solid, dotted, dashed, dotdash
/SO { [] 0 setdash } bdef
/DO { [.5 dpi2point mul 4 dpi2point mul] 0 setdash } bdef
/DA { [6 dpi2point mul] 0 setdash } bdef
/DD { [.5 dpi2point mul 4 dpi2point mul 6 dpi2point mul 4
  dpi2point mul] 0 setdash } bdef
% macros for lines and objects
/L {lineto stroke} bdef
/MP {3 1 roll moveto 1 sub {rlineto} repeat} bdef
/AP {{rlineto} repeat} bdef
/PDlw -1 def
/W {/PDlw currentlinewidth def setlinewidth} def
/PP {closepath eofill} bdef
/DP {closepath stroke} bdef
/MR {4 -2 roll moveto dup  0 exch rlineto exch 0 rlineto
  neg 0 exch rlineto closepath} bdef
/FR {MR stroke} bdef
/PR {MR fill} bdef
/L1i {{currentfile picstr readhexstring pop} image} bdef
/tMatrix matrix def
/MakeOval {newpath tMatrix currentmatrix pop translate scale
0 0 1 0 360 arc tMatrix setmatrix} bdef
/FO {MakeOval stroke} bdef
/PO {MakeOval fill} bdef
/PD {currentlinewidth 2 div 0 360 arc fill
   PDlw -1 eq not {PDlw w /PDlw -1 def} if} def
/FA {newpath tMatrix currentmatrix pop translate scale
  0 0 1 5 -2 roll arc tMatrix setmatrix stroke} bdef
/PA {newpath tMatrix currentmatrix pop	translate 0 0 moveto scale
  0 0 1 5 -2 roll arc closepath tMatrix setmatrix fill} bdef
/FAn {newpath tMatrix currentmatrix pop translate scale
  0 0 1 5 -2 roll arcn tMatrix setmatrix stroke} bdef
/PAn {newpath tMatrix currentmatrix pop translate 0 0 moveto scale
  0 0 1 5 -2 roll arcn closepath tMatrix setmatrix fill} bdef
/vradius 0 def /hradius 0 def /lry 0 def
/lrx 0 def /uly 0 def /ulx 0 def /rad 0 def
/MRR {/vradius xdef /hradius xdef /lry xdef /lrx xdef /uly xdef
  /ulx xdef newpath tMatrix currentmatrix pop ulx hradius add uly
  vradius add translate hradius vradius scale 0 0 1 180 270 arc 
  tMatrix setmatrix lrx hradius sub uly vradius add translate
  hradius vradius scale 0 0 1 270 360 arc tMatrix setmatrix
  lrx hradius sub lry vradius sub translate hradius vradius scale
  0 0 1 0 90 arc tMatrix setmatrix ulx hradius add lry vradius sub
  translate hradius vradius scale 0 0 1 90 180 arc tMatrix setmatrix
  closepath} bdef
/FRR {MRR stroke } bdef
/PRR {MRR fill } bdef
/MlrRR {/lry xdef /lrx xdef /uly xdef /ulx xdef /rad lry uly sub 2 div def
  newpath tMatrix currentmatrix pop ulx rad add uly rad add translate
  rad rad scale 0 0 1 90 270 arc tMatrix setmatrix lrx rad sub lry rad
  sub translate rad rad scale 0 0 1 270 90 arc tMatrix setmatrix
  closepath} bdef
/FlrRR {MlrRR stroke } bdef
/PlrRR {MlrRR fill } bdef
/MtbRR {/lry xdef /lrx xdef /uly xdef /ulx xdef /rad lrx ulx sub 2 div def
  newpath tMatrix currentmatrix pop ulx rad add uly rad add translate
  rad rad scale 0 0 1 180 360 arc tMatrix setmatrix lrx rad sub lry rad
  sub translate rad rad scale 0 0 1 0 180 arc tMatrix setmatrix
  closepath} bdef
/FtbRR {MtbRR stroke } bdef
/PtbRR {MtbRR fill } bdef
/stri 6 array def /dtri 6 array def
/smat 6 array def /dmat 6 array def
/tmat1 6 array def /tmat2 6 array def /dif 3 array def
/asub {/ind2 exch def /ind1 exch def dup dup
  ind1 get exch ind2 get sub exch } bdef
/tri_to_matrix {
  2 0 asub 3 1 asub 4 0 asub 5 1 asub
  dup 0 get exch 1 get 7 -1 roll astore } bdef
/compute_transform {
  dmat dtri tri_to_matrix tmat1 invertmatrix 
  smat stri tri_to_matrix tmat2 concatmatrix } bdef
/ds {stri astore pop} bdef
/dt {dtri astore pop} bdef
/db {2 copy /cols xdef /rows xdef mul dup 3 mul string
  currentfile exch readhexstring pop
  dup 0 3 index getinterval /rbmap xdef
  dup 2 index dup getinterval /gbmap xdef
  1 index dup 2 mul exch getinterval /bbmap xdef pop pop}bdef
/it {gs np dtri aload pop moveto lineto lineto cp c
  cols rows 8 compute_transform 
  rbmap gbmap bbmap true 3 colorimage gr}bdef
/il {newpath moveto lineto stroke}bdef
currentdict end def
%%EndProlog

%%BeginSetup
MathWorks begin

0 cap

end
%%EndSetup

%%Page: 1 1
%%BeginPageSetup
%%PageBoundingBox:    60   208   551   595
MathWorks begin
bpage
%%EndPageSetup

%%BeginObject: obj1
bplot

/dpi2point 12 def
portraitMode 0216 7344 csm

  510   202  5894  4640 MR c np
86 dict begin %Colortable dictionary
/c0 { 0.000000 0.000000 0.000000 sr} bdef
/c1 { 1.000000 1.000000 1.000000 sr} bdef
/c2 { 0.900000 0.000000 0.000000 sr} bdef
/c3 { 0.000000 0.820000 0.000000 sr} bdef
/c4 { 0.000000 0.000000 0.800000 sr} bdef
/c5 { 0.910000 0.820000 0.320000 sr} bdef
/c6 { 1.000000 0.260000 0.820000 sr} bdef
/c7 { 0.000000 0.820000 0.820000 sr} bdef
c0
1 j
1 sg
   0    0 6913 5186 PR
6 w
0 613 5356 0 0 -613 899 1094 4 MP
PP
-5356 0 0 613 5356 0 0 -613 899 1094 5 MP stroke
4 w
DO
0 sg
 899 1094 mt  899  481 L
 899  481 mt  899  481 L
1664 1094 mt 1664  481 L
1664  481 mt 1664  481 L
2429 1094 mt 2429  481 L
2429  481 mt 2429  481 L
3194 1094 mt 3194  481 L
3194  481 mt 3194  481 L
3959 1094 mt 3959  481 L
3959  481 mt 3959  481 L
4724 1094 mt 4724  481 L
4724  481 mt 4724  481 L
5489 1094 mt 5489  481 L
5489  481 mt 5489  481 L
6255 1094 mt 6255  481 L
6255  481 mt 6255  481 L
 899 1094 mt 6255 1094 L
6255 1094 mt 6255 1094 L
 899  787 mt 6255  787 L
6255  787 mt 6255  787 L
 899  481 mt 6255  481 L
6255  481 mt 6255  481 L
SO
6 w
 899 1094 mt 6255 1094 L
 899  481 mt 6255  481 L
 899 1094 mt  899  481 L
6255 1094 mt 6255  481 L
 899 1094 mt 6255 1094 L
 899 1094 mt  899  481 L
 899 1094 mt  899 1040 L
 899  481 mt  899  534 L
%%IncludeResource: font Helvetica
/Helvetica /ISOLatin1Encoding 120 FMSR

 799 1239 mt 
(116) s
1664 1094 mt 1664 1040 L
1664  481 mt 1664  534 L
1564 1239 mt 
(118) s
2429 1094 mt 2429 1040 L
2429  481 mt 2429  534 L
2329 1239 mt 
(120) s
3194 1094 mt 3194 1040 L
3194  481 mt 3194  534 L
3094 1239 mt 
(122) s
3959 1094 mt 3959 1040 L
3959  481 mt 3959  534 L
3859 1239 mt 
(124) s
4724 1094 mt 4724 1040 L
4724  481 mt 4724  534 L
4624 1239 mt 
(126) s
5489 1094 mt 5489 1040 L
5489  481 mt 5489  534 L
5389 1239 mt 
(128) s
6255 1094 mt 6255 1040 L
6255  481 mt 6255  534 L
6155 1239 mt 
(130) s
 899 1094 mt  952 1094 L
6255 1094 mt 6201 1094 L
 728 1138 mt 
(-2) s
 899  787 mt  952  787 L
6255  787 mt 6201  787 L
 798  831 mt 
(0) s
 899  481 mt  952  481 L
6255  481 mt 6201  481 L
 798  525 mt 
(2) s
 899 1094 mt 6255 1094 L
 899  481 mt 6255  481 L
 899 1094 mt  899  481 L
6255 1094 mt 6255  481 L
gs 899 481 5357 614 MR c np
12 w
gr

12 w
gs 826 867 5504 147 MR c np
/c8 { 0.000000 1.000000 1.000000 sr} bdef
c8
  36   36 1009  940 FO
  36   36 1120  940 FO
  36   36 1231  940 FO
  36   36 1342  940 FO
  36   36 1453  940 FO
  36   36 1951  940 FO
  36   36 2062  940 FO
  36   36 2559  940 FO
  36   36 2670  940 FO
  36   36 2781  940 FO
  36   36 2892  940 FO
  36   36 3003  940 FO
  36   36 3114  940 FO
  36   36 3225  940 FO
  36   36 3335  940 FO
  36   36 3450  940 FO
  36   36 3565  940 FO
  36   36 3680  940 FO
  36   36 3795  940 FO
  36   36 3909  940 FO
  36   36 4024  940 FO
  36   36 4139  940 FO
  36   36 4254  940 FO
  36   36 4751  940 FO
  36   36 4866  940 FO
  36   36 4981  940 FO
  36   36 5095  940 FO
  36   36 5210  940 FO
  36   36 5325  940 FO
  36   36 5440  940 FO
  36   36 5554  940 FO
  36   36 6056  940 FO
  36   36 6170  940 FO
gr

c8
gs 899 481 5357 614 MR c np
DA
0 153 899 787 2 MP stroke
0 153 1009 787 2 MP stroke
0 153 1120 787 2 MP stroke
0 153 1231 787 2 MP stroke
0 153 1342 787 2 MP stroke
0 153 1453 787 2 MP stroke
0 153 1951 787 2 MP stroke
0 153 2062 787 2 MP stroke
0 153 2559 787 2 MP stroke
0 153 2670 787 2 MP stroke
0 153 2781 787 2 MP stroke
0 153 2892 787 2 MP stroke
0 153 3003 787 2 MP stroke
0 153 3114 787 2 MP stroke
0 153 3225 787 2 MP stroke
0 153 3335 787 2 MP stroke
0 153 3450 787 2 MP stroke
0 153 3565 787 2 MP stroke
0 153 3680 787 2 MP stroke
0 153 3795 787 2 MP stroke
0 153 3909 787 2 MP stroke
0 153 4024 787 2 MP stroke
0 153 4139 787 2 MP stroke
0 153 4254 787 2 MP stroke
0 153 4751 787 2 MP stroke
0 153 4866 787 2 MP stroke
0 153 4981 787 2 MP stroke
0 153 5095 787 2 MP stroke
0 153 5210 787 2 MP stroke
0 153 5325 787 2 MP stroke
0 153 5440 787 2 MP stroke
0 153 5554 787 2 MP stroke
0 153 6056 787 2 MP stroke
0 153 6170 787 2 MP stroke
SO
6 w
0 sg
5356 0 899 787 2 MP stroke
12 w
gr

0 sg
gs 826 867 5504 147 MR c np
/c9 { 1.000000 0.000000 0.000000 sr} bdef
c9
 929  940 mt 1001  940 L
 965  904 mt  965  976 L
1040  940 mt 1112  940 L
1076  904 mt 1076  976 L
1151  940 mt 1223  940 L
1187  904 mt 1187  976 L
1262  940 mt 1334  940 L
1298  904 mt 1298  976 L
1373  940 mt 1445  940 L
1409  904 mt 1409  976 L
1484  940 mt 1556  940 L
1520  904 mt 1520  976 L
1981  940 mt 2053  940 L
2017  904 mt 2017  976 L
2092  940 mt 2164  940 L
2128  904 mt 2128  976 L
2590  940 mt 2662  940 L
2626  904 mt 2626  976 L
2701  940 mt 2773  940 L
2737  904 mt 2737  976 L
2812  940 mt 2884  940 L
2848  904 mt 2848  976 L
2923  940 mt 2995  940 L
2959  904 mt 2959  976 L
3034  940 mt 3106  940 L
3070  904 mt 3070  976 L
3145  940 mt 3217  940 L
3181  904 mt 3181  976 L
3256  940 mt 3328  940 L
3292  904 mt 3292  976 L
3367  940 mt 3439  940 L
3403  904 mt 3403  976 L
3482  940 mt 3554  940 L
3518  904 mt 3518  976 L
3597  940 mt 3669  940 L
3633  904 mt 3633  976 L
3711  940 mt 3783  940 L
3747  904 mt 3747  976 L
3826  940 mt 3898  940 L
3862  904 mt 3862  976 L
3941  940 mt 4013  940 L
3977  904 mt 3977  976 L
4056  940 mt 4128  940 L
4092  904 mt 4092  976 L
4171  940 mt 4243  940 L
4207  904 mt 4207  976 L
4286  940 mt 4358  940 L
4322  904 mt 4322  976 L
4783  940 mt 4855  940 L
4819  904 mt 4819  976 L
4898  940 mt 4970  940 L
4934  904 mt 4934  976 L
5013  940 mt 5085  940 L
5049  904 mt 5049  976 L
5128  940 mt 5200  940 L
5164  904 mt 5164  976 L
5242  940 mt 5314  940 L
5278  904 mt 5278  976 L
5357  940 mt 5429  940 L
5393  904 mt 5393  976 L
5472  940 mt 5544  940 L
5508  904 mt 5508  976 L
6088  940 mt 6160  940 L
6124  904 mt 6124  976 L
6203  940 mt 6275  940 L
6239  904 mt 6239  976 L
 940  915 mt  990  965 L
 990  915 mt  940  965 L
1051  915 mt 1101  965 L
1101  915 mt 1051  965 L
1162  915 mt 1212  965 L
1212  915 mt 1162  965 L
1273  915 mt 1323  965 L
1323  915 mt 1273  965 L
1384  915 mt 1434  965 L
1434  915 mt 1384  965 L
1495  915 mt 1545  965 L
1545  915 mt 1495  965 L
1992  915 mt 2042  965 L
2042  915 mt 1992  965 L
2103  915 mt 2153  965 L
2153  915 mt 2103  965 L
2601  915 mt 2651  965 L
2651  915 mt 2601  965 L
2712  915 mt 2762  965 L
2762  915 mt 2712  965 L
2823  915 mt 2873  965 L
2873  915 mt 2823  965 L
2934  915 mt 2984  965 L
2984  915 mt 2934  965 L
3045  915 mt 3095  965 L
3095  915 mt 3045  965 L
3156  915 mt 3206  965 L
3206  915 mt 3156  965 L
3267  915 mt 3317  965 L
3317  915 mt 3267  965 L
3378  915 mt 3428  965 L
3428  915 mt 3378  965 L
3493  915 mt 3543  965 L
3543  915 mt 3493  965 L
3608  915 mt 3658  965 L
3658  915 mt 3608  965 L
3722  915 mt 3772  965 L
3772  915 mt 3722  965 L
3837  915 mt 3887  965 L
3887  915 mt 3837  965 L
3952  915 mt 4002  965 L
4002  915 mt 3952  965 L
4067  915 mt 4117  965 L
4117  915 mt 4067  965 L
4182  915 mt 4232  965 L
4232  915 mt 4182  965 L
4297  915 mt 4347  965 L
4347  915 mt 4297  965 L
4794  915 mt 4844  965 L
4844  915 mt 4794  965 L
4909  915 mt 4959  965 L
4959  915 mt 4909  965 L
5024  915 mt 5074  965 L
5074  915 mt 5024  965 L
5139  915 mt 5189  965 L
5189  915 mt 5139  965 L
5253  915 mt 5303  965 L
5303  915 mt 5253  965 L
5368  915 mt 5418  965 L
5418  915 mt 5368  965 L
5483  915 mt 5533  965 L
5533  915 mt 5483  965 L
6099  915 mt 6149  965 L
6149  915 mt 6099  965 L
6214  915 mt 6264  965 L
6264  915 mt 6214  965 L
gr

c9
gs 899 481 5357 614 MR c np
0 153 965 787 2 MP stroke
0 153 1076 787 2 MP stroke
0 153 1187 787 2 MP stroke
0 153 1298 787 2 MP stroke
0 153 1409 787 2 MP stroke
0 153 1520 787 2 MP stroke
0 153 2017 787 2 MP stroke
0 153 2128 787 2 MP stroke
0 153 2626 787 2 MP stroke
0 153 2737 787 2 MP stroke
0 153 2848 787 2 MP stroke
0 153 2959 787 2 MP stroke
0 153 3070 787 2 MP stroke
0 153 3181 787 2 MP stroke
0 153 3292 787 2 MP stroke
0 153 3403 787 2 MP stroke
0 153 3518 787 2 MP stroke
0 153 3633 787 2 MP stroke
0 153 3747 787 2 MP stroke
0 153 3862 787 2 MP stroke
0 153 3977 787 2 MP stroke
0 153 4092 787 2 MP stroke
0 153 4207 787 2 MP stroke
0 153 4322 787 2 MP stroke
0 153 4819 787 2 MP stroke
0 153 4934 787 2 MP stroke
0 153 5049 787 2 MP stroke
0 153 5164 787 2 MP stroke
0 153 5278 787 2 MP stroke
0 153 5393 787 2 MP stroke
0 153 5508 787 2 MP stroke
0 153 6124 787 2 MP stroke
0 153 6239 787 2 MP stroke
gr

gs 826 561 5504 147 MR c np
/c10 { 0.000000 0.000000 1.000000 sr} bdef
c10
  36   36 1006  634 FO
  36   36 1117  634 FO
  36   36 1228  634 FO
  36   36 1338  634 FO
  36   36 1449  634 FO
  36   36 1560  634 FO
  36   36 2058  634 FO
  36   36 2169  634 FO
  36   36 2666  634 FO
  36   36 2777  634 FO
  36   36 2888  634 FO
  36   36 2999  634 FO
  36   36 3110  634 FO
  36   36 3221  634 FO
  36   36 3332  634 FO
  36   36 3443  634 FO
  36   36 3557  634 FO
  36   36 3672  634 FO
  36   36 3787  634 FO
  36   36 3902  634 FO
  36   36 4016  634 FO
  36   36 4131  634 FO
  36   36 4246  634 FO
  36   36 4361  634 FO
  36   36 4858  634 FO
  36   36 4973  634 FO
  36   36 5088  634 FO
  36   36 5202  634 FO
  36   36 5317  634 FO
  36   36 5432  634 FO
  36   36 5547  634 FO
  36   36 6163  634 FO
gr

c10
gs 899 481 5357 614 MR c np
DA
0 -153 1006 787 2 MP stroke
0 -153 1117 787 2 MP stroke
0 -153 1228 787 2 MP stroke
0 -153 1338 787 2 MP stroke
0 -153 1449 787 2 MP stroke
0 -153 1560 787 2 MP stroke
0 -153 2058 787 2 MP stroke
0 -153 2169 787 2 MP stroke
0 -153 2666 787 2 MP stroke
0 -153 2777 787 2 MP stroke
0 -153 2888 787 2 MP stroke
0 -153 2999 787 2 MP stroke
0 -153 3110 787 2 MP stroke
0 -153 3221 787 2 MP stroke
0 -153 3332 787 2 MP stroke
0 -153 3443 787 2 MP stroke
0 -153 3557 787 2 MP stroke
0 -153 3672 787 2 MP stroke
0 -153 3787 787 2 MP stroke
0 -153 3902 787 2 MP stroke
0 -153 4016 787 2 MP stroke
0 -153 4131 787 2 MP stroke
0 -153 4246 787 2 MP stroke
0 -153 4361 787 2 MP stroke
0 -153 4858 787 2 MP stroke
0 -153 4973 787 2 MP stroke
0 -153 5088 787 2 MP stroke
0 -153 5202 787 2 MP stroke
0 -153 5317 787 2 MP stroke
0 -153 5432 787 2 MP stroke
0 -153 5547 787 2 MP stroke
0 -153 6163 787 2 MP stroke
gr

DA
0 sg
3316 1382 mt 
(Tempo [s]) s
 646  921 mt  -90 rotate
(Sinal) s
90 rotate
2677  386 mt 
(Troca de Mensagens do Ve\355culo 2) s
SO
6 w
1 sg
0 613 5356 0 0 -613 899 2230 4 MP
PP
-5356 0 0 613 5356 0 0 -613 899 2230 5 MP stroke
4 w
DO
0 sg
 899 2230 mt  899 1617 L
 899 1617 mt  899 1617 L
1664 2230 mt 1664 1617 L
1664 1617 mt 1664 1617 L
2429 2230 mt 2429 1617 L
2429 1617 mt 2429 1617 L
3194 2230 mt 3194 1617 L
3194 1617 mt 3194 1617 L
3959 2230 mt 3959 1617 L
3959 1617 mt 3959 1617 L
4724 2230 mt 4724 1617 L
4724 1617 mt 4724 1617 L
5489 2230 mt 5489 1617 L
5489 1617 mt 5489 1617 L
6255 2230 mt 6255 1617 L
6255 1617 mt 6255 1617 L
 899 2230 mt 6255 2230 L
6255 2230 mt 6255 2230 L
 899 1923 mt 6255 1923 L
6255 1923 mt 6255 1923 L
 899 1617 mt 6255 1617 L
6255 1617 mt 6255 1617 L
SO
6 w
 899 2230 mt 6255 2230 L
 899 1617 mt 6255 1617 L
 899 2230 mt  899 1617 L
6255 2230 mt 6255 1617 L
 899 2230 mt 6255 2230 L
 899 2230 mt  899 1617 L
 899 2230 mt  899 2176 L
 899 1617 mt  899 1670 L
 799 2375 mt 
(116) s
1664 2230 mt 1664 2176 L
1664 1617 mt 1664 1670 L
1564 2375 mt 
(118) s
2429 2230 mt 2429 2176 L
2429 1617 mt 2429 1670 L
2329 2375 mt 
(120) s
3194 2230 mt 3194 2176 L
3194 1617 mt 3194 1670 L
3094 2375 mt 
(122) s
3959 2230 mt 3959 2176 L
3959 1617 mt 3959 1670 L
3859 2375 mt 
(124) s
4724 2230 mt 4724 2176 L
4724 1617 mt 4724 1670 L
4624 2375 mt 
(126) s
5489 2230 mt 5489 2176 L
5489 1617 mt 5489 1670 L
5389 2375 mt 
(128) s
6255 2230 mt 6255 2176 L
6255 1617 mt 6255 1670 L
6155 2375 mt 
(130) s
 899 2230 mt  952 2230 L
6255 2230 mt 6201 2230 L
 728 2274 mt 
(-2) s
 899 1923 mt  952 1923 L
6255 1923 mt 6201 1923 L
 798 1967 mt 
(0) s
 899 1617 mt  952 1617 L
6255 1617 mt 6201 1617 L
 798 1661 mt 
(2) s
 899 2230 mt 6255 2230 L
 899 1617 mt 6255 1617 L
 899 2230 mt  899 1617 L
6255 2230 mt 6255 1617 L
gs 899 1617 5357 614 MR c np
12 w
gr

12 w
gs 826 2003 5504 147 MR c np
c8
  36   36 1009 2076 FO
  36   36 1120 2076 FO
  36   36 1231 2076 FO
  36   36 1342 2076 FO
  36   36 1453 2076 FO
  36   36 1951 2076 FO
  36   36 2062 2076 FO
  36   36 2559 2076 FO
  36   36 2670 2076 FO
  36   36 2781 2076 FO
  36   36 2892 2076 FO
  36   36 3003 2076 FO
  36   36 3114 2076 FO
  36   36 3225 2076 FO
  36   36 3335 2076 FO
  36   36 3450 2076 FO
  36   36 3565 2076 FO
  36   36 3680 2076 FO
  36   36 3795 2076 FO
  36   36 3909 2076 FO
  36   36 4024 2076 FO
  36   36 4139 2076 FO
  36   36 4254 2076 FO
  36   36 4751 2076 FO
  36   36 4866 2076 FO
  36   36 4981 2076 FO
  36   36 5095 2076 FO
  36   36 5210 2076 FO
  36   36 5325 2076 FO
  36   36 5440 2076 FO
  36   36 5554 2076 FO
  36   36 6056 2076 FO
  36   36 6170 2076 FO
gr

c8
gs 899 1617 5357 614 MR c np
DA
0 153 899 1923 2 MP stroke
0 153 1009 1923 2 MP stroke
0 153 1120 1923 2 MP stroke
0 153 1231 1923 2 MP stroke
0 153 1342 1923 2 MP stroke
0 153 1453 1923 2 MP stroke
0 153 1951 1923 2 MP stroke
0 153 2062 1923 2 MP stroke
0 153 2559 1923 2 MP stroke
0 153 2670 1923 2 MP stroke
0 153 2781 1923 2 MP stroke
0 153 2892 1923 2 MP stroke
0 153 3003 1923 2 MP stroke
0 153 3114 1923 2 MP stroke
0 153 3225 1923 2 MP stroke
0 153 3335 1923 2 MP stroke
0 153 3450 1923 2 MP stroke
0 153 3565 1923 2 MP stroke
0 153 3680 1923 2 MP stroke
0 153 3795 1923 2 MP stroke
0 153 3909 1923 2 MP stroke
0 153 4024 1923 2 MP stroke
0 153 4139 1923 2 MP stroke
0 153 4254 1923 2 MP stroke
0 153 4751 1923 2 MP stroke
0 153 4866 1923 2 MP stroke
0 153 4981 1923 2 MP stroke
0 153 5095 1923 2 MP stroke
0 153 5210 1923 2 MP stroke
0 153 5325 1923 2 MP stroke
0 153 5440 1923 2 MP stroke
0 153 5554 1923 2 MP stroke
0 153 6056 1923 2 MP stroke
0 153 6170 1923 2 MP stroke
SO
6 w
0 sg
5356 0 899 1923 2 MP stroke
12 w
gr

0 sg
gs 826 2003 5504 147 MR c np
c9
 929 2076 mt 1001 2076 L
 965 2040 mt  965 2112 L
1040 2076 mt 1112 2076 L
1076 2040 mt 1076 2112 L
1151 2076 mt 1223 2076 L
1187 2040 mt 1187 2112 L
1262 2076 mt 1334 2076 L
1298 2040 mt 1298 2112 L
1374 2076 mt 1446 2076 L
1410 2040 mt 1410 2112 L
1485 2076 mt 1557 2076 L
1521 2040 mt 1521 2112 L
1982 2076 mt 2054 2076 L
2018 2040 mt 2018 2112 L
2093 2076 mt 2165 2076 L
2129 2040 mt 2129 2112 L
2591 2076 mt 2663 2076 L
2627 2040 mt 2627 2112 L
2702 2076 mt 2774 2076 L
2738 2040 mt 2738 2112 L
2813 2076 mt 2885 2076 L
2849 2040 mt 2849 2112 L
2924 2076 mt 2996 2076 L
2960 2040 mt 2960 2112 L
3035 2076 mt 3107 2076 L
3071 2040 mt 3071 2112 L
3146 2076 mt 3218 2076 L
3182 2040 mt 3182 2112 L
3257 2076 mt 3329 2076 L
3293 2040 mt 3293 2112 L
3368 2076 mt 3440 2076 L
3404 2040 mt 3404 2112 L
3483 2076 mt 3555 2076 L
3519 2040 mt 3519 2112 L
3597 2076 mt 3669 2076 L
3633 2040 mt 3633 2112 L
3712 2076 mt 3784 2076 L
3748 2040 mt 3748 2112 L
3827 2076 mt 3899 2076 L
3863 2040 mt 3863 2112 L
3942 2076 mt 4014 2076 L
3978 2040 mt 3978 2112 L
4057 2076 mt 4129 2076 L
4093 2040 mt 4093 2112 L
4172 2076 mt 4244 2076 L
4208 2040 mt 4208 2112 L
4286 2076 mt 4358 2076 L
4322 2040 mt 4322 2112 L
4784 2076 mt 4856 2076 L
4820 2040 mt 4820 2112 L
4899 2076 mt 4971 2076 L
4935 2040 mt 4935 2112 L
5014 2076 mt 5086 2076 L
5050 2040 mt 5050 2112 L
5129 2076 mt 5201 2076 L
5165 2040 mt 5165 2112 L
5243 2076 mt 5315 2076 L
5279 2040 mt 5279 2112 L
5358 2076 mt 5430 2076 L
5394 2040 mt 5394 2112 L
5473 2076 mt 5545 2076 L
5509 2040 mt 5509 2112 L
6089 2076 mt 6161 2076 L
6125 2040 mt 6125 2112 L
6204 2076 mt 6276 2076 L
6240 2040 mt 6240 2112 L
 940 2051 mt  990 2101 L
 990 2051 mt  940 2101 L
1051 2051 mt 1101 2101 L
1101 2051 mt 1051 2101 L
1162 2051 mt 1212 2101 L
1212 2051 mt 1162 2101 L
1273 2051 mt 1323 2101 L
1323 2051 mt 1273 2101 L
1385 2051 mt 1435 2101 L
1435 2051 mt 1385 2101 L
1496 2051 mt 1546 2101 L
1546 2051 mt 1496 2101 L
1993 2051 mt 2043 2101 L
2043 2051 mt 1993 2101 L
2104 2051 mt 2154 2101 L
2154 2051 mt 2104 2101 L
2602 2051 mt 2652 2101 L
2652 2051 mt 2602 2101 L
2713 2051 mt 2763 2101 L
2763 2051 mt 2713 2101 L
2824 2051 mt 2874 2101 L
2874 2051 mt 2824 2101 L
2935 2051 mt 2985 2101 L
2985 2051 mt 2935 2101 L
3046 2051 mt 3096 2101 L
3096 2051 mt 3046 2101 L
3157 2051 mt 3207 2101 L
3207 2051 mt 3157 2101 L
3268 2051 mt 3318 2101 L
3318 2051 mt 3268 2101 L
3379 2051 mt 3429 2101 L
3429 2051 mt 3379 2101 L
3494 2051 mt 3544 2101 L
3544 2051 mt 3494 2101 L
3608 2051 mt 3658 2101 L
3658 2051 mt 3608 2101 L
3723 2051 mt 3773 2101 L
3773 2051 mt 3723 2101 L
3838 2051 mt 3888 2101 L
3888 2051 mt 3838 2101 L
3953 2051 mt 4003 2101 L
4003 2051 mt 3953 2101 L
4068 2051 mt 4118 2101 L
4118 2051 mt 4068 2101 L
4183 2051 mt 4233 2101 L
4233 2051 mt 4183 2101 L
4297 2051 mt 4347 2101 L
4347 2051 mt 4297 2101 L
4795 2051 mt 4845 2101 L
4845 2051 mt 4795 2101 L
4910 2051 mt 4960 2101 L
4960 2051 mt 4910 2101 L
5025 2051 mt 5075 2101 L
5075 2051 mt 5025 2101 L
5140 2051 mt 5190 2101 L
5190 2051 mt 5140 2101 L
5254 2051 mt 5304 2101 L
5304 2051 mt 5254 2101 L
5369 2051 mt 5419 2101 L
5419 2051 mt 5369 2101 L
5484 2051 mt 5534 2101 L
5534 2051 mt 5484 2101 L
6100 2051 mt 6150 2101 L
6150 2051 mt 6100 2101 L
6215 2051 mt 6265 2101 L
6265 2051 mt 6215 2101 L
gr

c9
gs 899 1617 5357 614 MR c np
0 153 965 1923 2 MP stroke
0 153 1076 1923 2 MP stroke
0 153 1187 1923 2 MP stroke
0 153 1298 1923 2 MP stroke
0 153 1410 1923 2 MP stroke
0 153 1521 1923 2 MP stroke
0 153 2018 1923 2 MP stroke
0 153 2129 1923 2 MP stroke
0 153 2627 1923 2 MP stroke
0 153 2738 1923 2 MP stroke
0 153 2849 1923 2 MP stroke
0 153 2960 1923 2 MP stroke
0 153 3071 1923 2 MP stroke
0 153 3182 1923 2 MP stroke
0 153 3293 1923 2 MP stroke
0 153 3404 1923 2 MP stroke
0 153 3519 1923 2 MP stroke
0 153 3633 1923 2 MP stroke
0 153 3748 1923 2 MP stroke
0 153 3863 1923 2 MP stroke
0 153 3978 1923 2 MP stroke
0 153 4093 1923 2 MP stroke
0 153 4208 1923 2 MP stroke
0 153 4322 1923 2 MP stroke
0 153 4820 1923 2 MP stroke
0 153 4935 1923 2 MP stroke
0 153 5050 1923 2 MP stroke
0 153 5165 1923 2 MP stroke
0 153 5279 1923 2 MP stroke
0 153 5394 1923 2 MP stroke
0 153 5509 1923 2 MP stroke
0 153 6125 1923 2 MP stroke
0 153 6240 1923 2 MP stroke
gr

gs 826 1697 5504 147 MR c np
c10
  36   36 1006 1770 FO
  36   36 1117 1770 FO
  36   36 1228 1770 FO
  36   36 1338 1770 FO
  36   36 1449 1770 FO
  36   36 1560 1770 FO
  36   36 2058 1770 FO
  36   36 2169 1770 FO
  36   36 2666 1770 FO
  36   36 2777 1770 FO
  36   36 2888 1770 FO
  36   36 2999 1770 FO
  36   36 3110 1770 FO
  36   36 3221 1770 FO
  36   36 3332 1770 FO
  36   36 3443 1770 FO
  36   36 3557 1770 FO
  36   36 3672 1770 FO
  36   36 3787 1770 FO
  36   36 3902 1770 FO
  36   36 4016 1770 FO
  36   36 4131 1770 FO
  36   36 4246 1770 FO
  36   36 4361 1770 FO
  36   36 4862 1770 FO
  36   36 4977 1770 FO
  36   36 5091 1770 FO
  36   36 5206 1770 FO
  36   36 5321 1770 FO
  36   36 5436 1770 FO
  36   36 5551 1770 FO
  36   36 6167 1770 FO
gr

c10
gs 899 1617 5357 614 MR c np
DA
0 -153 1006 1923 2 MP stroke
0 -153 1117 1923 2 MP stroke
0 -153 1228 1923 2 MP stroke
0 -153 1338 1923 2 MP stroke
0 -153 1449 1923 2 MP stroke
0 -153 1560 1923 2 MP stroke
0 -153 2058 1923 2 MP stroke
0 -153 2169 1923 2 MP stroke
0 -153 2666 1923 2 MP stroke
0 -153 2777 1923 2 MP stroke
0 -153 2888 1923 2 MP stroke
0 -153 2999 1923 2 MP stroke
0 -153 3110 1923 2 MP stroke
0 -153 3221 1923 2 MP stroke
0 -153 3332 1923 2 MP stroke
0 -153 3443 1923 2 MP stroke
0 -153 3557 1923 2 MP stroke
0 -153 3672 1923 2 MP stroke
0 -153 3787 1923 2 MP stroke
0 -153 3902 1923 2 MP stroke
0 -153 4016 1923 2 MP stroke
0 -153 4131 1923 2 MP stroke
0 -153 4246 1923 2 MP stroke
0 -153 4361 1923 2 MP stroke
0 -153 4862 1923 2 MP stroke
0 -153 4977 1923 2 MP stroke
0 -153 5091 1923 2 MP stroke
0 -153 5206 1923 2 MP stroke
0 -153 5321 1923 2 MP stroke
0 -153 5436 1923 2 MP stroke
0 -153 5551 1923 2 MP stroke
0 -153 6167 1923 2 MP stroke
gr

DA
0 sg
3316 2518 mt 
(Tempo [s]) s
 646 2057 mt  -90 rotate
(Sinal) s
90 rotate
2677 1522 mt 
(Troca de Mensagens do Ve\355culo 3) s
SO
6 w
1 sg
0 613 5356 0 0 -613 899 3366 4 MP
PP
-5356 0 0 613 5356 0 0 -613 899 3366 5 MP stroke
4 w
DO
0 sg
 899 3366 mt  899 2753 L
 899 2753 mt  899 2753 L
1664 3366 mt 1664 2753 L
1664 2753 mt 1664 2753 L
2429 3366 mt 2429 2753 L
2429 2753 mt 2429 2753 L
3194 3366 mt 3194 2753 L
3194 2753 mt 3194 2753 L
3959 3366 mt 3959 2753 L
3959 2753 mt 3959 2753 L
4724 3366 mt 4724 2753 L
4724 2753 mt 4724 2753 L
5489 3366 mt 5489 2753 L
5489 2753 mt 5489 2753 L
6255 3366 mt 6255 2753 L
6255 2753 mt 6255 2753 L
 899 3366 mt 6255 3366 L
6255 3366 mt 6255 3366 L
 899 3059 mt 6255 3059 L
6255 3059 mt 6255 3059 L
 899 2753 mt 6255 2753 L
6255 2753 mt 6255 2753 L
SO
6 w
 899 3366 mt 6255 3366 L
 899 2753 mt 6255 2753 L
 899 3366 mt  899 2753 L
6255 3366 mt 6255 2753 L
 899 3366 mt 6255 3366 L
 899 3366 mt  899 2753 L
 899 3366 mt  899 3312 L
 899 2753 mt  899 2806 L
 799 3511 mt 
(116) s
1664 3366 mt 1664 3312 L
1664 2753 mt 1664 2806 L
1564 3511 mt 
(118) s
2429 3366 mt 2429 3312 L
2429 2753 mt 2429 2806 L
2329 3511 mt 
(120) s
3194 3366 mt 3194 3312 L
3194 2753 mt 3194 2806 L
3094 3511 mt 
(122) s
3959 3366 mt 3959 3312 L
3959 2753 mt 3959 2806 L
3859 3511 mt 
(124) s
4724 3366 mt 4724 3312 L
4724 2753 mt 4724 2806 L
4624 3511 mt 
(126) s
5489 3366 mt 5489 3312 L
5489 2753 mt 5489 2806 L
5389 3511 mt 
(128) s
6255 3366 mt 6255 3312 L
6255 2753 mt 6255 2806 L
6155 3511 mt 
(130) s
 899 3366 mt  952 3366 L
6255 3366 mt 6201 3366 L
 728 3410 mt 
(-2) s
 899 3059 mt  952 3059 L
6255 3059 mt 6201 3059 L
 798 3103 mt 
(0) s
 899 2753 mt  952 2753 L
6255 2753 mt 6201 2753 L
 798 2797 mt 
(2) s
 899 3366 mt 6255 3366 L
 899 2753 mt 6255 2753 L
 899 3366 mt  899 2753 L
6255 3366 mt 6255 2753 L
gs 899 2753 5357 614 MR c np
12 w
gr

12 w
gs 826 3139 5504 147 MR c np
c8
  36   36 1009 3212 FO
  36   36 1120 3212 FO
  36   36 1231 3212 FO
  36   36 1342 3212 FO
  36   36 1453 3212 FO
  36   36 1951 3212 FO
  36   36 2062 3212 FO
  36   36 2559 3212 FO
  36   36 2670 3212 FO
  36   36 2781 3212 FO
  36   36 2892 3212 FO
  36   36 3003 3212 FO
  36   36 3114 3212 FO
  36   36 3225 3212 FO
  36   36 3335 3212 FO
  36   36 3450 3212 FO
  36   36 3565 3212 FO
  36   36 3680 3212 FO
  36   36 3795 3212 FO
  36   36 3909 3212 FO
  36   36 4024 3212 FO
  36   36 4139 3212 FO
  36   36 4254 3212 FO
  36   36 4751 3212 FO
  36   36 4866 3212 FO
  36   36 4981 3212 FO
  36   36 5095 3212 FO
  36   36 5210 3212 FO
  36   36 5325 3212 FO
  36   36 5440 3212 FO
  36   36 5554 3212 FO
  36   36 6056 3212 FO
  36   36 6170 3212 FO
gr

c8
gs 899 2753 5357 614 MR c np
DA
0 153 899 3059 2 MP stroke
0 153 1009 3059 2 MP stroke
0 153 1120 3059 2 MP stroke
0 153 1231 3059 2 MP stroke
0 153 1342 3059 2 MP stroke
0 153 1453 3059 2 MP stroke
0 153 1951 3059 2 MP stroke
0 153 2062 3059 2 MP stroke
0 153 2559 3059 2 MP stroke
0 153 2670 3059 2 MP stroke
0 153 2781 3059 2 MP stroke
0 153 2892 3059 2 MP stroke
0 153 3003 3059 2 MP stroke
0 153 3114 3059 2 MP stroke
0 153 3225 3059 2 MP stroke
0 153 3335 3059 2 MP stroke
0 153 3450 3059 2 MP stroke
0 153 3565 3059 2 MP stroke
0 153 3680 3059 2 MP stroke
0 153 3795 3059 2 MP stroke
0 153 3909 3059 2 MP stroke
0 153 4024 3059 2 MP stroke
0 153 4139 3059 2 MP stroke
0 153 4254 3059 2 MP stroke
0 153 4751 3059 2 MP stroke
0 153 4866 3059 2 MP stroke
0 153 4981 3059 2 MP stroke
0 153 5095 3059 2 MP stroke
0 153 5210 3059 2 MP stroke
0 153 5325 3059 2 MP stroke
0 153 5440 3059 2 MP stroke
0 153 5554 3059 2 MP stroke
0 153 6056 3059 2 MP stroke
0 153 6170 3059 2 MP stroke
SO
6 w
0 sg
5356 0 899 3059 2 MP stroke
12 w
gr

0 sg
gs 826 3139 5504 147 MR c np
c9
 929 3212 mt 1001 3212 L
 965 3176 mt  965 3248 L
1040 3212 mt 1112 3212 L
1076 3176 mt 1076 3248 L
1151 3212 mt 1223 3212 L
1187 3176 mt 1187 3248 L
1263 3212 mt 1335 3212 L
1299 3176 mt 1299 3248 L
1374 3212 mt 1446 3212 L
1410 3176 mt 1410 3248 L
1982 3212 mt 2054 3212 L
2018 3176 mt 2018 3248 L
2093 3212 mt 2165 3212 L
2129 3176 mt 2129 3248 L
2591 3212 mt 2663 3212 L
2627 3176 mt 2627 3248 L
2702 3212 mt 2774 3212 L
2738 3176 mt 2738 3248 L
2813 3212 mt 2885 3212 L
2849 3176 mt 2849 3248 L
2924 3212 mt 2996 3212 L
2960 3176 mt 2960 3248 L
3035 3212 mt 3107 3212 L
3071 3176 mt 3071 3248 L
3146 3212 mt 3218 3212 L
3182 3176 mt 3182 3248 L
3257 3212 mt 3329 3212 L
3293 3176 mt 3293 3248 L
3368 3212 mt 3440 3212 L
3404 3176 mt 3404 3248 L
3483 3212 mt 3555 3212 L
3519 3176 mt 3519 3248 L
3597 3212 mt 3669 3212 L
3633 3176 mt 3633 3248 L
3712 3212 mt 3784 3212 L
3748 3176 mt 3748 3248 L
3827 3212 mt 3899 3212 L
3863 3176 mt 3863 3248 L
3942 3212 mt 4014 3212 L
3978 3176 mt 3978 3248 L
4057 3212 mt 4129 3212 L
4093 3176 mt 4093 3248 L
4172 3212 mt 4244 3212 L
4208 3176 mt 4208 3248 L
4286 3212 mt 4358 3212 L
4322 3176 mt 4322 3248 L
4784 3212 mt 4856 3212 L
4820 3176 mt 4820 3248 L
4899 3212 mt 4971 3212 L
4935 3176 mt 4935 3248 L
5014 3212 mt 5086 3212 L
5050 3176 mt 5050 3248 L
5129 3212 mt 5201 3212 L
5165 3176 mt 5165 3248 L
5243 3212 mt 5315 3212 L
5279 3176 mt 5279 3248 L
5358 3212 mt 5430 3212 L
5394 3176 mt 5394 3248 L
5473 3212 mt 5545 3212 L
5509 3176 mt 5509 3248 L
6089 3212 mt 6161 3212 L
6125 3176 mt 6125 3248 L
6204 3212 mt 6276 3212 L
6240 3176 mt 6240 3248 L
 940 3187 mt  990 3237 L
 990 3187 mt  940 3237 L
1051 3187 mt 1101 3237 L
1101 3187 mt 1051 3237 L
1162 3187 mt 1212 3237 L
1212 3187 mt 1162 3237 L
1274 3187 mt 1324 3237 L
1324 3187 mt 1274 3237 L
1385 3187 mt 1435 3237 L
1435 3187 mt 1385 3237 L
1993 3187 mt 2043 3237 L
2043 3187 mt 1993 3237 L
2104 3187 mt 2154 3237 L
2154 3187 mt 2104 3237 L
2602 3187 mt 2652 3237 L
2652 3187 mt 2602 3237 L
2713 3187 mt 2763 3237 L
2763 3187 mt 2713 3237 L
2824 3187 mt 2874 3237 L
2874 3187 mt 2824 3237 L
2935 3187 mt 2985 3237 L
2985 3187 mt 2935 3237 L
3046 3187 mt 3096 3237 L
3096 3187 mt 3046 3237 L
3157 3187 mt 3207 3237 L
3207 3187 mt 3157 3237 L
3268 3187 mt 3318 3237 L
3318 3187 mt 3268 3237 L
3379 3187 mt 3429 3237 L
3429 3187 mt 3379 3237 L
3494 3187 mt 3544 3237 L
3544 3187 mt 3494 3237 L
3608 3187 mt 3658 3237 L
3658 3187 mt 3608 3237 L
3723 3187 mt 3773 3237 L
3773 3187 mt 3723 3237 L
3838 3187 mt 3888 3237 L
3888 3187 mt 3838 3237 L
3953 3187 mt 4003 3237 L
4003 3187 mt 3953 3237 L
4068 3187 mt 4118 3237 L
4118 3187 mt 4068 3237 L
4183 3187 mt 4233 3237 L
4233 3187 mt 4183 3237 L
4297 3187 mt 4347 3237 L
4347 3187 mt 4297 3237 L
4795 3187 mt 4845 3237 L
4845 3187 mt 4795 3237 L
4910 3187 mt 4960 3237 L
4960 3187 mt 4910 3237 L
5025 3187 mt 5075 3237 L
5075 3187 mt 5025 3237 L
5140 3187 mt 5190 3237 L
5190 3187 mt 5140 3237 L
5254 3187 mt 5304 3237 L
5304 3187 mt 5254 3237 L
5369 3187 mt 5419 3237 L
5419 3187 mt 5369 3237 L
5484 3187 mt 5534 3237 L
5534 3187 mt 5484 3237 L
6100 3187 mt 6150 3237 L
6150 3187 mt 6100 3237 L
6215 3187 mt 6265 3237 L
6265 3187 mt 6215 3237 L
gr

c9
gs 899 2753 5357 614 MR c np
0 153 965 3059 2 MP stroke
0 153 1076 3059 2 MP stroke
0 153 1187 3059 2 MP stroke
0 153 1299 3059 2 MP stroke
0 153 1410 3059 2 MP stroke
0 153 2018 3059 2 MP stroke
0 153 2129 3059 2 MP stroke
0 153 2627 3059 2 MP stroke
0 153 2738 3059 2 MP stroke
0 153 2849 3059 2 MP stroke
0 153 2960 3059 2 MP stroke
0 153 3071 3059 2 MP stroke
0 153 3182 3059 2 MP stroke
0 153 3293 3059 2 MP stroke
0 153 3404 3059 2 MP stroke
0 153 3519 3059 2 MP stroke
0 153 3633 3059 2 MP stroke
0 153 3748 3059 2 MP stroke
0 153 3863 3059 2 MP stroke
0 153 3978 3059 2 MP stroke
0 153 4093 3059 2 MP stroke
0 153 4208 3059 2 MP stroke
0 153 4322 3059 2 MP stroke
0 153 4820 3059 2 MP stroke
0 153 4935 3059 2 MP stroke
0 153 5050 3059 2 MP stroke
0 153 5165 3059 2 MP stroke
0 153 5279 3059 2 MP stroke
0 153 5394 3059 2 MP stroke
0 153 5509 3059 2 MP stroke
0 153 6125 3059 2 MP stroke
0 153 6240 3059 2 MP stroke
gr

gs 826 2833 5504 147 MR c np
c10
  36   36 1006 2906 FO
  36   36 1117 2906 FO
  36   36 1228 2906 FO
  36   36 1338 2906 FO
  36   36 1449 2906 FO
  36   36 2058 2906 FO
  36   36 2169 2906 FO
  36   36 2666 2906 FO
  36   36 2777 2906 FO
  36   36 2888 2906 FO
  36   36 2999 2906 FO
  36   36 3110 2906 FO
  36   36 3221 2906 FO
  36   36 3332 2906 FO
  36   36 3443 2906 FO
  36   36 3557 2906 FO
  36   36 3672 2906 FO
  36   36 3787 2906 FO
  36   36 3902 2906 FO
  36   36 4016 2906 FO
  36   36 4131 2906 FO
  36   36 4246 2906 FO
  36   36 4361 2906 FO
  36   36 4862 2906 FO
  36   36 4977 2906 FO
  36   36 5091 2906 FO
  36   36 5206 2906 FO
  36   36 5321 2906 FO
  36   36 5436 2906 FO
  36   36 5551 2906 FO
  36   36 6167 2906 FO
gr

c10
gs 899 2753 5357 614 MR c np
DA
0 -153 1006 3059 2 MP stroke
0 -153 1117 3059 2 MP stroke
0 -153 1228 3059 2 MP stroke
0 -153 1338 3059 2 MP stroke
0 -153 1449 3059 2 MP stroke
0 -153 2058 3059 2 MP stroke
0 -153 2169 3059 2 MP stroke
0 -153 2666 3059 2 MP stroke
0 -153 2777 3059 2 MP stroke
0 -153 2888 3059 2 MP stroke
0 -153 2999 3059 2 MP stroke
0 -153 3110 3059 2 MP stroke
0 -153 3221 3059 2 MP stroke
0 -153 3332 3059 2 MP stroke
0 -153 3443 3059 2 MP stroke
0 -153 3557 3059 2 MP stroke
0 -153 3672 3059 2 MP stroke
0 -153 3787 3059 2 MP stroke
0 -153 3902 3059 2 MP stroke
0 -153 4016 3059 2 MP stroke
0 -153 4131 3059 2 MP stroke
0 -153 4246 3059 2 MP stroke
0 -153 4361 3059 2 MP stroke
0 -153 4862 3059 2 MP stroke
0 -153 4977 3059 2 MP stroke
0 -153 5091 3059 2 MP stroke
0 -153 5206 3059 2 MP stroke
0 -153 5321 3059 2 MP stroke
0 -153 5436 3059 2 MP stroke
0 -153 5551 3059 2 MP stroke
0 -153 6167 3059 2 MP stroke
gr

DA
0 sg
3316 3654 mt 
(Tempo [s]) s
 646 3193 mt  -90 rotate
(Sinal) s
90 rotate
2677 2658 mt 
(Troca de Mensagens do Ve\355culo 4) s
SO
6 w
1 sg
0 613 5356 0 0 -613 899 4502 4 MP
PP
-5356 0 0 613 5356 0 0 -613 899 4502 5 MP stroke
4 w
DO
0 sg
 899 4502 mt  899 3889 L
 899 3889 mt  899 3889 L
1664 4502 mt 1664 3889 L
1664 3889 mt 1664 3889 L
2429 4502 mt 2429 3889 L
2429 3889 mt 2429 3889 L
3194 4502 mt 3194 3889 L
3194 3889 mt 3194 3889 L
3959 4502 mt 3959 3889 L
3959 3889 mt 3959 3889 L
4724 4502 mt 4724 3889 L
4724 3889 mt 4724 3889 L
5489 4502 mt 5489 3889 L
5489 3889 mt 5489 3889 L
6255 4502 mt 6255 3889 L
6255 3889 mt 6255 3889 L
 899 4502 mt 6255 4502 L
6255 4502 mt 6255 4502 L
 899 4195 mt 6255 4195 L
6255 4195 mt 6255 4195 L
 899 3889 mt 6255 3889 L
6255 3889 mt 6255 3889 L
SO
6 w
 899 4502 mt 6255 4502 L
 899 3889 mt 6255 3889 L
 899 4502 mt  899 3889 L
6255 4502 mt 6255 3889 L
 899 4502 mt 6255 4502 L
 899 4502 mt  899 3889 L
 899 4502 mt  899 4448 L
 899 3889 mt  899 3942 L
 799 4647 mt 
(116) s
1664 4502 mt 1664 4448 L
1664 3889 mt 1664 3942 L
1564 4647 mt 
(118) s
2429 4502 mt 2429 4448 L
2429 3889 mt 2429 3942 L
2329 4647 mt 
(120) s
3194 4502 mt 3194 4448 L
3194 3889 mt 3194 3942 L
3094 4647 mt 
(122) s
3959 4502 mt 3959 4448 L
3959 3889 mt 3959 3942 L
3859 4647 mt 
(124) s
4724 4502 mt 4724 4448 L
4724 3889 mt 4724 3942 L
4624 4647 mt 
(126) s
5489 4502 mt 5489 4448 L
5489 3889 mt 5489 3942 L
5389 4647 mt 
(128) s
6255 4502 mt 6255 4448 L
6255 3889 mt 6255 3942 L
6155 4647 mt 
(130) s
 899 4502 mt  952 4502 L
6255 4502 mt 6201 4502 L
 728 4546 mt 
(-2) s
 899 4195 mt  952 4195 L
6255 4195 mt 6201 4195 L
 798 4239 mt 
(0) s
 899 3889 mt  952 3889 L
6255 3889 mt 6201 3889 L
 798 3933 mt 
(2) s
 899 4502 mt 6255 4502 L
 899 3889 mt 6255 3889 L
 899 4502 mt  899 3889 L
6255 4502 mt 6255 3889 L
gs 899 3889 5357 614 MR c np
12 w
gr

12 w
gs 826 4275 5504 147 MR c np
c8
  36   36 1009 4348 FO
  36   36 1120 4348 FO
  36   36 1231 4348 FO
  36   36 1342 4348 FO
  36   36 1453 4348 FO
  36   36 1951 4348 FO
  36   36 2062 4348 FO
  36   36 2559 4348 FO
  36   36 2670 4348 FO
  36   36 2781 4348 FO
  36   36 2892 4348 FO
  36   36 3003 4348 FO
  36   36 3114 4348 FO
  36   36 3225 4348 FO
  36   36 3335 4348 FO
  36   36 3450 4348 FO
  36   36 3565 4348 FO
  36   36 3680 4348 FO
  36   36 3795 4348 FO
  36   36 3909 4348 FO
  36   36 4024 4348 FO
  36   36 4139 4348 FO
  36   36 4254 4348 FO
  36   36 4751 4348 FO
  36   36 4866 4348 FO
  36   36 4981 4348 FO
  36   36 5095 4348 FO
  36   36 5210 4348 FO
  36   36 5325 4348 FO
  36   36 5440 4348 FO
  36   36 5554 4348 FO
  36   36 6056 4348 FO
  36   36 6170 4348 FO
gr

c8
gs 899 3889 5357 614 MR c np
DA
0 153 899 4195 2 MP stroke
0 153 1009 4195 2 MP stroke
0 153 1120 4195 2 MP stroke
0 153 1231 4195 2 MP stroke
0 153 1342 4195 2 MP stroke
0 153 1453 4195 2 MP stroke
0 153 1951 4195 2 MP stroke
0 153 2062 4195 2 MP stroke
0 153 2559 4195 2 MP stroke
0 153 2670 4195 2 MP stroke
0 153 2781 4195 2 MP stroke
0 153 2892 4195 2 MP stroke
0 153 3003 4195 2 MP stroke
0 153 3114 4195 2 MP stroke
0 153 3225 4195 2 MP stroke
0 153 3335 4195 2 MP stroke
0 153 3450 4195 2 MP stroke
0 153 3565 4195 2 MP stroke
0 153 3680 4195 2 MP stroke
0 153 3795 4195 2 MP stroke
0 153 3909 4195 2 MP stroke
0 153 4024 4195 2 MP stroke
0 153 4139 4195 2 MP stroke
0 153 4254 4195 2 MP stroke
0 153 4751 4195 2 MP stroke
0 153 4866 4195 2 MP stroke
0 153 4981 4195 2 MP stroke
0 153 5095 4195 2 MP stroke
0 153 5210 4195 2 MP stroke
0 153 5325 4195 2 MP stroke
0 153 5440 4195 2 MP stroke
0 153 5554 4195 2 MP stroke
0 153 6056 4195 2 MP stroke
0 153 6170 4195 2 MP stroke
SO
6 w
0 sg
5356 0 899 4195 2 MP stroke
12 w
gr

0 sg
gs 826 4275 5504 147 MR c np
c9
 930 4348 mt 1002 4348 L
 966 4312 mt  966 4384 L
1041 4348 mt 1113 4348 L
1077 4312 mt 1077 4384 L
1152 4348 mt 1224 4348 L
1188 4312 mt 1188 4384 L
1263 4348 mt 1335 4348 L
1299 4312 mt 1299 4384 L
1374 4348 mt 1446 4348 L
1410 4312 mt 1410 4384 L
1485 4348 mt 1557 4348 L
1521 4312 mt 1521 4384 L
1983 4348 mt 2055 4348 L
2019 4312 mt 2019 4384 L
2591 4348 mt 2663 4348 L
2627 4312 mt 2627 4384 L
2702 4348 mt 2774 4348 L
2738 4312 mt 2738 4384 L
2813 4348 mt 2885 4348 L
2849 4312 mt 2849 4384 L
2924 4348 mt 2996 4348 L
2960 4312 mt 2960 4384 L
3035 4348 mt 3107 4348 L
3071 4312 mt 3071 4384 L
3146 4348 mt 3218 4348 L
3182 4312 mt 3182 4384 L
3257 4348 mt 3329 4348 L
3293 4312 mt 3293 4384 L
3368 4348 mt 3440 4348 L
3404 4312 mt 3404 4384 L
3483 4348 mt 3555 4348 L
3519 4312 mt 3519 4384 L
3598 4348 mt 3670 4348 L
3634 4312 mt 3634 4384 L
3713 4348 mt 3785 4348 L
3749 4312 mt 3749 4384 L
3828 4348 mt 3900 4348 L
3864 4312 mt 3864 4384 L
3943 4348 mt 4015 4348 L
3979 4312 mt 3979 4384 L
4057 4348 mt 4129 4348 L
4093 4312 mt 4093 4384 L
4172 4348 mt 4244 4348 L
4208 4312 mt 4208 4384 L
4785 4348 mt 4857 4348 L
4821 4312 mt 4821 4384 L
4900 4348 mt 4972 4348 L
4936 4312 mt 4936 4384 L
5014 4348 mt 5086 4348 L
5050 4312 mt 5050 4384 L
5129 4348 mt 5201 4348 L
5165 4312 mt 5165 4384 L
5244 4348 mt 5316 4348 L
5280 4312 mt 5280 4384 L
5359 4348 mt 5431 4348 L
5395 4312 mt 5395 4384 L
5474 4348 mt 5546 4348 L
5510 4312 mt 5510 4384 L
6090 4348 mt 6162 4348 L
6126 4312 mt 6126 4384 L
6205 4348 mt 6277 4348 L
6241 4312 mt 6241 4384 L
 941 4323 mt  991 4373 L
 991 4323 mt  941 4373 L
1052 4323 mt 1102 4373 L
1102 4323 mt 1052 4373 L
1163 4323 mt 1213 4373 L
1213 4323 mt 1163 4373 L
1274 4323 mt 1324 4373 L
1324 4323 mt 1274 4373 L
1385 4323 mt 1435 4373 L
1435 4323 mt 1385 4373 L
1496 4323 mt 1546 4373 L
1546 4323 mt 1496 4373 L
1994 4323 mt 2044 4373 L
2044 4323 mt 1994 4373 L
2602 4323 mt 2652 4373 L
2652 4323 mt 2602 4373 L
2713 4323 mt 2763 4373 L
2763 4323 mt 2713 4373 L
2824 4323 mt 2874 4373 L
2874 4323 mt 2824 4373 L
2935 4323 mt 2985 4373 L
2985 4323 mt 2935 4373 L
3046 4323 mt 3096 4373 L
3096 4323 mt 3046 4373 L
3157 4323 mt 3207 4373 L
3207 4323 mt 3157 4373 L
3268 4323 mt 3318 4373 L
3318 4323 mt 3268 4373 L
3379 4323 mt 3429 4373 L
3429 4323 mt 3379 4373 L
3494 4323 mt 3544 4373 L
3544 4323 mt 3494 4373 L
3609 4323 mt 3659 4373 L
3659 4323 mt 3609 4373 L
3724 4323 mt 3774 4373 L
3774 4323 mt 3724 4373 L
3839 4323 mt 3889 4373 L
3889 4323 mt 3839 4373 L
3954 4323 mt 4004 4373 L
4004 4323 mt 3954 4373 L
4068 4323 mt 4118 4373 L
4118 4323 mt 4068 4373 L
4183 4323 mt 4233 4373 L
4233 4323 mt 4183 4373 L
4796 4323 mt 4846 4373 L
4846 4323 mt 4796 4373 L
4911 4323 mt 4961 4373 L
4961 4323 mt 4911 4373 L
5025 4323 mt 5075 4373 L
5075 4323 mt 5025 4373 L
5140 4323 mt 5190 4373 L
5190 4323 mt 5140 4373 L
5255 4323 mt 5305 4373 L
5305 4323 mt 5255 4373 L
5370 4323 mt 5420 4373 L
5420 4323 mt 5370 4373 L
5485 4323 mt 5535 4373 L
5535 4323 mt 5485 4373 L
6101 4323 mt 6151 4373 L
6151 4323 mt 6101 4373 L
6216 4323 mt 6266 4373 L
6266 4323 mt 6216 4373 L
gr

c9
gs 899 3889 5357 614 MR c np
0 153 966 4195 2 MP stroke
0 153 1077 4195 2 MP stroke
0 153 1188 4195 2 MP stroke
0 153 1299 4195 2 MP stroke
0 153 1410 4195 2 MP stroke
0 153 1521 4195 2 MP stroke
0 153 2019 4195 2 MP stroke
0 153 2627 4195 2 MP stroke
0 153 2738 4195 2 MP stroke
0 153 2849 4195 2 MP stroke
0 153 2960 4195 2 MP stroke
0 153 3071 4195 2 MP stroke
0 153 3182 4195 2 MP stroke
0 153 3293 4195 2 MP stroke
0 153 3404 4195 2 MP stroke
0 153 3519 4195 2 MP stroke
0 153 3634 4195 2 MP stroke
0 153 3749 4195 2 MP stroke
0 153 3864 4195 2 MP stroke
0 153 3979 4195 2 MP stroke
0 153 4093 4195 2 MP stroke
0 153 4208 4195 2 MP stroke
0 153 4821 4195 2 MP stroke
0 153 4936 4195 2 MP stroke
0 153 5050 4195 2 MP stroke
0 153 5165 4195 2 MP stroke
0 153 5280 4195 2 MP stroke
0 153 5395 4195 2 MP stroke
0 153 5510 4195 2 MP stroke
0 153 6126 4195 2 MP stroke
0 153 6241 4195 2 MP stroke
gr

gs 826 3969 5504 147 MR c np
c10
  36   36 1006 4042 FO
  36   36 1117 4042 FO
  36   36 1228 4042 FO
  36   36 1338 4042 FO
  36   36 1449 4042 FO
  36   36 1560 4042 FO
  36   36 2058 4042 FO
  36   36 2666 4042 FO
  36   36 2777 4042 FO
  36   36 2888 4042 FO
  36   36 2999 4042 FO
  36   36 3110 4042 FO
  36   36 3221 4042 FO
  36   36 3332 4042 FO
  36   36 3446 4042 FO
  36   36 3561 4042 FO
  36   36 3676 4042 FO
  36   36 3791 4042 FO
  36   36 3906 4042 FO
  36   36 4020 4042 FO
  36   36 4135 4042 FO
  36   36 4250 4042 FO
  36   36 4862 4042 FO
  36   36 4977 4042 FO
  36   36 5091 4042 FO
  36   36 5206 4042 FO
  36   36 5321 4042 FO
  36   36 5436 4042 FO
  36   36 5551 4042 FO
  36   36 6167 4042 FO
gr

c10
gs 899 3889 5357 614 MR c np
DA
0 -153 1006 4195 2 MP stroke
0 -153 1117 4195 2 MP stroke
0 -153 1228 4195 2 MP stroke
0 -153 1338 4195 2 MP stroke
0 -153 1449 4195 2 MP stroke
0 -153 1560 4195 2 MP stroke
0 -153 2058 4195 2 MP stroke
0 -153 2666 4195 2 MP stroke
0 -153 2777 4195 2 MP stroke
0 -153 2888 4195 2 MP stroke
0 -153 2999 4195 2 MP stroke
0 -153 3110 4195 2 MP stroke
0 -153 3221 4195 2 MP stroke
0 -153 3332 4195 2 MP stroke
0 -153 3446 4195 2 MP stroke
0 -153 3561 4195 2 MP stroke
0 -153 3676 4195 2 MP stroke
0 -153 3791 4195 2 MP stroke
0 -153 3906 4195 2 MP stroke
0 -153 4020 4195 2 MP stroke
0 -153 4135 4195 2 MP stroke
0 -153 4250 4195 2 MP stroke
0 -153 4862 4195 2 MP stroke
0 -153 4977 4195 2 MP stroke
0 -153 5091 4195 2 MP stroke
0 -153 5206 4195 2 MP stroke
0 -153 5321 4195 2 MP stroke
0 -153 5436 4195 2 MP stroke
0 -153 5551 4195 2 MP stroke
0 -153 6167 4195 2 MP stroke
gr

DA
0 sg
3316 4790 mt 
(Tempo [s]) s
 646 4329 mt  -90 rotate
(Sinal) s
90 rotate
2677 3794 mt 
(Troca de Mensagens do Ve\355culo 5) s
 882 4545 mt 
( ) s
6239 3931 mt 
( ) s
SO
6 w
1 sg
0 480 1756 0 0 -480 4439 4429 4 MP
PP
-1756 0 0 480 1756 0 0 -480 4439 4429 5 MP stroke
4 w
DO
SO
6 w
0 sg
4439 4429 mt 6195 4429 L
4439 3949 mt 6195 3949 L
4439 4429 mt 4439 3949 L
6195 4429 mt 6195 3949 L
4439 4429 mt 6195 4429 L
4439 4429 mt 4439 3949 L
4439 4429 mt 6195 4429 L
4439 3949 mt 6195 3949 L
4439 4429 mt 4439 3949 L
6195 4429 mt 6195 3949 L
4916 4084 mt 
(3: Recebe aviso - R) s
gs 4439 3949 1757 481 MR c np
DA
12 w
c8
257 0 4512 4041 2 MP stroke
4769 4041 PD
gs 4696 3968 147 147 MR c np
SO
  36   36 4769 4041 FO
DA
gr

gr

12 w
c8
DA
0 sg
4916 4232 mt 
(6: Recebe resposta - A) s
gs 4439 3949 1757 481 MR c np
SO
c9
257 0 4512 4189 2 MP stroke
4769 4189 PD
gs 4696 4116 147 147 MR c np
4733 4189 mt 4805 4189 L
4769 4153 mt 4769 4225 L
4744 4164 mt 4794 4214 L
4794 4164 mt 4744 4214 L
gr

gr

c9
SO
0 sg
4916 4379 mt 
(7: Envia calculo - R) s
gs 4439 3949 1757 481 MR c np
DA
c10
257 0 4512 4336 2 MP stroke
4769 4336 PD
gs 4696 4263 147 147 MR c np
SO
  36   36 4769 4336 FO
DA
gr

SO
6 w
gr

6 w
c10

end %%Color Dict

eplot
%%EndObject

epage
end

showpage

%%Trailer
%%EOF
