%!PS-Adobe-2.0 EPSF-1.2
%%Creator: MATLAB, The Mathworks, Inc. Version 7.9.0.529 (R2009b). Operating System: Darwin 10.8.0 Darwin Kernel Version 10.8.0: Tue Jun  7 16:33:36 PDT 2011; root:xnu-1504.15.3~1/RELEASE_I386 i386.
%%Title: ./vD_vV_falhas_tempos_boia_diver_zoom_bom.eps
%%CreationDate: 12/06/2011  00:42:22
%%DocumentNeededFonts: Helvetica
%%DocumentProcessColors: Cyan Magenta Yellow Black
%%Extensions: CMYK
%%Pages: 1
%%BoundingBox:    60   199   580   602
%%EndComments

%%BeginProlog
% MathWorks dictionary
/MathWorks 160 dict begin
% definition operators
/bdef {bind def} bind def
/ldef {load def} bind def
/xdef {exch def} bdef
/xstore {exch store} bdef
% operator abbreviations
/c  /clip ldef
/cc /concat ldef
/cp /closepath ldef
/gr /grestore ldef
/gs /gsave ldef
/mt /moveto ldef
/np /newpath ldef
/cm /currentmatrix ldef
/sm /setmatrix ldef
/rm /rmoveto ldef
/rl /rlineto ldef
/s {show newpath} bdef
/sc {setcmykcolor} bdef
/sr /setrgbcolor ldef
/sg /setgray ldef
/w /setlinewidth ldef
/j /setlinejoin ldef
/cap /setlinecap ldef
/rc {rectclip} bdef
/rf {rectfill} bdef
% page state control
/pgsv () def
/bpage {/pgsv save def} bdef
/epage {pgsv restore} bdef
/bplot /gsave ldef
/eplot {stroke grestore} bdef
% orientation switch
/portraitMode 0 def /landscapeMode 1 def /rotateMode 2 def
% coordinate system mappings
/dpi2point 0 def
% font control
/FontSize 0 def
/FMS {/FontSize xstore findfont [FontSize 0 0 FontSize neg 0 0]
  makefont setfont} bdef
/reencode {exch dup where {pop load} {pop StandardEncoding} ifelse
  exch dup 3 1 roll findfont dup length dict begin
  { 1 index /FID ne {def}{pop pop} ifelse } forall
  /Encoding exch def currentdict end definefont pop} bdef
/isroman {findfont /CharStrings get /Agrave known} bdef
/FMSR {3 1 roll 1 index dup isroman {reencode} {pop pop} ifelse
  exch FMS} bdef
/csm {1 dpi2point div -1 dpi2point div scale neg translate
 dup landscapeMode eq {pop -90 rotate}
  {rotateMode eq {90 rotate} if} ifelse} bdef
% line types: solid, dotted, dashed, dotdash
/SO { [] 0 setdash } bdef
/DO { [.5 dpi2point mul 4 dpi2point mul] 0 setdash } bdef
/DA { [6 dpi2point mul] 0 setdash } bdef
/DD { [.5 dpi2point mul 4 dpi2point mul 6 dpi2point mul 4
  dpi2point mul] 0 setdash } bdef
% macros for lines and objects
/L {lineto stroke} bdef
/MP {3 1 roll moveto 1 sub {rlineto} repeat} bdef
/AP {{rlineto} repeat} bdef
/PDlw -1 def
/W {/PDlw currentlinewidth def setlinewidth} def
/PP {closepath eofill} bdef
/DP {closepath stroke} bdef
/MR {4 -2 roll moveto dup  0 exch rlineto exch 0 rlineto
  neg 0 exch rlineto closepath} bdef
/FR {MR stroke} bdef
/PR {MR fill} bdef
/L1i {{currentfile picstr readhexstring pop} image} bdef
/tMatrix matrix def
/MakeOval {newpath tMatrix currentmatrix pop translate scale
0 0 1 0 360 arc tMatrix setmatrix} bdef
/FO {MakeOval stroke} bdef
/PO {MakeOval fill} bdef
/PD {currentlinewidth 2 div 0 360 arc fill
   PDlw -1 eq not {PDlw w /PDlw -1 def} if} def
/FA {newpath tMatrix currentmatrix pop translate scale
  0 0 1 5 -2 roll arc tMatrix setmatrix stroke} bdef
/PA {newpath tMatrix currentmatrix pop	translate 0 0 moveto scale
  0 0 1 5 -2 roll arc closepath tMatrix setmatrix fill} bdef
/FAn {newpath tMatrix currentmatrix pop translate scale
  0 0 1 5 -2 roll arcn tMatrix setmatrix stroke} bdef
/PAn {newpath tMatrix currentmatrix pop translate 0 0 moveto scale
  0 0 1 5 -2 roll arcn closepath tMatrix setmatrix fill} bdef
/vradius 0 def /hradius 0 def /lry 0 def
/lrx 0 def /uly 0 def /ulx 0 def /rad 0 def
/MRR {/vradius xdef /hradius xdef /lry xdef /lrx xdef /uly xdef
  /ulx xdef newpath tMatrix currentmatrix pop ulx hradius add uly
  vradius add translate hradius vradius scale 0 0 1 180 270 arc 
  tMatrix setmatrix lrx hradius sub uly vradius add translate
  hradius vradius scale 0 0 1 270 360 arc tMatrix setmatrix
  lrx hradius sub lry vradius sub translate hradius vradius scale
  0 0 1 0 90 arc tMatrix setmatrix ulx hradius add lry vradius sub
  translate hradius vradius scale 0 0 1 90 180 arc tMatrix setmatrix
  closepath} bdef
/FRR {MRR stroke } bdef
/PRR {MRR fill } bdef
/MlrRR {/lry xdef /lrx xdef /uly xdef /ulx xdef /rad lry uly sub 2 div def
  newpath tMatrix currentmatrix pop ulx rad add uly rad add translate
  rad rad scale 0 0 1 90 270 arc tMatrix setmatrix lrx rad sub lry rad
  sub translate rad rad scale 0 0 1 270 90 arc tMatrix setmatrix
  closepath} bdef
/FlrRR {MlrRR stroke } bdef
/PlrRR {MlrRR fill } bdef
/MtbRR {/lry xdef /lrx xdef /uly xdef /ulx xdef /rad lrx ulx sub 2 div def
  newpath tMatrix currentmatrix pop ulx rad add uly rad add translate
  rad rad scale 0 0 1 180 360 arc tMatrix setmatrix lrx rad sub lry rad
  sub translate rad rad scale 0 0 1 0 180 arc tMatrix setmatrix
  closepath} bdef
/FtbRR {MtbRR stroke } bdef
/PtbRR {MtbRR fill } bdef
/stri 6 array def /dtri 6 array def
/smat 6 array def /dmat 6 array def
/tmat1 6 array def /tmat2 6 array def /dif 3 array def
/asub {/ind2 exch def /ind1 exch def dup dup
  ind1 get exch ind2 get sub exch } bdef
/tri_to_matrix {
  2 0 asub 3 1 asub 4 0 asub 5 1 asub
  dup 0 get exch 1 get 7 -1 roll astore } bdef
/compute_transform {
  dmat dtri tri_to_matrix tmat1 invertmatrix 
  smat stri tri_to_matrix tmat2 concatmatrix } bdef
/ds {stri astore pop} bdef
/dt {dtri astore pop} bdef
/db {2 copy /cols xdef /rows xdef mul dup 3 mul string
  currentfile exch readhexstring pop
  dup 0 3 index getinterval /rbmap xdef
  dup 2 index dup getinterval /gbmap xdef
  1 index dup 2 mul exch getinterval /bbmap xdef pop pop}bdef
/it {gs np dtri aload pop moveto lineto lineto cp c
  cols rows 8 compute_transform 
  rbmap gbmap bbmap true 3 colorimage gr}bdef
/il {newpath moveto lineto stroke}bdef
currentdict end def
%%EndProlog

%%BeginSetup
MathWorks begin

0 cap

end
%%EndSetup

%%Page: 1 1
%%BeginPageSetup
%%PageBoundingBox:    60   199   580   602
MathWorks begin
bpage
%%EndPageSetup

%%BeginObject: obj1
bplot

/dpi2point 12 def
portraitMode 0216 7344 csm

  510   110  6239  4845 MR c np
89 dict begin %Colortable dictionary
/c0 { 0.000000 0.000000 0.000000 sr} bdef
/c1 { 1.000000 1.000000 1.000000 sr} bdef
/c2 { 0.900000 0.000000 0.000000 sr} bdef
/c3 { 0.000000 0.820000 0.000000 sr} bdef
/c4 { 0.000000 0.000000 0.800000 sr} bdef
/c5 { 0.910000 0.820000 0.320000 sr} bdef
/c6 { 1.000000 0.260000 0.820000 sr} bdef
/c7 { 0.000000 0.820000 0.820000 sr} bdef
c0
1 j
1 sg
   0    0 6913 5186 PR
6 w
0 1769 5355 0 0 -1769 899 2158 4 MP
PP
-5355 0 0 1769 5355 0 0 -1769 899 2158 5 MP stroke
4 w
DO
0 sg
1154 2158 mt 1154  389 L
1154  389 mt 1154  389 L
2004 2158 mt 2004  389 L
2004  389 mt 2004  389 L
2854 2158 mt 2854  389 L
2854  389 mt 2854  389 L
3704 2158 mt 3704  389 L
3704  389 mt 3704  389 L
4554 2158 mt 4554  389 L
4554  389 mt 4554  389 L
5404 2158 mt 5404  389 L
5404  389 mt 5404  389 L
6255 2158 mt 6255  389 L
6255  389 mt 6255  389 L
 899 2158 mt 6255 2158 L
6255 2158 mt 6255 2158 L
 899 1715 mt 6255 1715 L
6255 1715 mt 6255 1715 L
 899 1273 mt 6255 1273 L
6255 1273 mt 6255 1273 L
 899  831 mt 6255  831 L
6255  831 mt 6255  831 L
 899  389 mt 6255  389 L
6255  389 mt 6255  389 L
SO
6 w
 899 2158 mt 6254 2158 L
 899  389 mt 6254  389 L
 899 2158 mt  899  389 L
6254 2158 mt 6254  389 L
 899 2158 mt 6254 2158 L
 899 2158 mt  899  389 L
1154 2158 mt 1154 2104 L
1154  389 mt 1154  442 L
%%IncludeResource: font Helvetica
/Helvetica /ISOLatin1Encoding 120 FMSR

1004 2303 mt 
(100.4) s
2004 2158 mt 2004 2104 L
2004  389 mt 2004  442 L
1854 2303 mt 
(100.5) s
2854 2158 mt 2854 2104 L
2854  389 mt 2854  442 L
2704 2303 mt 
(100.6) s
3704 2158 mt 3704 2104 L
3704  389 mt 3704  442 L
3554 2303 mt 
(100.7) s
4554 2158 mt 4554 2104 L
4554  389 mt 4554  442 L
4404 2303 mt 
(100.8) s
5404 2158 mt 5404 2104 L
5404  389 mt 5404  442 L
5254 2303 mt 
(100.9) s
6255 2158 mt 6255 2104 L
6255  389 mt 6255  442 L
6155 2303 mt 
(101) s
 899 2158 mt  952 2158 L
6255 2158 mt 6201 2158 L
 728 2202 mt 
(-2) s
 899 1715 mt  952 1715 L
6255 1715 mt 6201 1715 L
 728 1759 mt 
(-1) s
 899 1273 mt  952 1273 L
6255 1273 mt 6201 1273 L
 798 1317 mt 
(0) s
 899  831 mt  952  831 L
6255  831 mt 6201  831 L
 798  875 mt 
(1) s
 899  389 mt  952  389 L
6255  389 mt 6201  389 L
 798  433 mt 
(2) s
 899 2158 mt 6254 2158 L
 899  389 mt 6254  389 L
 899 2158 mt  899  389 L
6254 2158 mt 6254  389 L
gs 899 389 5357 1770 MR c np
12 w
gr

12 w
gs 825 758 5505 147 MR c np
/c8 { 0.000000 1.000000 1.000000 sr} bdef
c8
  36   36 1409  831 FO
  36   36 3789  831 FO
  36   36 6169  831 FO
gr

c8
gs 899 389 5357 1770 MR c np
DA
0 -442 1409 1273 2 MP stroke
0 -442 3789 1273 2 MP stroke
0 -442 6169 1273 2 MP stroke
SO
6 w
0 sg
5355 0 899 1273 2 MP stroke
12 w
gr

0 sg
gs 825 758 5505 147 MR c np
/c9 { 0.000000 0.000000 1.000000 sr} bdef
c9
  36   36 1409  831 FO
  36   36 3789  831 FO
  36   36 6169  831 FO
gr

c9
gs 899 389 5357 1770 MR c np
DD
0 -442 1409 1273 2 MP stroke
0 -442 3789 1273 2 MP stroke
0 -442 6169 1273 2 MP stroke
SO
gr

gs 826 1642 5504 147 MR c np
/c10 { 1.000000 0.000000 0.000000 sr} bdef
c10
3188 1715 mt 3260 1715 L
3224 1679 mt 3224 1751 L
5572 1715 mt 5644 1715 L
5608 1679 mt 5608 1751 L
3199 1690 mt 3249 1740 L
3249 1690 mt 3199 1740 L
5583 1690 mt 5633 1740 L
5633 1690 mt 5583 1740 L
gr

c10
gs 899 389 5357 1770 MR c np
0 442 3224 1273 2 MP stroke
0 442 5608 1273 2 MP stroke
gr

0 sg
3316 2446 mt 
(Tempo [s]) s
 646 1407 mt  -90 rotate
(Sinal) s
90 rotate
2480  294 mt 
(Troca de Mensagens do Ve\355culo Principal) s
 882 2201 mt 
( ) s
6239  431 mt 
( ) s
6 w
1 sg
0 521 1964 0 0 -521 4735 2040 4 MP
PP
-1964 0 0 521 1964 0 0 -521 4735 2040 5 MP stroke
4 w
DO
SO
6 w
0 sg
4735 2040 mt 6699 2040 L
4735 1519 mt 6699 1519 L
4735 2040 mt 4735 1519 L
6699 2040 mt 6699 1519 L
4735 2040 mt 6699 2040 L
4735 2040 mt 4735 1519 L
4735 2040 mt 6699 2040 L
4735 1519 mt 6699 1519 L
4735 2040 mt 4735 1519 L
6699 2040 mt 6699 1519 L
5210 1662 mt 
(1: Avisa Ve\355culos - R) s
gs 4735 1519 1965 522 MR c np
DA
12 w
c8
255 0 4808 1619 2 MP stroke
5063 1619 PD
gs 4990 1546 147 147 MR c np
SO
  36   36 5063 1619 FO
DA
gr

gr

12 w
c8
DA
0 sg
5210 1822 mt 
(2: Ping ao Mergulhador - A) s
gs 4735 1519 1965 522 MR c np
DD
c9
255 0 4808 1779 2 MP stroke
5063 1779 PD
gs 4990 1706 147 147 MR c np
SO
  36   36 5063 1779 FO
DD
gr

gr

c9
DD
0 sg
5210 1982 mt 
(6: Recebe resposta - A) s
gs 4735 1519 1965 522 MR c np
SO
c10
255 0 4808 1939 2 MP stroke
5063 1939 PD
gs 4990 1866 147 147 MR c np
5027 1939 mt 5099 1939 L
5063 1903 mt 5063 1975 L
5038 1914 mt 5088 1964 L
5088 1914 mt 5038 1964 L
gr

6 w
gr

6 w
c10
SO
1 sg
0 1769 5355 0 0 -1769 899 4615 4 MP
PP
-5355 0 0 1769 5355 0 0 -1769 899 4615 5 MP stroke
4 w
DO
0 sg
1154 4615 mt 1154 2846 L
1154 2846 mt 1154 2846 L
2004 4615 mt 2004 2846 L
2004 2846 mt 2004 2846 L
2854 4615 mt 2854 2846 L
2854 2846 mt 2854 2846 L
3704 4615 mt 3704 2846 L
3704 2846 mt 3704 2846 L
4554 4615 mt 4554 2846 L
4554 2846 mt 4554 2846 L
5404 4615 mt 5404 2846 L
5404 2846 mt 5404 2846 L
6255 4615 mt 6255 2846 L
6255 2846 mt 6255 2846 L
 899 4615 mt 6255 4615 L
6255 4615 mt 6255 4615 L
 899 4172 mt 6255 4172 L
6255 4172 mt 6255 4172 L
 899 3730 mt 6255 3730 L
6255 3730 mt 6255 3730 L
 899 3288 mt 6255 3288 L
6255 3288 mt 6255 3288 L
 899 2846 mt 6255 2846 L
6255 2846 mt 6255 2846 L
SO
6 w
 899 4615 mt 6254 4615 L
 899 2846 mt 6254 2846 L
 899 4615 mt  899 2846 L
6254 4615 mt 6254 2846 L
 899 4615 mt 6254 4615 L
 899 4615 mt  899 2846 L
1154 4615 mt 1154 4561 L
1154 2846 mt 1154 2899 L
1004 4760 mt 
(100.4) s
2004 4615 mt 2004 4561 L
2004 2846 mt 2004 2899 L
1854 4760 mt 
(100.5) s
2854 4615 mt 2854 4561 L
2854 2846 mt 2854 2899 L
2704 4760 mt 
(100.6) s
3704 4615 mt 3704 4561 L
3704 2846 mt 3704 2899 L
3554 4760 mt 
(100.7) s
4554 4615 mt 4554 4561 L
4554 2846 mt 4554 2899 L
4404 4760 mt 
(100.8) s
5404 4615 mt 5404 4561 L
5404 2846 mt 5404 2899 L
5254 4760 mt 
(100.9) s
6255 4615 mt 6255 4561 L
6255 2846 mt 6255 2899 L
6155 4760 mt 
(101) s
 899 4615 mt  952 4615 L
6255 4615 mt 6201 4615 L
 728 4659 mt 
(-2) s
 899 4172 mt  952 4172 L
6255 4172 mt 6201 4172 L
 728 4216 mt 
(-1) s
 899 3730 mt  952 3730 L
6255 3730 mt 6201 3730 L
 798 3774 mt 
(0) s
 899 3288 mt  952 3288 L
6255 3288 mt 6201 3288 L
 798 3332 mt 
(1) s
 899 2846 mt  952 2846 L
6255 2846 mt 6201 2846 L
 798 2890 mt 
(2) s
 899 4615 mt 6254 4615 L
 899 2846 mt 6254 2846 L
 899 4615 mt  899 2846 L
6254 4615 mt 6254 2846 L
gs 899 2846 5357 1770 MR c np
12 w
gr

12 w
gs 826 4099 5504 147 MR c np
c9
1855 4172 mt 1927 4172 L
1891 4136 mt 1891 4208 L
4237 4172 mt 4309 4172 L
4273 4136 mt 4273 4208 L
1866 4147 mt 1916 4197 L
1916 4147 mt 1866 4197 L
4248 4147 mt 4298 4197 L
4298 4147 mt 4248 4197 L
gr

c9
gs 899 2846 5357 1770 MR c np
0 442 1891 3730 2 MP stroke
0 442 4273 3730 2 MP stroke
6 w
0 sg
5355 0 899 3730 2 MP stroke
12 w
gr

0 sg
gs 826 3215 5504 147 MR c np
c10
  36   36 2742 3288 FO
  36   36 5123 3288 FO
gr

c10
gs 899 2846 5357 1770 MR c np
0 -442 2742 3730 2 MP stroke
0 -442 5123 3730 2 MP stroke
gr

0 sg
3316 4903 mt 
(Tempo [s]) s
 646 3864 mt  -90 rotate
(Sinal) s
90 rotate
2583 2751 mt 
(Troca de Mensagens do Mergulhador) s
 882 4658 mt 
( ) s
6239 2888 mt 
( ) s
6 w
1 sg
0 361 1641 0 0 -361 4964 4481 4 MP
PP
-1641 0 0 361 1641 0 0 -361 4964 4481 5 MP stroke
4 w
DO
SO
6 w
0 sg
4964 4481 mt 6605 4481 L
4964 4120 mt 6605 4120 L
4964 4481 mt 4964 4120 L
6605 4481 mt 6605 4120 L
4964 4481 mt 6605 4481 L
4964 4481 mt 4964 4120 L
4964 4481 mt 6605 4481 L
4964 4120 mt 6605 4120 L
4964 4481 mt 4964 4120 L
6605 4481 mt 6605 4120 L
5442 4263 mt 
(4: Recebe ping - A) s
gs 4964 4120 1642 362 MR c np
12 w
c9
257 0 5037 4220 2 MP stroke
5294 4220 PD
gs 5221 4147 147 147 MR c np
5258 4220 mt 5330 4220 L
5294 4184 mt 5294 4256 L
5269 4195 mt 5319 4245 L
5319 4195 mt 5269 4245 L
gr

gr

12 w
c9
0 sg
5442 4423 mt 
(5: Envia resposta - A) s
gs 4964 4120 1642 362 MR c np
c10
257 0 5037 4380 2 MP stroke
5294 4380 PD
gs 5221 4307 147 147 MR c np
  36   36 5294 4380 FO
gr

6 w
gr

6 w
c10

end %%Color Dict

eplot
%%EndObject

epage
end

showpage

%%Trailer
%%EOF
