%!PS-Adobe-2.0 EPSF-1.2
%%Creator: MATLAB, The Mathworks, Inc. Version 7.9.0.529 (R2009b). Operating System: Darwin 10.8.0 Darwin Kernel Version 10.8.0: Tue Jun  7 16:33:36 PDT 2011; root:xnu-1504.15.3~1/RELEASE_I386 i386.
%%Title: ./vD_vV_falhas_tempos_boia_diver_zoom_mau.eps
%%CreationDate: 12/06/2011  00:55:11
%%DocumentNeededFonts: Helvetica
%%DocumentProcessColors: Cyan Magenta Yellow Black
%%Extensions: CMYK
%%Pages: 1
%%BoundingBox:    60   199   581   602
%%EndComments

%%BeginProlog
% MathWorks dictionary
/MathWorks 160 dict begin
% definition operators
/bdef {bind def} bind def
/ldef {load def} bind def
/xdef {exch def} bdef
/xstore {exch store} bdef
% operator abbreviations
/c  /clip ldef
/cc /concat ldef
/cp /closepath ldef
/gr /grestore ldef
/gs /gsave ldef
/mt /moveto ldef
/np /newpath ldef
/cm /currentmatrix ldef
/sm /setmatrix ldef
/rm /rmoveto ldef
/rl /rlineto ldef
/s {show newpath} bdef
/sc {setcmykcolor} bdef
/sr /setrgbcolor ldef
/sg /setgray ldef
/w /setlinewidth ldef
/j /setlinejoin ldef
/cap /setlinecap ldef
/rc {rectclip} bdef
/rf {rectfill} bdef
% page state control
/pgsv () def
/bpage {/pgsv save def} bdef
/epage {pgsv restore} bdef
/bplot /gsave ldef
/eplot {stroke grestore} bdef
% orientation switch
/portraitMode 0 def /landscapeMode 1 def /rotateMode 2 def
% coordinate system mappings
/dpi2point 0 def
% font control
/FontSize 0 def
/FMS {/FontSize xstore findfont [FontSize 0 0 FontSize neg 0 0]
  makefont setfont} bdef
/reencode {exch dup where {pop load} {pop StandardEncoding} ifelse
  exch dup 3 1 roll findfont dup length dict begin
  { 1 index /FID ne {def}{pop pop} ifelse } forall
  /Encoding exch def currentdict end definefont pop} bdef
/isroman {findfont /CharStrings get /Agrave known} bdef
/FMSR {3 1 roll 1 index dup isroman {reencode} {pop pop} ifelse
  exch FMS} bdef
/csm {1 dpi2point div -1 dpi2point div scale neg translate
 dup landscapeMode eq {pop -90 rotate}
  {rotateMode eq {90 rotate} if} ifelse} bdef
% line types: solid, dotted, dashed, dotdash
/SO { [] 0 setdash } bdef
/DO { [.5 dpi2point mul 4 dpi2point mul] 0 setdash } bdef
/DA { [6 dpi2point mul] 0 setdash } bdef
/DD { [.5 dpi2point mul 4 dpi2point mul 6 dpi2point mul 4
  dpi2point mul] 0 setdash } bdef
% macros for lines and objects
/L {lineto stroke} bdef
/MP {3 1 roll moveto 1 sub {rlineto} repeat} bdef
/AP {{rlineto} repeat} bdef
/PDlw -1 def
/W {/PDlw currentlinewidth def setlinewidth} def
/PP {closepath eofill} bdef
/DP {closepath stroke} bdef
/MR {4 -2 roll moveto dup  0 exch rlineto exch 0 rlineto
  neg 0 exch rlineto closepath} bdef
/FR {MR stroke} bdef
/PR {MR fill} bdef
/L1i {{currentfile picstr readhexstring pop} image} bdef
/tMatrix matrix def
/MakeOval {newpath tMatrix currentmatrix pop translate scale
0 0 1 0 360 arc tMatrix setmatrix} bdef
/FO {MakeOval stroke} bdef
/PO {MakeOval fill} bdef
/PD {currentlinewidth 2 div 0 360 arc fill
   PDlw -1 eq not {PDlw w /PDlw -1 def} if} def
/FA {newpath tMatrix currentmatrix pop translate scale
  0 0 1 5 -2 roll arc tMatrix setmatrix stroke} bdef
/PA {newpath tMatrix currentmatrix pop	translate 0 0 moveto scale
  0 0 1 5 -2 roll arc closepath tMatrix setmatrix fill} bdef
/FAn {newpath tMatrix currentmatrix pop translate scale
  0 0 1 5 -2 roll arcn tMatrix setmatrix stroke} bdef
/PAn {newpath tMatrix currentmatrix pop translate 0 0 moveto scale
  0 0 1 5 -2 roll arcn closepath tMatrix setmatrix fill} bdef
/vradius 0 def /hradius 0 def /lry 0 def
/lrx 0 def /uly 0 def /ulx 0 def /rad 0 def
/MRR {/vradius xdef /hradius xdef /lry xdef /lrx xdef /uly xdef
  /ulx xdef newpath tMatrix currentmatrix pop ulx hradius add uly
  vradius add translate hradius vradius scale 0 0 1 180 270 arc 
  tMatrix setmatrix lrx hradius sub uly vradius add translate
  hradius vradius scale 0 0 1 270 360 arc tMatrix setmatrix
  lrx hradius sub lry vradius sub translate hradius vradius scale
  0 0 1 0 90 arc tMatrix setmatrix ulx hradius add lry vradius sub
  translate hradius vradius scale 0 0 1 90 180 arc tMatrix setmatrix
  closepath} bdef
/FRR {MRR stroke } bdef
/PRR {MRR fill } bdef
/MlrRR {/lry xdef /lrx xdef /uly xdef /ulx xdef /rad lry uly sub 2 div def
  newpath tMatrix currentmatrix pop ulx rad add uly rad add translate
  rad rad scale 0 0 1 90 270 arc tMatrix setmatrix lrx rad sub lry rad
  sub translate rad rad scale 0 0 1 270 90 arc tMatrix setmatrix
  closepath} bdef
/FlrRR {MlrRR stroke } bdef
/PlrRR {MlrRR fill } bdef
/MtbRR {/lry xdef /lrx xdef /uly xdef /ulx xdef /rad lrx ulx sub 2 div def
  newpath tMatrix currentmatrix pop ulx rad add uly rad add translate
  rad rad scale 0 0 1 180 360 arc tMatrix setmatrix lrx rad sub lry rad
  sub translate rad rad scale 0 0 1 0 180 arc tMatrix setmatrix
  closepath} bdef
/FtbRR {MtbRR stroke } bdef
/PtbRR {MtbRR fill } bdef
/stri 6 array def /dtri 6 array def
/smat 6 array def /dmat 6 array def
/tmat1 6 array def /tmat2 6 array def /dif 3 array def
/asub {/ind2 exch def /ind1 exch def dup dup
  ind1 get exch ind2 get sub exch } bdef
/tri_to_matrix {
  2 0 asub 3 1 asub 4 0 asub 5 1 asub
  dup 0 get exch 1 get 7 -1 roll astore } bdef
/compute_transform {
  dmat dtri tri_to_matrix tmat1 invertmatrix 
  smat stri tri_to_matrix tmat2 concatmatrix } bdef
/ds {stri astore pop} bdef
/dt {dtri astore pop} bdef
/db {2 copy /cols xdef /rows xdef mul dup 3 mul string
  currentfile exch readhexstring pop
  dup 0 3 index getinterval /rbmap xdef
  dup 2 index dup getinterval /gbmap xdef
  1 index dup 2 mul exch getinterval /bbmap xdef pop pop}bdef
/it {gs np dtri aload pop moveto lineto lineto cp c
  cols rows 8 compute_transform 
  rbmap gbmap bbmap true 3 colorimage gr}bdef
/il {newpath moveto lineto stroke}bdef
currentdict end def
%%EndProlog

%%BeginSetup
MathWorks begin

0 cap

end
%%EndSetup

%%Page: 1 1
%%BeginPageSetup
%%PageBoundingBox:    60   199   581   602
MathWorks begin
bpage
%%EndPageSetup

%%BeginObject: obj1
bplot

/dpi2point 12 def
portraitMode 0216 7344 csm

  510   110  6248  4845 MR c np
86 dict begin %Colortable dictionary
/c0 { 0.000000 0.000000 0.000000 sr} bdef
/c1 { 1.000000 1.000000 1.000000 sr} bdef
/c2 { 0.900000 0.000000 0.000000 sr} bdef
/c3 { 0.000000 0.820000 0.000000 sr} bdef
/c4 { 0.000000 0.000000 0.800000 sr} bdef
/c5 { 0.910000 0.820000 0.320000 sr} bdef
/c6 { 1.000000 0.260000 0.820000 sr} bdef
/c7 { 0.000000 0.820000 0.820000 sr} bdef
c0
1 j
1 sg
   0    0 6913 5186 PR
6 w
0 1769 5356 0 0 -1769 899 2158 4 MP
PP
-5356 0 0 1769 5356 0 0 -1769 899 2158 5 MP stroke
4 w
DO
0 sg
 899 2158 mt  899  389 L
 899  389 mt  899  389 L
1664 2158 mt 1664  389 L
1664  389 mt 1664  389 L
2429 2158 mt 2429  389 L
2429  389 mt 2429  389 L
3194 2158 mt 3194  389 L
3194  389 mt 3194  389 L
3959 2158 mt 3959  389 L
3959  389 mt 3959  389 L
4724 2158 mt 4724  389 L
4724  389 mt 4724  389 L
5489 2158 mt 5489  389 L
5489  389 mt 5489  389 L
6255 2158 mt 6255  389 L
6255  389 mt 6255  389 L
 899 2158 mt 6255 2158 L
6255 2158 mt 6255 2158 L
 899 1715 mt 6255 1715 L
6255 1715 mt 6255 1715 L
 899 1273 mt 6255 1273 L
6255 1273 mt 6255 1273 L
 899  831 mt 6255  831 L
6255  831 mt 6255  831 L
 899  389 mt 6255  389 L
6255  389 mt 6255  389 L
SO
6 w
 899 2158 mt 6255 2158 L
 899  389 mt 6255  389 L
 899 2158 mt  899  389 L
6255 2158 mt 6255  389 L
 899 2158 mt 6255 2158 L
 899 2158 mt  899  389 L
 899 2158 mt  899 2104 L
 899  389 mt  899  442 L
%%IncludeResource: font Helvetica
/Helvetica /ISOLatin1Encoding 120 FMSR

 799 2303 mt 
(116) s
1664 2158 mt 1664 2104 L
1664  389 mt 1664  442 L
1564 2303 mt 
(118) s
2429 2158 mt 2429 2104 L
2429  389 mt 2429  442 L
2329 2303 mt 
(120) s
3194 2158 mt 3194 2104 L
3194  389 mt 3194  442 L
3094 2303 mt 
(122) s
3959 2158 mt 3959 2104 L
3959  389 mt 3959  442 L
3859 2303 mt 
(124) s
4724 2158 mt 4724 2104 L
4724  389 mt 4724  442 L
4624 2303 mt 
(126) s
5489 2158 mt 5489 2104 L
5489  389 mt 5489  442 L
5389 2303 mt 
(128) s
6255 2158 mt 6255 2104 L
6255  389 mt 6255  442 L
6155 2303 mt 
(130) s
 899 2158 mt  952 2158 L
6255 2158 mt 6201 2158 L
 728 2202 mt 
(-2) s
 899 1715 mt  952 1715 L
6255 1715 mt 6201 1715 L
 728 1759 mt 
(-1) s
 899 1273 mt  952 1273 L
6255 1273 mt 6201 1273 L
 798 1317 mt 
(0) s
 899  831 mt  952  831 L
6255  831 mt 6201  831 L
 798  875 mt 
(1) s
 899  389 mt  952  389 L
6255  389 mt 6201  389 L
 798  433 mt 
(2) s
 899 2158 mt 6255 2158 L
 899  389 mt 6255  389 L
 899 2158 mt  899  389 L
6255 2158 mt 6255  389 L
gs 899 389 5357 1770 MR c np
12 w
gr

12 w
gs 826 758 5504 147 MR c np
/c8 { 0.000000 1.000000 1.000000 sr} bdef
c8
  36   36 1009  831 FO
  36   36 1120  831 FO
  36   36 1231  831 FO
  36   36 1342  831 FO
  36   36 1453  831 FO
  36   36 1951  831 FO
  36   36 2062  831 FO
  36   36 2559  831 FO
  36   36 2670  831 FO
  36   36 2781  831 FO
  36   36 2892  831 FO
  36   36 3003  831 FO
  36   36 3114  831 FO
  36   36 3225  831 FO
  36   36 3335  831 FO
  36   36 3450  831 FO
  36   36 3565  831 FO
  36   36 3680  831 FO
  36   36 3795  831 FO
  36   36 3909  831 FO
  36   36 4024  831 FO
  36   36 4139  831 FO
  36   36 4254  831 FO
  36   36 4751  831 FO
  36   36 4866  831 FO
  36   36 4981  831 FO
  36   36 5095  831 FO
  36   36 5210  831 FO
  36   36 5325  831 FO
  36   36 5440  831 FO
  36   36 5554  831 FO
  36   36 6056  831 FO
  36   36 6170  831 FO
gr

c8
gs 899 389 5357 1770 MR c np
DA
0 -442 899 1273 2 MP stroke
0 -442 1009 1273 2 MP stroke
0 -442 1120 1273 2 MP stroke
0 -442 1231 1273 2 MP stroke
0 -442 1342 1273 2 MP stroke
0 -442 1453 1273 2 MP stroke
0 -442 1951 1273 2 MP stroke
0 -442 2062 1273 2 MP stroke
0 -442 2559 1273 2 MP stroke
0 -442 2670 1273 2 MP stroke
0 -442 2781 1273 2 MP stroke
0 -442 2892 1273 2 MP stroke
0 -442 3003 1273 2 MP stroke
0 -442 3114 1273 2 MP stroke
0 -442 3225 1273 2 MP stroke
0 -442 3335 1273 2 MP stroke
0 -442 3450 1273 2 MP stroke
0 -442 3565 1273 2 MP stroke
0 -442 3680 1273 2 MP stroke
0 -442 3795 1273 2 MP stroke
0 -442 3909 1273 2 MP stroke
0 -442 4024 1273 2 MP stroke
0 -442 4139 1273 2 MP stroke
0 -442 4254 1273 2 MP stroke
0 -442 4751 1273 2 MP stroke
0 -442 4866 1273 2 MP stroke
0 -442 4981 1273 2 MP stroke
0 -442 5095 1273 2 MP stroke
0 -442 5210 1273 2 MP stroke
0 -442 5325 1273 2 MP stroke
0 -442 5440 1273 2 MP stroke
0 -442 5554 1273 2 MP stroke
0 -442 6056 1273 2 MP stroke
0 -442 6170 1273 2 MP stroke
SO
6 w
0 sg
5356 0 899 1273 2 MP stroke
12 w
gr

0 sg
gs 826 758 5504 147 MR c np
/c9 { 0.000000 0.000000 1.000000 sr} bdef
c9
  36   36 1009  831 FO
  36   36 1120  831 FO
  36   36 1231  831 FO
  36   36 1342  831 FO
  36   36 1453  831 FO
  36   36 1951  831 FO
  36   36 2062  831 FO
  36   36 2559  831 FO
  36   36 2670  831 FO
  36   36 2781  831 FO
  36   36 2892  831 FO
  36   36 3003  831 FO
  36   36 3114  831 FO
  36   36 3225  831 FO
  36   36 3335  831 FO
  36   36 3450  831 FO
  36   36 3565  831 FO
  36   36 3680  831 FO
  36   36 3795  831 FO
  36   36 3909  831 FO
  36   36 4024  831 FO
  36   36 4139  831 FO
  36   36 4254  831 FO
  36   36 4751  831 FO
  36   36 4866  831 FO
  36   36 4981  831 FO
  36   36 5095  831 FO
  36   36 5210  831 FO
  36   36 5325  831 FO
  36   36 5440  831 FO
  36   36 5554  831 FO
  36   36 6056  831 FO
  36   36 6170  831 FO
gr

c9
gs 899 389 5357 1770 MR c np
DD
0 -442 899 1273 2 MP stroke
0 -442 1009 1273 2 MP stroke
0 -442 1120 1273 2 MP stroke
0 -442 1231 1273 2 MP stroke
0 -442 1342 1273 2 MP stroke
0 -442 1453 1273 2 MP stroke
0 -442 1951 1273 2 MP stroke
0 -442 2062 1273 2 MP stroke
0 -442 2559 1273 2 MP stroke
0 -442 2670 1273 2 MP stroke
0 -442 2781 1273 2 MP stroke
0 -442 2892 1273 2 MP stroke
0 -442 3003 1273 2 MP stroke
0 -442 3114 1273 2 MP stroke
0 -442 3225 1273 2 MP stroke
0 -442 3335 1273 2 MP stroke
0 -442 3450 1273 2 MP stroke
0 -442 3565 1273 2 MP stroke
0 -442 3680 1273 2 MP stroke
0 -442 3795 1273 2 MP stroke
0 -442 3909 1273 2 MP stroke
0 -442 4024 1273 2 MP stroke
0 -442 4139 1273 2 MP stroke
0 -442 4254 1273 2 MP stroke
0 -442 4751 1273 2 MP stroke
0 -442 4866 1273 2 MP stroke
0 -442 4981 1273 2 MP stroke
0 -442 5095 1273 2 MP stroke
0 -442 5210 1273 2 MP stroke
0 -442 5325 1273 2 MP stroke
0 -442 5440 1273 2 MP stroke
0 -442 5554 1273 2 MP stroke
0 -442 6056 1273 2 MP stroke
0 -442 6170 1273 2 MP stroke
SO
gr

gs 826 1642 5504 147 MR c np
/c10 { 1.000000 0.000000 0.000000 sr} bdef
c10
 951 1715 mt 1023 1715 L
 987 1679 mt  987 1751 L
1062 1715 mt 1134 1715 L
1098 1679 mt 1098 1751 L
1173 1715 mt 1245 1715 L
1209 1679 mt 1209 1751 L
1284 1715 mt 1356 1715 L
1320 1679 mt 1320 1751 L
1395 1715 mt 1467 1715 L
1431 1679 mt 1431 1751 L
1506 1715 mt 1578 1715 L
1542 1679 mt 1542 1751 L
2004 1715 mt 2076 1715 L
2040 1679 mt 2040 1751 L
2115 1715 mt 2187 1715 L
2151 1679 mt 2151 1751 L
2613 1715 mt 2685 1715 L
2649 1679 mt 2649 1751 L
2724 1715 mt 2796 1715 L
2760 1679 mt 2760 1751 L
2835 1715 mt 2907 1715 L
2871 1679 mt 2871 1751 L
2946 1715 mt 3018 1715 L
2982 1679 mt 2982 1751 L
3057 1715 mt 3129 1715 L
3093 1679 mt 3093 1751 L
3168 1715 mt 3240 1715 L
3204 1679 mt 3204 1751 L
3279 1715 mt 3351 1715 L
3315 1679 mt 3315 1751 L
3390 1715 mt 3462 1715 L
3426 1679 mt 3426 1751 L
3505 1715 mt 3577 1715 L
3541 1679 mt 3541 1751 L
3620 1715 mt 3692 1715 L
3656 1679 mt 3656 1751 L
3735 1715 mt 3807 1715 L
3771 1679 mt 3771 1751 L
3850 1715 mt 3922 1715 L
3886 1679 mt 3886 1751 L
3965 1715 mt 4037 1715 L
4001 1679 mt 4001 1751 L
4080 1715 mt 4152 1715 L
4116 1679 mt 4116 1751 L
4195 1715 mt 4267 1715 L
4231 1679 mt 4231 1751 L
4310 1715 mt 4382 1715 L
4346 1679 mt 4346 1751 L
4807 1715 mt 4879 1715 L
4843 1679 mt 4843 1751 L
4922 1715 mt 4994 1715 L
4958 1679 mt 4958 1751 L
5037 1715 mt 5109 1715 L
5073 1679 mt 5073 1751 L
5152 1715 mt 5224 1715 L
5188 1679 mt 5188 1751 L
5267 1715 mt 5339 1715 L
5303 1679 mt 5303 1751 L
5382 1715 mt 5454 1715 L
5418 1679 mt 5418 1751 L
5497 1715 mt 5569 1715 L
5533 1679 mt 5533 1751 L
5612 1715 mt 5684 1715 L
5648 1679 mt 5648 1751 L
6113 1715 mt 6185 1715 L
6149 1679 mt 6149 1751 L
 962 1690 mt 1012 1740 L
1012 1690 mt  962 1740 L
1073 1690 mt 1123 1740 L
1123 1690 mt 1073 1740 L
1184 1690 mt 1234 1740 L
1234 1690 mt 1184 1740 L
1295 1690 mt 1345 1740 L
1345 1690 mt 1295 1740 L
1406 1690 mt 1456 1740 L
1456 1690 mt 1406 1740 L
1517 1690 mt 1567 1740 L
1567 1690 mt 1517 1740 L
2015 1690 mt 2065 1740 L
2065 1690 mt 2015 1740 L
2126 1690 mt 2176 1740 L
2176 1690 mt 2126 1740 L
2624 1690 mt 2674 1740 L
2674 1690 mt 2624 1740 L
2735 1690 mt 2785 1740 L
2785 1690 mt 2735 1740 L
2846 1690 mt 2896 1740 L
2896 1690 mt 2846 1740 L
2957 1690 mt 3007 1740 L
3007 1690 mt 2957 1740 L
3068 1690 mt 3118 1740 L
3118 1690 mt 3068 1740 L
3179 1690 mt 3229 1740 L
3229 1690 mt 3179 1740 L
3290 1690 mt 3340 1740 L
3340 1690 mt 3290 1740 L
3401 1690 mt 3451 1740 L
3451 1690 mt 3401 1740 L
3516 1690 mt 3566 1740 L
3566 1690 mt 3516 1740 L
3631 1690 mt 3681 1740 L
3681 1690 mt 3631 1740 L
3746 1690 mt 3796 1740 L
3796 1690 mt 3746 1740 L
3861 1690 mt 3911 1740 L
3911 1690 mt 3861 1740 L
3976 1690 mt 4026 1740 L
4026 1690 mt 3976 1740 L
4091 1690 mt 4141 1740 L
4141 1690 mt 4091 1740 L
4206 1690 mt 4256 1740 L
4256 1690 mt 4206 1740 L
4321 1690 mt 4371 1740 L
4371 1690 mt 4321 1740 L
4818 1690 mt 4868 1740 L
4868 1690 mt 4818 1740 L
4933 1690 mt 4983 1740 L
4983 1690 mt 4933 1740 L
5048 1690 mt 5098 1740 L
5098 1690 mt 5048 1740 L
5163 1690 mt 5213 1740 L
5213 1690 mt 5163 1740 L
5278 1690 mt 5328 1740 L
5328 1690 mt 5278 1740 L
5393 1690 mt 5443 1740 L
5443 1690 mt 5393 1740 L
5508 1690 mt 5558 1740 L
5558 1690 mt 5508 1740 L
5623 1690 mt 5673 1740 L
5673 1690 mt 5623 1740 L
6124 1690 mt 6174 1740 L
6174 1690 mt 6124 1740 L
gr

c10
gs 899 389 5357 1770 MR c np
0 442 987 1273 2 MP stroke
0 442 1098 1273 2 MP stroke
0 442 1209 1273 2 MP stroke
0 442 1320 1273 2 MP stroke
0 442 1431 1273 2 MP stroke
0 442 1542 1273 2 MP stroke
0 442 2040 1273 2 MP stroke
0 442 2151 1273 2 MP stroke
0 442 2649 1273 2 MP stroke
0 442 2760 1273 2 MP stroke
0 442 2871 1273 2 MP stroke
0 442 2982 1273 2 MP stroke
0 442 3093 1273 2 MP stroke
0 442 3204 1273 2 MP stroke
0 442 3315 1273 2 MP stroke
0 442 3426 1273 2 MP stroke
0 442 3541 1273 2 MP stroke
0 442 3656 1273 2 MP stroke
0 442 3771 1273 2 MP stroke
0 442 3886 1273 2 MP stroke
0 442 4001 1273 2 MP stroke
0 442 4116 1273 2 MP stroke
0 442 4231 1273 2 MP stroke
0 442 4346 1273 2 MP stroke
0 442 4843 1273 2 MP stroke
0 442 4958 1273 2 MP stroke
0 442 5073 1273 2 MP stroke
0 442 5188 1273 2 MP stroke
0 442 5303 1273 2 MP stroke
0 442 5418 1273 2 MP stroke
0 442 5533 1273 2 MP stroke
0 442 5648 1273 2 MP stroke
0 442 6149 1273 2 MP stroke
gr

0 sg
3316 2446 mt 
(Tempo [s]) s
 646 1407 mt  -90 rotate
(Sinal) s
90 rotate
2480  294 mt 
(Troca de Mensagens do Ve\355culo Principal) s
 882 2201 mt 
( ) s
6239  431 mt 
( ) s
6 w
1 sg
0 520 1964 0 0 -520 4744 2141 4 MP
PP
-1964 0 0 520 1964 0 0 -520 4744 2141 5 MP stroke
4 w
DO
SO
6 w
0 sg
4744 2141 mt 6708 2141 L
4744 1621 mt 6708 1621 L
4744 2141 mt 4744 1621 L
6708 2141 mt 6708 1621 L
4744 2141 mt 6708 2141 L
4744 2141 mt 4744 1621 L
4744 2141 mt 6708 2141 L
4744 1621 mt 6708 1621 L
4744 2141 mt 4744 1621 L
6708 2141 mt 6708 1621 L
5219 1764 mt 
(1: Avisa Ve\355culos - R) s
gs 4744 1621 1965 521 MR c np
DA
12 w
c8
255 0 4817 1721 2 MP stroke
5072 1721 PD
gs 4999 1648 147 147 MR c np
SO
  36   36 5072 1721 FO
DA
gr

gr

12 w
c8
DA
0 sg
5219 1924 mt 
(2: Ping ao Mergulhador - A) s
gs 4744 1621 1965 521 MR c np
DD
c9
255 0 4817 1881 2 MP stroke
5072 1881 PD
gs 4999 1808 147 147 MR c np
SO
  36   36 5072 1881 FO
DD
gr

gr

c9
DD
0 sg
5219 2083 mt 
(6: Recebe resposta - A) s
gs 4744 1621 1965 521 MR c np
SO
c10
255 0 4817 2040 2 MP stroke
5072 2040 PD
gs 4999 1967 147 147 MR c np
5036 2040 mt 5108 2040 L
5072 2004 mt 5072 2076 L
5047 2015 mt 5097 2065 L
5097 2015 mt 5047 2065 L
gr

6 w
gr

6 w
c10
SO
1 sg
0 1769 5356 0 0 -1769 899 4615 4 MP
PP
-5356 0 0 1769 5356 0 0 -1769 899 4615 5 MP stroke
4 w
DO
0 sg
 899 4615 mt  899 2846 L
 899 2846 mt  899 2846 L
1664 4615 mt 1664 2846 L
1664 2846 mt 1664 2846 L
2429 4615 mt 2429 2846 L
2429 2846 mt 2429 2846 L
3194 4615 mt 3194 2846 L
3194 2846 mt 3194 2846 L
3959 4615 mt 3959 2846 L
3959 2846 mt 3959 2846 L
4724 4615 mt 4724 2846 L
4724 2846 mt 4724 2846 L
5489 4615 mt 5489 2846 L
5489 2846 mt 5489 2846 L
6255 4615 mt 6255 2846 L
6255 2846 mt 6255 2846 L
 899 4615 mt 6255 4615 L
6255 4615 mt 6255 4615 L
 899 4172 mt 6255 4172 L
6255 4172 mt 6255 4172 L
 899 3730 mt 6255 3730 L
6255 3730 mt 6255 3730 L
 899 3288 mt 6255 3288 L
6255 3288 mt 6255 3288 L
 899 2846 mt 6255 2846 L
6255 2846 mt 6255 2846 L
SO
6 w
 899 4615 mt 6255 4615 L
 899 2846 mt 6255 2846 L
 899 4615 mt  899 2846 L
6255 4615 mt 6255 2846 L
 899 4615 mt 6255 4615 L
 899 4615 mt  899 2846 L
 899 4615 mt  899 4561 L
 899 2846 mt  899 2899 L
 799 4760 mt 
(116) s
1664 4615 mt 1664 4561 L
1664 2846 mt 1664 2899 L
1564 4760 mt 
(118) s
2429 4615 mt 2429 4561 L
2429 2846 mt 2429 2899 L
2329 4760 mt 
(120) s
3194 4615 mt 3194 4561 L
3194 2846 mt 3194 2899 L
3094 4760 mt 
(122) s
3959 4615 mt 3959 4561 L
3959 2846 mt 3959 2899 L
3859 4760 mt 
(124) s
4724 4615 mt 4724 4561 L
4724 2846 mt 4724 2899 L
4624 4760 mt 
(126) s
5489 4615 mt 5489 4561 L
5489 2846 mt 5489 2899 L
5389 4760 mt 
(128) s
6255 4615 mt 6255 4561 L
6255 2846 mt 6255 2899 L
6155 4760 mt 
(130) s
 899 4615 mt  952 4615 L
6255 4615 mt 6201 4615 L
 728 4659 mt 
(-2) s
 899 4172 mt  952 4172 L
6255 4172 mt 6201 4172 L
 728 4216 mt 
(-1) s
 899 3730 mt  952 3730 L
6255 3730 mt 6201 3730 L
 798 3774 mt 
(0) s
 899 3288 mt  952 3288 L
6255 3288 mt 6201 3288 L
 798 3332 mt 
(1) s
 899 2846 mt  952 2846 L
6255 2846 mt 6201 2846 L
 798 2890 mt 
(2) s
 899 4615 mt 6255 4615 L
 899 2846 mt 6255 2846 L
 899 4615 mt  899 2846 L
6255 4615 mt 6255 2846 L
gs 899 2846 5357 1770 MR c np
12 w
gr

12 w
gs 826 4099 5504 147 MR c np
c9
 887 4172 mt  959 4172 L
 923 4136 mt  923 4208 L
 999 4172 mt 1071 4172 L
1035 4136 mt 1035 4208 L
1110 4172 mt 1182 4172 L
1146 4136 mt 1146 4208 L
1221 4172 mt 1293 4172 L
1257 4136 mt 1257 4208 L
1332 4172 mt 1404 4172 L
1368 4136 mt 1368 4208 L
1443 4172 mt 1515 4172 L
1479 4136 mt 1479 4208 L
1940 4172 mt 2012 4172 L
1976 4136 mt 1976 4208 L
2051 4172 mt 2123 4172 L
2087 4136 mt 2087 4208 L
2549 4172 mt 2621 4172 L
2585 4136 mt 2585 4208 L
2660 4172 mt 2732 4172 L
2696 4136 mt 2696 4208 L
2771 4172 mt 2843 4172 L
2807 4136 mt 2807 4208 L
2882 4172 mt 2954 4172 L
2918 4136 mt 2918 4208 L
2993 4172 mt 3065 4172 L
3029 4136 mt 3029 4208 L
3104 4172 mt 3176 4172 L
3140 4136 mt 3140 4208 L
3215 4172 mt 3287 4172 L
3251 4136 mt 3251 4208 L
3326 4172 mt 3398 4172 L
3362 4136 mt 3362 4208 L
3441 4172 mt 3513 4172 L
3477 4136 mt 3477 4208 L
3555 4172 mt 3627 4172 L
3591 4136 mt 3591 4208 L
3670 4172 mt 3742 4172 L
3706 4136 mt 3706 4208 L
3785 4172 mt 3857 4172 L
3821 4136 mt 3821 4208 L
3900 4172 mt 3972 4172 L
3936 4136 mt 3936 4208 L
4015 4172 mt 4087 4172 L
4051 4136 mt 4051 4208 L
4130 4172 mt 4202 4172 L
4166 4136 mt 4166 4208 L
4244 4172 mt 4316 4172 L
4280 4136 mt 4280 4208 L
4742 4172 mt 4814 4172 L
4778 4136 mt 4778 4208 L
4857 4172 mt 4929 4172 L
4893 4136 mt 4893 4208 L
4972 4172 mt 5044 4172 L
5008 4136 mt 5008 4208 L
5087 4172 mt 5159 4172 L
5123 4136 mt 5123 4208 L
5201 4172 mt 5273 4172 L
5237 4136 mt 5237 4208 L
5316 4172 mt 5388 4172 L
5352 4136 mt 5352 4208 L
5431 4172 mt 5503 4172 L
5467 4136 mt 5467 4208 L
5546 4172 mt 5618 4172 L
5582 4136 mt 5582 4208 L
6047 4172 mt 6119 4172 L
6083 4136 mt 6083 4208 L
6162 4172 mt 6234 4172 L
6198 4136 mt 6198 4208 L
 898 4147 mt  948 4197 L
 948 4147 mt  898 4197 L
1010 4147 mt 1060 4197 L
1060 4147 mt 1010 4197 L
1121 4147 mt 1171 4197 L
1171 4147 mt 1121 4197 L
1232 4147 mt 1282 4197 L
1282 4147 mt 1232 4197 L
1343 4147 mt 1393 4197 L
1393 4147 mt 1343 4197 L
1454 4147 mt 1504 4197 L
1504 4147 mt 1454 4197 L
1951 4147 mt 2001 4197 L
2001 4147 mt 1951 4197 L
2062 4147 mt 2112 4197 L
2112 4147 mt 2062 4197 L
2560 4147 mt 2610 4197 L
2610 4147 mt 2560 4197 L
2671 4147 mt 2721 4197 L
2721 4147 mt 2671 4197 L
2782 4147 mt 2832 4197 L
2832 4147 mt 2782 4197 L
2893 4147 mt 2943 4197 L
2943 4147 mt 2893 4197 L
3004 4147 mt 3054 4197 L
3054 4147 mt 3004 4197 L
3115 4147 mt 3165 4197 L
3165 4147 mt 3115 4197 L
3226 4147 mt 3276 4197 L
3276 4147 mt 3226 4197 L
3337 4147 mt 3387 4197 L
3387 4147 mt 3337 4197 L
3452 4147 mt 3502 4197 L
3502 4147 mt 3452 4197 L
3566 4147 mt 3616 4197 L
3616 4147 mt 3566 4197 L
3681 4147 mt 3731 4197 L
3731 4147 mt 3681 4197 L
3796 4147 mt 3846 4197 L
3846 4147 mt 3796 4197 L
3911 4147 mt 3961 4197 L
3961 4147 mt 3911 4197 L
4026 4147 mt 4076 4197 L
4076 4147 mt 4026 4197 L
4141 4147 mt 4191 4197 L
4191 4147 mt 4141 4197 L
4255 4147 mt 4305 4197 L
4305 4147 mt 4255 4197 L
4753 4147 mt 4803 4197 L
4803 4147 mt 4753 4197 L
4868 4147 mt 4918 4197 L
4918 4147 mt 4868 4197 L
4983 4147 mt 5033 4197 L
5033 4147 mt 4983 4197 L
5098 4147 mt 5148 4197 L
5148 4147 mt 5098 4197 L
5212 4147 mt 5262 4197 L
5262 4147 mt 5212 4197 L
5327 4147 mt 5377 4197 L
5377 4147 mt 5327 4197 L
5442 4147 mt 5492 4197 L
5492 4147 mt 5442 4197 L
5557 4147 mt 5607 4197 L
5607 4147 mt 5557 4197 L
6058 4147 mt 6108 4197 L
6108 4147 mt 6058 4197 L
6173 4147 mt 6223 4197 L
6223 4147 mt 6173 4197 L
gr

c9
gs 899 2846 5357 1770 MR c np
0 442 923 3730 2 MP stroke
0 442 1035 3730 2 MP stroke
0 442 1146 3730 2 MP stroke
0 442 1257 3730 2 MP stroke
0 442 1368 3730 2 MP stroke
0 442 1479 3730 2 MP stroke
0 442 1976 3730 2 MP stroke
0 442 2087 3730 2 MP stroke
0 442 2585 3730 2 MP stroke
0 442 2696 3730 2 MP stroke
0 442 2807 3730 2 MP stroke
0 442 2918 3730 2 MP stroke
0 442 3029 3730 2 MP stroke
0 442 3140 3730 2 MP stroke
0 442 3251 3730 2 MP stroke
0 442 3362 3730 2 MP stroke
0 442 3477 3730 2 MP stroke
0 442 3591 3730 2 MP stroke
0 442 3706 3730 2 MP stroke
0 442 3821 3730 2 MP stroke
0 442 3936 3730 2 MP stroke
0 442 4051 3730 2 MP stroke
0 442 4166 3730 2 MP stroke
0 442 4280 3730 2 MP stroke
0 442 4778 3730 2 MP stroke
0 442 4893 3730 2 MP stroke
0 442 5008 3730 2 MP stroke
0 442 5123 3730 2 MP stroke
0 442 5237 3730 2 MP stroke
0 442 5352 3730 2 MP stroke
0 442 5467 3730 2 MP stroke
0 442 5582 3730 2 MP stroke
0 442 6083 3730 2 MP stroke
0 442 6198 3730 2 MP stroke
6 w
0 sg
5356 0 899 3730 2 MP stroke
12 w
gr

0 sg
gs 826 3215 5504 147 MR c np
c10
  36   36  962 3288 FO
  36   36 1073 3288 FO
  36   36 1184 3288 FO
  36   36 1295 3288 FO
  36   36 1406 3288 FO
  36   36 1517 3288 FO
  36   36 2014 3288 FO
  36   36 2125 3288 FO
  36   36 2623 3288 FO
  36   36 2734 3288 FO
  36   36 2845 3288 FO
  36   36 2956 3288 FO
  36   36 3067 3288 FO
  36   36 3178 3288 FO
  36   36 3289 3288 FO
  36   36 3400 3288 FO
  36   36 3515 3288 FO
  36   36 3630 3288 FO
  36   36 3745 3288 FO
  36   36 3859 3288 FO
  36   36 3974 3288 FO
  36   36 4089 3288 FO
  36   36 4204 3288 FO
  36   36 4319 3288 FO
  36   36 4816 3288 FO
  36   36 4931 3288 FO
  36   36 5046 3288 FO
  36   36 5161 3288 FO
  36   36 5276 3288 FO
  36   36 5391 3288 FO
  36   36 5505 3288 FO
  36   36 5620 3288 FO
  36   36 6122 3288 FO
  36   36 6236 3288 FO
gr

c10
gs 899 2846 5357 1770 MR c np
0 -442 962 3730 2 MP stroke
0 -442 1073 3730 2 MP stroke
0 -442 1184 3730 2 MP stroke
0 -442 1295 3730 2 MP stroke
0 -442 1406 3730 2 MP stroke
0 -442 1517 3730 2 MP stroke
0 -442 2014 3730 2 MP stroke
0 -442 2125 3730 2 MP stroke
0 -442 2623 3730 2 MP stroke
0 -442 2734 3730 2 MP stroke
0 -442 2845 3730 2 MP stroke
0 -442 2956 3730 2 MP stroke
0 -442 3067 3730 2 MP stroke
0 -442 3178 3730 2 MP stroke
0 -442 3289 3730 2 MP stroke
0 -442 3400 3730 2 MP stroke
0 -442 3515 3730 2 MP stroke
0 -442 3630 3730 2 MP stroke
0 -442 3745 3730 2 MP stroke
0 -442 3859 3730 2 MP stroke
0 -442 3974 3730 2 MP stroke
0 -442 4089 3730 2 MP stroke
0 -442 4204 3730 2 MP stroke
0 -442 4319 3730 2 MP stroke
0 -442 4816 3730 2 MP stroke
0 -442 4931 3730 2 MP stroke
0 -442 5046 3730 2 MP stroke
0 -442 5161 3730 2 MP stroke
0 -442 5276 3730 2 MP stroke
0 -442 5391 3730 2 MP stroke
0 -442 5505 3730 2 MP stroke
0 -442 5620 3730 2 MP stroke
0 -442 6122 3730 2 MP stroke
0 -442 6236 3730 2 MP stroke
gr

0 sg
3316 4903 mt 
(Tempo [s]) s
 646 3864 mt  -90 rotate
(Sinal) s
90 rotate
2583 2751 mt 
(Troca de Mensagens do Mergulhador) s
 882 4658 mt 
( ) s
6239 2888 mt 
( ) s
6 w
1 sg
0 362 1641 0 0 -362 4988 4576 4 MP
PP
-1641 0 0 362 1641 0 0 -362 4988 4576 5 MP stroke
4 w
DO
SO
6 w
0 sg
4988 4576 mt 6629 4576 L
4988 4214 mt 6629 4214 L
4988 4576 mt 4988 4214 L
6629 4576 mt 6629 4214 L
4988 4576 mt 6629 4576 L
4988 4576 mt 4988 4214 L
4988 4576 mt 6629 4576 L
4988 4214 mt 6629 4214 L
4988 4576 mt 4988 4214 L
6629 4576 mt 6629 4214 L
5466 4357 mt 
(4: Recebe ping - A) s
gs 4988 4214 1642 363 MR c np
12 w
c9
257 0 5061 4315 2 MP stroke
5318 4315 PD
gs 5245 4242 147 147 MR c np
5282 4315 mt 5354 4315 L
5318 4279 mt 5318 4351 L
5293 4290 mt 5343 4340 L
5343 4290 mt 5293 4340 L
gr

gr

12 w
c9
0 sg
5466 4518 mt 
(5: Envia resposta - A) s
gs 4988 4214 1642 363 MR c np
c10
257 0 5061 4474 2 MP stroke
5318 4474 PD
gs 5245 4401 147 147 MR c np
  36   36 5318 4474 FO
gr

6 w
gr

6 w
c10

end %%Color Dict

eplot
%%EndObject

epage
end

showpage

%%Trailer
%%EOF
