%!PS-Adobe-2.0 EPSF-1.2
%%Creator: MATLAB, The Mathworks, Inc. Version 7.9.0.529 (R2009b). Operating System: Darwin 10.8.0 Darwin Kernel Version 10.8.0: Tue Jun  7 16:33:36 PDT 2011; root:xnu-1504.15.3~1/RELEASE_I386 i386.
%%Title: ./vD_vV_trajectoria_x_zoom.eps
%%CreationDate: 08/21/2011  03:04:00
%%DocumentNeededFonts: Helvetica
%%DocumentProcessColors: Cyan Magenta Yellow Black
%%Extensions: CMYK
%%Pages: 1
%%BoundingBox:    41   199   546   602
%%EndComments

%%BeginProlog
% MathWorks dictionary
/MathWorks 160 dict begin
% definition operators
/bdef {bind def} bind def
/ldef {load def} bind def
/xdef {exch def} bdef
/xstore {exch store} bdef
% operator abbreviations
/c  /clip ldef
/cc /concat ldef
/cp /closepath ldef
/gr /grestore ldef
/gs /gsave ldef
/mt /moveto ldef
/np /newpath ldef
/cm /currentmatrix ldef
/sm /setmatrix ldef
/rm /rmoveto ldef
/rl /rlineto ldef
/s {show newpath} bdef
/sc {setcmykcolor} bdef
/sr /setrgbcolor ldef
/sg /setgray ldef
/w /setlinewidth ldef
/j /setlinejoin ldef
/cap /setlinecap ldef
/rc {rectclip} bdef
/rf {rectfill} bdef
% page state control
/pgsv () def
/bpage {/pgsv save def} bdef
/epage {pgsv restore} bdef
/bplot /gsave ldef
/eplot {stroke grestore} bdef
% orientation switch
/portraitMode 0 def /landscapeMode 1 def /rotateMode 2 def
% coordinate system mappings
/dpi2point 0 def
% font control
/FontSize 0 def
/FMS {/FontSize xstore findfont [FontSize 0 0 FontSize neg 0 0]
  makefont setfont} bdef
/reencode {exch dup where {pop load} {pop StandardEncoding} ifelse
  exch dup 3 1 roll findfont dup length dict begin
  { 1 index /FID ne {def}{pop pop} ifelse } forall
  /Encoding exch def currentdict end definefont pop} bdef
/isroman {findfont /CharStrings get /Agrave known} bdef
/FMSR {3 1 roll 1 index dup isroman {reencode} {pop pop} ifelse
  exch FMS} bdef
/csm {1 dpi2point div -1 dpi2point div scale neg translate
 dup landscapeMode eq {pop -90 rotate}
  {rotateMode eq {90 rotate} if} ifelse} bdef
% line types: solid, dotted, dashed, dotdash
/SO { [] 0 setdash } bdef
/DO { [.5 dpi2point mul 4 dpi2point mul] 0 setdash } bdef
/DA { [6 dpi2point mul] 0 setdash } bdef
/DD { [.5 dpi2point mul 4 dpi2point mul 6 dpi2point mul 4
  dpi2point mul] 0 setdash } bdef
% macros for lines and objects
/L {lineto stroke} bdef
/MP {3 1 roll moveto 1 sub {rlineto} repeat} bdef
/AP {{rlineto} repeat} bdef
/PDlw -1 def
/W {/PDlw currentlinewidth def setlinewidth} def
/PP {closepath eofill} bdef
/DP {closepath stroke} bdef
/MR {4 -2 roll moveto dup  0 exch rlineto exch 0 rlineto
  neg 0 exch rlineto closepath} bdef
/FR {MR stroke} bdef
/PR {MR fill} bdef
/L1i {{currentfile picstr readhexstring pop} image} bdef
/tMatrix matrix def
/MakeOval {newpath tMatrix currentmatrix pop translate scale
0 0 1 0 360 arc tMatrix setmatrix} bdef
/FO {MakeOval stroke} bdef
/PO {MakeOval fill} bdef
/PD {currentlinewidth 2 div 0 360 arc fill
   PDlw -1 eq not {PDlw w /PDlw -1 def} if} def
/FA {newpath tMatrix currentmatrix pop translate scale
  0 0 1 5 -2 roll arc tMatrix setmatrix stroke} bdef
/PA {newpath tMatrix currentmatrix pop	translate 0 0 moveto scale
  0 0 1 5 -2 roll arc closepath tMatrix setmatrix fill} bdef
/FAn {newpath tMatrix currentmatrix pop translate scale
  0 0 1 5 -2 roll arcn tMatrix setmatrix stroke} bdef
/PAn {newpath tMatrix currentmatrix pop translate 0 0 moveto scale
  0 0 1 5 -2 roll arcn closepath tMatrix setmatrix fill} bdef
/vradius 0 def /hradius 0 def /lry 0 def
/lrx 0 def /uly 0 def /ulx 0 def /rad 0 def
/MRR {/vradius xdef /hradius xdef /lry xdef /lrx xdef /uly xdef
  /ulx xdef newpath tMatrix currentmatrix pop ulx hradius add uly
  vradius add translate hradius vradius scale 0 0 1 180 270 arc 
  tMatrix setmatrix lrx hradius sub uly vradius add translate
  hradius vradius scale 0 0 1 270 360 arc tMatrix setmatrix
  lrx hradius sub lry vradius sub translate hradius vradius scale
  0 0 1 0 90 arc tMatrix setmatrix ulx hradius add lry vradius sub
  translate hradius vradius scale 0 0 1 90 180 arc tMatrix setmatrix
  closepath} bdef
/FRR {MRR stroke } bdef
/PRR {MRR fill } bdef
/MlrRR {/lry xdef /lrx xdef /uly xdef /ulx xdef /rad lry uly sub 2 div def
  newpath tMatrix currentmatrix pop ulx rad add uly rad add translate
  rad rad scale 0 0 1 90 270 arc tMatrix setmatrix lrx rad sub lry rad
  sub translate rad rad scale 0 0 1 270 90 arc tMatrix setmatrix
  closepath} bdef
/FlrRR {MlrRR stroke } bdef
/PlrRR {MlrRR fill } bdef
/MtbRR {/lry xdef /lrx xdef /uly xdef /ulx xdef /rad lrx ulx sub 2 div def
  newpath tMatrix currentmatrix pop ulx rad add uly rad add translate
  rad rad scale 0 0 1 180 360 arc tMatrix setmatrix lrx rad sub lry rad
  sub translate rad rad scale 0 0 1 0 180 arc tMatrix setmatrix
  closepath} bdef
/FtbRR {MtbRR stroke } bdef
/PtbRR {MtbRR fill } bdef
/stri 6 array def /dtri 6 array def
/smat 6 array def /dmat 6 array def
/tmat1 6 array def /tmat2 6 array def /dif 3 array def
/asub {/ind2 exch def /ind1 exch def dup dup
  ind1 get exch ind2 get sub exch } bdef
/tri_to_matrix {
  2 0 asub 3 1 asub 4 0 asub 5 1 asub
  dup 0 get exch 1 get 7 -1 roll astore } bdef
/compute_transform {
  dmat dtri tri_to_matrix tmat1 invertmatrix 
  smat stri tri_to_matrix tmat2 concatmatrix } bdef
/ds {stri astore pop} bdef
/dt {dtri astore pop} bdef
/db {2 copy /cols xdef /rows xdef mul dup 3 mul string
  currentfile exch readhexstring pop
  dup 0 3 index getinterval /rbmap xdef
  dup 2 index dup getinterval /gbmap xdef
  1 index dup 2 mul exch getinterval /bbmap xdef pop pop}bdef
/it {gs np dtri aload pop moveto lineto lineto cp c
  cols rows 8 compute_transform 
  rbmap gbmap bbmap true 3 colorimage gr}bdef
/il {newpath moveto lineto stroke}bdef
currentdict end def
%%EndProlog

%%BeginSetup
MathWorks begin

0 cap

end
%%EndSetup

%%Page: 1 1
%%BeginPageSetup
%%PageBoundingBox:    41   199   546   602
MathWorks begin
bpage
%%EndPageSetup

%%BeginObject: obj1
bplot

/dpi2point 12 def
portraitMode 0216 7344 csm

  280   109  6064  4846 MR c np
86 dict begin %Colortable dictionary
/c0 { 0.000000 0.000000 0.000000 sr} bdef
/c1 { 1.000000 1.000000 1.000000 sr} bdef
/c2 { 0.900000 0.000000 0.000000 sr} bdef
/c3 { 0.000000 0.820000 0.000000 sr} bdef
/c4 { 0.000000 0.000000 0.800000 sr} bdef
/c5 { 0.910000 0.820000 0.320000 sr} bdef
/c6 { 1.000000 0.260000 0.820000 sr} bdef
/c7 { 0.000000 0.820000 0.820000 sr} bdef
c0
1 j
1 sg
   0    0 6913 5186 PR
6 w
0 4226 5356 0 0 -4226 899 4614 4 MP
PP
-5356 0 0 4226 5356 0 0 -4226 899 4614 5 MP stroke
4 w
DO
0 sg
1014 4614 mt 1014  388 L
1014  388 mt 1014  388 L
1527 4614 mt 1527  388 L
1527  388 mt 1527  388 L
2040 4614 mt 2040  388 L
2040  388 mt 2040  388 L
2553 4614 mt 2553  388 L
2553  388 mt 2553  388 L
3066 4614 mt 3066  388 L
3066  388 mt 3066  388 L
3579 4614 mt 3579  388 L
3579  388 mt 3579  388 L
4092 4614 mt 4092  388 L
4092  388 mt 4092  388 L
4605 4614 mt 4605  388 L
4605  388 mt 4605  388 L
5118 4614 mt 5118  388 L
5118  388 mt 5118  388 L
5631 4614 mt 5631  388 L
5631  388 mt 5631  388 L
6145 4614 mt 6145  388 L
6145  388 mt 6145  388 L
 899 4420 mt 6255 4420 L
6255 4420 mt 6255 4420 L
 899 3932 mt 6255 3932 L
6255 3932 mt 6255 3932 L
 899 3445 mt 6255 3445 L
6255 3445 mt 6255 3445 L
 899 2957 mt 6255 2957 L
6255 2957 mt 6255 2957 L
 899 2470 mt 6255 2470 L
6255 2470 mt 6255 2470 L
 899 1982 mt 6255 1982 L
6255 1982 mt 6255 1982 L
 899 1495 mt 6255 1495 L
6255 1495 mt 6255 1495 L
 899 1007 mt 6255 1007 L
6255 1007 mt 6255 1007 L
 899  520 mt 6255  520 L
6255  520 mt 6255  520 L
SO
6 w
 899 4614 mt 6255 4614 L
 899  388 mt 6255  388 L
 899 4614 mt  899  388 L
6255 4614 mt 6255  388 L
 899 4614 mt 6255 4614 L
 899 4614 mt  899  388 L
1014 4614 mt 1014 4561 L
1014  388 mt 1014  442 L
%%IncludeResource: font Helvetica
/Helvetica /ISOLatin1Encoding 120 FMSR

 864 4760 mt 
(138.3) s
1527 4614 mt 1527 4561 L
1527  388 mt 1527  442 L
1377 4760 mt 
(138.4) s
2040 4614 mt 2040 4561 L
2040  388 mt 2040  442 L
1890 4760 mt 
(138.5) s
2553 4614 mt 2553 4561 L
2553  388 mt 2553  442 L
2403 4760 mt 
(138.6) s
3066 4614 mt 3066 4561 L
3066  388 mt 3066  442 L
2916 4760 mt 
(138.7) s
3579 4614 mt 3579 4561 L
3579  388 mt 3579  442 L
3429 4760 mt 
(138.8) s
4092 4614 mt 4092 4561 L
4092  388 mt 4092  442 L
3942 4760 mt 
(138.9) s
4605 4614 mt 4605 4561 L
4605  388 mt 4605  442 L
4505 4760 mt 
(139) s
5118 4614 mt 5118 4561 L
5118  388 mt 5118  442 L
4968 4760 mt 
(139.1) s
5631 4614 mt 5631 4561 L
5631  388 mt 5631  442 L
5481 4760 mt 
(139.2) s
6145 4614 mt 6145 4561 L
6145  388 mt 6145  442 L
5995 4760 mt 
(139.3) s
 899 4420 mt  952 4420 L
6255 4420 mt 6201 4420 L
 564 4464 mt 
(104.9) s
 899 3932 mt  952 3932 L
6255 3932 mt 6201 3932 L
 498 3976 mt 
(104.95) s
 899 3445 mt  952 3445 L
6255 3445 mt 6201 3445 L
 664 3489 mt 
(105) s
 899 2957 mt  952 2957 L
6255 2957 mt 6201 2957 L
 498 3001 mt 
(105.05) s
 899 2470 mt  952 2470 L
6255 2470 mt 6201 2470 L
 564 2514 mt 
(105.1) s
 899 1982 mt  952 1982 L
6255 1982 mt 6201 1982 L
 498 2026 mt 
(105.15) s
 899 1495 mt  952 1495 L
6255 1495 mt 6201 1495 L
 564 1539 mt 
(105.2) s
 899 1007 mt  952 1007 L
6255 1007 mt 6201 1007 L
 498 1051 mt 
(105.25) s
 899  520 mt  952  520 L
6255  520 mt 6201  520 L
 564  564 mt 
(105.3) s
 899 4614 mt 6255 4614 L
 899  388 mt 6255  388 L
 899 4614 mt  899  388 L
6255 4614 mt 6255  388 L
gs 899 388 5357 4227 MR c np
gr

/c8 { 0.000000 0.000000 1.000000 sr} bdef
c8
  36   36 1681 4610 FO
  36   36 1732 4548 FO
  36   36 1784 4486 FO
  36   36 1835 4424 FO
  36   36 1886 4362 FO
  36   36 1938 4300 FO
  36   36 1989 4238 FO
  36   36 2040 4176 FO
  36   36 2092 4114 FO
  36   36 2143 4052 FO
  36   36 2194 3990 FO
  36   36 2245 3928 FO
  36   36 2297 3866 FO
  36   36 2348 3804 FO
  36   36 2399 3742 FO
  36   36 2451 3680 FO
  36   36 2502 3618 FO
  36   36 2553 3556 FO
  36   36 2605 3494 FO
  36   36 2656 3432 FO
  36   36 2707 3370 FO
  36   36 2758 3308 FO
  36   36 2810 3246 FO
  36   36 2861 3184 FO
  36   36 2912 3122 FO
  36   36 2964 3060 FO
  36   36 3015 2998 FO
  36   36 3066 2937 FO
  36   36 3118 2875 FO
  36   36 3169 2813 FO
  36   36 3220 2751 FO
  36   36 3272 2689 FO
  36   36 3323 2627 FO
  36   36 3374 2565 FO
  36   36 3425 2503 FO
  36   36 3477 2441 FO
  36   36 3528 2379 FO
  36   36 3579 2317 FO
  36   36 3631 2255 FO
  36   36 3682 2193 FO
  36   36 3733 2132 FO
  36   36 3785 2070 FO
  36   36 3836 2008 FO
  36   36 3887 1946 FO
  36   36 3938 1884 FO
  36   36 3990 1822 FO
  36   36 4041 1760 FO
  36   36 4092 1698 FO
  36   36 4144 1636 FO
  36   36 4195 1575 FO
  36   36 4246 1513 FO
  36   36 4298 1451 FO
  36   36 4349 1389 FO
  36   36 4400 1327 FO
  36   36 4451 1265 FO
  36   36 4503 1203 FO
  36   36 4554 1141 FO
  36   36 4605 1080 FO
  36   36 4657 1018 FO
  36   36 4708  956 FO
  36   36 4759  894 FO
  36   36 4811  832 FO
  36   36 4862  770 FO
  36   36 4913  709 FO
  36   36 4965  647 FO
  36   36 5016  585 FO
  36   36 5067  523 FO
  36   36 5118  461 FO
  36   36 5170  399 FO
gs 899 388 5357 4227 MR c np
gr

/c9 { 0.000000 1.000000 0.000000 sr} bdef
c9
1759 4567 mt 1809 4617 L
1809 4567 mt 1759 4617 L
1810 4503 mt 1860 4553 L
1860 4503 mt 1810 4553 L
1861 4438 mt 1911 4488 L
1911 4438 mt 1861 4488 L
1913 4373 mt 1963 4423 L
1963 4373 mt 1913 4423 L
1964 4308 mt 2014 4358 L
2014 4308 mt 1964 4358 L
2015 4244 mt 2065 4294 L
2065 4244 mt 2015 4294 L
2067 4179 mt 2117 4229 L
2117 4179 mt 2067 4229 L
2118 4114 mt 2168 4164 L
2168 4114 mt 2118 4164 L
2169 4130 mt 2219 4180 L
2219 4130 mt 2169 4180 L
2220 4065 mt 2270 4115 L
2270 4065 mt 2220 4115 L
2272 4000 mt 2322 4050 L
2322 4000 mt 2272 4050 L
2323 3936 mt 2373 3986 L
2373 3936 mt 2323 3986 L
2374 3871 mt 2424 3921 L
2424 3871 mt 2374 3921 L
2426 3806 mt 2476 3856 L
2476 3806 mt 2426 3856 L
2477 3742 mt 2527 3792 L
2527 3742 mt 2477 3792 L
2528 3677 mt 2578 3727 L
2578 3677 mt 2528 3727 L
2580 3612 mt 2630 3662 L
2630 3612 mt 2580 3662 L
2631 3548 mt 2681 3598 L
2681 3548 mt 2631 3598 L
2682 3483 mt 2732 3533 L
2732 3483 mt 2682 3533 L
2733 3418 mt 2783 3468 L
2783 3418 mt 2733 3468 L
2785 3354 mt 2835 3404 L
2835 3354 mt 2785 3404 L
2836 3289 mt 2886 3339 L
2886 3289 mt 2836 3339 L
2887 3224 mt 2937 3274 L
2937 3224 mt 2887 3274 L
2939 3160 mt 2989 3210 L
2989 3160 mt 2939 3210 L
2990 3095 mt 3040 3145 L
3040 3095 mt 2990 3145 L
3041 3030 mt 3091 3080 L
3091 3030 mt 3041 3080 L
3093 2966 mt 3143 3016 L
3143 2966 mt 3093 3016 L
3144 2901 mt 3194 2951 L
3194 2901 mt 3144 2951 L
3195 2836 mt 3245 2886 L
3245 2836 mt 3195 2886 L
3247 2772 mt 3297 2822 L
3297 2772 mt 3247 2822 L
3298 2707 mt 3348 2757 L
3348 2707 mt 3298 2757 L
3349 2642 mt 3399 2692 L
3399 2642 mt 3349 2692 L
3400 2578 mt 3450 2628 L
3450 2578 mt 3400 2628 L
3452 2513 mt 3502 2563 L
3502 2513 mt 3452 2563 L
3503 2448 mt 3553 2498 L
3553 2448 mt 3503 2498 L
3554 2384 mt 3604 2434 L
3604 2384 mt 3554 2434 L
3606 2319 mt 3656 2369 L
3656 2319 mt 3606 2369 L
3657 2334 mt 3707 2384 L
3707 2334 mt 3657 2384 L
3708 2270 mt 3758 2320 L
3758 2270 mt 3708 2320 L
3760 2205 mt 3810 2255 L
3810 2205 mt 3760 2255 L
3811 2141 mt 3861 2191 L
3861 2141 mt 3811 2191 L
3862 2076 mt 3912 2126 L
3912 2076 mt 3862 2126 L
3913 2011 mt 3963 2061 L
3963 2011 mt 3913 2061 L
3965 1947 mt 4015 1997 L
4015 1947 mt 3965 1997 L
4016 1882 mt 4066 1932 L
4066 1882 mt 4016 1932 L
4067 1818 mt 4117 1868 L
4117 1818 mt 4067 1868 L
4119 1753 mt 4169 1803 L
4169 1753 mt 4119 1803 L
4170 1688 mt 4220 1738 L
4220 1688 mt 4170 1738 L
4221 1624 mt 4271 1674 L
4271 1624 mt 4221 1674 L
4273 1559 mt 4323 1609 L
4323 1559 mt 4273 1609 L
4324 1495 mt 4374 1545 L
4374 1495 mt 4324 1545 L
4375 1430 mt 4425 1480 L
4425 1430 mt 4375 1480 L
4426 1365 mt 4476 1415 L
4476 1365 mt 4426 1415 L
4478 1301 mt 4528 1351 L
4528 1301 mt 4478 1351 L
4529 1236 mt 4579 1286 L
4579 1236 mt 4529 1286 L
4580 1172 mt 4630 1222 L
4630 1172 mt 4580 1222 L
4632 1107 mt 4682 1157 L
4682 1107 mt 4632 1157 L
4683 1042 mt 4733 1092 L
4733 1042 mt 4683 1092 L
4734  978 mt 4784 1028 L
4784  978 mt 4734 1028 L
4786  913 mt 4836  963 L
4836  913 mt 4786  963 L
4837  849 mt 4887  899 L
4887  849 mt 4837  899 L
4888  784 mt 4938  834 L
4938  784 mt 4888  834 L
4940  720 mt 4990  770 L
4990  720 mt 4940  770 L
4991  655 mt 5041  705 L
5041  655 mt 4991  705 L
5042  590 mt 5092  640 L
5092  590 mt 5042  640 L
5093  526 mt 5143  576 L
5143  526 mt 5093  576 L
5145  541 mt 5195  591 L
5195  541 mt 5145  591 L
5196  477 mt 5246  527 L
5246  477 mt 5196  527 L
5247  412 mt 5297  462 L
5297  412 mt 5247  462 L
gs 899 388 5357 4227 MR c np
12 w
gr

12 w
/c10 { 1.000000 0.000000 0.000000 sr} bdef
c10
  36   36 2194 4192 FO
  36   36 3682 2396 FO
  36   36 5170  603 FO
gs 899 388 5357 4227 MR c np
gr

0 sg
3316 4903 mt 
(Tempo [s]) s
 416 2812 mt  -90 rotate
(Posi\347\343o [m]) s
90 rotate
2227  293 mt 
(Traject\363ria do Mergulhador: Real e Estimada, em x) s
 870 4669 mt 
( ) s
6227  442 mt 
( ) s
6 w
1 sg
0 521 1157 0 0 -521 4751 4120 4 MP
PP
-1157 0 0 521 1157 0 0 -521 4751 4120 5 MP stroke
4 w
DO
SO
6 w
0 sg
4751 4120 mt 5908 4120 L
4751 3599 mt 5908 3599 L
4751 4120 mt 4751 3599 L
5908 4120 mt 5908 3599 L
4751 4120 mt 5908 4120 L
4751 4120 mt 4751 3599 L
4751 4120 mt 5908 4120 L
4751 3599 mt 5908 3599 L
4751 4120 mt 4751 3599 L
5908 4120 mt 5908 3599 L
5219 3742 mt 
(Real) s
gs 4751 3599 1158 522 MR c np
gs 4930 3626 147 147 MR c np
c8
  36   36 5003 3699 FO
gr

c8
gr

c8
0 sg
5219 3902 mt 
(Kalman) s
gs 4751 3599 1158 522 MR c np
gs 4930 3786 147 147 MR c np
c9
4978 3834 mt 5028 3884 L
5028 3834 mt 4978 3884 L
gr

c9
gr

c9
0 sg
5219 4062 mt 
(Trilatera\347\343o) s
gs 4751 3599 1158 522 MR c np
12 w
gs 4930 3946 147 147 MR c np
c10
  36   36 5003 4019 FO
gr

c10
6 w
gr

c10

end %%Color Dict

eplot
%%EndObject

epage
end

showpage

%%Trailer
%%EOF
