%!PS-Adobe-2.0 EPSF-1.2
%%Creator: MATLAB, The Mathworks, Inc. Version 7.9.0.529 (R2009b). Operating System: Darwin 10.8.0 Darwin Kernel Version 10.8.0: Tue Jun  7 16:33:36 PDT 2011; root:xnu-1504.15.3~1/RELEASE_I386 i386.
%%Title: ./vD_vV_falhas_threshold.eps
%%CreationDate: 12/06/2011  00:30:21
%%DocumentNeededFonts: Helvetica
%%DocumentProcessColors: Cyan Magenta Yellow Black
%%Extensions: CMYK
%%Pages: 1
%%BoundingBox:    58   199   551   602
%%EndComments

%%BeginProlog
% MathWorks dictionary
/MathWorks 160 dict begin
% definition operators
/bdef {bind def} bind def
/ldef {load def} bind def
/xdef {exch def} bdef
/xstore {exch store} bdef
% operator abbreviations
/c  /clip ldef
/cc /concat ldef
/cp /closepath ldef
/gr /grestore ldef
/gs /gsave ldef
/mt /moveto ldef
/np /newpath ldef
/cm /currentmatrix ldef
/sm /setmatrix ldef
/rm /rmoveto ldef
/rl /rlineto ldef
/s {show newpath} bdef
/sc {setcmykcolor} bdef
/sr /setrgbcolor ldef
/sg /setgray ldef
/w /setlinewidth ldef
/j /setlinejoin ldef
/cap /setlinecap ldef
/rc {rectclip} bdef
/rf {rectfill} bdef
% page state control
/pgsv () def
/bpage {/pgsv save def} bdef
/epage {pgsv restore} bdef
/bplot /gsave ldef
/eplot {stroke grestore} bdef
% orientation switch
/portraitMode 0 def /landscapeMode 1 def /rotateMode 2 def
% coordinate system mappings
/dpi2point 0 def
% font control
/FontSize 0 def
/FMS {/FontSize xstore findfont [FontSize 0 0 FontSize neg 0 0]
  makefont setfont} bdef
/reencode {exch dup where {pop load} {pop StandardEncoding} ifelse
  exch dup 3 1 roll findfont dup length dict begin
  { 1 index /FID ne {def}{pop pop} ifelse } forall
  /Encoding exch def currentdict end definefont pop} bdef
/isroman {findfont /CharStrings get /Agrave known} bdef
/FMSR {3 1 roll 1 index dup isroman {reencode} {pop pop} ifelse
  exch FMS} bdef
/csm {1 dpi2point div -1 dpi2point div scale neg translate
 dup landscapeMode eq {pop -90 rotate}
  {rotateMode eq {90 rotate} if} ifelse} bdef
% line types: solid, dotted, dashed, dotdash
/SO { [] 0 setdash } bdef
/DO { [.5 dpi2point mul 4 dpi2point mul] 0 setdash } bdef
/DA { [6 dpi2point mul] 0 setdash } bdef
/DD { [.5 dpi2point mul 4 dpi2point mul 6 dpi2point mul 4
  dpi2point mul] 0 setdash } bdef
% macros for lines and objects
/L {lineto stroke} bdef
/MP {3 1 roll moveto 1 sub {rlineto} repeat} bdef
/AP {{rlineto} repeat} bdef
/PDlw -1 def
/W {/PDlw currentlinewidth def setlinewidth} def
/PP {closepath eofill} bdef
/DP {closepath stroke} bdef
/MR {4 -2 roll moveto dup  0 exch rlineto exch 0 rlineto
  neg 0 exch rlineto closepath} bdef
/FR {MR stroke} bdef
/PR {MR fill} bdef
/L1i {{currentfile picstr readhexstring pop} image} bdef
/tMatrix matrix def
/MakeOval {newpath tMatrix currentmatrix pop translate scale
0 0 1 0 360 arc tMatrix setmatrix} bdef
/FO {MakeOval stroke} bdef
/PO {MakeOval fill} bdef
/PD {currentlinewidth 2 div 0 360 arc fill
   PDlw -1 eq not {PDlw w /PDlw -1 def} if} def
/FA {newpath tMatrix currentmatrix pop translate scale
  0 0 1 5 -2 roll arc tMatrix setmatrix stroke} bdef
/PA {newpath tMatrix currentmatrix pop	translate 0 0 moveto scale
  0 0 1 5 -2 roll arc closepath tMatrix setmatrix fill} bdef
/FAn {newpath tMatrix currentmatrix pop translate scale
  0 0 1 5 -2 roll arcn tMatrix setmatrix stroke} bdef
/PAn {newpath tMatrix currentmatrix pop translate 0 0 moveto scale
  0 0 1 5 -2 roll arcn closepath tMatrix setmatrix fill} bdef
/vradius 0 def /hradius 0 def /lry 0 def
/lrx 0 def /uly 0 def /ulx 0 def /rad 0 def
/MRR {/vradius xdef /hradius xdef /lry xdef /lrx xdef /uly xdef
  /ulx xdef newpath tMatrix currentmatrix pop ulx hradius add uly
  vradius add translate hradius vradius scale 0 0 1 180 270 arc 
  tMatrix setmatrix lrx hradius sub uly vradius add translate
  hradius vradius scale 0 0 1 270 360 arc tMatrix setmatrix
  lrx hradius sub lry vradius sub translate hradius vradius scale
  0 0 1 0 90 arc tMatrix setmatrix ulx hradius add lry vradius sub
  translate hradius vradius scale 0 0 1 90 180 arc tMatrix setmatrix
  closepath} bdef
/FRR {MRR stroke } bdef
/PRR {MRR fill } bdef
/MlrRR {/lry xdef /lrx xdef /uly xdef /ulx xdef /rad lry uly sub 2 div def
  newpath tMatrix currentmatrix pop ulx rad add uly rad add translate
  rad rad scale 0 0 1 90 270 arc tMatrix setmatrix lrx rad sub lry rad
  sub translate rad rad scale 0 0 1 270 90 arc tMatrix setmatrix
  closepath} bdef
/FlrRR {MlrRR stroke } bdef
/PlrRR {MlrRR fill } bdef
/MtbRR {/lry xdef /lrx xdef /uly xdef /ulx xdef /rad lrx ulx sub 2 div def
  newpath tMatrix currentmatrix pop ulx rad add uly rad add translate
  rad rad scale 0 0 1 180 360 arc tMatrix setmatrix lrx rad sub lry rad
  sub translate rad rad scale 0 0 1 0 180 arc tMatrix setmatrix
  closepath} bdef
/FtbRR {MtbRR stroke } bdef
/PtbRR {MtbRR fill } bdef
/stri 6 array def /dtri 6 array def
/smat 6 array def /dmat 6 array def
/tmat1 6 array def /tmat2 6 array def /dif 3 array def
/asub {/ind2 exch def /ind1 exch def dup dup
  ind1 get exch ind2 get sub exch } bdef
/tri_to_matrix {
  2 0 asub 3 1 asub 4 0 asub 5 1 asub
  dup 0 get exch 1 get 7 -1 roll astore } bdef
/compute_transform {
  dmat dtri tri_to_matrix tmat1 invertmatrix 
  smat stri tri_to_matrix tmat2 concatmatrix } bdef
/ds {stri astore pop} bdef
/dt {dtri astore pop} bdef
/db {2 copy /cols xdef /rows xdef mul dup 3 mul string
  currentfile exch readhexstring pop
  dup 0 3 index getinterval /rbmap xdef
  dup 2 index dup getinterval /gbmap xdef
  1 index dup 2 mul exch getinterval /bbmap xdef pop pop}bdef
/it {gs np dtri aload pop moveto lineto lineto cp c
  cols rows 8 compute_transform 
  rbmap gbmap bbmap true 3 colorimage gr}bdef
/il {newpath moveto lineto stroke}bdef
currentdict end def
%%EndProlog

%%BeginSetup
MathWorks begin

0 cap

end
%%EndSetup

%%Page: 1 1
%%BeginPageSetup
%%PageBoundingBox:    58   199   551   602
MathWorks begin
bpage
%%EndPageSetup

%%BeginObject: obj1
bplot

/dpi2point 12 def
portraitMode 0216 7344 csm

  480   110  5924  4845 MR c np
85 dict begin %Colortable dictionary
/c0 { 0.000000 0.000000 0.000000 sr} bdef
/c1 { 1.000000 1.000000 1.000000 sr} bdef
/c2 { 0.900000 0.000000 0.000000 sr} bdef
/c3 { 0.000000 0.820000 0.000000 sr} bdef
/c4 { 0.000000 0.000000 0.800000 sr} bdef
/c5 { 0.910000 0.820000 0.320000 sr} bdef
/c6 { 1.000000 0.260000 0.820000 sr} bdef
/c7 { 0.000000 0.820000 0.820000 sr} bdef
c0
1 j
1 sg
   0    0 6913 5186 PR
6 w
0 4226 5356 0 0 -4226 899 4615 4 MP
PP
-5356 0 0 4226 5356 0 0 -4226 899 4615 5 MP stroke
4 w
DO
0 sg
 899 4615 mt  899  389 L
 899  389 mt  899  389 L
1664 4615 mt 1664  389 L
1664  389 mt 1664  389 L
2429 4615 mt 2429  389 L
2429  389 mt 2429  389 L
3194 4615 mt 3194  389 L
3194  389 mt 3194  389 L
3959 4615 mt 3959  389 L
3959  389 mt 3959  389 L
4724 4615 mt 4724  389 L
4724  389 mt 4724  389 L
5489 4615 mt 5489  389 L
5489  389 mt 5489  389 L
6255 4615 mt 6255  389 L
6255  389 mt 6255  389 L
 899 4615 mt 6255 4615 L
6255 4615 mt 6255 4615 L
 899 4145 mt 6255 4145 L
6255 4145 mt 6255 4145 L
 899 3675 mt 6255 3675 L
6255 3675 mt 6255 3675 L
 899 3206 mt 6255 3206 L
6255 3206 mt 6255 3206 L
 899 2736 mt 6255 2736 L
6255 2736 mt 6255 2736 L
 899 2267 mt 6255 2267 L
6255 2267 mt 6255 2267 L
 899 1797 mt 6255 1797 L
6255 1797 mt 6255 1797 L
 899 1328 mt 6255 1328 L
6255 1328 mt 6255 1328 L
 899  858 mt 6255  858 L
6255  858 mt 6255  858 L
 899  389 mt 6255  389 L
6255  389 mt 6255  389 L
SO
6 w
 899 4615 mt 6255 4615 L
 899  389 mt 6255  389 L
 899 4615 mt  899  389 L
6255 4615 mt 6255  389 L
 899 4615 mt 6255 4615 L
 899 4615 mt  899  389 L
 899 4615 mt  899 4561 L
 899  389 mt  899  442 L
%%IncludeResource: font Helvetica
/Helvetica /ISOLatin1Encoding 120 FMSR

 866 4760 mt 
(0) s
1664 4615 mt 1664 4561 L
1664  389 mt 1664  442 L
1598 4760 mt 
(50) s
2429 4615 mt 2429 4561 L
2429  389 mt 2429  442 L
2329 4760 mt 
(100) s
3194 4615 mt 3194 4561 L
3194  389 mt 3194  442 L
3094 4760 mt 
(150) s
3959 4615 mt 3959 4561 L
3959  389 mt 3959  442 L
3859 4760 mt 
(200) s
4724 4615 mt 4724 4561 L
4724  389 mt 4724  442 L
4624 4760 mt 
(250) s
5489 4615 mt 5489 4561 L
5489  389 mt 5489  442 L
5389 4760 mt 
(300) s
6255 4615 mt 6255 4561 L
6255  389 mt 6255  442 L
6155 4760 mt 
(350) s
 899 4615 mt  952 4615 L
6255 4615 mt 6201 4615 L
 798 4659 mt 
(0) s
 899 4145 mt  952 4145 L
6255 4145 mt 6201 4145 L
 698 4189 mt 
(0.1) s
 899 3675 mt  952 3675 L
6255 3675 mt 6201 3675 L
 698 3719 mt 
(0.2) s
 899 3206 mt  952 3206 L
6255 3206 mt 6201 3206 L
 698 3250 mt 
(0.3) s
 899 2736 mt  952 2736 L
6255 2736 mt 6201 2736 L
 698 2780 mt 
(0.4) s
 899 2267 mt  952 2267 L
6255 2267 mt 6201 2267 L
 698 2311 mt 
(0.5) s
 899 1797 mt  952 1797 L
6255 1797 mt 6201 1797 L
 698 1841 mt 
(0.6) s
 899 1328 mt  952 1328 L
6255 1328 mt 6201 1328 L
 698 1372 mt 
(0.7) s
 899  858 mt  952  858 L
6255  858 mt 6201  858 L
 698  902 mt 
(0.8) s
 899  389 mt  952  389 L
6255  389 mt 6201  389 L
 698  433 mt 
(0.9) s
 899 4615 mt 6255 4615 L
 899  389 mt 6255  389 L
 899 4615 mt  899  389 L
6255 4615 mt 6255  389 L
gs 899 389 5357 4227 MR c np
24 w
/c8 { 0.000000 0.000000 1.000000 sr} bdef
c8
1 -2 2 -1 1 -1 2 -1 2 -1 1 -1 2 -2 1 -1 
2 -1 1 -1 2 -1 1 -1 2 -1 1 -2 2 -1 1 -1 
2 -1 1 -1 2 -1 1 -2 2 -1 2 -1 1 -1 2 -1 
1 -1 2 -2 1 -1 2 -1 1 -1 2 -1 1 -1 2 -2 
1 -1 2 -1 1 -1 2 -1 2 -1 1 -2 2 -1 1 -1 
2 -1 1 -1 2 -2 1 -1 2 -1 1 -1 2 -1 1 -1 
2 -2 1 -1 2 -1 1 -1 2 -1 2 -2 1 -1 2 -1 
1 -1 2 -1 1 -1 2 -2 1 -1 2 -1 1 -1 2 -1 
1 -2 2 -1 1 -1 2 -1 1 -1 2 -2 2 -1 1 -1 
2 -1 1 -1 2 -2 1 -1 2 -1 1 -1 2 -1 1 -2 
2 -1 1 -1 2 -1 1 -1 2 -2 1 -1 2 -1 2 -1 
1 -1 2 -2 1 -1 2 -1 1 -1 2 -1 1 -2 2 -1 
1 -1 2 -1 1 -2 5831 685 100 MP stroke
2 -1 1 -1 2 -1 2 -1 1 -2 2 -1 1 -1 2 -1 
1 -1 2 -2 1 -1 2 -1 1 -1 2 -2 1 -1 2 -1 
1 -1 2 -1 1 -2 2 -1 2 -1 1 -1 2 -2 1 -1 
2 -1 1 -1 2 -1 1 -2 2 -1 1 -1 2 -1 1 -2 
2 -1 1 -1 2 -1 1 -2 2 -1 2 -1 1 -1 2 -1 
1 -2 2 -1 1 -1 2 -1 1 -2 2 -1 1 -1 2 -1 
1 -2 2 -1 1 -1 2 -1 1 -2 2 -1 2 -1 1 -1 
2 -1 1 -2 2 -1 1 -1 2 -1 1 -2 2 -1 1 -1 
2 -1 1 -2 2 -1 1 -1 2 -1 2 -2 1 -1 2 -1 
1 -1 2 -2 1 -1 2 -1 1 -1 2 -2 1 -1 2 -1 
1 -1 2 -2 1 -1 2 -1 1 -1 2 -2 2 -1 1 -1 
2 -1 1 -2 2 -1 1 -1 2 -2 1 -1 2 -1 1 -1 
2 -2 1 -1 2 -1 5679 807 100 MP stroke
1 -1 2 -2 1 -1 2 -1 2 -1 1 -2 2 -1 1 -1 
2 -1 1 -2 2 -1 1 -1 2 -2 1 -1 2 -1 1 -1 
2 -2 1 -1 2 -1 1 -1 2 -2 2 -1 1 -1 2 -1 
1 -2 2 -1 1 -1 2 -2 1 -1 2 -1 1 -1 2 -2 
1 -1 2 -1 1 -2 2 -1 2 -1 1 -1 2 -2 1 -1 
2 -1 1 -1 2 -2 1 -1 2 -1 1 -2 2 -1 1 -1 
2 -1 1 -2 2 -1 1 -1 2 -2 2 -1 1 -1 2 -1 
1 -2 2 -1 1 -1 2 -2 1 -1 2 -1 1 -1 2 -2 
1 -1 2 -1 1 -2 2 -1 1 -1 2 -1 2 -2 1 -1 
2 -1 1 -2 2 -1 1 -1 2 -1 1 -2 2 -1 1 -1 
2 -2 1 -1 2 -1 1 -2 2 -1 1 -1 2 -1 2 -2 
1 -1 2 -1 1 -2 2 -1 1 -1 2 -2 1 -1 2 -1 
1 -1 2 -2 1 -1 5528 934 100 MP stroke
2 -1 1 -2 2 -1 2 -1 1 -2 2 -1 1 -1 2 -1 
1 -2 2 -1 1 -1 2 -2 1 -1 2 -1 1 -2 2 -1 
1 -1 2 -2 1 -1 2 -1 2 -1 1 -2 2 -1 1 -1 
2 -2 1 -1 2 -1 1 -2 2 -1 1 -1 2 -2 1 -1 
2 -1 1 -1 2 -2 1 -1 2 -1 2 -2 1 -1 2 -1 
1 -2 2 -1 1 -1 2 -2 1 -1 2 -1 1 -2 2 -1 
1 -1 2 -2 1 -1 2 -1 1 -1 2 -2 2 -1 1 -1 
2 -2 1 -1 2 -1 1 -2 2 -1 1 -1 2 -2 1 -1 
2 -1 1 -2 2 -1 1 -1 2 -2 2 -1 1 -1 2 -2 
1 -1 2 -1 1 -2 2 -1 1 -1 2 -2 1 -1 2 -1 
1 -1 2 -2 1 -1 2 -1 1 -2 2 -1 2 -1 1 -2 
2 -1 1 -1 2 -2 1 -1 2 -1 1 -2 2 -1 1 -1 
2 -2 1 -1 2 -1 5376 1064 100 MP stroke
1 -2 2 -1 1 -1 2 -2 2 -1 1 -1 2 -2 1 -1 
2 -1 1 -2 2 -1 1 -1 2 -2 1 -1 2 -1 1 -2 
2 -1 1 -1 2 -2 1 -1 2 -1 2 -2 1 -1 2 -1 
1 -2 2 -1 1 -1 2 -2 1 -1 2 -1 1 -2 2 -1 
1 -1 2 -2 1 -1 2 -2 2 -1 1 -1 2 -2 1 -1 
2 -1 1 -2 2 -1 1 -1 2 -2 1 -1 2 -1 1 -2 
2 -1 1 -1 2 -2 1 -1 2 -1 2 -2 1 -1 2 -1 
1 -2 2 -1 1 -1 2 -2 1 -1 2 -1 1 -2 2 -1 
1 -1 2 -2 1 -1 2 -2 1 -1 2 -1 2 -2 1 -1 
2 -1 1 -2 2 -1 1 -1 2 -2 1 -1 2 -1 1 -2 
2 -1 1 -1 2 -2 1 -1 2 -1 1 -2 2 -1 2 -2 
1 -1 2 -1 1 -2 2 -1 1 -1 2 -2 1 -1 2 -1 
1 -2 2 -1 1 -1 5225 1197 100 MP stroke
2 -2 1 -1 2 -1 2 -2 1 -1 2 -2 1 -1 2 -1 
1 -2 2 -1 1 -1 2 -2 1 -1 2 -1 1 -2 2 -1 
1 -1 2 -2 1 -1 2 -2 2 -1 1 -1 2 -2 1 -1 
2 -1 1 -2 2 -1 1 -1 2 -2 1 -1 2 -1 1 -2 
2 -1 1 -2 2 -1 1 -1 2 -2 2 -1 1 -1 2 -2 
1 -1 2 -1 1 -2 2 -1 1 -1 2 -2 1 -1 2 -2 
1 -1 2 -1 1 -2 2 -1 1 -1 2 -2 2 -1 1 -1 
2 -2 1 -1 2 -2 1 -1 2 -1 1 -2 2 -1 1 -1 
2 -2 1 -1 2 -1 1 -2 2 -1 2 -2 1 -1 2 -1 
1 -2 2 -1 1 -1 2 -2 1 -1 2 -2 1 -1 2 -1 
1 -2 2 -1 1 -1 2 -2 1 -1 2 -1 2 -2 1 -1 
2 -2 1 -1 2 -1 1 -2 2 -1 1 -1 2 -2 1 -1 
2 -1 1 -2 2 -1 5073 1332 100 MP stroke
1 -2 2 -1 1 -1 2 -2 2 -1 1 -1 2 -2 1 -1 
2 -2 1 -1 2 -1 1 -2 2 -1 1 -1 2 -2 1 -1 
2 -2 1 -1 2 -1 1 -2 2 -1 2 -1 1 -2 2 -1 
1 -1 2 -2 1 -1 2 -2 1 -1 2 -1 1 -2 2 -1 
1 -1 2 -2 1 -1 2 -2 2 -1 1 -1 2 -2 1 -1 
2 -1 1 -2 2 -1 1 -2 2 -1 1 -1 2 -2 1 -1 
2 -1 1 -2 2 -1 1 -2 2 -1 2 -1 1 -2 2 -1 
1 -1 2 -2 1 -1 2 -2 1 -1 2 -1 1 -2 2 -1 
1 -1 2 -2 1 -1 2 -2 1 -1 2 -1 2 -2 1 -1 
2 -1 1 -2 2 -1 1 -2 2 -1 1 -1 2 -2 1 -1 
2 -1 1 -2 2 -1 1 -2 2 -1 1 -1 2 -2 2 -1 
1 -1 2 -2 1 -1 2 -2 1 -1 2 -1 1 -2 2 -1 
1 -1 2 -2 1 -1 4922 1468 100 MP stroke
2 -2 1 -1 2 -1 1 -2 2 -1 2 -2 1 -1 2 -1 
1 -2 2 -1 1 -1 2 -2 1 -1 2 -2 1 -1 2 -1 
1 -2 2 -1 1 -1 2 -2 2 -1 1 -2 2 -1 1 -1 
2 -2 1 -1 2 -1 1 -2 2 -1 1 -2 2 -1 1 -1 
2 -2 1 -1 2 -2 1 -1 2 -1 2 -2 1 -1 2 -1 
1 -2 2 -1 1 -2 2 -1 1 -1 2 -2 1 -1 2 -1 
1 -2 2 -1 1 -2 2 -1 1 -1 2 -2 2 -1 1 -1 
2 -2 1 -1 2 -2 1 -1 2 -1 1 -2 2 -1 1 -2 
2 -1 1 -1 2 -2 1 -1 2 -1 1 -2 2 -1 2 -2 
1 -1 2 -1 1 -2 2 -1 1 -1 2 -2 1 -1 2 -2 
1 -1 2 -1 1 -2 2 -1 1 -2 2 -1 2 -1 1 -2 
2 -1 1 -1 2 -2 1 -1 2 -2 1 -1 2 -1 1 -2 
2 -1 1 -2 2 -1 4770 1605 100 MP stroke
1 -1 2 -2 1 -1 2 -1 2 -2 1 -1 2 -2 1 -1 
2 -1 1 -2 2 -1 1 -1 2 -2 1 -1 2 -2 1 -1 
2 -1 1 -2 2 -1 1 -2 2 -1 2 -1 1 -2 2 -1 
1 -1 2 -2 1 -1 2 -2 1 -1 2 -1 1 -2 2 -1 
1 -1 2 -2 1 -1 2 -2 1 -1 2 -1 2 -2 1 -1 
2 -2 1 -1 2 -1 1 -2 2 -1 1 -1 2 -2 1 -1 
2 -2 1 -1 2 -1 1 -2 2 -1 2 -2 1 -1 2 -1 
1 -2 2 -1 1 -1 2 -2 1 -1 2 -2 1 -1 2 -1 
1 -2 2 -1 1 -1 2 -2 1 -1 2 -2 2 -1 1 -1 
2 -2 1 -1 2 -2 1 -1 2 -1 1 -2 2 -1 1 -1 
2 -2 1 -1 2 -2 1 -1 2 -1 1 -2 2 -1 2 -1 
1 -2 2 -1 1 -2 2 -1 1 -1 2 -2 1 -1 2 -2 
1 -1 2 -1 1 -2 4619 1742 100 MP stroke
2 -1 1 -1 2 -2 1 -1 2 -2 2 -1 1 -1 2 -2 
1 -1 2 -1 1 -2 2 -1 1 -2 2 -1 1 -1 2 -2 
1 -1 2 -2 1 -1 2 -1 2 -2 1 -1 2 -1 1 -2 
2 -1 1 -2 2 -1 1 -1 2 -2 1 -1 2 -1 1 -2 
2 -1 1 -2 2 -1 1 -1 2 -2 2 -1 1 -2 2 -1 
1 -1 2 -2 1 -1 2 -1 1 -2 2 -1 1 -2 2 -1 
1 -1 2 -2 1 -1 2 -1 1 -2 2 -1 2 -2 1 -1 
2 -1 1 -2 2 -1 1 -1 2 -2 1 -1 2 -2 1 -1 
2 -1 1 -2 2 -1 1 -1 2 -2 1 -1 2 -2 2 -1 
1 -1 2 -2 1 -1 2 -2 1 -1 2 -1 1 -2 2 -1 
1 -1 2 -2 1 -1 2 -2 1 -1 2 -1 2 -2 1 -1 
2 -1 1 -2 2 -1 1 -2 2 -1 1 -1 2 -2 1 -1 
2 -1 1 -2 2 -1 4467 1878 100 MP stroke
1 -2 2 -1 1 -1 2 -2 2 -1 1 -1 2 -2 1 -1 
2 -2 1 -1 2 -1 1 -2 2 -1 1 -1 2 -2 1 -1 
2 -2 1 -1 2 -1 1 -2 2 -1 2 -1 1 -2 2 -1 
1 -2 2 -1 1 -1 2 -2 1 -1 2 -1 1 -2 2 -1 
1 -2 2 -1 1 -1 2 -2 1 -1 2 -1 2 -2 1 -1 
2 -2 1 -1 2 -1 1 -2 2 -1 1 -1 2 -2 1 -1 
2 -2 1 -1 2 -1 1 -2 2 -1 2 -1 1 -2 2 -1 
1 -2 2 -1 1 -1 2 -2 1 -1 2 -1 1 -2 2 -1 
1 -1 2 -2 1 -1 2 -2 1 -1 2 -1 2 -2 1 -1 
2 -1 1 -2 2 -1 1 -2 2 -1 1 -1 2 -2 1 -1 
2 -1 1 -2 2 -1 1 -2 2 -1 1 -1 2 -2 2 -1 
1 -1 2 -2 1 -1 2 -1 1 -2 2 -1 1 -2 2 -1 
1 -1 2 -2 1 -1 4316 2014 100 MP stroke
2 -1 1 -2 2 -1 1 -2 2 -1 2 -1 1 -2 2 -1 
1 -1 2 -2 1 -1 2 -1 1 -2 2 -1 1 -2 2 -1 
1 -1 2 -2 1 -1 2 -1 2 -2 1 -1 2 -1 1 -2 
2 -1 1 -2 2 -1 1 -1 2 -2 1 -1 2 -1 1 -2 
2 -1 1 -2 2 -1 1 -1 2 -2 2 -1 1 -1 2 -2 
1 -1 2 -1 1 -2 2 -1 1 -2 2 -1 1 -1 2 -2 
1 -1 2 -1 1 -2 2 -1 1 -1 2 -2 2 -1 1 -2 
2 -1 1 -1 2 -2 1 -1 2 -1 1 -2 2 -1 1 -1 
2 -2 1 -1 2 -1 1 -2 2 -1 1 -2 2 -1 2 -1 
1 -2 2 -1 1 -1 2 -2 1 -1 2 -1 1 -2 2 -1 
1 -2 2 -1 1 -1 2 -2 1 -1 2 -1 2 -2 1 -1 
2 -1 1 -2 2 -1 1 -1 2 -2 1 -1 2 -2 1 -1 
2 -1 1 -2 2 -1 4164 2149 100 MP stroke
1 -1 2 -2 1 -1 2 -1 2 -2 1 -1 2 -1 1 -2 
2 -1 1 -2 2 -1 1 -1 2 -2 1 -1 2 -1 1 -2 
2 -1 1 -1 2 -2 1 -1 2 -1 2 -2 1 -1 2 -2 
1 -1 2 -1 1 -2 2 -1 1 -1 2 -2 1 -1 2 -1 
1 -2 2 -1 1 -1 2 -2 1 -1 2 -1 2 -2 1 -1 
2 -2 1 -1 2 -1 1 -2 2 -1 1 -1 2 -2 1 -1 
2 -1 1 -2 2 -1 1 -1 2 -2 2 -1 1 -1 2 -2 
1 -1 2 -2 1 -1 2 -1 1 -2 2 -1 1 -1 2 -2 
1 -1 2 -1 1 -2 2 -1 1 -1 2 -2 2 -1 1 -1 
2 -2 1 -1 2 -1 1 -2 2 -1 1 -1 2 -2 1 -1 
2 -2 1 -1 2 -1 1 -2 2 -1 1 -1 2 -2 2 -1 
1 -1 2 -2 1 -1 2 -1 1 -2 2 -1 1 -1 2 -2 
1 -1 2 -1 1 -2 4013 2283 100 MP stroke
2 -1 1 -1 2 -2 1 -1 2 -1 2 -2 1 -1 2 -2 
1 -1 2 -1 1 -2 2 -1 1 -1 2 -2 1 -1 2 -1 
1 -2 2 -1 1 -1 2 -2 2 -1 1 -1 2 -2 1 -1 
2 -1 1 -2 2 -1 1 -1 2 -2 1 -1 2 -1 1 -2 
2 -1 1 -1 2 -2 1 -1 2 -1 2 -2 1 -1 2 -1 
1 -2 2 -1 1 -1 2 -2 1 -1 2 -1 1 -2 2 -1 
1 -1 2 -2 1 -1 2 -1 1 -2 2 -1 2 -1 1 -2 
2 -1 1 -1 2 -2 1 -1 2 -1 1 -2 2 -1 1 -2 
2 -1 1 -1 2 -2 1 -1 2 -1 1 -2 2 -1 2 -1 
1 -2 2 -1 1 -1 2 -2 1 -1 2 -1 1 -2 2 -1 
1 -1 2 -2 1 -1 2 -1 1 -1 2 -2 2 -1 1 -1 
2 -2 1 -1 2 -1 1 -2 2 -1 1 -1 2 -2 1 -1 
2 -1 1 -2 2 -1 3861 2415 100 MP stroke
1 -1 2 -2 1 -1 2 -1 2 -2 1 -1 2 -1 1 -2 
2 -1 1 -1 2 -2 1 -1 2 -1 1 -2 2 -1 1 -1 
2 -2 1 -1 2 -1 1 -2 2 -1 2 -1 1 -2 2 -1 
1 -1 2 -2 1 -1 2 -1 1 -2 2 -1 1 -1 2 -2 
1 -1 2 -1 1 -2 2 -1 1 -1 2 -2 2 -1 1 -1 
2 -1 1 -2 2 -1 1 -1 2 -2 1 -1 2 -1 1 -2 
2 -1 1 -1 2 -2 1 -1 2 -1 2 -2 1 -1 2 -1 
1 -2 2 -1 1 -1 2 -2 1 -1 2 -1 1 -2 2 -1 
1 -1 2 -2 1 -1 2 -1 1 -1 2 -2 2 -1 1 -1 
2 -2 1 -1 2 -1 1 -2 2 -1 1 -1 2 -2 1 -1 
2 -1 1 -2 2 -1 1 -1 2 -2 1 -1 2 -1 2 -1 
1 -2 2 -1 1 -1 2 -2 1 -1 2 -1 1 -2 2 -1 
1 -1 2 -2 1 -1 3710 2546 100 MP stroke
2 -1 1 -2 2 -1 1 -1 2 -1 2 -2 1 -1 2 -1 
1 -2 2 -1 1 -1 2 -2 1 -1 2 -1 1 -2 2 -1 
1 -1 2 -2 1 -1 2 -1 2 -1 1 -2 2 -1 1 -1 
2 -2 1 -1 2 -1 1 -2 2 -1 1 -1 2 -2 1 -1 
2 -1 1 -1 2 -2 1 -1 2 -1 2 -2 1 -1 2 -1 
1 -2 2 -1 1 -1 2 -2 1 -1 2 -1 1 -1 2 -2 
1 -1 2 -1 1 -2 2 -1 1 -1 2 -2 2 -1 1 -1 
2 -1 1 -2 2 -1 1 -1 2 -2 1 -1 2 -1 1 -2 
2 -1 1 -1 2 -2 1 -1 2 -1 1 -1 2 -2 2 -1 
1 -1 2 -2 1 -1 2 -1 1 -2 2 -1 1 -1 2 -1 
1 -2 2 -1 1 -1 2 -2 1 -1 2 -1 1 -1 2 -2 
2 -1 1 -1 2 -2 1 -1 2 -1 1 -2 2 -1 1 -1 
2 -1 1 -2 2 -1 3558 2675 100 MP stroke
1 -1 2 -2 1 -1 2 -1 2 -2 1 -1 2 -1 1 -1 
2 -2 1 -1 2 -1 1 -2 2 -1 1 -1 2 -1 1 -2 
2 -1 1 -1 2 -2 1 -1 2 -1 2 -1 1 -2 2 -1 
1 -1 2 -2 1 -1 2 -1 1 -2 2 -1 1 -1 2 -1 
1 -2 2 -1 1 -1 2 -2 1 -1 2 -1 2 -1 1 -2 
2 -1 1 -1 2 -2 1 -1 2 -1 1 -1 2 -2 1 -1 
2 -1 1 -2 2 -1 1 -1 2 -1 1 -2 2 -1 2 -1 
1 -2 2 -1 1 -1 2 -1 1 -2 2 -1 1 -1 2 -2 
1 -1 2 -1 1 -1 2 -2 1 -1 2 -1 2 -2 1 -1 
2 -1 1 -1 2 -2 1 -1 2 -1 1 -1 2 -2 1 -1 
2 -1 1 -2 2 -1 1 -1 2 -1 1 -2 2 -1 2 -1 
1 -2 2 -1 1 -1 2 -1 1 -2 2 -1 1 -1 2 -1 
1 -2 2 -1 1 -1 3407 2802 100 MP stroke
2 -2 1 -1 2 -1 1 -1 2 -2 2 -1 1 -1 2 -2 
1 -1 2 -1 1 -1 2 -2 1 -1 2 -1 1 -1 2 -2 
1 -1 2 -1 1 -2 2 -1 1 -1 2 -1 2 -2 1 -1 
2 -1 1 -1 2 -2 1 -1 2 -1 1 -2 2 -1 1 -1 
2 -1 1 -2 2 -1 1 -1 2 -1 2 -2 1 -1 2 -1 
1 -1 2 -2 1 -1 2 -1 1 -2 2 -1 1 -1 2 -1 
1 -2 2 -1 1 -1 2 -1 1 -2 2 -1 2 -1 1 -1 
2 -2 1 -1 2 -1 1 -2 2 -1 1 -1 2 -1 1 -2 
2 -1 1 -1 2 -1 1 -2 2 -1 1 -1 2 -1 2 -2 
1 -1 2 -1 1 -1 2 -2 1 -1 2 -1 1 -2 2 -1 
1 -1 2 -1 1 -2 2 -1 1 -1 2 -1 1 -2 2 -1 
2 -1 1 -1 2 -2 1 -1 2 -1 1 -1 2 -2 1 -1 
2 -1 1 -1 2 -2 3255 2928 100 MP stroke
1 -1 2 -1 1 -1 2 -2 2 -1 1 -1 2 -2 1 -1 
2 -1 1 -1 2 -2 1 -1 2 -1 1 -1 2 -2 1 -1 
2 -1 1 -1 2 -2 1 -1 2 -1 2 -1 1 -2 2 -1 
1 -1 2 -1 1 -2 2 -1 1 -1 2 -1 1 -2 2 -1 
1 -1 2 -1 1 -2 2 -1 1 -1 2 -1 2 -2 1 -1 
2 -1 1 -1 2 -2 1 -1 2 -1 1 -1 2 -2 1 -1 
2 -1 1 -1 2 -2 1 -1 2 -1 1 -1 2 -2 2 -1 
1 -1 2 -1 1 -1 2 -2 1 -1 2 -1 1 -1 2 -2 
1 -1 2 -1 1 -1 2 -2 1 -1 2 -1 2 -1 1 -2 
2 -1 1 -1 2 -1 1 -2 2 -1 1 -1 2 -1 1 -2 
2 -1 1 -1 2 -1 1 -2 2 -1 1 -1 2 -1 2 -2 
1 -1 2 -1 1 -1 2 -1 1 -2 2 -1 1 -1 2 -1 
1 -2 2 -1 1 -1 3104 3051 100 MP stroke
2 -1 1 -2 2 -1 1 -1 2 -1 2 -2 1 -1 2 -1 
1 -1 2 -1 1 -2 2 -1 1 -1 2 -1 1 -2 2 -1 
1 -1 2 -1 1 -2 2 -1 1 -1 2 -1 2 -2 1 -1 
2 -1 1 -1 2 -1 1 -2 2 -1 1 -1 2 -1 1 -2 
2 -1 1 -1 2 -1 1 -1 2 -2 2 -1 1 -1 2 -1 
1 -2 2 -1 1 -1 2 -1 1 -2 2 -1 1 -1 2 -1 
1 -1 2 -2 1 -1 2 -1 1 -1 2 -2 2 -1 1 -1 
2 -1 1 -1 2 -2 1 -1 2 -1 1 -1 2 -2 1 -1 
2 -1 1 -1 2 -1 1 -2 2 -1 1 -1 2 -1 2 -2 
1 -1 2 -1 1 -1 2 -1 1 -2 2 -1 1 -1 2 -1 
1 -2 2 -1 1 -1 2 -1 1 -1 2 -2 1 -1 2 -1 
2 -1 1 -2 2 -1 1 -1 2 -1 1 -1 2 -2 1 -1 
2 -1 1 -1 2 -2 2952 3173 100 MP stroke
1 -1 2 -1 1 -1 2 -1 2 -2 1 -1 2 -1 1 -1 
2 -1 1 -2 2 -1 1 -1 2 -1 1 -2 2 -1 1 -1 
2 -1 1 -1 2 -2 1 -1 2 -1 2 -1 1 -1 2 -2 
1 -1 2 -1 1 -1 2 -1 1 -2 2 -1 1 -1 2 -1 
1 -2 2 -1 1 -1 2 -1 1 -1 2 -2 2 -1 1 -1 
2 -1 1 -1 2 -2 1 -1 2 -1 1 -1 2 -1 1 -2 
2 -1 1 -1 2 -1 1 -1 2 -2 1 -1 2 -1 2 -1 
1 -1 2 -2 1 -1 2 -1 1 -1 2 -1 1 -2 2 -1 
1 -1 2 -1 1 -1 2 -2 1 -1 2 -1 2 -1 1 -1 
2 -2 1 -1 2 -1 1 -1 2 -1 1 -2 2 -1 1 -1 
2 -1 1 -1 2 -2 1 -1 2 -1 1 -1 2 -1 2 -2 
1 -1 2 -1 1 -1 2 -1 1 -2 2 -1 1 -1 2 -1 
1 -1 2 -2 1 -1 2801 3292 100 MP stroke
2 -1 1 -1 2 -1 1 -2 2 -1 2 -1 1 -1 2 -1 
1 -2 2 -1 1 -1 2 -1 1 -1 2 -2 1 -1 2 -1 
1 -1 2 -1 1 -1 2 -2 1 -1 2 -1 2 -1 1 -1 
2 -2 1 -1 2 -1 1 -1 2 -1 1 -2 2 -1 1 -1 
2 -1 1 -1 2 -2 1 -1 2 -1 2 -1 1 -1 2 -1 
1 -2 2 -1 1 -1 2 -1 1 -1 2 -2 1 -1 2 -1 
1 -1 2 -1 1 -1 2 -2 1 -1 2 -1 2 -1 1 -1 
2 -2 1 -1 2 -1 1 -1 2 -1 1 -1 2 -2 1 -1 
2 -1 1 -1 2 -1 1 -2 2 -1 1 -1 2 -1 2 -1 
1 -1 2 -2 1 -1 2 -1 1 -1 2 -1 1 -2 2 -1 
1 -1 2 -1 1 -1 2 -1 1 -2 2 -1 1 -1 2 -1 
2 -1 1 -1 2 -2 1 -1 2 -1 1 -1 2 -1 1 -2 
2 -1 1 -1 2 -1 2649 3409 100 MP stroke
1 -1 2 -1 1 -2 2 -1 2 -1 1 -1 2 -1 1 -1 
2 -2 1 -1 2 -1 1 -1 2 -1 1 -1 2 -2 1 -1 
2 -1 1 -1 2 -1 1 -1 2 -2 2 -1 1 -1 2 -1 
1 -1 2 -2 1 -1 2 -1 1 -1 2 -1 1 -1 2 -2 
1 -1 2 -1 1 -1 2 -1 1 -1 2 -2 2 -1 1 -1 
2 -1 1 -1 2 -1 1 -1 2 -2 1 -1 2 -1 1 -1 
2 -1 1 -1 2 -2 1 -1 2 -1 1 -1 2 -1 2 -1 
1 -2 2 -1 1 -1 2 -1 1 -1 2 -1 1 -2 2 -1 
1 -1 2 -1 1 -1 2 -1 1 -2 2 -1 2 -1 1 -1 
2 -1 1 -1 2 -1 1 -2 2 -1 1 -1 2 -1 1 -1 
2 -1 1 -2 2 -1 1 -1 2 -1 1 -1 2 -1 2 -2 
1 -1 2 -1 1 -1 2 -1 1 -1 2 -1 1 -2 2 -1 
1 -1 2 -1 1 -1 2498 3524 100 MP stroke
2 -1 1 -2 2 -1 1 -1 2 -1 2 -1 1 -1 2 -1 
1 -2 2 -1 1 -1 2 -1 1 -1 2 -1 1 -1 2 -2 
1 -1 2 -1 1 -1 2 -1 1 -1 2 -2 2 -1 1 -1 
2 -1 1 -1 2 -1 1 -1 2 -2 1 -1 2 -1 1 -1 
2 -1 1 -1 2 -1 1 -2 2 -1 2 -1 1 -1 2 -1 
1 -1 2 -1 1 -2 2 -1 1 -1 2 -1 1 -1 2 -1 
1 -1 2 -2 1 -1 2 -1 1 -1 2 -1 2 -1 1 -1 
2 -2 1 -1 2 -1 1 -1 2 -1 1 -1 2 -1 1 -2 
2 -1 1 -1 2 -1 1 -1 2 -1 1 -1 2 -1 2 -2 
1 -1 2 -1 1 -1 2 -1 1 -1 2 -1 1 -2 2 -1 
1 -1 2 -1 1 -1 2 -1 1 -1 2 -2 1 -1 2 -1 
2 -1 1 -1 2 -1 1 -1 2 -1 1 -2 2 -1 1 -1 
2 -1 1 -1 2 -1 2346 3637 100 MP stroke
1 -1 2 -2 1 -1 2 -1 2 -1 1 -1 2 -1 1 -1 
2 -1 1 -2 2 -1 1 -1 2 -1 1 -1 2 -1 1 -1 
2 -1 1 -2 2 -1 1 -1 2 -1 2 -1 1 -1 2 -1 
1 -1 2 -2 1 -1 2 -1 1 -1 2 -1 1 -1 2 -1 
1 -1 2 -2 1 -1 2 -1 1 -1 2 -1 2 -1 1 -1 
2 -1 1 -2 2 -1 1 -1 2 -1 1 -1 2 -1 1 -1 
2 -1 1 -2 2 -1 1 -1 2 -1 1 -1 2 -1 2 -1 
1 -1 2 -1 1 -2 2 -1 1 -1 2 -1 1 -1 2 -1 
1 -1 2 -1 1 -2 2 -1 1 -1 2 -1 1 -1 2 -1 
2 -1 1 -1 2 -1 1 -2 2 -1 1 -1 2 -1 1 -1 
2 -1 1 -1 2 -1 1 -2 2 -1 1 -1 2 -1 2 -1 
1 -1 2 -1 1 -1 2 -1 1 -2 2 -1 1 -1 2 -1 
1 -1 2 -1 1 -1 2195 3748 100 MP stroke
2 -1 1 -1 2 -2 1 -1 2 -1 2 -1 1 -1 2 -1 
1 -1 2 -1 1 -1 2 -1 1 -2 2 -1 1 -1 2 -1 
1 -1 2 -1 1 -1 2 -1 1 -1 2 -2 2 -1 1 -1 
2 -1 1 -1 2 -1 1 -1 2 -1 1 -1 2 -1 1 -2 
2 -1 1 -1 2 -1 1 -1 2 -1 1 -1 2 -1 2 -1 
1 -2 2 -1 1 -1 2 -1 1 -1 2 -1 1 -1 2 -1 
1 -1 2 -1 1 -2 2 -1 1 -1 2 -1 2 -1 1 -1 
2 -1 1 -1 2 -1 1 -1 2 -2 1 -1 2 -1 1 -1 
2 -1 1 -1 2 -1 1 -1 2 -1 1 -1 2 -1 2 -2 
1 -1 2 -1 1 -1 2 -1 1 -1 2 -1 1 -1 2 -1 
1 -1 2 -2 1 -1 2 -1 1 -1 2 -1 1 -1 2 -1 
2 -1 1 -1 2 -1 1 -1 2 -2 1 -1 2 -1 1 -1 
2 -1 1 -1 2 -1 2043 3857 100 MP stroke
1 -1 2 -1 1 -1 2 -1 1 -1 2 -2 2 -1 1 -1 
2 -1 1 -1 2 -1 1 -1 2 -1 1 -1 2 -1 1 -1 
2 -2 1 -1 2 -1 1 -1 2 -1 2 -1 1 -1 2 -1 
1 -1 2 -1 1 -1 2 -1 1 -2 2 -1 1 -1 2 -1 
1 -1 2 -1 1 -1 2 -1 1 -1 2 -1 2 -1 1 -1 
2 -2 1 -1 2 -1 1 -1 2 -1 1 -1 2 -1 1 -1 
2 -1 1 -1 2 -1 1 -1 2 -1 1 -2 2 -1 2 -1 
1 -1 2 -1 1 -1 2 -1 1 -1 2 -1 1 -1 2 -1 
1 -1 2 -1 1 -2 2 -1 1 -1 2 -1 1 -1 2 -1 
2 -1 1 -1 2 -1 1 -1 2 -1 1 -1 2 -1 1 -2 
2 -1 1 -1 2 -1 1 -1 2 -1 1 -1 2 -1 2 -1 
1 -1 2 -1 1 -1 2 -1 1 -1 2 -1 1 -2 2 -1 
1 -1 2 -1 1 -1 1892 3964 100 MP stroke
2 -1 1 -1 2 -1 1 -1 2 -1 2 -1 1 -1 2 -1 
1 -1 2 -2 1 -1 2 -1 1 -1 2 -1 1 -1 2 -1 
1 -1 2 -1 1 -1 2 -1 1 -1 2 -1 2 -1 1 -1 
2 -1 1 -2 2 -1 1 -1 2 -1 1 -1 2 -1 1 -1 
2 -1 1 -1 2 -1 1 -1 2 -1 1 -1 2 -1 2 -1 
1 -1 2 -2 1 -1 2 -1 1 -1 2 -1 1 -1 2 -1 
1 -1 2 -1 1 -1 2 -1 1 -1 2 -1 2 -1 1 -1 
2 -1 1 -1 2 -2 1 -1 2 -1 1 -1 2 -1 1 -1 
2 -1 1 -1 2 -1 1 -1 2 -1 1 -1 2 -1 2 -1 
1 -1 2 -1 1 -1 2 -1 1 -1 2 -2 1 -1 2 -1 
1 -1 2 -1 1 -1 2 -1 1 -1 2 -1 1 -1 2 -1 
2 -1 1 -1 2 -1 1 -1 2 -1 1 -1 2 -1 1 -1 
2 -1 1 -2 2 -1 1740 4069 100 MP stroke
1 -1 2 -1 1 -1 2 -1 1 -1 2 -1 2 -1 1 -1 
2 -1 1 -1 2 -1 1 -1 2 -1 1 -1 2 -1 1 -1 
2 -1 1 -1 2 -1 1 -1 2 -2 2 -1 1 -1 2 -1 
1 -1 2 -1 1 -1 2 -1 1 -1 2 -1 1 -1 2 -1 
1 -1 2 -1 1 -1 2 -1 1 -1 2 -1 2 -1 1 -1 
2 -1 1 -1 2 -1 1 -1 2 -2 1 -1 2 -1 1 -1 
2 -1 1 -1 2 -1 1 -1 2 -1 1 -1 2 -1 2 -1 
1 -1 2 -1 1 -1 2 -1 1 -1 2 -1 1 -1 2 -1 
1 -1 2 -1 1 -1 2 -1 1 -1 2 -1 1 -1 2 -1 
2 -2 1 -1 2 -1 1 -1 2 -1 1 -1 2 -1 1 -1 
2 -1 1 -1 2 -1 1 -1 2 -1 1 -1 2 -1 2 -1 
1 -1 2 -1 1 -1 2 -1 1 -1 2 -1 1 -1 2 -1 
1 -1 2 -1 1 -1 1589 4171 100 MP stroke
2 -1 1 -1 2 -1 1 -1 2 -1 2 -1 1 -1 2 -2 
1 -1 2 -1 1 -1 2 -1 1 -1 2 -1 1 -1 2 -1 
1 -1 2 -1 1 -1 2 -1 1 -1 2 -1 2 -1 1 -1 
2 -1 1 -1 2 -1 1 -1 2 -1 1 -1 2 -1 1 -1 
2 -1 1 -1 2 -1 1 -1 2 -1 1 -1 2 -1 2 -1 
1 -1 2 -1 1 -1 2 -1 1 -1 2 -1 1 -1 2 -1 
1 -1 2 -1 1 -1 2 -1 1 -1 2 -1 2 -2 1 -1 
2 -1 1 -1 2 -1 1 -1 2 -1 1 -1 2 -1 1 -1 
2 -1 1 -1 2 -1 1 -1 2 -1 1 -1 2 -1 2 -1 
1 -1 2 -1 1 -1 2 -1 1 -1 2 -1 1 -1 2 -1 
1 -1 2 -1 1 -1 2 -1 1 -1 2 -1 1 -1 2 -1 
2 -1 1 -1 2 -1 1 -1 2 -1 1 -1 2 -1 1 -1 
2 -1 1 -1 2 -1 1437 4272 100 MP stroke
1 -1 2 -1 1 -1 2 -1 1 -1 2 -1 2 -1 1 -1 
2 -1 1 -1 2 -1 1 -1 2 -1 1 -1 2 -1 1 -1 
2 -1 1 -1 2 -1 1 -1 2 -1 2 -1 1 -1 2 -1 
1 -1 2 -1 1 -1 2 -1 1 -1 2 -1 1 -1 2 -1 
1 -1 2 -1 1 -1 2 -1 1 -1 2 -1 2 -1 1 -1 
2 -1 1 -1 2 -1 1 -1 2 -1 1 -1 2 -1 1 -1 
2 -1 1 -1 2 -1 1 -1 2 -1 1 -1 2 -1 2 -1 
1 -1 2 -1 1 -1 2 -1 1 -1 2 -1 1 -1 2 -1 
1 -1 2 -1 1 -1 2 -1 1 -1 2 -1 1 -1 2 -1 
2 -1 1 -1 2 -1 1 -1 2 -1 1 -1 2 -1 1 -1 
2 -1 1 -1 2 -1 1 -1 2 -1 1 -1 2 -1 2 -1 
1 -1 2 -1 1 -1 2 -1 1 -1 2 -1 1 -1 2 -1 
1 -1 2 -1 1 -1 1286 4371 100 MP stroke
2 -1 1 -1 2 -1 1 -1 2 -1 2 -1 1 -1 2 -1 
1 -1 2 -1 1 -1 2 -1 1 -1 2 -1 1 -1 2 -1 
1 -1 2 -1 1 -1 2 -1 1 0 2 -1 2 -1 1 -1 
2 -1 1 -1 2 -1 1 -1 2 -1 1 -1 2 -1 1 -1 
2 -1 1 -1 2 -1 1 -1 2 -1 1 -1 2 -1 2 -1 
1 -1 2 -1 1 -1 2 -1 1 -1 2 -1 1 -1 2 -1 
1 -1 2 -1 1 -1 2 -1 1 -1 2 -1 2 -1 1 -1 
2 -1 1 -1 2 -1 1 -1 2 -1 1 -1 2 -1 1 -1 
2 -1 1 -1 2 -1 1 -1 2 0 1 -1 2 -1 2 -1 
1 -1 2 -1 1 -1 2 -1 1 -1 2 -1 1 -1 2 -1 
1 -1 2 -1 1 -1 2 -1 1 -1 2 -1 1 -1 2 -1 
2 -1 1 -1 2 -1 1 -1 2 -1 1 -1 2 -1 1 -1 
2 -1 1 -1 2 -1 1134 4468 100 MP stroke
1 -1 2 -1 1 -1 2 0 1 -1 2 -1 2 -1 1 -1 
2 -1 1 -1 2 -1 1 -1 2 -1 1 -1 2 -1 1 -1 
2 -1 1 -1 2 -1 1 -1 2 -1 2 -1 1 -1 2 -1 
1 -1 2 -1 1 -1 2 -1 1 -1 2 -1 1 -1 2 -1 
1 0 2 -1 1 -1 2 -1 1 -1 2 -1 2 -1 1 -1 
2 -1 1 -1 2 -1 1 -1 2 -1 1 -1 2 -1 1 -1 
2 -1 1 -1 2 -1 1 -1 2 -1 1 -1 2 -1 2 -1 
1 -1 2 0 1 -1 2 -1 1 -1 2 -1 1 -1 2 -1 
1 -1 2 -1 1 -1 2 -1 1 -1 2 -1 1 -1 2 -1 
2 -1 1 -1 2 -1 1 -1 2 -1 1 -1 2 -1 1 0 
2 -1 1 -1 2 -1 1 -1 2 -1 1 -1 2 -1 2 -1 
1 -1 2 -1 1 -1 2 -1 1 -1 2 -1 1 -1 2 -1 
1 -1 2 -1 1 -1 983 4563 100 MP stroke
2 -1 1 0 2 -1 1 -1 2 -1 2 -1 1 -1 2 -1 
1 -1 2 -1 1 -1 2 -1 1 -1 2 -1 1 -1 2 -1 
1 -1 2 -1 1 -1 2 -1 1 0 2 -1 2 -1 1 -1 
2 -1 1 -1 2 -1 1 -1 2 -1 1 -1 2 -1 1 -1 
2 -1 1 -1 2 -1 1 -1 2 -1 1 -1 2 0 2 -1 
1 -1 2 -1 1 -1 2 -1 1 -1 2 -1 1 -1 2 -1 
1 -1 2 -1 1 -1 2 -1 1 -1 2 -1 1 -1 899 4615 56 MP stroke
gr

24 w
c8
0 sg
3229 4903 mt 
(Dist\342ncia [m]) s
 616 2770 mt  -90 rotate
(Threshold) s
90 rotate
2345  294 mt 
(Perda de Mensagens em Fun\347\343o da Dist\342ncia) s
6 w

end %%Color Dict

eplot
%%EndObject

epage
end

showpage

%%Trailer
%%EOF
