%!PS-Adobe-2.0 EPSF-1.2
%%Creator: MATLAB, The Mathworks, Inc. Version 7.9.0.529 (R2009b). Operating System: Darwin 10.8.0 Darwin Kernel Version 10.8.0: Tue Jun  7 16:33:36 PDT 2011; root:xnu-1504.15.3~1/RELEASE_I386 i386.
%%Title: ./vD_vV_falhas_tempos_veiculos_zoom.eps
%%CreationDate: 08/28/2011  01:52:35
%%DocumentNeededFonts: Helvetica
%%DocumentProcessColors: Cyan Magenta Yellow Black
%%Extensions: CMYK
%%Pages: 1
%%BoundingBox:    60   186   563   595
%%EndComments

%%BeginProlog
% MathWorks dictionary
/MathWorks 160 dict begin
% definition operators
/bdef {bind def} bind def
/ldef {load def} bind def
/xdef {exch def} bdef
/xstore {exch store} bdef
% operator abbreviations
/c  /clip ldef
/cc /concat ldef
/cp /closepath ldef
/gr /grestore ldef
/gs /gsave ldef
/mt /moveto ldef
/np /newpath ldef
/cm /currentmatrix ldef
/sm /setmatrix ldef
/rm /rmoveto ldef
/rl /rlineto ldef
/s {show newpath} bdef
/sc {setcmykcolor} bdef
/sr /setrgbcolor ldef
/sg /setgray ldef
/w /setlinewidth ldef
/j /setlinejoin ldef
/cap /setlinecap ldef
/rc {rectclip} bdef
/rf {rectfill} bdef
% page state control
/pgsv () def
/bpage {/pgsv save def} bdef
/epage {pgsv restore} bdef
/bplot /gsave ldef
/eplot {stroke grestore} bdef
% orientation switch
/portraitMode 0 def /landscapeMode 1 def /rotateMode 2 def
% coordinate system mappings
/dpi2point 0 def
% font control
/FontSize 0 def
/FMS {/FontSize xstore findfont [FontSize 0 0 FontSize neg 0 0]
  makefont setfont} bdef
/reencode {exch dup where {pop load} {pop StandardEncoding} ifelse
  exch dup 3 1 roll findfont dup length dict begin
  { 1 index /FID ne {def}{pop pop} ifelse } forall
  /Encoding exch def currentdict end definefont pop} bdef
/isroman {findfont /CharStrings get /Agrave known} bdef
/FMSR {3 1 roll 1 index dup isroman {reencode} {pop pop} ifelse
  exch FMS} bdef
/csm {1 dpi2point div -1 dpi2point div scale neg translate
 dup landscapeMode eq {pop -90 rotate}
  {rotateMode eq {90 rotate} if} ifelse} bdef
% line types: solid, dotted, dashed, dotdash
/SO { [] 0 setdash } bdef
/DO { [.5 dpi2point mul 4 dpi2point mul] 0 setdash } bdef
/DA { [6 dpi2point mul] 0 setdash } bdef
/DD { [.5 dpi2point mul 4 dpi2point mul 6 dpi2point mul 4
  dpi2point mul] 0 setdash } bdef
% macros for lines and objects
/L {lineto stroke} bdef
/MP {3 1 roll moveto 1 sub {rlineto} repeat} bdef
/AP {{rlineto} repeat} bdef
/PDlw -1 def
/W {/PDlw currentlinewidth def setlinewidth} def
/PP {closepath eofill} bdef
/DP {closepath stroke} bdef
/MR {4 -2 roll moveto dup  0 exch rlineto exch 0 rlineto
  neg 0 exch rlineto closepath} bdef
/FR {MR stroke} bdef
/PR {MR fill} bdef
/L1i {{currentfile picstr readhexstring pop} image} bdef
/tMatrix matrix def
/MakeOval {newpath tMatrix currentmatrix pop translate scale
0 0 1 0 360 arc tMatrix setmatrix} bdef
/FO {MakeOval stroke} bdef
/PO {MakeOval fill} bdef
/PD {currentlinewidth 2 div 0 360 arc fill
   PDlw -1 eq not {PDlw w /PDlw -1 def} if} def
/FA {newpath tMatrix currentmatrix pop translate scale
  0 0 1 5 -2 roll arc tMatrix setmatrix stroke} bdef
/PA {newpath tMatrix currentmatrix pop	translate 0 0 moveto scale
  0 0 1 5 -2 roll arc closepath tMatrix setmatrix fill} bdef
/FAn {newpath tMatrix currentmatrix pop translate scale
  0 0 1 5 -2 roll arcn tMatrix setmatrix stroke} bdef
/PAn {newpath tMatrix currentmatrix pop translate 0 0 moveto scale
  0 0 1 5 -2 roll arcn closepath tMatrix setmatrix fill} bdef
/vradius 0 def /hradius 0 def /lry 0 def
/lrx 0 def /uly 0 def /ulx 0 def /rad 0 def
/MRR {/vradius xdef /hradius xdef /lry xdef /lrx xdef /uly xdef
  /ulx xdef newpath tMatrix currentmatrix pop ulx hradius add uly
  vradius add translate hradius vradius scale 0 0 1 180 270 arc 
  tMatrix setmatrix lrx hradius sub uly vradius add translate
  hradius vradius scale 0 0 1 270 360 arc tMatrix setmatrix
  lrx hradius sub lry vradius sub translate hradius vradius scale
  0 0 1 0 90 arc tMatrix setmatrix ulx hradius add lry vradius sub
  translate hradius vradius scale 0 0 1 90 180 arc tMatrix setmatrix
  closepath} bdef
/FRR {MRR stroke } bdef
/PRR {MRR fill } bdef
/MlrRR {/lry xdef /lrx xdef /uly xdef /ulx xdef /rad lry uly sub 2 div def
  newpath tMatrix currentmatrix pop ulx rad add uly rad add translate
  rad rad scale 0 0 1 90 270 arc tMatrix setmatrix lrx rad sub lry rad
  sub translate rad rad scale 0 0 1 270 90 arc tMatrix setmatrix
  closepath} bdef
/FlrRR {MlrRR stroke } bdef
/PlrRR {MlrRR fill } bdef
/MtbRR {/lry xdef /lrx xdef /uly xdef /ulx xdef /rad lrx ulx sub 2 div def
  newpath tMatrix currentmatrix pop ulx rad add uly rad add translate
  rad rad scale 0 0 1 180 360 arc tMatrix setmatrix lrx rad sub lry rad
  sub translate rad rad scale 0 0 1 0 180 arc tMatrix setmatrix
  closepath} bdef
/FtbRR {MtbRR stroke } bdef
/PtbRR {MtbRR fill } bdef
/stri 6 array def /dtri 6 array def
/smat 6 array def /dmat 6 array def
/tmat1 6 array def /tmat2 6 array def /dif 3 array def
/asub {/ind2 exch def /ind1 exch def dup dup
  ind1 get exch ind2 get sub exch } bdef
/tri_to_matrix {
  2 0 asub 3 1 asub 4 0 asub 5 1 asub
  dup 0 get exch 1 get 7 -1 roll astore } bdef
/compute_transform {
  dmat dtri tri_to_matrix tmat1 invertmatrix 
  smat stri tri_to_matrix tmat2 concatmatrix } bdef
/ds {stri astore pop} bdef
/dt {dtri astore pop} bdef
/db {2 copy /cols xdef /rows xdef mul dup 3 mul string
  currentfile exch readhexstring pop
  dup 0 3 index getinterval /rbmap xdef
  dup 2 index dup getinterval /gbmap xdef
  1 index dup 2 mul exch getinterval /bbmap xdef pop pop}bdef
/it {gs np dtri aload pop moveto lineto lineto cp c
  cols rows 8 compute_transform 
  rbmap gbmap bbmap true 3 colorimage gr}bdef
/il {newpath moveto lineto stroke}bdef
currentdict end def
%%EndProlog

%%BeginSetup
MathWorks begin

0 cap

end
%%EndSetup

%%Page: 1 1
%%BeginPageSetup
%%PageBoundingBox:    60   186   563   595
MathWorks begin
bpage
%%EndPageSetup

%%BeginObject: obj1
bplot

/dpi2point 12 def
portraitMode 0216 7344 csm

  510   202  6030  4910 MR c np
89 dict begin %Colortable dictionary
/c0 { 0.000000 0.000000 0.000000 sr} bdef
/c1 { 1.000000 1.000000 1.000000 sr} bdef
/c2 { 0.900000 0.000000 0.000000 sr} bdef
/c3 { 0.000000 0.820000 0.000000 sr} bdef
/c4 { 0.000000 0.000000 0.800000 sr} bdef
/c5 { 0.910000 0.820000 0.320000 sr} bdef
/c6 { 1.000000 0.260000 0.820000 sr} bdef
/c7 { 0.000000 0.820000 0.820000 sr} bdef
c0
1 j
1 sg
   0    0 6913 5186 PR
6 w
0 613 5356 0 0 -613 899 1094 4 MP
PP
-5356 0 0 613 5356 0 0 -613 899 1094 5 MP stroke
4 w
DO
0 sg
 899 1094 mt  899  481 L
 899  481 mt  899  481 L
1434 1094 mt 1434  481 L
1434  481 mt 1434  481 L
1970 1094 mt 1970  481 L
1970  481 mt 1970  481 L
2505 1094 mt 2505  481 L
2505  481 mt 2505  481 L
3041 1094 mt 3041  481 L
3041  481 mt 3041  481 L
3577 1094 mt 3577  481 L
3577  481 mt 3577  481 L
4112 1094 mt 4112  481 L
4112  481 mt 4112  481 L
4648 1094 mt 4648  481 L
4648  481 mt 4648  481 L
5183 1094 mt 5183  481 L
5183  481 mt 5183  481 L
5719 1094 mt 5719  481 L
5719  481 mt 5719  481 L
6255 1094 mt 6255  481 L
6255  481 mt 6255  481 L
 899 1094 mt 6255 1094 L
6255 1094 mt 6255 1094 L
 899  787 mt 6255  787 L
6255  787 mt 6255  787 L
 899  481 mt 6255  481 L
6255  481 mt 6255  481 L
SO
6 w
 899 1094 mt 6255 1094 L
 899  481 mt 6255  481 L
 899 1094 mt  899  481 L
6255 1094 mt 6255  481 L
 899 1094 mt 6255 1094 L
 899 1094 mt  899  481 L
 899 1094 mt  899 1040 L
 899  481 mt  899  534 L
%%IncludeResource: font Helvetica
/Helvetica /ISOLatin1Encoding 120 FMSR

 833 1239 mt 
(70) s
1434 1094 mt 1434 1040 L
1434  481 mt 1434  534 L
1368 1239 mt 
(71) s
1970 1094 mt 1970 1040 L
1970  481 mt 1970  534 L
1904 1239 mt 
(72) s
2505 1094 mt 2505 1040 L
2505  481 mt 2505  534 L
2439 1239 mt 
(73) s
3041 1094 mt 3041 1040 L
3041  481 mt 3041  534 L
2975 1239 mt 
(74) s
3577 1094 mt 3577 1040 L
3577  481 mt 3577  534 L
3511 1239 mt 
(75) s
4112 1094 mt 4112 1040 L
4112  481 mt 4112  534 L
4046 1239 mt 
(76) s
4648 1094 mt 4648 1040 L
4648  481 mt 4648  534 L
4582 1239 mt 
(77) s
5183 1094 mt 5183 1040 L
5183  481 mt 5183  534 L
5117 1239 mt 
(78) s
5719 1094 mt 5719 1040 L
5719  481 mt 5719  534 L
5653 1239 mt 
(79) s
6255 1094 mt 6255 1040 L
6255  481 mt 6255  534 L
6189 1239 mt 
(80) s
 899 1094 mt  952 1094 L
6255 1094 mt 6201 1094 L
 728 1138 mt 
(-2) s
 899  787 mt  952  787 L
6255  787 mt 6201  787 L
 798  831 mt 
(0) s
 899  481 mt  952  481 L
6255  481 mt 6201  481 L
 798  525 mt 
(2) s
 899 1094 mt 6255 1094 L
 899  481 mt 6255  481 L
 899 1094 mt  899  481 L
6255 1094 mt 6255  481 L
gs 899 481 5357 614 MR c np
12 w
gr

12 w
gs 826 867 5504 147 MR c np
/c8 { 0.000000 1.000000 1.000000 sr} bdef
c8
  36   36 1016  940 FO
  36   36 1691  940 FO
  36   36 1830  940 FO
  36   36 1970  940 FO
  36   36 2109  940 FO
  36   36 2248  940 FO
  36   36 2387  940 FO
  36   36 2527  940 FO
  36   36 2666  940 FO
  36   36 2805  940 FO
  36   36 2944  940 FO
  36   36 3625  940 FO
  36   36 3764  940 FO
  36   36 3903  940 FO
  36   36 4042  940 FO
  36   36 4723  940 FO
  36   36 5403  940 FO
  36   36 5542  940 FO
  36   36 5681  940 FO
  36   36 5821  940 FO
  36   36 5960  940 FO
  36   36 6099  940 FO
  36   36 6238  940 FO
gr

c8
gs 899 481 5357 614 MR c np
DA
0 153 1016 787 2 MP stroke
0 153 1691 787 2 MP stroke
0 153 1830 787 2 MP stroke
0 153 1970 787 2 MP stroke
0 153 2109 787 2 MP stroke
0 153 2248 787 2 MP stroke
0 153 2387 787 2 MP stroke
0 153 2527 787 2 MP stroke
0 153 2666 787 2 MP stroke
0 153 2805 787 2 MP stroke
0 153 2944 787 2 MP stroke
0 153 3625 787 2 MP stroke
0 153 3764 787 2 MP stroke
0 153 3903 787 2 MP stroke
0 153 4042 787 2 MP stroke
0 153 4723 787 2 MP stroke
0 153 5403 787 2 MP stroke
0 153 5542 787 2 MP stroke
0 153 5681 787 2 MP stroke
0 153 5821 787 2 MP stroke
0 153 5960 787 2 MP stroke
0 153 6099 787 2 MP stroke
0 153 6238 787 2 MP stroke
SO
6 w
0 sg
5356 0 899 787 2 MP stroke
12 w
gr

0 sg
gs 826 867 5504 147 MR c np
/c9 { 1.000000 0.000000 0.000000 sr} bdef
c9
 920  940 mt  992  940 L
 956  904 mt  956  976 L
1060  940 mt 1132  940 L
1096  904 mt 1096  976 L
1735  940 mt 1807  940 L
1771  904 mt 1771  976 L
1874  940 mt 1946  940 L
1910  904 mt 1910  976 L
2014  940 mt 2086  940 L
2050  904 mt 2050  976 L
2153  940 mt 2225  940 L
2189  904 mt 2189  976 L
2292  940 mt 2364  940 L
2328  904 mt 2328  976 L
2432  940 mt 2504  940 L
2468  904 mt 2468  976 L
2571  940 mt 2643  940 L
2607  904 mt 2607  976 L
2710  940 mt 2782  940 L
2746  904 mt 2746  976 L
2850  940 mt 2922  940 L
2886  904 mt 2886  976 L
2989  940 mt 3061  940 L
3025  904 mt 3025  976 L
3669  940 mt 3741  940 L
3705  904 mt 3705  976 L
3809  940 mt 3881  940 L
3845  904 mt 3845  976 L
3948  940 mt 4020  940 L
3984  904 mt 3984  976 L
4087  940 mt 4159  940 L
4123  904 mt 4123  976 L
4768  940 mt 4840  940 L
4804  904 mt 4804  976 L
5449  940 mt 5521  940 L
5485  904 mt 5485  976 L
5588  940 mt 5660  940 L
5624  904 mt 5624  976 L
5727  940 mt 5799  940 L
5763  904 mt 5763  976 L
5867  940 mt 5939  940 L
5903  904 mt 5903  976 L
6006  940 mt 6078  940 L
6042  904 mt 6042  976 L
6145  940 mt 6217  940 L
6181  904 mt 6181  976 L
 931  915 mt  981  965 L
 981  915 mt  931  965 L
1071  915 mt 1121  965 L
1121  915 mt 1071  965 L
1746  915 mt 1796  965 L
1796  915 mt 1746  965 L
1885  915 mt 1935  965 L
1935  915 mt 1885  965 L
2025  915 mt 2075  965 L
2075  915 mt 2025  965 L
2164  915 mt 2214  965 L
2214  915 mt 2164  965 L
2303  915 mt 2353  965 L
2353  915 mt 2303  965 L
2443  915 mt 2493  965 L
2493  915 mt 2443  965 L
2582  915 mt 2632  965 L
2632  915 mt 2582  965 L
2721  915 mt 2771  965 L
2771  915 mt 2721  965 L
2861  915 mt 2911  965 L
2911  915 mt 2861  965 L
3000  915 mt 3050  965 L
3050  915 mt 3000  965 L
3680  915 mt 3730  965 L
3730  915 mt 3680  965 L
3820  915 mt 3870  965 L
3870  915 mt 3820  965 L
3959  915 mt 4009  965 L
4009  915 mt 3959  965 L
4098  915 mt 4148  965 L
4148  915 mt 4098  965 L
4779  915 mt 4829  965 L
4829  915 mt 4779  965 L
5460  915 mt 5510  965 L
5510  915 mt 5460  965 L
5599  915 mt 5649  965 L
5649  915 mt 5599  965 L
5738  915 mt 5788  965 L
5788  915 mt 5738  965 L
5878  915 mt 5928  965 L
5928  915 mt 5878  965 L
6017  915 mt 6067  965 L
6067  915 mt 6017  965 L
6156  915 mt 6206  965 L
6206  915 mt 6156  965 L
gr

c9
gs 899 481 5357 614 MR c np
0 153 956 787 2 MP stroke
0 153 1096 787 2 MP stroke
0 153 1771 787 2 MP stroke
0 153 1910 787 2 MP stroke
0 153 2050 787 2 MP stroke
0 153 2189 787 2 MP stroke
0 153 2328 787 2 MP stroke
0 153 2468 787 2 MP stroke
0 153 2607 787 2 MP stroke
0 153 2746 787 2 MP stroke
0 153 2886 787 2 MP stroke
0 153 3025 787 2 MP stroke
0 153 3705 787 2 MP stroke
0 153 3845 787 2 MP stroke
0 153 3984 787 2 MP stroke
0 153 4123 787 2 MP stroke
0 153 4804 787 2 MP stroke
0 153 5485 787 2 MP stroke
0 153 5624 787 2 MP stroke
0 153 5763 787 2 MP stroke
0 153 5903 787 2 MP stroke
0 153 6042 787 2 MP stroke
0 153 6181 787 2 MP stroke
gr

gs 826 561 5504 147 MR c np
/c10 { 0.000000 0.000000 1.000000 sr} bdef
c10
  36   36 1006  634 FO
  36   36 1145  634 FO
  36   36 1820  634 FO
  36   36 1959  634 FO
  36   36 2098  634 FO
  36   36 2238  634 FO
  36   36 2377  634 FO
  36   36 2516  634 FO
  36   36 2655  634 FO
  36   36 2795  634 FO
  36   36 2934  634 FO
  36   36 3078  634 FO
  36   36 3759  634 FO
  36   36 3898  634 FO
  36   36 4037  634 FO
  36   36 4176  634 FO
  36   36 4857  634 FO
  36   36 5537  634 FO
  36   36 5676  634 FO
  36   36 5815  634 FO
  36   36 5955  634 FO
  36   36 6094  634 FO
  36   36 6233  634 FO
gr

c10
gs 899 481 5357 614 MR c np
DA
0 -153 1006 787 2 MP stroke
0 -153 1145 787 2 MP stroke
0 -153 1820 787 2 MP stroke
0 -153 1959 787 2 MP stroke
0 -153 2098 787 2 MP stroke
0 -153 2238 787 2 MP stroke
0 -153 2377 787 2 MP stroke
0 -153 2516 787 2 MP stroke
0 -153 2655 787 2 MP stroke
0 -153 2795 787 2 MP stroke
0 -153 2934 787 2 MP stroke
0 -153 3078 787 2 MP stroke
0 -153 3759 787 2 MP stroke
0 -153 3898 787 2 MP stroke
0 -153 4037 787 2 MP stroke
0 -153 4176 787 2 MP stroke
0 -153 4857 787 2 MP stroke
0 -153 5537 787 2 MP stroke
0 -153 5676 787 2 MP stroke
0 -153 5815 787 2 MP stroke
0 -153 5955 787 2 MP stroke
0 -153 6094 787 2 MP stroke
0 -153 6233 787 2 MP stroke
gr

DA
0 sg
3316 1382 mt 
(Tempo [s]) s
 646  921 mt  -90 rotate
(Sinal) s
90 rotate
2677  386 mt 
(Troca de Mensagens do Ve\355culo 2) s
SO
6 w
1 sg
0 613 5356 0 0 -613 899 2230 4 MP
PP
-5356 0 0 613 5356 0 0 -613 899 2230 5 MP stroke
4 w
DO
0 sg
 899 2230 mt  899 1617 L
 899 1617 mt  899 1617 L
1434 2230 mt 1434 1617 L
1434 1617 mt 1434 1617 L
1970 2230 mt 1970 1617 L
1970 1617 mt 1970 1617 L
2505 2230 mt 2505 1617 L
2505 1617 mt 2505 1617 L
3041 2230 mt 3041 1617 L
3041 1617 mt 3041 1617 L
3577 2230 mt 3577 1617 L
3577 1617 mt 3577 1617 L
4112 2230 mt 4112 1617 L
4112 1617 mt 4112 1617 L
4648 2230 mt 4648 1617 L
4648 1617 mt 4648 1617 L
5183 2230 mt 5183 1617 L
5183 1617 mt 5183 1617 L
5719 2230 mt 5719 1617 L
5719 1617 mt 5719 1617 L
6255 2230 mt 6255 1617 L
6255 1617 mt 6255 1617 L
 899 2230 mt 6255 2230 L
6255 2230 mt 6255 2230 L
 899 1923 mt 6255 1923 L
6255 1923 mt 6255 1923 L
 899 1617 mt 6255 1617 L
6255 1617 mt 6255 1617 L
SO
6 w
 899 2230 mt 6255 2230 L
 899 1617 mt 6255 1617 L
 899 2230 mt  899 1617 L
6255 2230 mt 6255 1617 L
 899 2230 mt 6255 2230 L
 899 2230 mt  899 1617 L
 899 2230 mt  899 2176 L
 899 1617 mt  899 1670 L
 833 2375 mt 
(70) s
1434 2230 mt 1434 2176 L
1434 1617 mt 1434 1670 L
1368 2375 mt 
(71) s
1970 2230 mt 1970 2176 L
1970 1617 mt 1970 1670 L
1904 2375 mt 
(72) s
2505 2230 mt 2505 2176 L
2505 1617 mt 2505 1670 L
2439 2375 mt 
(73) s
3041 2230 mt 3041 2176 L
3041 1617 mt 3041 1670 L
2975 2375 mt 
(74) s
3577 2230 mt 3577 2176 L
3577 1617 mt 3577 1670 L
3511 2375 mt 
(75) s
4112 2230 mt 4112 2176 L
4112 1617 mt 4112 1670 L
4046 2375 mt 
(76) s
4648 2230 mt 4648 2176 L
4648 1617 mt 4648 1670 L
4582 2375 mt 
(77) s
5183 2230 mt 5183 2176 L
5183 1617 mt 5183 1670 L
5117 2375 mt 
(78) s
5719 2230 mt 5719 2176 L
5719 1617 mt 5719 1670 L
5653 2375 mt 
(79) s
6255 2230 mt 6255 2176 L
6255 1617 mt 6255 1670 L
6189 2375 mt 
(80) s
 899 2230 mt  952 2230 L
6255 2230 mt 6201 2230 L
 728 2274 mt 
(-2) s
 899 1923 mt  952 1923 L
6255 1923 mt 6201 1923 L
 798 1967 mt 
(0) s
 899 1617 mt  952 1617 L
6255 1617 mt 6201 1617 L
 798 1661 mt 
(2) s
 899 2230 mt 6255 2230 L
 899 1617 mt 6255 1617 L
 899 2230 mt  899 1617 L
6255 2230 mt 6255 1617 L
gs 899 1617 5357 614 MR c np
12 w
gr

12 w
gs 826 2003 5504 147 MR c np
c8
  36   36 1016 2076 FO
  36   36 1691 2076 FO
  36   36 1830 2076 FO
  36   36 1970 2076 FO
  36   36 2109 2076 FO
  36   36 2248 2076 FO
  36   36 2387 2076 FO
  36   36 2527 2076 FO
  36   36 2666 2076 FO
  36   36 2805 2076 FO
  36   36 2944 2076 FO
  36   36 3625 2076 FO
  36   36 3764 2076 FO
  36   36 3903 2076 FO
  36   36 4042 2076 FO
  36   36 4723 2076 FO
  36   36 5403 2076 FO
  36   36 5542 2076 FO
  36   36 5681 2076 FO
  36   36 5821 2076 FO
  36   36 5960 2076 FO
  36   36 6099 2076 FO
  36   36 6238 2076 FO
gr

c8
gs 899 1617 5357 614 MR c np
DA
0 153 1016 1923 2 MP stroke
0 153 1691 1923 2 MP stroke
0 153 1830 1923 2 MP stroke
0 153 1970 1923 2 MP stroke
0 153 2109 1923 2 MP stroke
0 153 2248 1923 2 MP stroke
0 153 2387 1923 2 MP stroke
0 153 2527 1923 2 MP stroke
0 153 2666 1923 2 MP stroke
0 153 2805 1923 2 MP stroke
0 153 2944 1923 2 MP stroke
0 153 3625 1923 2 MP stroke
0 153 3764 1923 2 MP stroke
0 153 3903 1923 2 MP stroke
0 153 4042 1923 2 MP stroke
0 153 4723 1923 2 MP stroke
0 153 5403 1923 2 MP stroke
0 153 5542 1923 2 MP stroke
0 153 5681 1923 2 MP stroke
0 153 5821 1923 2 MP stroke
0 153 5960 1923 2 MP stroke
0 153 6099 1923 2 MP stroke
0 153 6238 1923 2 MP stroke
SO
6 w
0 sg
5356 0 899 1923 2 MP stroke
12 w
gr

0 sg
gs 826 2003 5504 147 MR c np
c9
 921 2076 mt  993 2076 L
 957 2040 mt  957 2112 L
1061 2076 mt 1133 2076 L
1097 2040 mt 1097 2112 L
1736 2076 mt 1808 2076 L
1772 2040 mt 1772 2112 L
1875 2076 mt 1947 2076 L
1911 2040 mt 1911 2112 L
2014 2076 mt 2086 2076 L
2050 2040 mt 2050 2112 L
2154 2076 mt 2226 2076 L
2190 2040 mt 2190 2112 L
2293 2076 mt 2365 2076 L
2329 2040 mt 2329 2112 L
2432 2076 mt 2504 2076 L
2468 2040 mt 2468 2112 L
2572 2076 mt 2644 2076 L
2608 2040 mt 2608 2112 L
2711 2076 mt 2783 2076 L
2747 2040 mt 2747 2112 L
2850 2076 mt 2922 2076 L
2886 2040 mt 2886 2112 L
3670 2076 mt 3742 2076 L
3706 2040 mt 3706 2112 L
3810 2076 mt 3882 2076 L
3846 2040 mt 3846 2112 L
3949 2076 mt 4021 2076 L
3985 2040 mt 3985 2112 L
4088 2076 mt 4160 2076 L
4124 2040 mt 4124 2112 L
4769 2076 mt 4841 2076 L
4805 2040 mt 4805 2112 L
5450 2076 mt 5522 2076 L
5486 2040 mt 5486 2112 L
5589 2076 mt 5661 2076 L
5625 2040 mt 5625 2112 L
5728 2076 mt 5800 2076 L
5764 2040 mt 5764 2112 L
5868 2076 mt 5940 2076 L
5904 2040 mt 5904 2112 L
6007 2076 mt 6079 2076 L
6043 2040 mt 6043 2112 L
6146 2076 mt 6218 2076 L
6182 2040 mt 6182 2112 L
 932 2051 mt  982 2101 L
 982 2051 mt  932 2101 L
1072 2051 mt 1122 2101 L
1122 2051 mt 1072 2101 L
1747 2051 mt 1797 2101 L
1797 2051 mt 1747 2101 L
1886 2051 mt 1936 2101 L
1936 2051 mt 1886 2101 L
2025 2051 mt 2075 2101 L
2075 2051 mt 2025 2101 L
2165 2051 mt 2215 2101 L
2215 2051 mt 2165 2101 L
2304 2051 mt 2354 2101 L
2354 2051 mt 2304 2101 L
2443 2051 mt 2493 2101 L
2493 2051 mt 2443 2101 L
2583 2051 mt 2633 2101 L
2633 2051 mt 2583 2101 L
2722 2051 mt 2772 2101 L
2772 2051 mt 2722 2101 L
2861 2051 mt 2911 2101 L
2911 2051 mt 2861 2101 L
3681 2051 mt 3731 2101 L
3731 2051 mt 3681 2101 L
3821 2051 mt 3871 2101 L
3871 2051 mt 3821 2101 L
3960 2051 mt 4010 2101 L
4010 2051 mt 3960 2101 L
4099 2051 mt 4149 2101 L
4149 2051 mt 4099 2101 L
4780 2051 mt 4830 2101 L
4830 2051 mt 4780 2101 L
5461 2051 mt 5511 2101 L
5511 2051 mt 5461 2101 L
5600 2051 mt 5650 2101 L
5650 2051 mt 5600 2101 L
5739 2051 mt 5789 2101 L
5789 2051 mt 5739 2101 L
5879 2051 mt 5929 2101 L
5929 2051 mt 5879 2101 L
6018 2051 mt 6068 2101 L
6068 2051 mt 6018 2101 L
6157 2051 mt 6207 2101 L
6207 2051 mt 6157 2101 L
gr

c9
gs 899 1617 5357 614 MR c np
0 153 957 1923 2 MP stroke
0 153 1097 1923 2 MP stroke
0 153 1772 1923 2 MP stroke
0 153 1911 1923 2 MP stroke
0 153 2050 1923 2 MP stroke
0 153 2190 1923 2 MP stroke
0 153 2329 1923 2 MP stroke
0 153 2468 1923 2 MP stroke
0 153 2608 1923 2 MP stroke
0 153 2747 1923 2 MP stroke
0 153 2886 1923 2 MP stroke
0 153 3706 1923 2 MP stroke
0 153 3846 1923 2 MP stroke
0 153 3985 1923 2 MP stroke
0 153 4124 1923 2 MP stroke
0 153 4805 1923 2 MP stroke
0 153 5486 1923 2 MP stroke
0 153 5625 1923 2 MP stroke
0 153 5764 1923 2 MP stroke
0 153 5904 1923 2 MP stroke
0 153 6043 1923 2 MP stroke
0 153 6182 1923 2 MP stroke
gr

gs 826 1697 5504 147 MR c np
c10
  36   36 1006 1770 FO
  36   36 1145 1770 FO
  36   36 1825 1770 FO
  36   36 1964 1770 FO
  36   36 2104 1770 FO
  36   36 2243 1770 FO
  36   36 2382 1770 FO
  36   36 2521 1770 FO
  36   36 2661 1770 FO
  36   36 2800 1770 FO
  36   36 2939 1770 FO
  36   36 3759 1770 FO
  36   36 3898 1770 FO
  36   36 4037 1770 FO
  36   36 4176 1770 FO
  36   36 4857 1770 FO
  36   36 5537 1770 FO
  36   36 5676 1770 FO
  36   36 5815 1770 FO
  36   36 5955 1770 FO
  36   36 6094 1770 FO
  36   36 6233 1770 FO
gr

c10
gs 899 1617 5357 614 MR c np
DA
0 -153 1006 1923 2 MP stroke
0 -153 1145 1923 2 MP stroke
0 -153 1825 1923 2 MP stroke
0 -153 1964 1923 2 MP stroke
0 -153 2104 1923 2 MP stroke
0 -153 2243 1923 2 MP stroke
0 -153 2382 1923 2 MP stroke
0 -153 2521 1923 2 MP stroke
0 -153 2661 1923 2 MP stroke
0 -153 2800 1923 2 MP stroke
0 -153 2939 1923 2 MP stroke
0 -153 3759 1923 2 MP stroke
0 -153 3898 1923 2 MP stroke
0 -153 4037 1923 2 MP stroke
0 -153 4176 1923 2 MP stroke
0 -153 4857 1923 2 MP stroke
0 -153 5537 1923 2 MP stroke
0 -153 5676 1923 2 MP stroke
0 -153 5815 1923 2 MP stroke
0 -153 5955 1923 2 MP stroke
0 -153 6094 1923 2 MP stroke
0 -153 6233 1923 2 MP stroke
gr

DA
0 sg
3316 2518 mt 
(Tempo [s]) s
 646 2057 mt  -90 rotate
(Sinal) s
90 rotate
2677 1522 mt 
(Troca de Mensagens do Ve\355culo 3) s
SO
6 w
1 sg
0 613 5356 0 0 -613 899 3366 4 MP
PP
-5356 0 0 613 5356 0 0 -613 899 3366 5 MP stroke
4 w
DO
0 sg
 899 3366 mt  899 2753 L
 899 2753 mt  899 2753 L
1434 3366 mt 1434 2753 L
1434 2753 mt 1434 2753 L
1970 3366 mt 1970 2753 L
1970 2753 mt 1970 2753 L
2505 3366 mt 2505 2753 L
2505 2753 mt 2505 2753 L
3041 3366 mt 3041 2753 L
3041 2753 mt 3041 2753 L
3577 3366 mt 3577 2753 L
3577 2753 mt 3577 2753 L
4112 3366 mt 4112 2753 L
4112 2753 mt 4112 2753 L
4648 3366 mt 4648 2753 L
4648 2753 mt 4648 2753 L
5183 3366 mt 5183 2753 L
5183 2753 mt 5183 2753 L
5719 3366 mt 5719 2753 L
5719 2753 mt 5719 2753 L
6255 3366 mt 6255 2753 L
6255 2753 mt 6255 2753 L
 899 3366 mt 6255 3366 L
6255 3366 mt 6255 3366 L
 899 3059 mt 6255 3059 L
6255 3059 mt 6255 3059 L
 899 2753 mt 6255 2753 L
6255 2753 mt 6255 2753 L
SO
6 w
 899 3366 mt 6255 3366 L
 899 2753 mt 6255 2753 L
 899 3366 mt  899 2753 L
6255 3366 mt 6255 2753 L
 899 3366 mt 6255 3366 L
 899 3366 mt  899 2753 L
 899 3366 mt  899 3312 L
 899 2753 mt  899 2806 L
 833 3511 mt 
(70) s
1434 3366 mt 1434 3312 L
1434 2753 mt 1434 2806 L
1368 3511 mt 
(71) s
1970 3366 mt 1970 3312 L
1970 2753 mt 1970 2806 L
1904 3511 mt 
(72) s
2505 3366 mt 2505 3312 L
2505 2753 mt 2505 2806 L
2439 3511 mt 
(73) s
3041 3366 mt 3041 3312 L
3041 2753 mt 3041 2806 L
2975 3511 mt 
(74) s
3577 3366 mt 3577 3312 L
3577 2753 mt 3577 2806 L
3511 3511 mt 
(75) s
4112 3366 mt 4112 3312 L
4112 2753 mt 4112 2806 L
4046 3511 mt 
(76) s
4648 3366 mt 4648 3312 L
4648 2753 mt 4648 2806 L
4582 3511 mt 
(77) s
5183 3366 mt 5183 3312 L
5183 2753 mt 5183 2806 L
5117 3511 mt 
(78) s
5719 3366 mt 5719 3312 L
5719 2753 mt 5719 2806 L
5653 3511 mt 
(79) s
6255 3366 mt 6255 3312 L
6255 2753 mt 6255 2806 L
6189 3511 mt 
(80) s
 899 3366 mt  952 3366 L
6255 3366 mt 6201 3366 L
 728 3410 mt 
(-2) s
 899 3059 mt  952 3059 L
6255 3059 mt 6201 3059 L
 798 3103 mt 
(0) s
 899 2753 mt  952 2753 L
6255 2753 mt 6201 2753 L
 798 2797 mt 
(2) s
 899 3366 mt 6255 3366 L
 899 2753 mt 6255 2753 L
 899 3366 mt  899 2753 L
6255 3366 mt 6255 2753 L
gs 899 2753 5357 614 MR c np
12 w
gr

12 w
gs 826 3139 5504 147 MR c np
c8
  36   36 1016 3212 FO
  36   36 1691 3212 FO
  36   36 1830 3212 FO
  36   36 1970 3212 FO
  36   36 2109 3212 FO
  36   36 2248 3212 FO
  36   36 2387 3212 FO
  36   36 2527 3212 FO
  36   36 2666 3212 FO
  36   36 2805 3212 FO
  36   36 2944 3212 FO
  36   36 3625 3212 FO
  36   36 3764 3212 FO
  36   36 3903 3212 FO
  36   36 4042 3212 FO
  36   36 4723 3212 FO
  36   36 5403 3212 FO
  36   36 5542 3212 FO
  36   36 5681 3212 FO
  36   36 5821 3212 FO
  36   36 5960 3212 FO
  36   36 6099 3212 FO
  36   36 6238 3212 FO
gr

c8
gs 899 2753 5357 614 MR c np
DA
0 153 1016 3059 2 MP stroke
0 153 1691 3059 2 MP stroke
0 153 1830 3059 2 MP stroke
0 153 1970 3059 2 MP stroke
0 153 2109 3059 2 MP stroke
0 153 2248 3059 2 MP stroke
0 153 2387 3059 2 MP stroke
0 153 2527 3059 2 MP stroke
0 153 2666 3059 2 MP stroke
0 153 2805 3059 2 MP stroke
0 153 2944 3059 2 MP stroke
0 153 3625 3059 2 MP stroke
0 153 3764 3059 2 MP stroke
0 153 3903 3059 2 MP stroke
0 153 4042 3059 2 MP stroke
0 153 4723 3059 2 MP stroke
0 153 5403 3059 2 MP stroke
0 153 5542 3059 2 MP stroke
0 153 5681 3059 2 MP stroke
0 153 5821 3059 2 MP stroke
0 153 5960 3059 2 MP stroke
0 153 6099 3059 2 MP stroke
0 153 6238 3059 2 MP stroke
SO
6 w
0 sg
5356 0 899 3059 2 MP stroke
12 w
gr

0 sg
gs 826 3139 5504 147 MR c np
c9
 921 3212 mt  993 3212 L
 957 3176 mt  957 3248 L
1061 3212 mt 1133 3212 L
1097 3176 mt 1097 3248 L
1736 3212 mt 1808 3212 L
1772 3176 mt 1772 3248 L
1875 3212 mt 1947 3212 L
1911 3176 mt 1911 3248 L
2014 3212 mt 2086 3212 L
2050 3176 mt 2050 3248 L
2154 3212 mt 2226 3212 L
2190 3176 mt 2190 3248 L
2293 3212 mt 2365 3212 L
2329 3176 mt 2329 3248 L
2432 3212 mt 2504 3212 L
2468 3176 mt 2468 3248 L
2572 3212 mt 2644 3212 L
2608 3176 mt 2608 3248 L
2711 3212 mt 2783 3212 L
2747 3176 mt 2747 3248 L
2850 3212 mt 2922 3212 L
2886 3176 mt 2886 3248 L
2990 3212 mt 3062 3212 L
3026 3176 mt 3026 3248 L
3670 3212 mt 3742 3212 L
3706 3176 mt 3706 3248 L
3810 3212 mt 3882 3212 L
3846 3176 mt 3846 3248 L
3949 3212 mt 4021 3212 L
3985 3176 mt 3985 3248 L
4769 3212 mt 4841 3212 L
4805 3176 mt 4805 3248 L
5450 3212 mt 5522 3212 L
5486 3176 mt 5486 3248 L
5589 3212 mt 5661 3212 L
5625 3176 mt 5625 3248 L
5728 3212 mt 5800 3212 L
5764 3176 mt 5764 3248 L
5868 3212 mt 5940 3212 L
5904 3176 mt 5904 3248 L
6007 3212 mt 6079 3212 L
6043 3176 mt 6043 3248 L
6146 3212 mt 6218 3212 L
6182 3176 mt 6182 3248 L
 932 3187 mt  982 3237 L
 982 3187 mt  932 3237 L
1072 3187 mt 1122 3237 L
1122 3187 mt 1072 3237 L
1747 3187 mt 1797 3237 L
1797 3187 mt 1747 3237 L
1886 3187 mt 1936 3237 L
1936 3187 mt 1886 3237 L
2025 3187 mt 2075 3237 L
2075 3187 mt 2025 3237 L
2165 3187 mt 2215 3237 L
2215 3187 mt 2165 3237 L
2304 3187 mt 2354 3237 L
2354 3187 mt 2304 3237 L
2443 3187 mt 2493 3237 L
2493 3187 mt 2443 3237 L
2583 3187 mt 2633 3237 L
2633 3187 mt 2583 3237 L
2722 3187 mt 2772 3237 L
2772 3187 mt 2722 3237 L
2861 3187 mt 2911 3237 L
2911 3187 mt 2861 3237 L
3001 3187 mt 3051 3237 L
3051 3187 mt 3001 3237 L
3681 3187 mt 3731 3237 L
3731 3187 mt 3681 3237 L
3821 3187 mt 3871 3237 L
3871 3187 mt 3821 3237 L
3960 3187 mt 4010 3237 L
4010 3187 mt 3960 3237 L
4780 3187 mt 4830 3237 L
4830 3187 mt 4780 3237 L
5461 3187 mt 5511 3237 L
5511 3187 mt 5461 3237 L
5600 3187 mt 5650 3237 L
5650 3187 mt 5600 3237 L
5739 3187 mt 5789 3237 L
5789 3187 mt 5739 3237 L
5879 3187 mt 5929 3237 L
5929 3187 mt 5879 3237 L
6018 3187 mt 6068 3237 L
6068 3187 mt 6018 3237 L
6157 3187 mt 6207 3237 L
6207 3187 mt 6157 3237 L
gr

c9
gs 899 2753 5357 614 MR c np
0 153 957 3059 2 MP stroke
0 153 1097 3059 2 MP stroke
0 153 1772 3059 2 MP stroke
0 153 1911 3059 2 MP stroke
0 153 2050 3059 2 MP stroke
0 153 2190 3059 2 MP stroke
0 153 2329 3059 2 MP stroke
0 153 2468 3059 2 MP stroke
0 153 2608 3059 2 MP stroke
0 153 2747 3059 2 MP stroke
0 153 2886 3059 2 MP stroke
0 153 3026 3059 2 MP stroke
0 153 3706 3059 2 MP stroke
0 153 3846 3059 2 MP stroke
0 153 3985 3059 2 MP stroke
0 153 4805 3059 2 MP stroke
0 153 5486 3059 2 MP stroke
0 153 5625 3059 2 MP stroke
0 153 5764 3059 2 MP stroke
0 153 5904 3059 2 MP stroke
0 153 6043 3059 2 MP stroke
0 153 6182 3059 2 MP stroke
gr

gs 826 2833 5504 147 MR c np
c10
  36   36 1006 2906 FO
  36   36 1145 2906 FO
  36   36 1825 2906 FO
  36   36 1964 2906 FO
  36   36 2104 2906 FO
  36   36 2243 2906 FO
  36   36 2382 2906 FO
  36   36 2521 2906 FO
  36   36 2661 2906 FO
  36   36 2800 2906 FO
  36   36 2939 2906 FO
  36   36 3078 2906 FO
  36   36 3759 2906 FO
  36   36 3898 2906 FO
  36   36 4037 2906 FO
  36   36 4857 2906 FO
  36   36 5537 2906 FO
  36   36 5676 2906 FO
  36   36 5815 2906 FO
  36   36 5955 2906 FO
  36   36 6094 2906 FO
  36   36 6233 2906 FO
gr

c10
gs 899 2753 5357 614 MR c np
DA
0 -153 1006 3059 2 MP stroke
0 -153 1145 3059 2 MP stroke
0 -153 1825 3059 2 MP stroke
0 -153 1964 3059 2 MP stroke
0 -153 2104 3059 2 MP stroke
0 -153 2243 3059 2 MP stroke
0 -153 2382 3059 2 MP stroke
0 -153 2521 3059 2 MP stroke
0 -153 2661 3059 2 MP stroke
0 -153 2800 3059 2 MP stroke
0 -153 2939 3059 2 MP stroke
0 -153 3078 3059 2 MP stroke
0 -153 3759 3059 2 MP stroke
0 -153 3898 3059 2 MP stroke
0 -153 4037 3059 2 MP stroke
0 -153 4857 3059 2 MP stroke
0 -153 5537 3059 2 MP stroke
0 -153 5676 3059 2 MP stroke
0 -153 5815 3059 2 MP stroke
0 -153 5955 3059 2 MP stroke
0 -153 6094 3059 2 MP stroke
0 -153 6233 3059 2 MP stroke
gr

DA
0 sg
3316 3654 mt 
(Tempo [s]) s
 646 3193 mt  -90 rotate
(Sinal) s
90 rotate
2677 2658 mt 
(Troca de Mensagens do Ve\355culo 4) s
SO
6 w
1 sg
0 613 5356 0 0 -613 899 4502 4 MP
PP
-5356 0 0 613 5356 0 0 -613 899 4502 5 MP stroke
4 w
DO
0 sg
 899 4502 mt  899 3889 L
 899 3889 mt  899 3889 L
1434 4502 mt 1434 3889 L
1434 3889 mt 1434 3889 L
1970 4502 mt 1970 3889 L
1970 3889 mt 1970 3889 L
2505 4502 mt 2505 3889 L
2505 3889 mt 2505 3889 L
3041 4502 mt 3041 3889 L
3041 3889 mt 3041 3889 L
3577 4502 mt 3577 3889 L
3577 3889 mt 3577 3889 L
4112 4502 mt 4112 3889 L
4112 3889 mt 4112 3889 L
4648 4502 mt 4648 3889 L
4648 3889 mt 4648 3889 L
5183 4502 mt 5183 3889 L
5183 3889 mt 5183 3889 L
5719 4502 mt 5719 3889 L
5719 3889 mt 5719 3889 L
6255 4502 mt 6255 3889 L
6255 3889 mt 6255 3889 L
 899 4502 mt 6255 4502 L
6255 4502 mt 6255 4502 L
 899 4195 mt 6255 4195 L
6255 4195 mt 6255 4195 L
 899 3889 mt 6255 3889 L
6255 3889 mt 6255 3889 L
SO
6 w
 899 4502 mt 6255 4502 L
 899 3889 mt 6255 3889 L
 899 4502 mt  899 3889 L
6255 4502 mt 6255 3889 L
 899 4502 mt 6255 4502 L
 899 4502 mt  899 3889 L
 899 4502 mt  899 4448 L
 899 3889 mt  899 3942 L
 833 4647 mt 
(70) s
1434 4502 mt 1434 4448 L
1434 3889 mt 1434 3942 L
1368 4647 mt 
(71) s
1970 4502 mt 1970 4448 L
1970 3889 mt 1970 3942 L
1904 4647 mt 
(72) s
2505 4502 mt 2505 4448 L
2505 3889 mt 2505 3942 L
2439 4647 mt 
(73) s
3041 4502 mt 3041 4448 L
3041 3889 mt 3041 3942 L
2975 4647 mt 
(74) s
3577 4502 mt 3577 4448 L
3577 3889 mt 3577 3942 L
3511 4647 mt 
(75) s
4112 4502 mt 4112 4448 L
4112 3889 mt 4112 3942 L
4046 4647 mt 
(76) s
4648 4502 mt 4648 4448 L
4648 3889 mt 4648 3942 L
4582 4647 mt 
(77) s
5183 4502 mt 5183 4448 L
5183 3889 mt 5183 3942 L
5117 4647 mt 
(78) s
5719 4502 mt 5719 4448 L
5719 3889 mt 5719 3942 L
5653 4647 mt 
(79) s
6255 4502 mt 6255 4448 L
6255 3889 mt 6255 3942 L
6189 4647 mt 
(80) s
 899 4502 mt  952 4502 L
6255 4502 mt 6201 4502 L
 728 4546 mt 
(-2) s
 899 4195 mt  952 4195 L
6255 4195 mt 6201 4195 L
 798 4239 mt 
(0) s
 899 3889 mt  952 3889 L
6255 3889 mt 6201 3889 L
 798 3933 mt 
(2) s
 899 4502 mt 6255 4502 L
 899 3889 mt 6255 3889 L
 899 4502 mt  899 3889 L
6255 4502 mt 6255 3889 L
gs 899 3889 5357 614 MR c np
12 w
gr

12 w
gs 826 4275 5504 147 MR c np
c8
  36   36 1016 4348 FO
  36   36 1691 4348 FO
  36   36 1830 4348 FO
  36   36 1970 4348 FO
  36   36 2109 4348 FO
  36   36 2248 4348 FO
  36   36 2387 4348 FO
  36   36 2527 4348 FO
  36   36 2666 4348 FO
  36   36 2805 4348 FO
  36   36 2944 4348 FO
  36   36 3625 4348 FO
  36   36 3764 4348 FO
  36   36 3903 4348 FO
  36   36 4042 4348 FO
  36   36 4723 4348 FO
  36   36 5403 4348 FO
  36   36 5542 4348 FO
  36   36 5681 4348 FO
  36   36 5821 4348 FO
  36   36 5960 4348 FO
  36   36 6099 4348 FO
  36   36 6238 4348 FO
gr

c8
gs 899 3889 5357 614 MR c np
DA
0 153 1016 4195 2 MP stroke
0 153 1691 4195 2 MP stroke
0 153 1830 4195 2 MP stroke
0 153 1970 4195 2 MP stroke
0 153 2109 4195 2 MP stroke
0 153 2248 4195 2 MP stroke
0 153 2387 4195 2 MP stroke
0 153 2527 4195 2 MP stroke
0 153 2666 4195 2 MP stroke
0 153 2805 4195 2 MP stroke
0 153 2944 4195 2 MP stroke
0 153 3625 4195 2 MP stroke
0 153 3764 4195 2 MP stroke
0 153 3903 4195 2 MP stroke
0 153 4042 4195 2 MP stroke
0 153 4723 4195 2 MP stroke
0 153 5403 4195 2 MP stroke
0 153 5542 4195 2 MP stroke
0 153 5681 4195 2 MP stroke
0 153 5821 4195 2 MP stroke
0 153 5960 4195 2 MP stroke
0 153 6099 4195 2 MP stroke
0 153 6238 4195 2 MP stroke
SO
6 w
0 sg
5356 0 899 4195 2 MP stroke
12 w
gr

0 sg
gs 826 4275 5504 147 MR c np
c9
 922 4348 mt  994 4348 L
 958 4312 mt  958 4384 L
1736 4348 mt 1808 4348 L
1772 4312 mt 1772 4384 L
1876 4348 mt 1948 4348 L
1912 4312 mt 1912 4384 L
2015 4348 mt 2087 4348 L
2051 4312 mt 2051 4384 L
2154 4348 mt 2226 4348 L
2190 4312 mt 2190 4384 L
2294 4348 mt 2366 4348 L
2330 4312 mt 2330 4384 L
2433 4348 mt 2505 4348 L
2469 4312 mt 2469 4384 L
2572 4348 mt 2644 4348 L
2608 4312 mt 2608 4384 L
2712 4348 mt 2784 4348 L
2748 4312 mt 2748 4384 L
2851 4348 mt 2923 4348 L
2887 4312 mt 2887 4384 L
2990 4348 mt 3062 4348 L
3026 4312 mt 3026 4384 L
3671 4348 mt 3743 4348 L
3707 4312 mt 3707 4384 L
3810 4348 mt 3882 4348 L
3846 4312 mt 3846 4384 L
3950 4348 mt 4022 4348 L
3986 4312 mt 3986 4384 L
4089 4348 mt 4161 4348 L
4125 4312 mt 4125 4384 L
5450 4348 mt 5522 4348 L
5486 4312 mt 5486 4384 L
5589 4348 mt 5661 4348 L
5625 4312 mt 5625 4384 L
5729 4348 mt 5801 4348 L
5765 4312 mt 5765 4384 L
5868 4348 mt 5940 4348 L
5904 4312 mt 5904 4384 L
6007 4348 mt 6079 4348 L
6043 4312 mt 6043 4384 L
6147 4348 mt 6219 4348 L
6183 4312 mt 6183 4384 L
 933 4323 mt  983 4373 L
 983 4323 mt  933 4373 L
1747 4323 mt 1797 4373 L
1797 4323 mt 1747 4373 L
1887 4323 mt 1937 4373 L
1937 4323 mt 1887 4373 L
2026 4323 mt 2076 4373 L
2076 4323 mt 2026 4373 L
2165 4323 mt 2215 4373 L
2215 4323 mt 2165 4373 L
2305 4323 mt 2355 4373 L
2355 4323 mt 2305 4373 L
2444 4323 mt 2494 4373 L
2494 4323 mt 2444 4373 L
2583 4323 mt 2633 4373 L
2633 4323 mt 2583 4373 L
2723 4323 mt 2773 4373 L
2773 4323 mt 2723 4373 L
2862 4323 mt 2912 4373 L
2912 4323 mt 2862 4373 L
3001 4323 mt 3051 4373 L
3051 4323 mt 3001 4373 L
3682 4323 mt 3732 4373 L
3732 4323 mt 3682 4373 L
3821 4323 mt 3871 4373 L
3871 4323 mt 3821 4373 L
3961 4323 mt 4011 4373 L
4011 4323 mt 3961 4373 L
4100 4323 mt 4150 4373 L
4150 4323 mt 4100 4373 L
5461 4323 mt 5511 4373 L
5511 4323 mt 5461 4373 L
5600 4323 mt 5650 4373 L
5650 4323 mt 5600 4373 L
5740 4323 mt 5790 4373 L
5790 4323 mt 5740 4373 L
5879 4323 mt 5929 4373 L
5929 4323 mt 5879 4373 L
6018 4323 mt 6068 4373 L
6068 4323 mt 6018 4373 L
6158 4323 mt 6208 4373 L
6208 4323 mt 6158 4373 L
gr

c9
gs 899 3889 5357 614 MR c np
0 153 958 4195 2 MP stroke
0 153 1772 4195 2 MP stroke
0 153 1912 4195 2 MP stroke
0 153 2051 4195 2 MP stroke
0 153 2190 4195 2 MP stroke
0 153 2330 4195 2 MP stroke
0 153 2469 4195 2 MP stroke
0 153 2608 4195 2 MP stroke
0 153 2748 4195 2 MP stroke
0 153 2887 4195 2 MP stroke
0 153 3026 4195 2 MP stroke
0 153 3707 4195 2 MP stroke
0 153 3846 4195 2 MP stroke
0 153 3986 4195 2 MP stroke
0 153 4125 4195 2 MP stroke
0 153 5486 4195 2 MP stroke
0 153 5625 4195 2 MP stroke
0 153 5765 4195 2 MP stroke
0 153 5904 4195 2 MP stroke
0 153 6043 4195 2 MP stroke
0 153 6183 4195 2 MP stroke
gr

gs 826 3969 5504 147 MR c np
c10
  36   36 1011 4042 FO
  36   36 1825 4042 FO
  36   36 1964 4042 FO
  36   36 2104 4042 FO
  36   36 2243 4042 FO
  36   36 2382 4042 FO
  36   36 2521 4042 FO
  36   36 2661 4042 FO
  36   36 2800 4042 FO
  36   36 2939 4042 FO
  36   36 3078 4042 FO
  36   36 3759 4042 FO
  36   36 3898 4042 FO
  36   36 4037 4042 FO
  36   36 4176 4042 FO
  36   36 5537 4042 FO
  36   36 5676 4042 FO
  36   36 5815 4042 FO
  36   36 5955 4042 FO
  36   36 6094 4042 FO
  36   36 6233 4042 FO
gr

c10
gs 899 3889 5357 614 MR c np
DA
0 -153 1011 4195 2 MP stroke
0 -153 1825 4195 2 MP stroke
0 -153 1964 4195 2 MP stroke
0 -153 2104 4195 2 MP stroke
0 -153 2243 4195 2 MP stroke
0 -153 2382 4195 2 MP stroke
0 -153 2521 4195 2 MP stroke
0 -153 2661 4195 2 MP stroke
0 -153 2800 4195 2 MP stroke
0 -153 2939 4195 2 MP stroke
0 -153 3078 4195 2 MP stroke
0 -153 3759 4195 2 MP stroke
0 -153 3898 4195 2 MP stroke
0 -153 4037 4195 2 MP stroke
0 -153 4176 4195 2 MP stroke
0 -153 5537 4195 2 MP stroke
0 -153 5676 4195 2 MP stroke
0 -153 5815 4195 2 MP stroke
0 -153 5955 4195 2 MP stroke
0 -153 6094 4195 2 MP stroke
0 -153 6233 4195 2 MP stroke
gr

DA
0 sg
 882 4545 mt 
( ) s
6239 3931 mt 
( ) s
/c11 { 1.000000 1.000000 0.933333 sr} bdef
c11
-531 0 0 -344 531 0 1063 4729 4 MP
PP
SO
6 w
0 j
0.8 sg
1063 4385  531  344 FR
1 j
0 sg
%%IncludeResource: font Helvetica
/Helvetica /ISOLatin1Encoding 108 FMSR

1111 4533 mt 
(X= 70.22) s
1111 4657 mt 
(Y= -1) s
24 w
gs 870 4202 293 293 MR c np
0 j
0 -94 -94 0 0 94 94 0 969 4301 5 MP
gs
PP
gr
/c12 { 1.000000 1.000000 0.862745 sr} bdef
c12
DP
gr

c12
c11
-531 0 0 -344 531 0 1738 4729 4 MP
PP
6 w
0 j
0.8 sg
1738 4385  531  344 FR
1 j
0 sg
1786 4533 mt 
(X= 71.48) s
1786 4657 mt 
(Y= -1) s
24 w
gs 1545 4202 293 293 MR c np
0 j
0 -94 -94 0 0 94 94 0 1644 4301 5 MP
gs
PP
gr
c12
DP
gr

c12
0 sg
%%IncludeResource: font Helvetica
/Helvetica /ISOLatin1Encoding 120 FMSR

3316 4790 mt 
(Tempo [s]) s
 646 4329 mt  -90 rotate
(Sinal) s
90 rotate
2677 3794 mt 
(Troca de Mensagens do Ve\355culo 5) s
6 w
1 sg
0 521 1757 0 0 -521 4733 5110 4 MP
PP
-1757 0 0 521 1757 0 0 -521 4733 5110 5 MP stroke
4 w
DO
SO
6 w
0 sg
4733 5110 mt 6490 5110 L
4733 4589 mt 6490 4589 L
4733 5110 mt 4733 4589 L
6490 5110 mt 6490 4589 L
4733 5110 mt 6490 5110 L
4733 5110 mt 4733 4589 L
4733 5110 mt 6490 5110 L
4733 4589 mt 6490 4589 L
4733 5110 mt 4733 4589 L
6490 5110 mt 6490 4589 L
5210 4732 mt 
(3: Recebe aviso - R) s
gs 4733 4589 1758 522 MR c np
DA
12 w
c8
257 0 4806 4689 2 MP stroke
5063 4689 PD
gs 4990 4616 147 147 MR c np
SO
  36   36 5063 4689 FO
DA
gr

gr

12 w
c8
DA
0 sg
5210 4892 mt 
(6: Recebe resposta - A) s
gs 4733 4589 1758 522 MR c np
SO
c9
257 0 4806 4849 2 MP stroke
5063 4849 PD
gs 4990 4776 147 147 MR c np
5027 4849 mt 5099 4849 L
5063 4813 mt 5063 4885 L
5038 4824 mt 5088 4874 L
5088 4824 mt 5038 4874 L
gr

gr

c9
SO
0 sg
5210 5052 mt 
(7: Envia calculo - R) s
gs 4733 4589 1758 522 MR c np
DA
c10
257 0 4806 5009 2 MP stroke
5063 5009 PD
gs 4990 4936 147 147 MR c np
SO
  36   36 5063 5009 FO
DA
gr

SO
6 w
gr

6 w
c10

end %%Color Dict

eplot
%%EndObject

epage
end

showpage

%%Trailer
%%EOF
