%!PS-Adobe-2.0 EPSF-1.2
%%Creator: MATLAB, The Mathworks, Inc. Version 7.9.0.529 (R2009b). Operating System: Darwin 10.8.0 Darwin Kernel Version 10.8.0: Tue Jun  7 16:33:36 PDT 2011; root:xnu-1504.15.3~1/RELEASE_I386 i386.
%%Title: ./vD_vV_falhas_erro_velocidade.eps
%%CreationDate: 10/12/2011  20:33:31
%%DocumentNeededFonts: Helvetica
%%DocumentProcessColors: Cyan Magenta Yellow Black
%%Extensions: CMYK
%%Pages: 1
%%BoundingBox:    52   199   551   602
%%EndComments

%%BeginProlog
% MathWorks dictionary
/MathWorks 160 dict begin
% definition operators
/bdef {bind def} bind def
/ldef {load def} bind def
/xdef {exch def} bdef
/xstore {exch store} bdef
% operator abbreviations
/c  /clip ldef
/cc /concat ldef
/cp /closepath ldef
/gr /grestore ldef
/gs /gsave ldef
/mt /moveto ldef
/np /newpath ldef
/cm /currentmatrix ldef
/sm /setmatrix ldef
/rm /rmoveto ldef
/rl /rlineto ldef
/s {show newpath} bdef
/sc {setcmykcolor} bdef
/sr /setrgbcolor ldef
/sg /setgray ldef
/w /setlinewidth ldef
/j /setlinejoin ldef
/cap /setlinecap ldef
/rc {rectclip} bdef
/rf {rectfill} bdef
% page state control
/pgsv () def
/bpage {/pgsv save def} bdef
/epage {pgsv restore} bdef
/bplot /gsave ldef
/eplot {stroke grestore} bdef
% orientation switch
/portraitMode 0 def /landscapeMode 1 def /rotateMode 2 def
% coordinate system mappings
/dpi2point 0 def
% font control
/FontSize 0 def
/FMS {/FontSize xstore findfont [FontSize 0 0 FontSize neg 0 0]
  makefont setfont} bdef
/reencode {exch dup where {pop load} {pop StandardEncoding} ifelse
  exch dup 3 1 roll findfont dup length dict begin
  { 1 index /FID ne {def}{pop pop} ifelse } forall
  /Encoding exch def currentdict end definefont pop} bdef
/isroman {findfont /CharStrings get /Agrave known} bdef
/FMSR {3 1 roll 1 index dup isroman {reencode} {pop pop} ifelse
  exch FMS} bdef
/csm {1 dpi2point div -1 dpi2point div scale neg translate
 dup landscapeMode eq {pop -90 rotate}
  {rotateMode eq {90 rotate} if} ifelse} bdef
% line types: solid, dotted, dashed, dotdash
/SO { [] 0 setdash } bdef
/DO { [.5 dpi2point mul 4 dpi2point mul] 0 setdash } bdef
/DA { [6 dpi2point mul] 0 setdash } bdef
/DD { [.5 dpi2point mul 4 dpi2point mul 6 dpi2point mul 4
  dpi2point mul] 0 setdash } bdef
% macros for lines and objects
/L {lineto stroke} bdef
/MP {3 1 roll moveto 1 sub {rlineto} repeat} bdef
/AP {{rlineto} repeat} bdef
/PDlw -1 def
/W {/PDlw currentlinewidth def setlinewidth} def
/PP {closepath eofill} bdef
/DP {closepath stroke} bdef
/MR {4 -2 roll moveto dup  0 exch rlineto exch 0 rlineto
  neg 0 exch rlineto closepath} bdef
/FR {MR stroke} bdef
/PR {MR fill} bdef
/L1i {{currentfile picstr readhexstring pop} image} bdef
/tMatrix matrix def
/MakeOval {newpath tMatrix currentmatrix pop translate scale
0 0 1 0 360 arc tMatrix setmatrix} bdef
/FO {MakeOval stroke} bdef
/PO {MakeOval fill} bdef
/PD {currentlinewidth 2 div 0 360 arc fill
   PDlw -1 eq not {PDlw w /PDlw -1 def} if} def
/FA {newpath tMatrix currentmatrix pop translate scale
  0 0 1 5 -2 roll arc tMatrix setmatrix stroke} bdef
/PA {newpath tMatrix currentmatrix pop	translate 0 0 moveto scale
  0 0 1 5 -2 roll arc closepath tMatrix setmatrix fill} bdef
/FAn {newpath tMatrix currentmatrix pop translate scale
  0 0 1 5 -2 roll arcn tMatrix setmatrix stroke} bdef
/PAn {newpath tMatrix currentmatrix pop translate 0 0 moveto scale
  0 0 1 5 -2 roll arcn closepath tMatrix setmatrix fill} bdef
/vradius 0 def /hradius 0 def /lry 0 def
/lrx 0 def /uly 0 def /ulx 0 def /rad 0 def
/MRR {/vradius xdef /hradius xdef /lry xdef /lrx xdef /uly xdef
  /ulx xdef newpath tMatrix currentmatrix pop ulx hradius add uly
  vradius add translate hradius vradius scale 0 0 1 180 270 arc 
  tMatrix setmatrix lrx hradius sub uly vradius add translate
  hradius vradius scale 0 0 1 270 360 arc tMatrix setmatrix
  lrx hradius sub lry vradius sub translate hradius vradius scale
  0 0 1 0 90 arc tMatrix setmatrix ulx hradius add lry vradius sub
  translate hradius vradius scale 0 0 1 90 180 arc tMatrix setmatrix
  closepath} bdef
/FRR {MRR stroke } bdef
/PRR {MRR fill } bdef
/MlrRR {/lry xdef /lrx xdef /uly xdef /ulx xdef /rad lry uly sub 2 div def
  newpath tMatrix currentmatrix pop ulx rad add uly rad add translate
  rad rad scale 0 0 1 90 270 arc tMatrix setmatrix lrx rad sub lry rad
  sub translate rad rad scale 0 0 1 270 90 arc tMatrix setmatrix
  closepath} bdef
/FlrRR {MlrRR stroke } bdef
/PlrRR {MlrRR fill } bdef
/MtbRR {/lry xdef /lrx xdef /uly xdef /ulx xdef /rad lrx ulx sub 2 div def
  newpath tMatrix currentmatrix pop ulx rad add uly rad add translate
  rad rad scale 0 0 1 180 360 arc tMatrix setmatrix lrx rad sub lry rad
  sub translate rad rad scale 0 0 1 0 180 arc tMatrix setmatrix
  closepath} bdef
/FtbRR {MtbRR stroke } bdef
/PtbRR {MtbRR fill } bdef
/stri 6 array def /dtri 6 array def
/smat 6 array def /dmat 6 array def
/tmat1 6 array def /tmat2 6 array def /dif 3 array def
/asub {/ind2 exch def /ind1 exch def dup dup
  ind1 get exch ind2 get sub exch } bdef
/tri_to_matrix {
  2 0 asub 3 1 asub 4 0 asub 5 1 asub
  dup 0 get exch 1 get 7 -1 roll astore } bdef
/compute_transform {
  dmat dtri tri_to_matrix tmat1 invertmatrix 
  smat stri tri_to_matrix tmat2 concatmatrix } bdef
/ds {stri astore pop} bdef
/dt {dtri astore pop} bdef
/db {2 copy /cols xdef /rows xdef mul dup 3 mul string
  currentfile exch readhexstring pop
  dup 0 3 index getinterval /rbmap xdef
  dup 2 index dup getinterval /gbmap xdef
  1 index dup 2 mul exch getinterval /bbmap xdef pop pop}bdef
/it {gs np dtri aload pop moveto lineto lineto cp c
  cols rows 8 compute_transform 
  rbmap gbmap bbmap true 3 colorimage gr}bdef
/il {newpath moveto lineto stroke}bdef
currentdict end def
%%EndProlog

%%BeginSetup
MathWorks begin

0 cap

end
%%EndSetup

%%Page: 1 1
%%BeginPageSetup
%%PageBoundingBox:    52   199   551   602
MathWorks begin
bpage
%%EndPageSetup

%%BeginObject: obj1
bplot

/dpi2point 12 def
portraitMode 0216 7344 csm

  410   110  5994  4845 MR c np
86 dict begin %Colortable dictionary
/c0 { 0.000000 0.000000 0.000000 sr} bdef
/c1 { 1.000000 1.000000 1.000000 sr} bdef
/c2 { 0.900000 0.000000 0.000000 sr} bdef
/c3 { 0.000000 0.820000 0.000000 sr} bdef
/c4 { 0.000000 0.000000 0.800000 sr} bdef
/c5 { 0.910000 0.820000 0.320000 sr} bdef
/c6 { 1.000000 0.260000 0.820000 sr} bdef
/c7 { 0.000000 0.820000 0.820000 sr} bdef
c0
1 j
1 sg
   0    0 6913 5186 PR
6 w
0 4226 5356 0 0 -4226 899 4615 4 MP
PP
-5356 0 0 4226 5356 0 0 -4226 899 4615 5 MP stroke
4 w
DO
0 sg
 899 4615 mt  899  389 L
 899  389 mt  899  389 L
1791 4615 mt 1791  389 L
1791  389 mt 1791  389 L
2684 4615 mt 2684  389 L
2684  389 mt 2684  389 L
3577 4615 mt 3577  389 L
3577  389 mt 3577  389 L
4469 4615 mt 4469  389 L
4469  389 mt 4469  389 L
5362 4615 mt 5362  389 L
5362  389 mt 5362  389 L
6255 4615 mt 6255  389 L
6255  389 mt 6255  389 L
 899 4615 mt 6255 4615 L
6255 4615 mt 6255 4615 L
 899 4192 mt 6255 4192 L
6255 4192 mt 6255 4192 L
 899 3769 mt 6255 3769 L
6255 3769 mt 6255 3769 L
 899 3347 mt 6255 3347 L
6255 3347 mt 6255 3347 L
 899 2924 mt 6255 2924 L
6255 2924 mt 6255 2924 L
 899 2502 mt 6255 2502 L
6255 2502 mt 6255 2502 L
 899 2079 mt 6255 2079 L
6255 2079 mt 6255 2079 L
 899 1656 mt 6255 1656 L
6255 1656 mt 6255 1656 L
 899 1234 mt 6255 1234 L
6255 1234 mt 6255 1234 L
 899  811 mt 6255  811 L
6255  811 mt 6255  811 L
 899  389 mt 6255  389 L
6255  389 mt 6255  389 L
SO
6 w
 899 4615 mt 6255 4615 L
 899  389 mt 6255  389 L
 899 4615 mt  899  389 L
6255 4615 mt 6255  389 L
 899 4615 mt 6255 4615 L
 899 4615 mt  899  389 L
 899 4615 mt  899 4561 L
 899  389 mt  899  442 L
%%IncludeResource: font Helvetica
/Helvetica /ISOLatin1Encoding 120 FMSR

 866 4760 mt 
(0) s
1791 4615 mt 1791 4561 L
1791  389 mt 1791  442 L
1691 4760 mt 
(100) s
2684 4615 mt 2684 4561 L
2684  389 mt 2684  442 L
2584 4760 mt 
(200) s
3577 4615 mt 3577 4561 L
3577  389 mt 3577  442 L
3477 4760 mt 
(300) s
4469 4615 mt 4469 4561 L
4469  389 mt 4469  442 L
4369 4760 mt 
(400) s
5362 4615 mt 5362 4561 L
5362  389 mt 5362  442 L
5262 4760 mt 
(500) s
6255 4615 mt 6255 4561 L
6255  389 mt 6255  442 L
6155 4760 mt 
(600) s
 899 4615 mt  952 4615 L
6255 4615 mt 6201 4615 L
 628 4659 mt 
(-0.1) s
 899 4192 mt  952 4192 L
6255 4192 mt 6201 4192 L
 798 4236 mt 
(0) s
 899 3769 mt  952 3769 L
6255 3769 mt 6201 3769 L
 698 3813 mt 
(0.1) s
 899 3347 mt  952 3347 L
6255 3347 mt 6201 3347 L
 698 3391 mt 
(0.2) s
 899 2924 mt  952 2924 L
6255 2924 mt 6201 2924 L
 698 2968 mt 
(0.3) s
 899 2502 mt  952 2502 L
6255 2502 mt 6201 2502 L
 698 2546 mt 
(0.4) s
 899 2079 mt  952 2079 L
6255 2079 mt 6201 2079 L
 698 2123 mt 
(0.5) s
 899 1656 mt  952 1656 L
6255 1656 mt 6201 1656 L
 698 1700 mt 
(0.6) s
 899 1234 mt  952 1234 L
6255 1234 mt 6201 1234 L
 698 1278 mt 
(0.7) s
 899  811 mt  952  811 L
6255  811 mt 6201  811 L
 698  855 mt 
(0.8) s
 899  389 mt  952  389 L
6255  389 mt 6201  389 L
 698  433 mt 
(0.9) s
 899 4615 mt 6255 4615 L
 899  389 mt 6255  389 L
 899 4615 mt  899  389 L
6255 4615 mt 6255  389 L
gs 899 389 5357 4227 MR c np
/c8 { 0.000000 0.000000 1.000000 sr} bdef
c8
1 0 1 0 1 0 1 1 1 0 1 0 1 0 1 1 
1 0 1 0 0 -5 1 0 1 0 1 0 1 1 1 0 
0 -5 1 0 1 0 1 1 1 0 1 0 0 -4 1 0 
1 0 1 1 1 0 1 0 0 -2 1 0 1 1 1 0 
1 0 1 0 0 1 0 -1 1 6 1 0 1 0 1 1 
1 0 1 0 1 0 1 1 1 0 1 0 1 1 1 0 
1 0 1 1 1 0 1 0 1 1 1 0 1 0 1 0 
0 1 0 -6 1 1 1 0 1 0 1 0 1 1 0 -5 
1 0 1 1 1 0 1 0 1 1 0 -3 1 0 1 0 
1 0 1 1 1 0 1 0 1 0 1 0 1 1 1 0 
0 11 1 0 1 0 1 1 1 0 1 0 1 1 1 0 
1 0 1 1 1 0 1 1 1 0 1 0 1 1 1 0 
1 0 1 1 1 0 6167 4148 100 MP stroke
1 0 1 1 0 -4 1 0 1 0 1 1 1 0 1 0 
0 1 0 -1 1 -4 1 0 1 1 1 0 1 1 0 -6 
1 1 1 0 1 0 1 1 1 0 0 -5 1 0 1 0 
1 1 1 0 1 0 0 1 0 -1 1 -5 1 0 1 1 
1 0 1 1 1 -5 1 1 1 0 1 0 1 1 1 0 
0 -3 1 0 1 1 1 0 1 0 1 1 1 -1 1 1 
1 0 1 1 1 0 0 12 1 0 1 1 1 0 1 0 
1 1 1 0 1 1 1 0 1 0 1 1 1 0 1 1 
1 0 1 1 1 0 1 0 1 1 1 0 1 1 0 -3 
1 0 1 0 1 1 1 0 1 0 1 1 0 -4 1 0 
1 1 1 0 1 1 1 0 0 -4 1 0 1 0 1 1 
1 0 1 1 0 -5 1 0 1 0 1 1 1 0 1 1 
0 -6 1 0 1 0 6082 4160 100 MP stroke
1 1 1 0 1 1 0 -6 1 0 1 0 1 1 1 0 
1 0 -1 0 2 -6 1 1 1 0 1 0 1 1 1 0 
0 -6 1 0 1 1 1 0 1 1 1 0 0 -5 1 0 
1 1 1 0 1 1 1 0 0 -3 1 0 1 0 1 1 
1 0 1 1 1 0 1 1 1 0 1 1 1 0 1 1 
1 0 1 1 1 0 1 1 1 0 1 1 1 0 1 1 
1 0 1 1 1 0 1 1 1 0 1 1 0 -6 1 1 
1 0 1 1 1 0 1 1 0 -4 1 1 1 0 1 1 
1 0 1 1 1 -1 1 0 1 1 1 0 1 1 0 10 
1 0 1 0 1 1 1 0 1 1 1 0 1 1 1 0 
1 1 1 1 1 0 1 1 1 0 1 1 1 0 1 1 
1 0 1 1 1 0 0 1 0 -1 1 -3 1 0 1 1 
1 1 1 0 -1 0 5995 4150 100 MP stroke
2 -4 1 1 1 0 1 1 1 0 1 1 0 -5 1 1 
1 0 1 1 1 0 1 1 0 -6 1 1 1 0 1 1 
1 0 1 1 0 -6 1 0 1 1 1 0 1 1 1 1 
0 -7 1 1 1 0 1 1 1 0 1 1 0 -6 1 0 
1 0 1 1 1 1 1 0 0 -6 1 1 1 0 1 1 
1 0 1 1 0 -4 1 0 1 0 1 1 1 0 1 1 
0 -3 1 0 1 1 1 1 1 0 1 1 0 2 1 0 
1 1 1 1 1 0 1 1 1 0 1 1 1 1 1 0 
1 1 1 0 1 1 1 0 1 1 1 1 1 0 1 1 
1 0 1 1 0 1 0 -1 1 -6 1 0 1 1 1 0 
0 1 2 -7 1 1 1 0 1 1 1 0 -1 0 2 -7 
1 1 1 1 1 0 1 1 1 0 0 -7 1 1 1 0 
1 1 1 0 1 1 5908 4176 100 MP stroke
0 -6 1 0 1 1 1 1 1 0 1 1 0 -5 1 0 
1 1 1 1 1 0 1 1 0 -3 1 0 1 1 1 1 
1 0 1 1 1 1 1 0 1 1 1 1 1 0 1 1 
1 1 1 0 1 1 1 0 1 1 1 1 1 0 1 1 
0 -4 1 0 1 1 1 0 1 1 1 1 0 -3 1 1 
1 0 1 1 1 1 1 0 0 1 0 -1 1 5 1 0 
1 1 1 1 1 0 1 1 1 1 1 0 1 1 1 1 
1 1 1 0 1 1 1 0 1 1 1 1 1 1 1 0 
1 1 0 -5 1 0 1 0 1 1 1 1 1 0 -1 0 
2 -6 1 1 1 1 1 0 1 1 1 1 0 -8 1 1 
1 1 1 0 1 1 1 1 0 -8 1 0 1 1 1 1 
1 0 1 1 0 -8 1 1 1 0 1 1 1 1 1 0 
0 1 0 -1 1 -7 5823 4182 100 MP stroke
1 1 1 1 1 0 1 1 0 -6 1 0 1 1 1 0 
1 1 1 1 0 -6 1 1 1 1 1 0 1 1 1 1 
0 -5 1 0 1 1 1 1 1 1 1 0 1 1 1 1 
1 0 1 1 1 1 1 1 1 0 1 1 1 1 1 1 
1 0 1 1 1 1 1 1 0 -5 1 0 1 1 1 1 
1 1 1 0 0 1 0 -3 1 1 1 0 1 1 1 1 
1 1 0 6 1 0 1 0 1 1 1 1 1 1 1 0 
1 1 1 1 1 1 1 0 1 1 1 1 1 1 1 0 
1 1 1 1 1 1 1 1 1 0 1 1 0 -4 1 1 
1 1 1 0 1 1 1 1 0 -4 1 1 1 0 1 1 
1 1 1 1 0 -4 1 0 1 1 1 1 1 1 1 1 
0 -4 1 0 1 1 1 1 1 1 1 0 0 1 0 -1 
1 -3 1 1 1 1 5737 4157 100 MP stroke
1 0 1 1 0 1 0 -1 1 -3 1 1 1 1 1 0 
1 1 0 1 0 -5 1 1 1 1 1 0 1 1 1 1 
0 -4 1 1 1 0 1 1 1 1 1 1 0 -4 1 0 
1 1 1 1 1 1 1 1 0 -4 1 0 1 1 1 0 
1 1 1 1 0 1 0 -1 1 -4 1 1 1 1 1 1 
1 0 -1 0 2 -4 1 1 1 1 1 1 1 0 1 1 
0 -5 1 1 1 0 1 1 1 1 1 1 0 -6 1 1 
1 0 1 1 1 1 1 1 0 -7 1 1 1 1 1 0 
1 1 1 1 0 -7 1 0 1 1 1 1 1 1 1 0 
0 1 0 -9 1 1 1 0 1 1 1 1 1 1 0 -9 
1 0 1 1 1 1 1 1 1 1 0 -9 1 0 1 1 
1 1 1 0 1 1 0 1 0 -1 1 -8 1 1 1 1 
1 1 1 0 0 1 5659 4187 100 MP stroke
0 -1 1 -7 1 1 1 1 1 1 1 1 0 -6 1 0 
1 1 1 1 1 0 0 1 2 -8 1 1 1 1 1 1 
1 1 1 0 1 1 1 1 1 1 1 1 1 1 1 1 
1 1 1 1 1 0 1 1 1 1 1 1 1 1 1 1 
0 -10 1 0 1 1 1 1 1 1 1 1 1 1 1 1 
1 1 1 1 1 1 1 0 1 1 1 1 1 1 1 1 
1 1 1 1 1 1 1 1 0 -9 1 1 1 1 1 0 
1 1 1 1 0 1 0 -1 1 -8 1 1 1 1 1 1 
1 1 0 1 0 -10 1 1 1 1 1 0 1 1 1 1 
0 1 0 -22 1 1 1 1 1 1 1 1 1 0 1 1 
1 1 1 1 1 1 1 1 1 1 1 1 1 1 1 1 
1 1 1 1 1 1 1 1 1 1 0 -12 1 1 1 1 
1 1 1 1 1 1 5571 4202 100 MP stroke
0 -9 1 0 1 1 1 1 1 1 1 1 0 -6 1 0 
1 1 1 1 1 1 1 1 0 -20 1 0 1 1 1 1 
1 1 1 1 1 1 1 1 1 1 1 1 1 1 1 1 
1 1 1 1 1 1 1 1 1 1 1 0 1 1 1 1 
1 1 1 1 1 1 1 1 1 1 1 1 1 1 1 1 
1 1 1 1 1 1 1 1 1 1 1 1 1 1 1 1 
1 1 1 1 1 1 1 1 1 1 1 1 1 1 1 1 
1 1 1 1 1 1 1 1 0 -5 1 0 1 1 1 1 
1 1 1 1 0 1 0 -1 1 -5 1 1 1 1 1 1 
1 1 1 1 1 1 1 1 1 1 1 1 1 1 1 1 
1 1 1 1 1 1 1 1 1 1 1 1 1 1 0 1 
0 -1 1 -7 1 1 1 1 1 1 1 1 0 1 0 -1 
1 -7 1 1 1 1 5482 4180 100 MP stroke
1 1 1 1 0 1 0 -1 1 -7 1 1 1 1 1 1 
1 1 0 1 0 -8 1 1 1 1 1 1 1 1 1 1 
0 -8 1 1 1 1 1 1 1 1 1 1 0 1 0 -19 
1 1 1 1 1 1 1 1 1 1 1 1 1 1 1 1 
1 1 1 1 1 1 1 1 1 1 0 1 2 2 1 1 
1 1 1 1 1 1 0 -6 1 0 0 1 2 2 1 1 
1 1 0 -5 1 0 0 1 2 2 1 1 1 1 0 -5 
1 0 0 1 2 2 1 1 1 1 1 1 1 1 1 1 
1 1 1 1 1 1 1 1 1 1 1 1 1 1 0 1 
2 2 1 1 1 1 0 -7 1 0 1 1 1 1 0 1 
2 2 1 -8 -1 0 2 2 1 1 1 1 1 1 0 -8 
1 0 0 1 2 2 1 1 1 1 0 -8 1 0 1 1 
1 1 1 1 1 1 5397 4182 100 MP stroke
0 1 0 -1 1 -7 1 1 1 1 0 1 2 2 0 -8 
1 1 1 1 1 1 1 1 1 1 0 1 0 -1 1 -5 
0 1 2 2 1 1 1 1 0 -5 1 1 1 1 1 1 
1 1 1 1 0 1 0 -1 1 -2 0 1 2 2 1 1 
1 1 1 1 1 1 1 1 1 1 1 1 0 1 2 2 
1 1 1 1 1 1 1 1 1 1 0 1 2 2 0 -6 
1 1 1 1 1 1 0 1 2 2 0 -6 1 1 1 1 
1 1 1 1 1 1 0 1 0 -6 1 1 1 1 1 1 
1 1 1 1 0 1 0 -6 1 1 1 1 1 1 1 1 
1 1 0 1 0 -6 1 1 1 1 1 1 1 1 1 1 
0 1 0 -1 1 -5 0 1 2 2 1 1 1 1 0 1 
0 -1 1 -5 0 1 2 2 1 1 1 1 0 -5 1 0 
0 1 2 2 1 1 5319 4170 100 MP stroke
1 1 0 -6 1 1 1 1 0 1 2 2 1 1 0 -6 
1 1 1 1 1 1 0 1 2 2 0 -6 1 1 1 1 
1 1 0 1 2 2 0 -6 1 1 1 1 1 1 0 1 
2 -5 0 1 1 1 1 1 1 1 1 1 0 1 1 -6 
-1 0 2 2 1 1 1 1 1 1 0 1 0 -1 1 -5 
0 1 2 2 1 1 1 1 0 1 0 -1 1 -5 0 1 
2 2 1 1 1 1 0 1 0 -1 1 -5 1 1 0 1 
2 2 1 1 0 -6 1 1 1 1 0 1 2 2 1 1 
0 -6 1 1 1 1 0 1 2 2 1 1 0 -6 1 1 
1 1 1 1 0 1 2 2 0 -6 1 1 1 1 1 1 
0 1 2 2 0 -6 1 1 1 1 1 1 0 1 2 2 
0 -7 0 1 1 1 1 1 1 1 0 1 2 -5 0 1 
2 2 1 1 1 1 5240 4173 100 MP stroke
0 1 0 -1 1 -5 0 1 2 2 1 1 1 1 0 1 
0 -1 1 -5 1 1 0 1 2 2 1 1 0 1 0 -1 
1 -5 1 1 0 1 2 2 1 1 0 1 0 -7 1 1 
1 1 0 1 2 2 1 1 0 -6 1 1 1 1 0 1 
2 2 1 1 0 -6 1 1 1 1 1 1 0 1 2 2 
0 -6 1 1 1 1 1 1 0 1 2 2 1 -6 -1 0 
2 2 1 1 0 1 2 2 0 -7 0 1 2 2 1 1 
1 1 1 1 0 -6 1 1 0 1 2 2 0 1 2 -5 
1 1 0 1 2 2 1 1 0 1 0 -1 1 -5 1 1 
0 1 2 2 1 1 0 1 0 -7 1 1 1 1 0 1 
2 2 1 1 0 1 0 -7 1 1 1 1 1 1 0 1 
2 2 0 -6 1 1 1 1 1 1 0 1 2 2 1 -6 
-1 0 2 2 1 1 5163 4178 100 MP stroke
0 1 2 2 1 -6 -1 0 2 2 1 1 0 1 2 2 
1 -6 -1 0 2 2 1 1 0 1 2 2 0 -7 0 1 
2 2 1 1 0 1 2 2 0 -7 0 1 2 2 1 1 
0 1 2 2 0 -7 0 1 2 2 1 1 1 1 0 2 
1 -7 0 1 2 2 1 1 1 1 0 1 0 -1 1 -5 
0 1 2 2 1 1 1 1 0 1 0 -1 1 -5 0 1 
2 2 1 1 1 1 0 1 0 -1 1 -5 0 1 2 2 
1 1 1 1 0 1 0 -1 1 -5 0 1 2 2 1 1 
1 1 0 1 0 -7 1 1 0 1 2 2 1 1 1 1 
0 1 0 -7 1 1 0 1 2 2 1 1 1 1 0 1 
0 -7 1 1 0 1 2 2 1 1 1 1 0 -6 1 1 
0 1 2 2 1 1 0 1 0 -1 1 -5 1 1 0 1 
2 2 1 1 0 1 5088 4177 100 MP stroke
0 -1 1 -5 0 1 2 2 1 1 1 1 0 1 0 -1 
1 -5 0 1 2 2 0 1 2 2 1 -6 -1 0 2 2 
1 1 0 1 2 2 0 -6 1 1 1 1 1 1 0 2 
2 -5 0 1 2 2 1 1 1 1 0 1 1 -6 -1 0 
2 2 1 1 0 1 2 2 0 1 0 -1 1 -5 0 1 
2 2 0 1 2 2 0 -6 1 1 0 1 2 2 1 1 
1 1 0 1 0 -6 1 1 1 1 0 1 2 2 1 1 
0 -6 0 1 2 2 1 1 1 1 0 2 1 -7 0 1 
1 1 1 1 0 1 2 2 0 1 1 -7 -1 0 2 2 
1 1 0 1 2 2 0 1 1 -8 -1 0 2 2 1 1 
0 1 2 2 0 -9 1 1 0 1 2 2 1 1 1 1 
0 1 0 -11 1 1 1 1 0 1 2 2 1 1 0 -13 
1 1 0 1 2 2 5012 4192 100 MP stroke
1 1 0 1 0 -1 1 -8 0 1 2 2 0 1 2 2 
0 1 0 -1 1 -8 0 1 2 2 0 1 2 2 0 -8 
1 1 0 1 2 2 1 1 1 1 0 1 1 -7 -1 0 
2 2 0 1 2 2 1 1 0 -6 1 1 0 1 2 2 
0 1 2 -10 0 1 2 2 0 1 2 2 1 1 0 1 
2 2 0 1 2 2 0 1 2 2 0 1 2 2 1 1 
0 1 2 2 0 1 2 2 0 -7 1 1 1 1 0 1 
2 2 1 1 0 1 0 -8 0 1 2 2 0 1 2 2 
1 1 0 -8 0 1 2 2 1 1 0 2 2 -7 0 1 
2 2 0 1 2 2 0 1 1 -9 -1 0 2 2 0 1 
2 2 1 1 0 1 1 -9 -1 0 2 2 0 1 2 2 
1 1 0 1 0 -10 0 1 2 2 1 1 0 1 2 2 
0 -9 1 1 0 1 4933 4199 100 MP stroke
2 2 0 1 2 2 0 -10 0 1 1 1 1 1 0 1 
2 2 0 1 1 -9 -1 0 2 2 0 1 2 2 1 1 
0 1 0 -8 1 1 1 1 0 1 2 2 1 1 0 1 
0 -9 0 1 2 2 0 1 2 2 1 1 0 -18 1 1 
0 1 2 2 0 1 2 2 0 1 2 2 1 1 1 1 
0 2 2 2 1 1 0 1 2 2 0 1 2 2 0 1 
2 2 0 1 0 -10 1 1 0 1 2 2 0 1 2 2 
0 -9 0 1 2 2 0 1 2 2 1 1 0 -8 0 1 
2 2 0 1 2 2 0 1 0 -8 1 1 0 1 2 2 
0 1 2 2 1 -7 -1 0 2 2 0 1 2 2 1 1 
0 1 0 -15 1 1 0 1 2 2 0 1 2 2 0 1 
2 2 0 1 2 2 0 1 2 2 0 1 2 2 0 1 
2 2 0 1 2 2 4851 4190 100 MP stroke
1 1 0 1 1 -8 -1 0 2 2 1 1 0 2 2 2 
0 -9 0 1 2 2 0 1 2 2 1 1 0 -9 0 1 
2 2 0 1 2 2 0 1 1 -9 -1 0 2 2 0 1 
2 2 1 1 0 1 1 -9 -1 0 2 2 0 1 2 2 
1 1 0 1 0 -10 0 1 2 2 1 1 0 2 2 2 
0 -9 0 1 1 1 0 1 2 2 1 1 0 1 0 -8 
1 1 0 1 2 2 0 1 2 2 0 1 0 -9 1 1 
0 1 2 2 0 1 2 2 0 -18 1 1 1 1 0 2 
2 2 0 1 2 2 0 1 2 2 0 1 2 2 0 1 
2 2 1 1 0 2 2 2 0 1 2 2 1 1 0 1 
0 -10 1 1 0 1 2 2 0 1 2 2 0 1 0 -11 
1 1 1 1 0 2 2 2 1 1 0 -11 0 1 2 2 
1 1 0 2 2 -10 4774 4214 100 MP stroke
1 1 0 2 2 2 1 1 0 1 0 -11 1 1 0 1 
2 2 0 1 2 2 0 -9 1 1 0 1 2 2 0 1 
2 2 0 -8 0 1 2 2 0 1 2 2 0 1 0 -1 
1 -6 1 1 0 2 2 2 1 1 0 1 0 -26 1 1 
0 1 2 2 0 1 2 2 1 1 0 2 2 2 0 1 
2 2 0 1 2 2 1 1 0 2 2 2 0 1 2 2 
1 1 0 2 2 2 0 1 2 2 1 1 0 2 2 2 
0 1 2 2 1 1 0 2 2 2 0 1 2 2 0 -7 
0 1 2 2 0 1 2 2 1 1 0 1 0 -7 0 1 
2 2 0 1 2 2 0 1 0 -1 1 -6 0 2 2 2 
0 1 2 2 0 1 0 -7 1 1 0 1 2 2 0 1 
2 2 0 -6 1 1 1 1 0 2 2 2 0 1 0 -1 
1 -6 0 2 2 2 4693 4190 100 MP stroke
0 1 2 2 0 -7 1 1 0 2 2 2 0 1 2 2 
0 -8 0 1 1 1 1 1 0 2 2 2 0 1 1 -8 
-1 0 2 2 1 1 0 2 2 2 0 -9 1 1 0 1 
2 2 1 1 0 2 1 -11 0 1 1 1 0 1 2 2 
1 1 0 1 0 -1 1 -6 0 2 2 2 0 1 2 2 
0 -7 1 1 1 1 0 2 2 2 0 1 0 -8 1 1 
0 1 2 2 0 1 2 2 0 1 0 -8 0 1 2 2 
0 1 2 2 1 1 0 1 0 -8 1 1 0 2 2 2 
1 1 0 1 1 -7 -1 0 2 2 1 1 0 2 2 2 
0 -7 1 0 0 2 2 2 0 1 2 2 0 -7 0 1 
2 2 0 1 2 2 0 1 0 -8 1 1 1 1 0 2 
2 2 1 1 0 1 0 -8 1 1 0 2 2 2 0 1 
2 2 0 -8 0 1 4621 4201 100 MP stroke
1 1 1 1 0 2 2 2 0 1 0 -8 1 1 1 1 
0 2 2 2 1 1 0 1 0 -8 0 1 2 2 0 1 
2 2 0 2 1 -8 0 1 1 1 1 1 0 2 2 2 
0 1 0 -1 1 -7 0 2 2 2 0 1 2 2 0 -7 
1 1 1 1 0 2 2 2 0 1 0 -1 1 -7 0 2 
2 2 0 1 2 2 0 1 0 -8 1 1 1 1 0 2 
2 2 1 1 0 1 0 -8 0 1 2 2 0 1 2 2 
0 1 0 -1 1 -7 0 2 2 2 0 1 2 2 0 -8 
1 1 0 2 2 2 1 1 0 1 1 -8 -1 0 2 2 
1 1 0 2 2 2 0 -9 1 1 0 2 2 2 1 1 
0 2 0 -10 1 1 1 1 0 2 2 2 1 1 0 1 
0 -10 1 1 0 2 2 2 1 1 0 2 1 -9 1 1 
0 2 2 2 1 1 4548 4207 100 MP stroke
0 1 0 -9 1 1 1 1 0 2 2 2 1 1 0 -8 
0 1 2 2 0 1 2 2 0 1 1 -8 -1 0 2 2 
1 1 0 2 2 2 0 -10 1 1 0 2 2 2 1 1 
0 1 0 -1 1 -25 0 2 2 2 1 1 0 2 2 2 
1 1 0 2 2 2 0 1 2 2 0 2 2 2 1 1 
0 2 2 2 0 1 2 2 0 1 1 -10 -1 0 2 2 
1 1 0 2 2 2 0 -10 0 1 2 2 0 1 2 2 
0 2 1 -10 0 1 2 2 0 2 2 2 0 -9 1 1 
0 2 2 2 0 1 2 2 0 -10 0 1 1 1 1 1 
0 2 2 2 0 1 0 -28 1 1 0 1 2 2 0 2 
2 2 1 1 0 2 2 2 0 1 2 2 0 2 2 2 
1 1 0 2 2 2 1 1 0 2 2 2 0 1 0 -25 
1 1 1 1 0 2 4469 4238 100 MP stroke
2 2 0 1 2 2 0 2 2 2 0 1 2 2 0 2 
2 2 0 1 2 2 0 2 2 2 0 1 2 2 0 1 
0 -1 1 -6 0 1 2 2 0 2 2 2 0 -8 1 0 
0 2 2 2 0 2 2 -19 0 1 1 1 0 2 2 2 
1 1 0 2 2 2 0 1 2 2 0 2 2 2 0 1 
2 2 0 2 2 2 1 1 0 2 2 2 0 1 0 -1 
1 -6 0 2 2 2 0 1 2 2 0 1 0 -8 1 1 
0 2 2 2 1 1 0 2 1 -7 -1 0 2 2 1 1 
0 2 2 2 0 -7 1 1 0 2 2 2 1 1 0 2 
0 -8 0 1 2 2 1 1 0 2 2 2 0 -7 1 1 
0 2 2 2 1 1 0 2 0 -8 1 1 0 1 2 2 
0 2 2 2 0 -8 0 1 2 2 0 2 2 2 0 1 
0 -9 1 1 0 1 4389 4205 100 MP stroke
2 2 0 2 2 2 0 -10 0 2 2 2 0 1 2 2 
0 1 0 -11 0 1 2 2 0 1 2 2 0 2 1 -8 
1 1 0 2 2 2 1 1 0 1 0 -8 1 1 0 1 
2 2 0 2 2 -7 0 1 1 1 1 1 0 2 2 2 
0 -9 0 1 2 2 0 2 2 2 0 1 0 -1 1 -8 
0 2 2 2 0 1 2 2 0 1 0 -10 0 1 2 2 
0 2 2 2 0 1 1 -9 -1 0 2 2 1 1 0 2 
2 2 0 -9 0 1 1 1 1 1 0 2 2 2 0 1 
0 -9 0 1 2 2 1 1 0 2 2 2 0 -8 1 1 
0 2 2 2 1 1 0 2 0 -11 0 1 2 2 1 1 
0 2 2 2 0 -27 1 1 0 2 2 2 0 2 2 2 
0 1 2 2 0 2 2 2 0 1 1 1 0 1 2 2 
0 2 2 2 1 1 4312 4219 100 MP stroke
0 2 2 2 0 2 1 -9 0 2 2 2 0 1 2 2 
0 1 0 -8 1 1 1 1 0 2 2 2 0 1 0 -1 
1 -6 0 2 2 2 0 1 2 2 0 -9 0 2 2 2 
0 1 2 2 0 1 0 -23 0 1 2 2 0 1 2 2 
0 2 2 2 1 1 0 2 2 2 0 2 2 2 1 1 
0 2 2 2 0 2 2 2 0 1 2 2 0 1 0 -8 
1 1 0 2 2 2 1 1 0 1 0 -8 0 1 2 2 
0 2 2 2 0 1 1 -8 0 1 1 1 0 2 2 2 
1 1 0 1 0 -8 0 1 2 2 0 2 2 2 0 1 
0 -1 1 -7 0 2 2 2 0 2 2 2 0 -8 0 1 
2 2 0 2 2 2 1 -7 -1 0 2 2 0 2 2 2 
0 1 0 -8 1 1 0 1 2 2 0 2 2 2 0 -8 
0 1 1 1 1 1 4237 4214 100 MP stroke
0 2 2 2 0 1 0 -8 0 1 2 2 0 1 2 2 
0 2 1 -8 0 1 1 1 0 1 1 1 0 1 2 2 
0 1 0 -8 0 1 2 2 0 1 1 1 1 1 0 1 
0 -1 1 -6 0 2 2 2 0 1 1 1 1 1 0 -8 
0 1 1 1 0 2 2 2 0 1 1 1 0 -8 0 1 
2 2 0 2 2 2 0 1 1 -8 -1 0 2 2 0 2 
2 2 1 1 0 1 0 -8 0 1 2 2 0 2 2 2 
0 1 0 -9 0 1 2 2 0 2 2 2 0 1 1 -8 
0 1 1 1 0 1 1 1 0 1 2 2 0 1 0 -9 
0 1 2 2 0 2 2 2 0 1 0 -9 0 1 2 2 
1 1 0 2 2 2 0 -9 0 1 1 1 0 2 2 2 
0 1 1 1 0 -9 0 1 2 2 0 2 2 2 0 1 
0 -9 1 1 0 2 4173 4221 100 MP stroke
2 2 0 1 2 2 0 -8 0 1 2 2 0 2 2 2 
0 -8 0 1 2 2 0 2 2 2 0 1 0 -8 0 1 
2 2 0 2 2 2 0 1 0 -8 1 1 0 1 2 2 
0 2 2 2 0 -9 0 1 2 2 0 2 2 2 0 -25 
0 1 2 2 0 1 2 2 0 2 2 2 0 2 2 2 
0 1 1 1 0 1 2 2 0 2 2 2 0 2 2 2 
1 1 0 2 2 2 0 -9 0 2 2 2 0 1 2 2 
0 1 0 -10 0 1 2 2 0 2 2 2 0 1 1 -11 
-1 0 2 2 0 2 2 2 0 2 0 -1 1 -8 0 2 
2 2 0 2 2 2 0 -9 0 1 1 1 0 2 2 2 
0 1 1 1 0 -8 0 1 2 2 0 2 2 2 0 1 
0 -8 1 1 0 2 2 2 0 1 2 2 0 -9 0 1 
2 2 0 2 2 2 4096 4222 100 MP stroke
0 -25 0 1 2 2 1 1 0 2 2 2 0 2 2 2 
0 2 2 2 0 1 2 2 0 2 2 2 0 2 2 2 
0 1 2 2 0 2 0 -1 1 -7 0 2 2 2 0 2 
2 2 0 -8 0 1 2 2 0 2 2 2 0 1 0 -8 
0 1 2 2 0 1 2 2 0 2 1 -8 -1 0 2 2 
0 2 2 2 1 1 0 -8 0 2 2 2 0 2 2 2 
0 -8 0 1 2 2 0 2 2 2 0 1 0 -8 0 1 
2 2 0 1 2 2 0 2 0 -1 1 -7 0 2 2 2 
0 2 2 -7 0 2 2 2 0 2 2 2 0 -8 0 1 
1 1 1 1 0 2 2 2 0 1 0 -8 0 1 2 2 
0 1 2 2 0 1 0 -8 1 1 0 1 1 1 0 1 
2 2 0 2 0 -9 1 1 1 1 0 2 2 2 0 2 
1 -9 0 2 2 2 4021 4224 100 MP stroke
0 2 2 2 0 -9 0 2 2 2 0 1 2 2 0 1 
0 -9 0 1 2 2 0 2 2 2 0 1 0 -9 0 1 
2 2 0 2 2 2 0 1 1 -8 -1 0 2 2 0 2 
2 2 0 1 1 -8 0 2 2 2 0 2 2 2 0 -8 
0 1 2 2 0 2 2 2 0 1 0 -11 0 1 2 2 
0 2 2 2 0 1 0 -28 1 1 1 1 0 2 2 2 
0 2 2 2 0 2 2 2 0 1 1 1 1 1 0 2 
2 2 0 2 2 2 0 2 2 2 1 1 0 2 0 -1 
1 -7 0 2 2 2 0 2 2 2 0 -10 0 1 2 2 
0 2 2 2 0 -29 0 2 2 2 0 1 1 1 0 1 
2 2 0 2 2 2 0 2 2 2 0 2 2 2 0 1 
2 2 0 2 2 2 0 2 2 2 0 1 0 -9 0 1 
2 2 0 2 2 2 3943 4224 100 MP stroke
0 1 1 -8 -1 0 2 2 0 2 2 2 0 1 1 1 
0 -9 0 2 2 2 0 2 2 2 0 -8 0 2 2 2 
0 1 1 1 1 1 0 1 0 -7 0 1 2 2 0 1 
2 2 0 1 0 -7 1 1 1 1 0 2 2 2 0 1 
0 -10 1 1 0 2 2 2 1 1 0 2 0 -29 1 1 
0 1 1 1 0 1 2 2 0 2 2 2 0 2 2 2 
0 2 2 2 0 1 1 1 0 1 2 2 0 2 2 2 
0 2 2 2 0 1 1 -8 -1 0 2 2 0 2 2 2 
0 2 0 -1 1 -7 0 2 2 2 1 1 0 2 1 -8 
0 2 2 2 0 2 2 2 0 -8 0 1 1 1 0 2 
2 2 1 1 0 1 0 -9 0 1 2 2 0 2 2 2 
0 1 0 -10 0 1 2 2 0 2 2 2 0 -28 0 1 
2 2 1 1 0 2 3873 4250 100 MP stroke
2 2 0 2 2 2 0 2 2 2 0 2 2 2 0 1 
2 2 0 2 2 2 0 2 2 2 0 1 0 -8 0 1 
2 2 0 2 2 2 0 1 0 -8 1 1 1 1 0 2 
2 2 0 2 1 -8 -1 0 2 2 0 2 2 2 0 1 
0 -1 1 -6 0 2 2 2 1 1 0 2 1 -7 0 1 
2 2 0 2 2 2 0 -8 0 2 2 2 0 2 2 2 
0 -8 0 1 1 1 0 1 1 1 0 1 2 2 0 1 
0 -8 0 1 2 2 0 2 2 2 0 1 0 -8 0 1 
2 2 0 1 1 1 1 1 0 1 0 -7 1 1 1 1 
0 2 2 2 0 1 1 -7 -1 0 2 2 0 2 2 2 
0 1 0 -8 0 1 2 2 0 2 2 2 0 1 0 -8 
0 1 2 2 0 2 2 2 0 1 0 -8 0 1 2 2 
0 1 1 1 1 1 3802 4228 100 MP stroke
0 1 0 -7 1 1 1 1 0 2 2 2 0 1 1 -7 
-1 0 2 2 0 2 2 2 0 1 1 -7 -1 0 2 2 
0 2 2 2 0 1 0 -8 0 1 2 2 0 2 2 2 
0 1 0 -8 0 1 2 2 0 1 1 1 1 1 0 2 
0 -8 1 1 1 1 0 2 2 2 0 1 1 -7 -1 0 
2 2 0 2 2 2 0 1 1 -7 -1 0 2 2 0 2 
2 2 0 1 1 -7 -1 0 2 2 0 2 2 2 0 1 
0 -8 0 1 2 2 0 1 1 1 1 1 0 2 0 -8 
1 1 1 1 0 2 2 2 0 2 1 -8 -1 0 2 2 
0 2 2 2 0 2 1 -8 -1 0 2 2 0 2 2 2 
0 1 1 -7 -1 0 2 2 0 2 2 2 0 1 1 -7 
-1 0 2 2 0 2 2 2 0 1 0 -8 1 1 0 1 
1 1 0 1 1 1 3739 4232 100 MP stroke
1 1 0 2 0 -8 1 1 1 1 0 2 2 2 0 2 
1 -8 -1 0 2 2 0 2 2 2 0 2 1 -8 -1 0 
2 2 0 2 2 2 0 2 1 -8 0 1 1 1 0 2 
2 2 0 1 1 -7 0 1 1 1 0 1 1 1 1 1 
0 2 1 -8 0 1 1 1 0 2 2 2 0 2 1 -8 
0 1 1 1 0 2 2 2 0 2 1 -8 0 1 1 1 
0 2 2 2 0 2 1 -8 0 1 1 1 0 2 2 2 
0 1 1 -7 -1 0 2 2 0 2 2 2 0 1 1 -7 
-1 0 2 2 0 2 2 2 0 1 1 -7 -1 0 2 2 
0 2 2 2 0 1 1 -7 -1 0 2 2 0 2 2 2 
0 1 1 -7 -1 0 2 2 0 2 2 2 0 1 0 -7 
1 1 1 1 0 2 1 1 1 1 0 1 0 -7 0 1 
2 2 0 2 2 2 3674 4231 100 MP stroke
0 1 0 -7 0 1 2 2 0 2 2 2 0 -7 0 1 
2 2 0 2 2 2 0 -10 0 1 2 2 0 2 2 2 
0 -32 0 1 1 1 0 1 2 2 0 2 2 2 0 2 
2 2 0 2 2 2 0 2 2 2 0 1 1 1 0 1 
2 2 0 2 2 2 0 2 1 -7 0 1 1 1 0 1 
2 2 0 2 1 -7 0 1 1 1 0 2 2 2 0 1 
1 -6 -1 0 2 2 0 1 1 1 1 1 0 2 0 -7 
1 1 1 1 0 2 2 2 0 1 0 -7 1 1 0 2 
2 2 1 1 0 2 0 -11 0 1 2 2 0 2 2 2 
0 1 0 -34 0 1 2 2 0 2 2 2 0 2 2 2 
0 1 1 1 0 1 2 2 0 2 2 2 0 2 2 2 
0 2 2 2 0 1 2 2 0 1 0 -9 0 1 1 1 
1 1 0 2 2 2 3601 4238 100 MP stroke
0 1 0 -9 0 1 2 2 0 2 2 2 0 -8 1 1 
0 2 2 2 0 2 1 -8 1 1 0 2 2 2 0 2 
1 -7 -1 0 2 2 0 2 2 2 0 1 0 -6 0 1 
2 2 0 2 2 2 0 -5 1 1 0 2 2 2 1 1 
0 1 0 -129 1 1 0 2 2 2 0 2 2 2 1 1 
0 2 2 2 0 2 2 2 0 2 2 2 0 2 2 2 
1 1 0 2 2 2 0 2 2 2 0 2 2 2 0 2 
2 2 0 1 2 2 0 2 2 2 0 2 2 2 0 2 
2 2 0 1 1 1 0 1 2 2 0 2 2 2 0 2 
2 2 0 2 2 2 1 1 0 2 2 2 0 2 2 2 
0 2 2 2 0 2 2 2 1 1 0 2 2 2 0 2 
2 2 0 2 2 2 0 2 2 2 0 1 2 2 0 2 
2 2 0 2 2 2 3514 4247 100 MP stroke
0 2 2 2 0 1 1 1 1 1 0 1 0 -7 1 1 
0 2 2 2 0 1 1 1 0 -7 0 1 2 2 0 2 
2 2 0 -8 0 1 1 1 0 2 2 2 0 2 1 -7 
1 1 0 2 2 2 0 1 1 -6 -1 0 2 2 0 2 
2 2 0 -6 1 1 1 1 0 2 2 2 0 -6 1 1 
0 2 2 2 0 2 1 -7 0 1 1 1 0 2 2 2 
0 1 0 -7 1 1 1 1 0 2 2 2 0 1 0 -7 
0 1 2 2 0 2 2 2 0 -6 1 1 0 2 2 2 
0 2 1 -7 0 1 1 1 0 2 2 2 0 1 0 -6 
1 1 1 1 0 2 2 2 0 1 0 -6 0 1 2 2 
0 2 2 2 0 -5 1 1 0 2 2 2 0 2 1 -6 
0 2 2 2 1 1 0 2 0 -9 0 1 2 2 0 1 
1 1 1 1 0 1 3446 4235 100 MP stroke
0 -33 1 1 0 2 2 2 0 1 1 1 0 1 2 2 
0 2 2 2 0 2 2 2 0 2 2 2 0 1 2 2 
0 2 2 2 0 2 1 -31 0 2 2 2 0 2 2 2 
0 2 2 2 0 1 1 1 1 1 0 2 2 2 0 2 
2 2 0 2 2 2 0 1 2 2 0 1 0 -7 0 1 
2 2 0 2 2 2 0 -11 0 1 1 1 0 1 2 2 
0 2 1 -34 0 1 1 1 0 2 2 2 1 1 0 2 
2 2 0 2 2 2 0 2 2 2 0 1 2 2 0 2 
2 2 0 2 2 2 0 -6 1 1 0 2 2 2 0 1 
1 -7 0 1 1 1 0 2 2 2 0 1 0 -7 0 1 
2 2 0 2 2 2 0 -7 0 2 2 2 1 1 0 2 
1 -7 0 1 1 1 0 2 2 2 0 1 1 -6 -1 0 
2 2 0 2 2 2 3367 4245 100 MP stroke
0 -6 1 1 0 2 2 2 0 2 1 -7 -1 0 2 2 
0 2 2 2 0 1 1 -6 -1 0 2 2 0 2 2 2 
0 -6 0 2 2 2 0 1 1 1 0 1 1 -6 -1 0 
2 2 0 2 2 2 0 1 0 -6 1 1 0 2 2 2 
1 1 0 1 0 -6 0 1 1 1 0 1 1 1 1 1 
0 2 0 -1 1 -4 0 2 2 2 1 1 0 1 0 -5 
0 1 2 2 0 2 2 2 0 -5 0 2 2 2 1 1 
0 2 1 -5 -1 0 2 2 0 2 2 2 0 -7 0 1 
2 2 0 1 1 1 1 1 0 1 0 -30 0 1 1 1 
0 1 2 2 0 2 2 2 0 2 2 2 0 1 2 2 
0 2 2 2 0 2 2 2 0 1 1 1 0 1 2 2 
0 1 0 -65 1 1 0 2 2 2 0 2 2 2 0 1 
2 2 0 2 2 2 3298 4283 100 MP stroke
0 2 2 2 0 1 2 2 0 2 2 2 0 2 2 2 
0 1 1 1 0 1 2 2 0 2 2 2 0 2 2 2 
1 1 0 2 2 2 0 2 2 2 0 -35 1 1 0 2 
2 2 0 1 1 1 0 1 2 2 0 2 2 2 0 2 
2 2 0 1 2 2 0 2 2 2 0 2 2 2 0 -6 
1 1 0 1 2 2 0 2 1 -6 0 1 1 1 0 1 
2 2 0 1 0 -6 1 1 0 2 2 2 1 1 0 1 
0 -6 1 1 0 2 2 2 0 1 1 -6 -1 0 2 2 
0 2 2 2 0 -6 1 1 0 2 2 2 0 1 1 -6 
-1 0 2 2 0 2 2 2 0 -6 1 1 0 2 2 2 
0 2 1 -6 1 1 0 2 2 2 0 1 0 -6 0 1 
2 2 0 1 2 2 0 -5 1 1 0 2 2 2 0 1 
0 -6 1 1 1 1 3221 4253 100 MP stroke
0 2 2 2 0 1 0 -6 1 1 0 2 2 2 0 1 
1 -5 -1 0 2 2 0 2 2 2 0 -5 1 1 0 2 
2 2 0 2 1 -5 0 1 1 1 0 1 2 2 0 1 
0 -5 1 1 0 2 2 2 1 1 0 1 0 -6 0 1 
1 1 0 2 2 2 0 1 1 -6 -1 0 2 2 0 2 
2 2 0 -9 1 1 0 2 2 2 0 1 1 -31 -1 0 
2 2 0 2 2 2 1 1 0 2 2 2 0 2 2 2 
1 1 0 2 2 2 0 2 2 2 0 1 2 2 0 1 
1 -4 -1 0 2 2 0 2 2 2 0 -5 0 2 2 2 
1 1 0 1 1 -4 -1 0 2 2 0 2 2 2 0 -6 
0 1 1 1 0 1 2 2 0 1 0 -10 0 1 2 2 
0 2 2 2 0 -32 0 1 1 1 1 1 0 2 2 2 
0 2 2 2 1 1 3150 4265 100 MP stroke
0 2 2 2 0 2 2 2 0 1 2 2 0 2 2 2 
0 2 1 -5 0 2 2 2 1 1 0 1 0 -4 1 1 
0 1 2 2 0 2 1 -5 0 1 1 1 0 2 2 2 
0 1 0 -5 0 1 2 2 1 1 0 2 1 -6 0 1 
1 1 0 2 2 2 0 -9 1 1 0 1 2 2 0 2 
0 -1 1 -31 0 2 2 2 0 1 2 2 0 2 2 2 
1 1 0 2 2 2 0 2 2 2 0 1 2 2 0 2 
2 2 0 1 0 -5 1 1 1 1 0 2 2 2 0 1 
0 -5 0 1 2 2 1 1 0 2 0 -6 0 1 2 2 
0 1 2 2 0 -6 1 1 0 2 2 2 0 -11 0 1 
2 2 1 1 0 2 1 -38 0 2 2 2 0 2 2 2 
0 1 2 2 0 2 2 2 1 1 0 2 2 2 0 2 
2 2 0 1 2 2 3072 4263 100 MP stroke
0 1 0 -6 0 1 2 2 0 1 2 2 0 -6 0 2 
2 2 1 1 0 1 0 -1 1 -4 0 2 2 2 0 1 
1 -5 -1 0 2 2 0 2 2 2 0 -5 0 1 1 1 
0 1 2 2 0 1 0 -6 1 1 1 1 0 2 2 2 
0 -6 0 1 1 1 0 1 2 2 0 1 0 -6 0 1 
2 2 1 1 0 2 1 -6 -1 0 2 2 0 1 2 2 
0 1 0 -7 0 1 1 1 0 1 2 2 0 1 0 -6 
0 1 2 2 0 1 2 2 0 -6 0 1 1 1 0 1 
1 1 1 1 0 1 0 -6 0 1 2 2 1 1 0 2 
1 -6 -1 0 2 2 0 1 2 2 0 -6 0 2 2 2 
1 1 0 1 0 -6 0 1 2 2 1 1 0 2 1 -6 
0 2 2 2 1 1 0 1 0 -6 1 1 0 2 2 2 
0 1 1 -6 -1 0 3011 4268 100 MP stroke
2 2 0 2 2 2 0 -5 0 1 2 2 1 1 0 1 
0 -5 0 1 2 2 1 1 0 2 1 -5 -1 0 2 2 
0 1 2 2 0 -5 0 2 2 2 1 1 0 1 0 -5 
1 1 0 2 2 2 0 1 0 -1 1 -3 0 2 2 2 
0 1 1 -4 0 2 2 2 1 1 0 1 0 -4 1 1 
0 2 2 2 0 -3 1 1 0 1 2 2 0 1 0 -1 
1 -2 0 2 2 2 1 1 0 1 0 -3 0 1 2 2 
1 1 0 1 0 -3 1 1 0 1 2 2 0 1 0 -1 
1 -2 0 2 2 2 1 1 0 -5 0 2 2 2 1 1 
0 1 0 -9 1 1 0 2 2 2 0 1 0 -31 0 1 
2 2 0 1 2 2 0 2 2 2 1 1 0 2 2 2 
0 1 2 2 0 2 2 2 1 1 0 2 2 2 0 -5 
0 1 1 1 0 1 2941 4252 100 MP stroke
2 2 0 1 0 -7 0 1 2 2 1 1 0 2 1 -12 
0 1 1 1 0 2 2 2 0 -38 0 1 2 2 1 1 
0 2 2 2 0 1 2 2 0 2 2 2 1 1 0 2 
2 2 1 1 0 2 2 2 0 1 0 -6 1 1 0 1 
2 2 0 2 1 -6 -1 0 2 2 0 1 2 2 0 -5 
1 1 0 2 2 2 0 -6 0 1 1 1 0 1 2 2 
0 1 0 -6 0 1 2 2 1 1 0 2 0 -6 1 1 
0 1 2 2 0 2 1 -6 0 2 2 2 1 1 0 1 
0 -5 0 1 2 2 1 1 0 1 0 -5 1 1 0 2 
2 2 0 -4 1 1 0 1 2 2 0 1 1 -3 -1 0 
2 2 0 1 2 2 0 -3 1 1 0 2 2 2 0 -2 
1 1 0 1 2 2 0 1 0 -2 1 1 0 2 2 2 
0 1 1 -3 -1 0 2872 4260 100 MP stroke
2 2 1 1 0 2 1 -3 -1 0 2 2 0 1 2 2 
0 -3 1 1 0 2 2 2 0 -4 1 1 0 2 2 2 
0 1 0 -6 0 1 2 2 1 1 0 2 1 -10 -1 0 
2 2 0 2 2 -31 1 1 0 2 2 2 1 1 0 2 
2 2 1 1 0 2 2 2 1 1 0 2 2 2 1 1 
0 2 2 2 0 -3 1 1 0 1 2 2 0 1 0 -1 
1 -2 0 2 2 2 0 1 1 -3 -1 0 2 2 0 1 
2 2 0 -4 0 1 1 1 0 1 2 2 0 -4 0 1 
1 1 0 1 2 2 0 -5 1 1 0 1 2 2 0 1 
0 -11 1 1 0 1 2 2 0 1 0 -1 1 -35 0 2 
2 2 1 1 0 2 2 2 1 1 0 2 2 2 1 1 
0 2 2 2 1 1 0 2 2 2 0 1 1 -4 -1 0 
2 2 0 1 2 2 2796 4269 100 MP stroke
0 -4 0 1 1 1 0 1 2 2 0 -3 0 1 2 2 
1 1 0 1 0 -4 1 1 0 2 2 2 0 -3 0 1 
2 2 1 1 0 1 0 -3 0 1 2 2 1 1 0 1 
1 -2 -1 0 2 2 1 1 0 2 0 -1 1 -2 0 2 
2 2 0 1 0 -1 1 -2 0 2 2 2 1 1 0 -3 
1 1 0 2 2 2 0 -5 1 1 0 2 2 2 0 -9 
1 1 0 1 2 2 0 1 0 -33 1 1 0 2 2 2 
0 1 2 2 1 1 0 2 2 2 0 1 2 2 1 1 
0 2 2 2 0 1 2 2 0 1 1 -2 -1 0 2 2 
1 1 0 2 0 -1 1 -1 1 1 0 2 2 0 1 1 
0 2 2 2 0 -2 1 1 0 2 2 2 0 -2 1 1 
0 2 2 2 0 -2 0 1 2 2 1 1 0 1 0 -4 
1 1 0 2 2 2 2725 4245 100 MP stroke
0 -7 1 1 0 1 2 2 0 -34 0 1 2 2 0 1 
2 2 1 1 0 2 2 2 0 1 2 2 1 1 0 2 
2 2 0 1 2 2 1 1 0 1 0 -25 1 1 0 1 
2 2 1 1 0 2 2 2 0 1 2 2 1 1 0 2 
2 2 0 1 2 2 0 1 2 2 0 1 0 -2 1 1 
0 1 2 2 0 1 0 -2 1 1 0 1 2 2 0 1 
0 -3 0 1 2 2 1 1 0 1 0 -4 0 1 2 2 
1 1 0 1 0 -8 0 1 2 2 1 1 0 1 0 -27 
1 1 0 1 2 2 1 1 0 2 2 2 0 1 2 2 
1 1 0 2 2 2 0 1 2 2 0 1 2 2 0 0 
2 2 1 1 0 0 2 2 1 1 0 1 0 -2 1 1 
0 1 2 2 0 1 1 -4 -1 0 2 2 1 1 0 1 
0 -1 1 -7 0 2 2649 4253 100 MP stroke
2 2 0 1 0 -1 1 -30 0 2 2 2 0 1 2 2 
0 1 2 2 1 1 0 2 2 2 0 1 2 2 0 1 
2 2 1 1 0 1 0 -6 1 1 0 1 2 2 0 1 
0 -12 1 1 0 1 2 2 0 1 1 -40 -1 0 2 2 
0 1 2 2 1 1 0 2 2 2 0 1 2 2 0 1 
2 2 0 1 2 2 0 1 2 2 0 1 0 -5 1 1 
0 1 2 2 0 1 0 -5 1 1 0 1 2 2 0 -4 
1 1 0 1 2 2 0 -4 1 1 0 1 2 2 0 -4 
1 1 0 1 2 2 0 -4 1 1 0 1 2 2 0 -5 
0 1 1 1 0 1 2 2 0 -5 0 1 1 1 0 1 
2 2 0 -4 1 1 0 1 2 2 0 -4 1 1 0 2 
2 -3 1 1 0 2 2 -3 0 1 1 1 1 1 0 2 
0 -1 1 -3 0 1 2575 4286 100 MP stroke
2 2 0 1 1 -4 -1 0 2 2 1 1 0 2 1 -4 
-1 0 2 2 1 1 0 1 1 -3 -1 0 2 2 1 1 
0 1 0 -3 1 1 0 1 2 2 0 -3 1 1 0 1 
2 2 0 1 0 -3 1 1 0 1 2 2 0 1 0 -3 
0 1 2 2 1 1 0 -2 0 1 2 2 1 1 0 1 
0 -2 1 1 1 1 0 2 1 -2 0 1 2 2 0 1 
0 -3 1 1 0 1 2 2 0 -3 1 1 0 1 2 2 
1 -4 -1 0 2 2 1 1 0 1 0 -10 0 1 2 2 
1 1 0 -31 1 1 0 1 2 2 0 1 2 2 0 1 
2 2 0 1 2 2 0 1 2 2 0 1 2 2 1 1 
0 1 1 -2 -1 0 2 2 1 1 0 1 0 -1 1 -1 
0 2 2 2 1 -1 -1 0 2 2 1 1 0 1 0 -2 
1 1 1 1 1 2 2506 4273 100 MP stroke
-1 0 2 0 1 1 1 2 -1 0 2 0 0 1 2 2 
0 -2 0 1 1 1 0 1 2 0 0 1 2 2 0 1 
1 -3 -1 0 2 2 1 1 0 1 1 -4 -1 0 2 2 
1 1 0 1 1 -9 -1 0 2 2 1 1 0 1 0 -33 
0 1 2 2 0 1 2 2 0 1 2 2 0 1 2 2 
0 1 2 2 0 1 2 2 1 1 1 1 0 1 2 2 
1 1 0 1 2 2 0 1 2 2 1 1 0 2 2 2 
0 1 2 2 0 1 2 2 0 1 2 2 1 1 0 1 
2 2 1 1 -1 0 2 0 1 1 0 2 1 -6 0 1 
1 1 1 1 0 1 0 -22 1 1 0 1 2 2 1 1 
0 1 2 2 0 1 2 2 0 1 2 2 1 1 0 1 
2 2 1 1 1 2 -1 0 2 0 1 1 1 1 0 -4 
1 1 1 1 0 1 2427 4249 100 MP stroke
1 -21 -1 0 2 2 0 1 2 2 1 1 0 1 2 2 
0 1 2 2 1 1 0 1 2 2 0 1 2 2 1 1 
0 -1 0 1 2 2 1 1 0 -4 1 1 1 1 0 2 
1 -20 0 1 1 1 1 1 0 1 2 2 0 1 2 2 
1 1 0 1 2 2 0 1 2 2 0 1 2 2 1 1 
0 1 2 2 1 1 0 -2 0 1 2 2 1 1 0 -6 
1 1 1 1 0 1 0 -35 1 1 1 1 0 1 2 2 
0 1 2 2 1 1 0 1 2 2 0 1 2 2 1 1 
0 1 2 2 1 1 0 -33 0 1 2 2 0 1 2 2 
1 1 0 1 2 2 0 1 2 2 1 1 0 1 2 2 
0 1 2 2 0 1 1 -6 -1 0 2 2 1 1 0 1 
0 -11 1 1 1 1 1 1 0 1 0 -37 1 1 1 1 
0 1 2 2 0 1 2345 4311 100 MP stroke
2 2 1 1 0 1 2 2 1 1 0 1 2 2 0 1 
2 2 0 1 0 -4 1 1 1 1 1 1 0 1 1 -3 
-1 0 2 2 1 1 0 1 1 -3 -1 0 2 2 1 1 
0 -2 1 1 0 1 2 -1 0 1 2 2 0 1 0 -1 
1 -1 1 1 1 2 -1 0 2 0 1 1 1 1 0 1 
0 -1 1 1 1 1 1 1 0 1 2 2 1 1 1 1 
0 2 2 2 0 1 2 2 0 1 2 2 0 1 1 1 
0 1 2 2 0 1 1 1 0 1 2 2 0 1 2 2 
1 1 1 1 1 1 0 -1 0 1 2 2 1 1 0 -5 
0 1 2 2 0 -21 1 1 1 1 0 1 2 2 1 1 
0 1 2 2 1 1 0 1 2 2 1 1 1 1 0 1 
2 2 1 1 0 2 2 2 1 1 0 1 2 2 1 -1 
-1 0 2 2 1 1 2263 4247 100 MP stroke
0 -6 0 1 2 2 0 1 1 -28 -1 0 2 2 1 1 
0 1 2 2 1 1 1 1 0 1 2 2 1 1 0 1 
2 2 1 1 0 1 2 2 0 -8 0 1 2 2 0 1 
1 -30 -1 0 2 2 1 1 0 1 2 2 1 1 0 1 
2 2 1 1 1 1 0 1 2 2 1 1 0 1 2 2 
0 -1 1 1 1 1 0 1 1 -2 -1 0 2 2 1 1 
0 1 0 -4 1 1 1 1 1 1 0 1 0 -7 0 1 
2 2 0 1 1 -13 1 1 1 1 0 1 0 -46 1 1 
1 1 0 1 2 2 1 1 1 1 0 1 2 2 1 1 
0 1 2 2 1 1 1 1 1 1 0 1 1 -4 -1 0 
2 2 1 1 0 1 0 -1 1 -3 0 1 2 2 0 -4 
1 1 0 1 2 -2 1 1 1 1 0 1 0 -4 1 1 
1 1 1 1 0 1 2188 4312 100 MP stroke
0 -3 1 1 0 1 2 -1 1 1 1 2 -1 0 2 0 
1 1 1 1 1 1 0 2 2 -2 1 1 1 1 0 1 
1 -3 -1 0 2 2 1 1 0 -2 1 0 0 1 2 2 
0 -3 0 1 2 2 1 -2 -1 0 2 2 1 1 0 -2 
1 1 1 1 1 1 -1 0 2 0 0 1 2 0 1 1 
1 1 0 1 0 -1 1 1 1 1 1 1 1 1 0 1 
2 2 1 1 1 1 0 2 1 1 0 1 2 2 0 1 
1 1 1 1 0 2 1 1 1 1 1 1 0 3 2 2 
0 1 0 -1 1 3 1 1 1 1 0 1 0 -1 1 3 
0 2 2 2 1 1 0 1 2 2 1 1 1 1 -1 0 
2 0 1 1 0 1 0 -1 1 -5 1 1 1 1 0 1 
1 -29 -1 0 2 2 1 1 1 1 1 1 0 1 2 2 
1 1 1 1 1 1 2112 4272 100 MP stroke
0 1 2 2 1 1 1 1 0 -7 1 1 1 1 1 1 
0 -27 1 1 1 1 1 1 1 1 1 1 0 1 2 2 
1 1 1 1 1 1 0 1 2 2 1 1 1 1 0 2 
1 1 1 1 0 1 0 -1 1 4 0 1 2 2 0 3 
1 0 1 1 0 2 1 2 0 1 2 2 0 2 1 1 
1 1 1 1 0 2 2 2 1 0 -1 0 2 2 1 1 
0 -3 1 1 0 1 2 -8 1 1 1 1 0 1 0 -1 
1 -47 1 1 0 1 2 2 1 1 1 1 1 1 1 1 
0 1 2 2 1 1 1 1 1 1 1 1 0 1 0 -1 
1 -45 1 1 1 1 0 1 2 2 1 1 1 1 1 1 
1 1 1 1 0 1 2 2 1 1 1 1 0 1 0 -1 
1 -3 0 1 2 2 0 -3 1 0 1 1 1 1 0 -3 
1 1 1 1 0 1 2032 4318 100 MP stroke
0 -1 1 -2 1 1 1 1 0 -3 1 1 1 1 0 1 
0 -1 1 -1 1 1 1 1 1 -1 1 1 1 1 -1 0 
2 0 1 1 1 1 1 1 0 1 2 2 1 1 0 3 
1 1 1 1 1 1 -1 0 2 0 0 1 2 0 0 1 
1 1 1 1 1 0 -1 0 2 2 1 1 1 1 1 1 
1 1 1 1 0 1 2 2 0 1 2 2 1 1 0 1 
2 2 1 1 1 1 1 1 0 1 2 2 1 1 1 1 
-1 0 2 0 1 1 0 -2 1 0 0 1 2 2 0 -6 
1 1 1 1 0 1 0 -13 1 1 1 1 1 1 0 -44 
1 1 1 1 1 1 1 1 1 1 1 1 1 1 1 1 
1 1 1 1 1 1 1 1 0 1 2 2 0 -3 1 1 
1 1 0 1 0 -1 1 -2 1 1 1 1 0 -2 1 1 
1 1 0 -2 1 0 1953 4319 100 MP stroke
1 1 1 1 0 -2 1 1 1 1 0 -2 1 0 1 1 
1 1 0 -2 1 1 1 1 0 -2 1 0 1 1 1 1 
1 -2 -1 0 2 2 0 -3 1 1 1 1 1 1 0 -3 
1 1 1 1 0 1 0 -3 1 1 1 1 1 1 0 -3 
1 1 1 1 0 1 0 -3 1 1 1 1 1 1 0 -3 
1 1 1 1 0 1 0 -1 1 -2 1 1 1 1 0 -2 
1 1 1 1 0 -2 1 0 1 1 1 1 0 -2 1 1 
1 1 0 -2 1 0 1 1 1 1 0 -3 1 1 1 1 
0 1 0 -3 1 1 1 1 1 1 0 -3 1 1 1 1 
0 1 0 -3 1 1 1 0 -1 0 2 2 0 -3 1 1 
1 1 0 1 0 -1 1 -2 0 1 2 2 0 -3 1 1 
1 1 0 1 0 -3 1 1 1 1 1 1 0 -2 1 0 
1 1 0 1 0 -1 1889 4319 100 MP stroke
1 -1 1 1 1 1 0 -2 1 1 1 1 0 1 0 -1 
1 -1 1 1 1 1 -1 0 2 0 1 1 1 -1 1 1 
1 1 1 0 1 1 0 1 0 -1 1 1 1 1 1 1 
-1 0 2 0 1 1 1 1 1 1 0 1 2 2 0 1 
2 2 1 1 0 1 2 2 1 1 0 1 0 -1 1 3 
1 1 1 1 0 2 1 1 1 1 0 3 1 1 1 1 
1 1 0 2 1 1 1 1 0 1 0 -1 1 -2 1 1 
1 1 0 -5 1 1 1 1 0 -13 1 0 1 1 1 1 
0 -45 1 1 1 1 1 1 1 1 1 1 1 1 1 1 
1 1 1 1 1 1 1 1 1 1 1 0 1 1 0 -2 
1 1 1 1 0 1 0 -1 1 -1 1 1 0 1 0 -1 
1 -1 1 1 1 1 1 -1 1 1 0 1 0 -2 1 1 
1 1 1 1 0 -2 1815 4323 100 MP stroke
1 1 1 1 -1 0 2 0 0 1 2 0 1 1 1 1 
1 0 1 1 1 1 1 1 1 1 1 1 1 1 1 1 
0 1 2 2 1 1 1 0 0 2 1 1 1 0 0 1 
0 -1 1 3 1 1 1 1 0 2 1 0 1 1 0 1 
0 -1 1 3 0 1 2 2 1 1 1 1 0 2 1 1 
0 1 2 2 1 0 1 1 1 1 0 1 2 0 1 1 
1 1 0 -4 1 1 1 1 0 -9 1 0 1 1 0 1 
0 -1 1 -35 1 1 1 1 1 1 1 1 1 1 1 1 
1 1 1 1 1 0 1 1 1 1 1 1 0 1 2 2 
1 1 1 1 0 2 1 1 1 1 0 3 1 0 0 1 
2 4 1 1 1 1 0 3 1 1 1 1 0 4 1 0 
1 1 1 1 0 4 1 0 1 1 0 4 1 1 1 0 
-1 0 2 4 1 1 1735 4266 100 MP stroke
1 1 0 2 1 1 1 1 1 1 1 1 1 0 0 1 
0 -1 1 -1 1 1 0 1 0 -1 1 -7 1 1 1 1 
0 -34 1 1 1 1 1 0 1 1 1 1 1 1 1 1 
1 1 1 0 1 1 1 1 1 1 1 1 0 -5 1 0 
1 1 1 1 0 -13 1 0 1 1 0 1 0 -1 1 -44 
1 1 1 1 1 1 1 0 1 1 1 1 1 1 1 1 
1 0 1 1 1 1 1 1 1 1 1 1 0 1 2 3 
1 1 1 0 0 1 0 -1 1 -1 1 1 0 1 0 -1 
1 -1 1 1 1 1 0 -2 1 1 1 1 1 -1 0 1 
2 0 1 1 1 0 0 1 0 -1 1 1 1 0 1 1 
1 1 1 1 1 1 1 1 0 2 1 0 1 1 0 2 
1 0 1 1 1 1 0 2 1 1 1 1 0 3 1 0 
1 1 0 1 0 -1 1659 4306 100 MP stroke
1 4 1 1 1 1 0 4 1 1 1 0 0 5 1 1 
1 1 0 5 1 0 0 1 2 6 1 1 1 1 0 5 
1 1 1 0 0 1 0 -1 1 6 1 1 1 4 1 1 
1 1 0 3 1 0 0 1 2 2 1 0 -1 0 2 -1 
1 1 1 1 0 -10 1 1 1 1 0 -83 1 0 1 1 
1 1 1 0 1 1 1 1 1 1 1 0 1 1 1 1 
1 0 1 1 1 1 1 1 1 0 1 1 1 1 1 1 
1 0 1 1 1 1 1 1 1 0 1 1 1 1 1 1 
0 1 2 2 1 1 1 0 0 2 1 1 1 0 0 1 
0 -1 1 3 1 1 0 3 1 0 1 0 1 1 0 3 
1 0 1 1 0 3 1 0 1 1 0 3 1 0 1 1 
1 0 0 1 0 -1 1 3 1 1 0 2 1 1 1 0 
-1 0 2 2 1 1 1581 4283 100 MP stroke
1 0 1 1 1 0 0 1 0 -3 1 1 1 1 0 -6 
1 1 1 0 1 1 0 -14 1 1 1 1 0 -48 1 1 
1 0 1 1 1 1 1 0 1 1 1 1 1 0 1 1 
1 1 1 1 1 0 1 1 1 1 0 -3 1 1 1 0 
0 1 0 -3 1 1 1 0 0 1 0 -1 1 -2 0 1 
2 -2 1 1 1 0 0 -2 1 0 1 1 0 -2 1 0 
1 1 1 -2 1 1 1 0 0 -2 1 1 1 0 0 1 
0 -1 1 -1 1 1 1 -1 1 1 1 0 -1 0 2 0 
1 1 1 0 0 1 2 2 1 0 1 1 0 2 1 1 
1 0 0 1 0 -1 1 -1 1 1 0 1 0 -1 1 -1 
1 1 1 0 0 1 0 -2 1 1 1 0 -1 0 2 0 
1 1 1 0 1 0 1 1 1 0 1 1 1 0 1 1 
1 1 1 0 1 1 1506 4331 100 MP stroke
1 1 1 1 1 1 0 1 2 2 1 0 0 2 1 0 
1 1 0 2 1 1 1 0 0 1 0 -1 1 3 1 1 
1 0 0 3 1 1 1 0 0 1 0 -1 1 4 1 1 
0 4 1 0 1 0 0 1 0 -1 1 4 1 1 1 1 
0 3 1 1 1 0 0 4 1 0 1 1 0 3 1 0 
1 1 0 2 1 0 1 1 1 1 1 1 1 0 0 1 
0 -2 1 1 1 0 0 1 0 -1 1 -5 1 1 0 -25 
1 0 1 1 1 1 1 0 1 1 1 0 1 1 1 1 
1 0 1 1 1 0 1 1 1 0 1 1 0 5 1 1 
1 0 0 6 1 0 1 1 0 6 1 0 1 1 0 6 
1 0 1 0 1 1 0 5 1 1 1 0 0 5 1 0 
1 1 0 3 1 0 1 1 0 2 1 0 1 0 1 1 
1 -1 1 1 0 -8 1435 4261 100 MP stroke
1 1 1 0 0 1 0 -1 1 -37 1 1 1 1 1 0 
1 1 1 0 1 1 1 0 1 1 1 0 1 1 1 1 
1 0 -1 0 2 -13 1 1 1 0 0 -47 1 0 1 1 
1 0 1 1 1 0 1 1 1 0 1 1 1 0 1 1 
1 0 1 1 1 1 0 -2 1 0 1 1 1 -1 1 0 
1 1 0 -2 1 0 1 1 0 -2 1 1 1 0 1 -1 
1 1 0 -2 1 1 1 0 1 1 0 -2 1 1 1 0 
-1 0 2 0 1 0 1 0 1 0 1 1 1 0 1 1 
1 1 1 0 -1 0 2 2 1 0 0 2 1 1 1 0 
0 1 0 -1 1 4 1 0 0 1 0 -1 1 6 1 0 
1 1 0 6 1 0 1 1 0 8 1 1 1 0 0 5 
1 0 1 1 0 5 1 0 1 1 1 0 0 6 1 0 
1 1 0 6 1 0 1358 4286 100 MP stroke
1 1 0 6 1 0 1 1 0 6 1 0 1 1 0 5 
1 0 1 1 0 5 1 0 1 1 1 0 0 4 1 0 
1 1 0 2 1 0 1 0 0 1 0 -2 1 1 1 0 
0 -14 1 0 1 0 1 1 1 0 1 1 1 0 1 1 
1 0 1 0 1 1 1 0 1 1 1 0 -1 0 2 2 
1 1 1 -1 1 0 1 1 0 -14 1 0 1 1 1 0 
1 1 1 0 1 1 1 0 1 0 1 1 1 0 1 1 
1 0 1 1 0 4 1 0 1 0 0 3 1 0 1 1 
1 0 1 1 0 -5 1 1 1 0 0 -24 1 0 1 0 
1 1 1 0 1 1 1 0 1 0 1 1 1 0 1 1 
1 0 1 1 1 0 1 0 1 -1 1 0 0 1 0 -8 
1 1 1 0 0 -29 1 0 1 1 1 0 1 1 1 0 
1 0 1 1 1 0 1277 4313 100 MP stroke
1 1 1 0 1 0 1 1 1 0 0 4 1 0 1 1 
1 4 1 0 1 0 0 4 1 0 1 1 0 3 1 0 
1 1 0 2 1 1 1 0 0 2 1 0 1 0 1 1 
1 0 0 1 0 -1 1 -1 1 0 1 -5 1 0 1 1 
0 -14 1 0 1 1 0 -48 1 0 1 0 1 1 1 0 
1 0 1 1 1 0 1 1 1 0 1 0 1 1 1 0 
1 0 1 -1 1 0 0 1 0 -1 1 -1 1 0 0 1 
0 -1 1 -1 1 0 -1 0 2 -1 1 0 1 1 0 -2 
1 0 1 0 0 -2 1 1 1 0 0 -2 1 0 1 1 
0 -2 1 0 1 1 0 -2 1 0 1 1 0 -2 1 0 
1 1 1 -1 1 0 1 1 1 -1 1 0 1 1 1 0 
1 1 1 1 0 1 1 1 1 0 0 3 1 0 1 1 
1 -1 1 0 -1 0 1202 4352 100 MP stroke
2 0 1 0 -1 0 2 0 1 0 1 0 1 0 1 0 
1 0 1 0 1 0 1 0 1 0 1 0 1 0 1 0 
1 0 1 0 1 0 1 0 1 0 1 0 1 0 1 1 
-1 0 2 0 1 0 1 0 1 0 1 1 1 0 1 0 
1 1 1 0 1 1 1 1 1 0 1 1 1 0 -1 0 
2 2 1 0 1 2 1 0 -1 0 2 3 1 0 1 0 
0 3 1 0 1 0 0 3 1 1 1 0 0 4 1 0 
1 0 0 4 1 1 1 0 0 5 1 0 1 0 0 6 
1 0 1 0 0 6 1 1 1 0 0 6 1 1 1 0 
0 7 1 0 1 0 0 8 1 0 1 0 0 7 1 0 
1 1 0 7 1 0 1 0 0 6 1 0 1 0 0 1 
0 -1 1 6 1 0 0 4 1 0 1 0 0 2 1 0 
1 0 1 -1 1 0 1123 4251 100 MP stroke
1 -9 1 1 1 -51 1 0 1 0 1 1 1 0 1 0 
1 0 1 1 1 0 1 0 1 0 1 1 1 0 1 0 
0 -46 1 0 1 1 1 0 1 0 1 0 1 1 1 0 
1 0 1 0 1 0 1 1 1 0 1 0 1 0 1 0 
1 0 1 0 -1 0 2 0 1 0 1 -1 1 1 1 -1 
1 0 -1 0 2 0 1 0 1 0 1 0 1 -1 1 1 
1 -1 1 0 -1 0 2 0 1 0 1 -1 1 0 1 -1 
1 0 -1 0 2 0 1 0 1 -1 1 0 1 -1 1 0 
1 0 1 -1 1 0 1 -1 1 0 1 -1 1 0 0 -2 
1 1 1 0 0 -2 1 0 1 0 1 -1 1 0 1 -1 
1 0 1 -1 1 0 1 -1 1 1 1 -1 1 0 1 0 
1 0 1 1 1 0 0 2 1 0 1 0 0 2 1 0 
1 1 0 4 1 0 1034 4356 100 MP stroke
1 0 0 5 1 0 1 0 -1 0 2 2 1 0 0 2 
1 0 1 0 0 2 1 0 1 0 0 3 1 0 1 0 
0 2 1 0 1 1 0 2 1 1 1 0 0 3 1 0 
1 0 0 4 1 0 1 0 0 4 1 0 1 0 0 4 
1 0 1 0 0 4 1 0 1 0 0 4 1 0 1 0 
0 4 1 0 1 0 0 4 1 0 1 0 0 3 1 0 
1 0 0 2 1 0 1 0 1 0 1 0 1 -1 1 0 
0 -3 1 0 1 0 0 -8 1 0 1 1 0 -14 1 0 
1 0 0 -30 1 0 1 0 0 -91 1 0 1 0 1 0 
1 0 1 0 1 0 1 0 1 0 1 0 1 0 1 1 
1 0 0 -13 1 0 1 0 0 -14 1 0 1 0 0 -14 
1 0 1 0 0 -14 1 0 1 0 0 -13 1 0 1 0 
0 -12 1 0 1 0 963 4525 100 MP stroke
0 -11 1 0 1 0 0 -7 1 0 1 0 0 -4 1 0 
1 0 -1 0 2 2 1 0 0 10 1 0 1 0 0 30 
1 0 1 0 0 116 1 0 1 0 1 0 1 0 1 0 
1 0 1 0 1 0 1 0 1 0 1 0 1 0 1 0 
0 158 1 0 1 1 0 300 1 0 1 0 0 835 1 0 
1 0 1 0 1 0 1 0 1 0 1 0 1 0 1 0 
1 0 1 0 1 0 1 0 0 326 1 0 1 0 0 353 
1 0 1 0 0 371 1 0 1 0 0 373 1 0 1 0 
0 356 1 0 1 0 0 321 1 0 1 0 0 268 1 0 
1 0 1 0 1 0 1 0 1 0 1 0 1 0 1 0 
1 0 899 727 82 MP stroke
/c9 { 1.000000 0.000000 0.000000 sr} bdef
c9
1 1 1 1 0 2 2 2 0 2 2 2 0 2 2 2 
0 1 2 2 0 -8 1 1 0 2 2 2 0 2 2 2 
0 -8 0 1 2 2 0 2 2 2 1 1 0 1 0 -8 
0 1 2 2 1 1 0 2 2 2 0 1 0 -11 1 1 
0 1 2 2 0 2 2 2 0 1 0 -38 1 1 0 2 
2 2 1 1 0 2 2 2 0 2 2 2 0 2 2 2 
0 1 1 1 1 1 0 2 2 2 0 2 2 2 0 2 
2 2 0 1 2 2 0 -8 1 1 0 2 2 2 0 2 
2 2 0 -8 0 1 2 2 0 2 2 2 1 1 0 1 
0 -8 1 1 0 1 2 2 0 2 2 2 0 1 0 -12 
0 1 2 2 0 2 2 2 1 1 0 2 0 -39 1 1 
1 1 0 2 2 2 0 2 2 2 0 2 2 2 0 1 
2 2 0 2 2 2 6173 4257 100 MP stroke
0 2 2 2 0 2 2 2 0 1 2 2 0 2 2 2 
0 -9 1 1 0 2 2 2 0 2 2 2 0 -9 1 1 
0 2 2 2 0 2 2 2 0 -9 1 1 0 2 2 2 
0 2 2 2 0 1 0 -9 1 1 0 1 2 2 0 2 
2 2 0 1 1 -8 -1 0 2 2 0 2 2 2 0 1 
1 1 0 1 1 -8 0 2 2 2 1 1 0 2 2 2 
0 -8 1 1 0 2 2 2 0 2 2 2 0 -12 0 1 
1 1 0 1 2 2 0 2 2 2 0 1 0 -40 0 1 
2 2 0 2 2 2 1 1 0 2 2 2 0 2 2 2 
0 2 2 2 0 1 2 2 0 2 2 2 0 2 2 2 
0 1 2 2 0 2 1 -9 -1 0 2 2 0 1 2 2 
0 2 2 2 0 -9 1 1 0 2 2 2 0 2 2 2 
0 -9 1 1 0 2 6093 4250 100 MP stroke
2 2 0 2 2 2 0 -9 1 1 0 2 2 2 0 2 
2 2 0 1 0 -9 1 1 0 1 2 2 0 2 2 2 
0 1 0 -1 1 -7 0 2 2 2 0 2 2 2 0 1 
1 -8 0 1 1 1 0 2 2 2 0 1 2 2 0 -7 
0 1 2 2 0 2 2 2 1 1 0 1 0 -8 0 1 
2 2 0 2 2 2 1 1 0 1 0 -11 1 1 0 2 
2 2 0 2 2 2 0 1 0 -38 1 1 0 2 2 2 
0 1 2 2 0 2 2 2 0 2 2 2 1 1 0 2 
2 2 0 2 2 2 0 1 2 2 0 2 2 2 0 2 
2 2 0 -8 1 1 0 2 2 2 0 2 2 2 0 -8 
1 1 0 2 2 2 0 1 2 2 0 1 0 -12 0 1 
2 2 0 2 2 2 1 1 0 1 0 -40 1 1 0 1 
1 1 0 1 2 2 6014 4276 100 MP stroke
0 2 2 2 0 2 2 2 1 1 0 2 2 2 0 2 
2 2 1 1 0 2 2 2 0 2 2 2 1 1 0 2 
1 -9 -1 0 2 2 0 2 2 2 1 1 0 2 1 -9 
0 2 2 2 0 2 2 2 1 1 0 -8 1 1 0 2 
2 2 0 2 2 2 0 -9 0 2 2 2 1 1 0 2 
2 2 0 -8 0 1 2 2 0 2 2 2 1 1 0 1 
0 -8 1 1 0 2 2 2 0 1 2 2 0 1 0 -8 
0 1 2 2 0 2 2 2 1 1 0 1 0 -7 1 1 
0 1 2 2 0 2 2 2 0 1 0 -8 1 1 0 1 
2 2 0 2 2 2 0 1 0 -1 1 -10 0 2 2 2 
0 2 2 2 0 1 0 -39 0 1 2 2 1 1 0 2 
2 2 0 2 2 2 1 1 0 2 2 2 0 2 2 2 
1 1 0 2 2 2 5933 4255 100 MP stroke
0 2 2 2 0 1 2 2 0 2 1 -8 -1 0 2 2 
1 1 0 2 2 2 0 2 1 -8 0 2 2 2 0 1 
2 2 0 2 1 -7 0 1 2 2 0 2 2 2 0 1 
1 1 0 -7 1 1 0 2 2 2 0 1 2 2 0 1 
0 -8 0 1 1 1 0 1 2 2 0 2 2 2 0 -10 
1 1 0 2 2 2 0 1 2 2 0 1 0 -36 1 1 
1 1 0 2 2 2 0 2 2 2 1 1 0 2 2 2 
0 2 2 2 0 1 2 2 0 2 2 2 0 1 2 2 
0 2 2 2 0 1 0 -8 1 1 0 1 2 2 0 2 
2 2 0 1 0 -12 1 1 0 2 2 2 0 1 2 2 
0 1 0 -1 1 -38 0 2 2 2 0 1 2 2 0 2 
2 2 1 1 0 2 2 2 0 2 2 2 0 1 2 2 
0 2 2 2 1 1 5852 4255 100 MP stroke
0 2 2 2 0 1 1 -8 -1 0 2 2 0 2 2 2 
1 1 0 2 1 -8 0 2 2 2 1 1 0 2 2 2 
0 -8 0 1 1 1 0 2 2 2 0 1 2 2 0 -7 
0 1 1 1 0 1 2 2 0 2 2 2 0 -7 0 1 
2 2 0 2 2 2 1 1 0 1 0 -7 0 1 2 2 
0 2 2 2 1 1 0 1 0 -7 1 1 0 2 2 2 
0 1 2 2 0 1 0 -10 1 1 0 1 2 2 0 2 
2 2 0 1 0 -36 1 1 0 1 2 2 0 2 2 2 
1 1 0 2 2 2 0 1 2 2 0 2 2 2 0 1 
2 2 0 2 2 2 1 1 0 2 2 2 0 1 0 -8 
0 1 2 2 1 1 0 2 2 2 0 1 1 -11 -1 0 
2 2 1 1 0 2 2 2 0 1 0 -1 1 -40 0 2 
2 2 0 1 2 2 5775 4279 100 MP stroke
0 2 2 2 0 1 2 2 0 2 2 2 1 1 0 2 
2 2 0 1 2 2 0 2 2 2 0 1 2 2 0 -9 
0 2 2 2 1 1 0 2 2 2 0 -9 0 1 1 1 
0 1 2 2 0 2 2 2 0 -9 0 1 2 2 0 2 
2 2 1 1 0 1 0 -9 1 1 0 2 2 2 0 1 
2 2 0 1 0 -9 0 1 2 2 1 1 0 2 2 2 
0 -8 1 1 1 1 0 2 2 2 1 1 0 1 0 -9 
1 1 0 2 2 2 0 1 2 2 0 1 0 -9 0 1 
2 2 1 1 0 2 2 2 0 1 0 -9 1 1 0 1 
2 2 0 2 2 2 0 1 0 -9 1 1 1 1 0 2 
2 2 1 1 0 2 0 -9 1 1 1 1 0 2 2 2 
1 1 0 2 1 -8 1 1 0 2 2 2 0 1 2 2 
0 -8 0 1 1 1 5698 4260 100 MP stroke
1 1 0 2 2 2 1 1 0 1 0 -8 0 1 2 2 
1 1 0 2 2 2 0 -7 0 1 2 2 1 1 0 2 
2 2 0 -7 0 1 2 2 1 1 0 2 2 2 0 -6 
1 1 1 1 0 2 2 2 1 1 0 1 0 -6 1 1 
1 1 0 2 2 2 1 1 0 1 0 -6 1 1 0 2 
2 2 0 1 2 2 0 1 0 -6 0 1 2 2 1 1 
0 2 2 2 0 1 1 -6 -1 0 2 2 0 2 2 2 
1 1 0 2 0 -1 1 -8 0 2 2 2 0 1 2 2 
0 2 1 -37 0 2 2 2 1 1 0 2 2 2 1 1 
0 2 2 2 1 1 0 2 2 2 1 1 0 2 2 2 
1 1 0 2 2 2 0 1 2 2 0 -35 1 1 0 2 
2 2 1 1 0 2 2 2 1 1 0 2 2 2 0 1 
2 2 0 2 2 2 5616 4256 100 MP stroke
0 1 2 2 1 1 0 2 2 2 1 1 0 1 0 -6 
1 1 0 2 2 2 0 1 2 2 0 1 0 -6 1 1 
1 1 0 2 2 2 1 1 0 1 0 -8 1 1 1 1 
0 2 2 2 1 1 0 1 0 -33 1 1 1 1 0 2 
2 2 0 1 2 2 1 1 0 2 2 2 1 1 0 2 
2 2 1 1 0 2 2 2 1 1 0 2 2 2 1 1 
0 1 0 -4 1 1 1 1 0 2 2 2 1 1 0 1 
0 -4 1 1 1 1 0 2 2 2 1 1 0 1 1 -5 
-1 0 2 2 1 1 0 2 2 2 0 1 0 -88 0 1 
2 2 1 1 0 2 2 2 0 1 2 2 1 1 0 2 
2 2 0 1 2 2 1 1 0 2 2 2 1 1 0 2 
2 2 1 1 0 2 2 2 0 1 2 2 1 1 0 2 
2 2 1 1 0 2 5534 4275 100 MP stroke
2 2 0 1 2 2 1 1 0 2 2 2 0 1 2 2 
1 1 0 2 2 2 0 1 2 2 1 1 0 2 2 2 
0 1 2 2 1 1 0 1 0 -10 0 1 2 2 0 1 
2 2 1 1 0 1 0 -38 1 1 0 1 2 2 1 1 
0 2 2 2 0 1 2 2 1 1 0 2 2 2 0 1 
2 2 1 1 0 2 2 2 0 1 2 2 1 1 0 1 
0 -6 0 1 2 2 0 1 2 2 1 1 0 1 0 -6 
0 1 2 2 0 1 2 2 1 1 0 1 0 -1 1 -4 
0 2 2 2 0 1 2 2 0 1 0 -6 1 1 0 1 
2 2 0 1 2 2 0 1 0 -9 0 1 2 2 0 1 
2 2 1 1 0 1 0 -30 0 1 2 2 0 1 2 2 
0 1 2 2 0 1 2 2 1 1 0 2 2 2 0 1 
2 2 0 1 2 2 5450 4253 100 MP stroke
1 1 0 2 2 2 1 1 0 1 1 -6 -1 0 2 2 
1 1 0 2 2 2 0 -10 1 1 1 1 0 2 2 2 
1 1 0 1 0 -40 0 1 2 2 0 1 2 2 0 1 
2 2 1 1 0 2 2 2 0 1 2 2 0 1 2 2 
0 1 2 2 1 1 0 2 2 2 1 1 0 1 0 -7 
0 1 2 2 0 1 2 2 1 1 0 1 0 -6 1 1 
0 1 2 2 0 1 2 2 0 -5 1 0 0 2 2 2 
0 1 2 2 0 -5 1 1 0 1 2 2 0 1 2 2 
0 1 0 -6 0 1 2 2 0 1 2 2 1 1 0 1 
1 -5 -1 0 2 2 0 1 2 2 1 1 0 1 0 -1 
1 -5 0 2 2 2 0 1 2 2 0 -10 1 0 0 2 
2 2 0 1 2 2 1 -41 -1 0 2 2 0 1 2 2 
0 1 2 2 1 1 5370 4280 100 MP stroke
0 2 2 2 0 1 2 2 0 1 2 2 0 1 2 2 
0 1 2 2 0 1 2 2 0 -7 1 1 0 1 2 2 
0 1 2 2 1 -7 -1 0 2 2 1 1 0 2 2 2 
1 -7 -1 0 2 2 0 1 2 2 1 1 0 1 0 -8 
0 1 2 2 0 1 2 2 1 1 0 1 0 -8 1 1 
0 1 2 2 0 1 2 2 0 1 0 -8 1 1 0 1 
2 2 0 1 2 2 0 -7 1 1 0 1 2 2 0 1 
2 2 0 -7 1 1 0 1 2 2 0 1 2 2 0 -7 
1 1 0 1 2 2 0 1 2 2 0 -7 1 1 1 1 
0 2 2 2 1 1 0 -7 0 1 2 2 0 1 2 2 
1 1 0 -7 0 1 2 2 1 1 0 2 2 -6 0 1 
2 2 0 1 2 2 0 1 0 -1 1 -6 0 1 2 2 
0 1 2 2 0 1 5289 4262 100 MP stroke
0 -1 1 -6 0 1 2 2 0 1 2 2 0 1 1 -7 
-1 0 2 2 0 1 2 2 1 1 0 1 1 -7 -1 0 
2 2 0 1 2 2 1 1 0 1 1 -7 -1 0 2 2 
0 1 2 2 1 1 0 1 1 -7 -1 0 2 2 0 1 
2 2 1 1 0 1 0 -8 0 1 2 2 0 1 2 2 
1 1 0 -7 0 1 2 2 0 1 2 2 1 1 0 -7 
0 1 1 1 1 1 0 1 2 2 1 1 0 -7 0 1 
1 1 0 1 2 2 0 1 2 -6 0 1 1 1 0 1 
2 2 1 1 0 1 1 -7 -1 0 2 2 0 1 2 2 
1 1 0 1 0 -7 1 1 1 1 0 1 2 2 1 1 
0 1 0 -7 1 1 1 1 0 1 2 2 1 1 0 1 
0 -7 1 1 1 1 0 1 2 2 1 1 0 1 0 -7 
1 1 0 1 2 2 5217 4266 100 MP stroke
1 1 1 1 0 1 0 -7 1 1 0 1 2 2 0 1 
2 2 0 -7 1 1 0 1 2 2 0 1 2 2 0 -7 
1 1 0 1 2 2 0 1 2 2 0 -7 0 1 2 2 
1 1 0 1 2 2 0 -7 0 1 2 2 1 1 1 1 
0 2 1 -7 0 1 2 2 0 1 2 2 0 1 0 -1 
1 -6 0 1 2 2 0 1 2 2 0 1 0 -1 1 -6 
0 1 2 2 0 1 2 2 0 1 1 -7 -1 0 2 2 
1 1 0 1 2 2 0 1 1 -7 -1 0 2 2 1 1 
0 1 2 2 0 1 1 -7 -1 0 2 2 0 1 2 2 
1 1 0 -6 1 1 1 1 0 1 2 2 1 1 0 -6 
1 1 1 1 0 1 2 2 1 1 0 -6 1 1 1 1 
0 1 2 2 1 1 0 -6 1 1 1 1 0 1 2 2 
1 1 0 -6 1 1 5140 4269 100 MP stroke
0 1 2 2 0 1 2 -5 1 1 0 1 2 2 1 1 
0 1 0 -7 1 1 1 1 0 1 2 2 1 1 0 1 
0 -7 1 1 1 1 0 1 2 2 1 1 0 1 0 -7 
1 1 1 1 1 1 0 1 2 2 0 1 1 -7 -1 0 
2 2 1 1 0 1 2 2 1 -6 -1 0 2 2 1 1 
0 1 2 2 0 -6 1 1 1 1 1 1 0 1 2 2 
0 -6 1 1 1 1 0 1 2 2 1 1 0 -6 1 1 
0 1 2 2 1 1 0 1 0 -1 1 -5 1 1 0 1 
2 2 1 1 0 1 0 -1 1 -5 1 1 0 1 2 2 
1 1 0 1 0 -7 1 1 0 1 2 2 1 1 1 1 
0 1 0 -7 1 1 1 1 0 1 2 2 1 1 0 -6 
1 1 1 1 1 1 0 2 2 -6 0 1 1 1 1 1 
1 1 1 1 0 2 5064 4266 100 MP stroke
0 -1 1 -6 0 1 2 2 1 1 1 1 0 1 0 -7 
1 1 1 1 0 1 2 2 1 1 1 -6 -1 0 2 2 
1 1 1 1 1 1 0 1 0 -7 1 1 1 1 0 1 
2 2 1 1 0 -7 0 1 1 1 1 1 1 1 0 1 
2 -5 0 1 2 2 1 1 1 1 0 1 0 -6 1 1 
1 1 1 1 0 1 2 2 0 -5 1 1 1 1 0 1 
2 2 1 1 1 -3 -1 0 2 2 1 1 1 1 1 1 
0 1 0 -2 1 1 1 1 0 1 2 2 0 1 2 2 
1 1 1 1 1 1 0 1 1 -3 -1 0 2 2 1 1 
1 1 1 1 0 1 0 -3 1 1 1 1 1 1 0 1 
2 2 1 -3 -1 0 2 2 1 1 1 1 1 1 0 1 
0 -5 1 1 1 1 1 1 0 1 2 2 0 -10 0 1 
2 2 1 1 0 1 4988 4251 100 MP stroke
2 -38 0 1 2 2 1 1 1 1 1 1 0 1 2 2 
1 1 1 1 0 1 2 2 1 1 1 1 0 1 2 2 
1 1 1 1 1 1 0 1 0 -1 1 -4 1 1 0 1 
2 2 1 1 0 -5 1 1 1 1 0 1 2 2 1 1 
0 -5 1 1 0 1 2 2 0 1 2 -4 0 1 1 1 
1 1 1 1 1 1 0 1 1 -4 -1 0 2 2 1 1 
1 1 1 1 0 1 0 -1 1 -2 1 1 0 1 2 2 
1 1 0 -3 1 1 1 1 1 1 0 1 2 2 0 -3 
1 1 0 1 2 2 1 1 1 1 0 -2 1 1 1 1 
1 1 1 1 0 1 0 -1 1 -1 1 1 1 1 0 1 
2 2 1 -3 -1 0 2 2 1 1 1 1 1 1 0 1 
0 -8 1 1 1 1 0 1 2 2 1 1 0 -32 1 1 
1 1 1 1 0 1 4907 4274 100 MP stroke
2 2 1 1 1 1 1 1 0 1 2 2 1 1 1 1 
1 1 1 1 0 1 2 2 1 1 1 1 0 1 0 -3 
1 1 1 1 1 1 1 1 1 1 0 1 0 -3 1 1 
1 1 1 1 0 1 2 2 0 -3 1 1 1 1 1 1 
1 1 0 1 0 -1 1 -3 0 1 2 2 1 1 1 1 
0 1 0 -9 1 1 1 1 1 1 1 1 1 1 0 1 
0 -37 1 1 1 1 1 1 1 1 1 1 1 1 0 1 
2 2 1 1 1 1 1 1 1 1 0 1 2 2 1 1 
1 1 1 1 1 1 0 1 0 -1 1 -3 0 1 2 2 
1 1 1 1 1 -3 -1 0 2 2 1 1 1 1 1 1 
0 -3 1 1 1 1 1 1 1 1 0 1 0 -1 1 -1 
1 1 1 1 0 1 2 2 1 -2 -1 0 2 2 1 1 
1 1 1 1 0 -2 4826 4256 100 MP stroke
1 1 1 1 1 1 1 1 1 1 0 -2 1 1 1 1 
1 1 1 1 0 1 0 -1 1 -2 1 1 1 1 1 1 
1 1 0 1 0 -1 1 -6 1 1 1 1 1 1 1 1 
0 1 0 -34 1 1 1 1 1 1 1 1 0 1 2 2 
1 1 1 1 1 1 1 1 1 1 1 1 1 1 1 1 
1 1 0 1 2 2 1 1 0 -2 1 1 1 1 1 1 
1 1 1 1 -1 0 2 0 1 1 1 1 1 1 1 1 
1 1 1 1 1 1 0 1 2 2 1 1 1 1 1 1 
1 1 1 1 1 1 0 1 2 2 1 1 1 1 1 1 
1 1 1 1 1 1 1 -1 1 1 0 1 2 2 0 -6 
1 1 1 1 1 1 1 1 1 1 0 -71 1 0 1 1 
0 1 2 2 1 1 1 1 1 1 1 1 1 1 1 1 
1 1 1 1 1 1 4738 4290 100 MP stroke
1 1 1 1 1 1 1 1 1 1 1 1 1 1 1 1 
1 1 1 1 1 1 1 1 1 1 1 1 1 1 1 1 
1 1 1 1 1 1 0 1 0 -1 1 -4 1 1 1 1 
1 1 1 1 0 -5 1 1 1 1 1 1 1 1 0 1 
0 -1 1 -5 1 1 1 1 1 1 1 1 0 1 0 -6 
1 1 1 1 1 1 1 1 1 1 0 -6 1 1 1 1 
1 1 1 1 0 1 0 -1 1 -5 1 1 1 1 1 1 
1 1 0 1 0 -6 1 1 1 1 1 1 1 1 1 1 
0 -5 1 1 1 1 1 1 1 1 0 1 0 -1 1 -3 
1 1 1 1 1 1 1 1 0 -2 1 1 1 1 1 1 
1 1 1 1 1 1 1 1 1 0 1 1 0 1 0 -1 
1 -3 1 1 1 1 1 1 1 1 0 -4 1 0 1 1 
1 1 1 1 0 1 4659 4269 100 MP stroke
0 -1 1 -3 1 1 1 1 1 1 1 1 0 -4 1 0 
1 1 1 1 1 1 1 1 0 -4 1 0 1 1 1 1 
1 1 0 1 0 -1 1 -3 1 1 1 1 1 1 1 1 
0 -4 1 0 1 1 1 1 1 1 1 1 0 -4 1 0 
1 1 1 1 1 1 0 1 0 -1 1 -3 1 1 1 1 
1 1 1 1 0 -5 1 1 1 1 1 1 1 1 1 1 
0 -5 1 1 1 1 1 1 1 1 0 1 0 -1 1 -4 
1 1 1 1 1 1 1 1 0 -4 1 1 1 1 1 0 
0 1 2 -3 1 1 1 1 1 1 1 1 0 -4 1 0 
1 1 1 1 1 1 1 1 0 -4 1 0 1 1 1 1 
1 1 0 1 0 -1 1 -3 1 1 1 0 1 1 1 1 
0 1 0 -1 1 -3 1 1 1 1 1 1 1 1 0 -3 
1 0 1 1 1 1 4581 4271 100 MP stroke
1 1 0 1 0 -1 1 -2 1 1 1 1 1 0 1 1 
0 1 0 -3 1 1 1 0 1 1 1 1 0 1 0 -1 
1 -1 1 1 1 1 1 0 1 1 0 1 0 -1 1 -1 
1 1 1 1 0 1 2 0 1 1 1 1 1 0 1 1 
0 1 0 -1 1 1 1 0 1 1 1 1 1 1 1 1 
1 1 1 1 1 0 1 1 1 1 1 1 1 1 1 1 
1 0 1 1 1 1 1 1 0 1 0 -2 1 1 1 1 
1 0 1 1 1 1 0 -4 1 1 1 1 1 0 1 1 
0 1 0 -1 1 -22 1 1 1 1 1 0 1 1 1 1 
1 1 1 1 1 1 1 0 1 1 1 1 1 1 1 1 
1 1 1 0 1 1 1 1 0 1 0 -1 1 3 1 1 
1 1 1 0 1 1 0 3 1 0 1 1 1 1 0 1 
2 3 1 0 1 1 4500 4236 100 MP stroke
1 1 0 1 2 2 1 0 1 1 1 1 1 1 0 -2 
1 1 1 0 1 1 1 1 0 -22 1 0 1 1 1 1 
1 1 1 0 1 1 1 1 1 1 1 1 1 0 1 1 
1 1 1 1 1 1 1 0 1 1 1 1 1 1 0 -23 
1 0 1 1 1 1 1 0 1 1 1 1 1 1 1 1 
1 0 1 1 1 1 1 1 1 0 1 1 1 1 1 1 
1 1 1 0 0 1 0 -1 1 -2 1 1 1 1 1 0 
1 1 0 -7 1 0 1 1 1 1 1 0 -1 0 2 -36 
1 1 1 1 1 1 1 0 1 1 1 1 1 1 1 0 
1 1 1 1 1 1 1 0 1 1 1 1 1 1 1 0 
1 1 0 1 0 -1 1 -3 1 1 1 0 1 1 1 1 
0 -4 1 0 1 1 1 1 1 0 0 1 0 -1 1 -3 
1 1 1 0 1 1 4413 4276 100 MP stroke
1 1 0 -4 1 0 1 1 1 1 1 0 0 1 0 -5 
1 1 1 0 1 1 1 1 1 0 0 1 0 -5 1 1 
1 1 1 0 1 1 0 1 0 -1 1 -3 1 1 1 0 
1 1 1 1 0 -3 1 0 1 1 1 1 1 0 0 1 
0 -1 1 -1 1 1 1 0 1 1 1 1 1 0 1 1 
1 1 1 1 0 2 1 1 1 0 1 1 0 1 2 -1 
1 0 1 1 1 1 1 0 0 1 0 -2 1 1 1 0 
1 1 1 1 1 -1 1 1 1 1 1 0 1 1 1 1 
1 0 1 1 1 1 1 1 1 0 1 1 1 1 1 0 
-1 0 2 2 1 1 1 0 1 1 0 2 1 0 1 1 
1 0 1 1 0 1 2 2 1 0 1 1 1 1 1 1 
1 1 1 1 1 0 1 1 1 1 1 0 1 1 1 0 
0 1 0 -4 1 1 4331 4242 100 MP stroke
1 0 1 1 1 1 1 0 0 -22 1 0 1 1 1 1 
1 0 1 1 1 1 1 0 1 1 1 0 1 1 1 1 
1 0 1 1 1 1 1 0 1 1 1 1 1 1 1 1 
1 0 1 1 1 1 1 0 1 1 1 0 1 1 0 -2 
1 1 1 0 1 1 1 0 1 1 0 -7 1 1 1 1 
1 0 1 1 0 -34 1 1 1 0 1 1 1 0 1 1 
1 1 1 0 1 1 1 0 1 1 1 1 1 0 1 1 
1 0 1 1 1 1 1 0 1 1 0 -3 1 1 1 0 
1 1 1 1 0 -3 1 1 1 0 1 1 1 0 -1 0 
2 -2 1 1 1 1 1 0 1 1 0 -2 1 0 1 0 
1 1 1 1 0 -2 1 0 1 0 1 1 1 0 1 1 
0 -2 1 0 1 1 1 0 1 1 0 -2 1 0 1 0 
1 1 1 1 0 -2 4244 4273 100 MP stroke
1 0 1 0 1 1 1 0 1 1 0 -2 1 0 1 1 
1 0 1 1 0 -2 1 0 1 0 1 1 1 0 -1 0 
2 -1 1 0 1 1 1 0 1 1 0 -2 1 0 1 0 
1 1 1 1 0 -2 1 0 1 0 1 1 1 0 1 1 
0 -2 1 0 1 1 1 0 1 1 0 -2 1 0 1 1 
1 0 1 1 0 -2 1 0 1 1 1 0 1 1 1 0 
0 1 0 -1 1 -1 1 1 1 0 1 1 1 -1 1 0 
1 1 1 0 -1 0 2 0 1 0 1 1 1 0 1 1 
1 -1 1 1 1 1 1 0 1 0 1 1 1 0 1 1 
1 0 1 1 1 0 1 1 1 0 -1 0 2 2 1 0 
1 1 1 0 -1 0 2 2 1 0 1 1 1 0 0 1 
2 2 1 0 1 1 1 0 -1 0 2 2 1 0 1 1 
1 0 1 1 1 0 4159 4249 100 MP stroke
1 1 1 0 0 1 0 -1 1 -1 1 1 1 0 1 1 
1 0 0 -6 1 1 1 0 1 1 1 0 0 -29 1 0 
1 1 1 0 1 1 1 0 1 1 1 0 1 1 1 0 
1 0 1 1 1 0 1 1 1 0 1 1 1 0 1 1 
1 0 0 2 1 1 1 0 1 1 1 0 0 4 1 1 
1 0 1 1 1 0 0 7 1 0 1 1 1 0 1 1 
0 2 1 0 1 1 1 0 1 1 1 0 0 2 1 0 
1 1 1 0 1 1 1 1 1 0 1 1 1 0 1 -1 
1 1 1 0 1 0 1 1 0 -6 1 0 1 1 1 0 
1 1 0 -32 1 0 1 0 1 1 1 0 1 1 1 0 
1 1 1 0 1 0 1 1 1 0 1 1 1 0 1 0 
1 1 1 0 1 1 0 -2 1 0 1 0 1 1 1 0 
1 1 0 -2 1 0 4073 4273 100 MP stroke
1 1 1 0 1 0 1 -1 1 0 1 1 1 0 0 -2 
1 0 1 1 1 0 1 1 1 0 0 -2 1 1 1 0 
1 0 1 1 0 -2 1 0 1 1 1 0 1 0 0 1 
0 -2 1 1 1 0 1 0 1 1 1 -1 1 0 1 1 
1 0 1 0 1 0 1 1 1 0 1 0 1 0 1 1 
1 0 1 0 1 1 1 0 1 1 1 0 1 1 1 0 
1 1 1 0 0 2 1 0 1 0 1 0 1 1 1 2 
1 1 1 0 1 0 1 1 0 3 1 0 1 0 1 1 
1 0 0 4 1 0 1 0 1 0 1 1 0 4 1 0 
1 0 1 1 1 0 0 4 1 0 1 1 1 0 1 0 
-1 0 2 4 1 0 1 1 1 0 1 0 0 2 1 1 
1 0 1 0 1 1 1 -1 1 0 1 1 1 0 0 -15 
1 0 1 0 1 0 3987 4246 100 MP stroke
1 1 1 0 1 0 1 0 1 1 1 0 1 0 1 1 
1 0 1 0 1 1 1 0 1 0 1 0 1 1 1 0 
1 1 1 0 1 0 0 -3 1 0 1 0 1 1 1 0 
0 -23 1 1 1 0 1 0 1 1 1 0 1 0 1 0 
1 1 1 0 1 0 1 0 1 1 1 0 1 0 1 0 
1 1 1 0 0 2 1 1 1 0 1 0 1 0 0 1 
0 -1 1 3 1 1 1 0 1 0 1 0 0 3 1 0 
1 1 1 0 1 0 0 3 1 0 1 0 1 1 1 0 
0 2 1 0 1 0 1 0 1 1 1 0 1 0 1 1 
1 0 0 -3 1 0 1 0 1 0 1 0 0 1 0 -1 
1 -22 1 0 1 0 1 1 1 0 1 0 1 0 1 0 
1 1 1 0 1 0 1 0 1 1 1 0 1 0 1 0 
1 0 0 1 0 -1 3901 4263 100 MP stroke
1 3 1 0 1 1 1 0 0 3 1 0 1 0 1 1 
1 0 1 4 1 0 1 0 1 0 1 0 0 5 1 0 
1 0 1 0 1 0 0 5 1 0 1 0 1 0 1 0 
0 1 0 -1 1 -4 1 0 1 0 1 0 0 -28 1 0 
1 0 1 0 1 0 1 0 1 1 1 0 1 0 1 0 
1 0 1 1 1 0 1 0 1 0 1 0 1 0 1 1 
1 -1 1 0 1 0 1 1 1 -1 1 0 1 0 1 0 
-1 0 2 0 1 0 1 0 1 0 -1 0 2 0 1 0 
1 0 1 0 1 0 1 0 1 0 1 0 1 0 1 0 
1 0 1 0 1 0 -1 0 2 0 1 0 1 0 1 0 
1 -1 1 0 1 1 1 0 1 -1 1 0 1 0 1 1 
1 -1 1 0 1 1 1 0 1 -1 1 0 1 1 1 0 
1 -1 1 1 1 0 3811 4271 100 MP stroke
1 0 -1 0 2 0 1 0 1 0 1 0 1 0 1 0 
1 0 1 0 1 0 1 0 1 0 1 0 1 0 1 0 
1 0 1 0 1 0 1 0 1 0 1 0 1 0 1 0 
1 0 1 0 1 0 1 0 1 0 1 0 1 0 1 0 
1 0 1 0 1 0 1 0 1 0 1 0 -1 0 2 0 
1 0 1 0 1 1 1 -1 1 0 1 1 1 0 1 -1 
1 1 1 0 1 0 1 -1 1 1 1 0 1 0 1 0 
1 0 1 0 1 0 1 0 1 0 1 0 1 0 1 -1 
1 1 1 0 1 0 1 -1 1 1 1 0 1 0 1 -1 
1 0 1 0 1 1 1 -1 1 0 1 0 1 0 1 0 
1 0 1 0 1 0 1 0 1 0 1 0 1 0 1 0 
1 0 1 0 1 0 1 0 1 0 1 0 1 0 1 1 
1 0 1 0 1 0 3714 4270 100 MP stroke
1 0 1 0 1 0 1 0 1 1 1 0 1 0 1 0 
1 1 1 0 1 0 1 0 0 2 1 0 1 0 1 0 
1 0 0 2 1 0 1 0 1 0 1 0 0 3 1 0 
1 0 1 0 1 0 0 3 1 0 1 0 1 0 1 0 
0 3 1 0 1 0 1 0 1 0 0 3 1 0 1 0 
1 0 1 0 0 4 1 0 1 0 1 0 1 -1 0 3 
1 0 1 0 1 0 1 0 0 2 1 0 1 0 1 0 
1 0 1 0 1 0 1 0 1 -1 0 -8 1 0 1 -1 
1 0 1 0 1 0 1 0 1 0 1 0 1 0 1 0 
1 0 1 0 1 0 1 0 1 0 1 0 1 4 1 0 
1 0 1 0 1 4 1 0 1 0 1 0 0 5 1 -1 
1 0 1 0 1 0 0 4 1 0 1 0 1 0 1 0 
0 3 1 0 1 0 3628 4235 100 MP stroke
1 -1 1 0 1 1 1 0 1 0 1 0 0 -8 1 0 
1 0 1 0 1 0 1 -1 1 0 1 0 1 0 1 0 
1 0 1 0 1 0 1 0 1 0 1 -1 1 0 1 0 
0 10 1 0 1 0 1 0 1 -1 0 12 1 0 1 0 
1 0 1 0 0 12 1 0 1 0 1 0 1 13 1 -1 
1 0 1 0 0 11 1 0 1 0 1 -1 1 0 0 7 
1 0 1 0 1 0 1 0 0 2 1 0 1 0 1 0 
1 0 0 -78 1 0 1 0 1 0 1 0 1 -1 1 0 
1 0 1 0 1 0 1 0 1 0 1 -1 1 0 1 0 
1 0 1 0 1 0 1 0 1 -1 1 0 1 0 1 0 
1 0 1 0 1 0 1 -1 1 0 1 0 1 0 1 0 
1 0 1 -1 1 0 1 0 1 0 1 0 1 0 1 -1 
1 0 1 0 1 0 3537 4265 100 MP stroke
1 0 1 -1 1 0 1 0 1 0 1 0 1 0 1 -1 
1 0 1 0 1 0 1 0 1 -1 1 0 1 0 1 0 
1 0 1 0 1 -1 1 0 1 0 1 0 1 0 1 -1 
1 0 1 0 1 0 1 0 1 0 1 0 1 0 1 0 
1 0 1 0 1 0 -1 0 2 0 1 0 1 0 1 1 
1 0 1 0 1 0 0 -1 0 1 1 1 1 0 1 0 
1 0 0 2 1 0 1 0 1 -1 1 0 0 3 1 0 
1 0 1 -1 1 4 1 -1 1 0 1 0 0 4 1 0 
1 0 1 0 1 -1 0 6 1 0 1 -1 1 0 1 0 
0 6 1 0 1 0 1 -1 1 7 1 0 1 0 1 -1 
0 8 1 0 1 -1 1 0 1 0 0 8 1 0 1 -1 
1 0 1 0 0 7 1 0 1 0 1 0 -1 0 2 7 
1 -1 1 0 1 0 3450 4216 100 MP stroke
0 7 1 0 1 0 1 0 1 0 0 -1 0 1 1 -8 
1 0 1 -1 1 0 1 0 1 0 1 -1 1 0 1 0 
1 0 1 -1 1 0 1 0 1 -1 1 0 1 0 1 -10 
1 -1 1 0 1 0 1 0 1 -1 1 0 1 0 1 -1 
1 0 1 0 1 -1 1 0 1 0 1 0 1 -1 1 0 
-1 0 2 0 1 0 1 0 1 -1 0 -3 1 0 1 -1 
1 0 1 -24 1 0 1 -1 1 0 1 0 1 -1 1 0 
1 0 1 -1 1 0 1 0 1 0 1 -1 1 0 1 0 
1 -1 1 0 1 1 1 0 1 -1 1 2 1 -1 1 0 
1 0 0 -1 0 1 1 1 1 0 1 -1 1 0 0 2 
1 0 1 -1 1 0 1 2 1 0 1 0 1 -1 0 3 
1 0 1 0 1 -1 1 0 0 3 1 0 1 0 1 0 
0 -1 0 1 1 4 3363 4258 100 MP stroke
1 -1 1 0 1 0 0 -1 0 1 1 5 1 -1 1 0 
1 0 0 6 1 0 1 -1 1 0 0 7 1 0 1 0 
1 0 1 -1 0 9 1 0 1 0 1 -1 1 0 0 10 
1 -1 1 0 1 -1 0 11 1 -1 1 0 1 0 1 -1 
0 10 1 0 1 0 1 -1 1 0 0 9 1 0 1 -1 
1 0 0 7 1 0 1 0 1 -1 1 0 0 5 1 0 
1 0 1 -1 1 0 1 0 1 -1 1 0 1 0 1 -1 
1 0 1 -1 1 0 1 0 1 -1 1 0 1 -1 1 0 
1 0 1 -1 1 0 0 -34 1 0 1 -1 1 0 1 -1 
1 0 1 0 1 -1 1 0 1 -1 1 0 1 -1 1 0 
1 -1 1 0 1 0 1 -1 1 0 1 -1 1 0 1 -1 
1 0 1 0 1 -1 1 0 1 -1 1 0 1 -1 1 0 
1 0 0 -1 0 1 3278 4244 100 MP stroke
1 -26 1 0 1 -1 1 0 1 -1 1 0 1 -1 1 0 
1 -1 1 0 1 0 1 -1 1 0 1 -1 1 0 1 -1 
0 2 1 0 1 -1 1 0 1 3 1 -1 1 0 1 -1 
0 5 1 -1 1 0 1 -1 1 0 0 7 1 -1 1 0 
1 -1 0 2 1 0 1 0 1 -1 1 0 0 -1 0 1 
1 2 1 -1 1 0 0 -1 0 1 1 2 1 -1 1 0 
1 -1 0 3 1 0 1 0 1 -1 1 3 1 0 1 -1 
1 0 0 -1 0 1 1 3 1 0 1 -1 1 0 0 4 
1 0 1 -1 1 0 0 -1 0 1 1 4 1 0 1 -1 
1 0 0 5 1 0 1 -1 1 0 0 6 1 -1 1 0 
1 -1 1 0 0 6 1 0 1 -1 1 0 -1 0 2 6 
1 -1 1 0 1 -1 0 6 1 -1 1 0 1 -1 1 0 
0 5 1 -1 1 0 3199 4228 100 MP stroke
1 -1 0 4 1 0 1 -1 1 0 1 -1 0 2 1 0 
1 -1 1 -1 0 -5 1 -1 1 0 1 -1 1 0 1 -1 
1 0 1 -1 1 0 1 -1 1 0 1 -1 1 0 1 -1 
1 -1 1 0 1 -1 0 6 1 0 1 0 1 -1 1 -1 
0 6 1 0 1 -1 1 0 0 -1 0 1 1 4 1 0 
1 -1 1 -1 0 4 1 0 1 -1 1 0 0 -1 0 1 
1 1 1 -1 1 0 1 -1 0 -6 1 0 1 -1 1 0 
1 -1 1 -1 1 0 1 -1 1 0 1 -1 1 0 1 -1 
1 -1 1 0 1 -1 1 0 -1 0 2 6 1 -1 1 0 
1 -1 0 6 1 0 1 -1 1 0 -1 0 2 5 1 0 
1 -1 1 0 0 -1 0 6 1 -1 1 0 1 -1 1 4 
1 -1 1 -1 1 0 0 2 1 -1 1 0 1 -1 0 -1 
0 1 1 -7 1 0 3119 4231 100 MP stroke
1 -1 1 -1 1 0 1 -1 1 0 1 -1 1 -1 1 0 
1 -1 1 -1 1 0 1 -1 1 0 1 -1 0 -1 0 1 
1 5 1 -1 1 -1 1 0 0 -1 0 5 1 -1 1 0 
1 -1 0 3 1 0 1 -1 1 -1 1 0 1 0 1 -1 
1 0 0 -1 0 1 1 -4 1 -1 1 -1 1 -23 1 0 
1 -1 1 -1 1 0 1 -1 1 -1 1 0 1 -1 1 0 
1 -1 1 -1 1 0 1 -1 1 -1 1 0 0 -1 0 1 
1 1 1 -1 1 0 1 -1 0 3 1 -1 1 -1 1 0 
0 3 1 0 1 -1 1 -1 0 5 1 0 1 -1 1 -1 
1 0 0 6 1 0 1 -1 1 0 0 -1 0 1 1 1 
1 0 1 -1 1 -1 0 2 1 0 1 -1 1 -1 0 2 
1 0 1 -1 1 0 0 -1 0 1 1 1 1 0 1 -1 
1 -1 0 2 1 0 3040 4263 100 MP stroke
1 -1 1 -1 0 2 1 0 1 -1 1 0 1 -1 0 2 
1 0 1 -1 1 -1 0 2 1 0 1 -1 1 -1 0 2 
1 0 1 -1 1 -1 1 0 0 2 1 -1 1 0 1 -1 
0 2 1 0 1 -1 1 -1 1 2 1 -1 1 0 1 -1 
0 2 1 0 1 -1 1 0 0 -1 0 1 1 2 1 -1 
1 -1 1 0 0 3 1 -1 1 0 1 -1 0 3 1 0 
1 -1 1 0 0 -1 0 1 1 3 1 -1 1 0 1 -1 
0 5 1 -1 1 -1 1 0 0 -1 0 6 1 -1 1 -1 
1 0 0 -1 0 1 1 5 1 -1 1 -1 1 6 1 0 
1 -1 1 -1 0 7 1 -1 1 0 1 -1 0 7 1 0 
1 -1 1 -1 0 7 1 0 1 0 1 -1 1 -1 0 7 
1 0 1 -1 1 -1 0 7 1 0 1 -1 1 -1 0 6 
1 0 1 -1 1 -1 2965 4218 100 MP stroke
1 -1 0 5 1 0 1 -1 1 -1 0 3 1 -1 1 0 
1 -1 0 -1 0 1 1 -4 1 -1 1 0 1 -1 1 -1 
1 -1 1 -1 1 0 1 -1 1 -1 1 -1 1 0 1 -1 
1 -1 1 -1 1 -1 0 4 1 -1 1 -1 1 0 0 -1 
0 2 1 -1 1 0 0 -1 2 -3 1 -1 1 -1 1 0 
0 -19 1 -1 1 -1 1 0 1 -1 1 -1 1 -1 1 -1 
1 0 1 -1 1 -1 1 -1 1 -1 1 0 1 -1 1 -1 
0 2 1 0 1 -1 1 -1 0 -1 0 1 1 1 1 0 
1 -1 1 -1 0 2 1 0 1 -1 1 -1 0 2 1 0 
1 -1 1 -1 0 2 1 0 1 -1 1 -1 0 -1 0 1 
1 2 1 -1 1 -1 1 3 1 -1 1 -1 1 -1 0 4 
1 -1 1 -1 1 -1 0 4 1 0 1 -1 1 -1 0 5 
1 -1 1 0 1 -1 2885 4261 100 MP stroke
0 -1 0 1 1 5 1 -1 1 0 1 -1 0 7 1 -1 
1 0 1 -1 0 9 1 -1 1 -1 1 -1 0 11 1 0 
1 -1 1 -1 0 -1 0 1 1 6 1 -1 1 -1 0 6 
1 0 1 -1 1 -1 1 0 0 -1 0 1 1 5 1 -1 
1 -1 0 5 1 -1 1 0 1 -1 0 -1 0 1 1 3 
1 -1 1 -1 0 -1 0 3 1 -1 1 -1 1 0 -1 0 
2 -6 1 -1 1 0 1 -1 1 -1 1 -1 1 -1 1 -1 
1 -1 1 -1 1 0 1 -1 1 -1 1 -1 1 -1 1 -1 
0 6 1 0 1 -1 1 -1 0 -1 0 7 1 -1 1 0 
1 -1 0 -1 0 1 1 5 1 -1 1 -1 1 -1 0 5 
1 -1 1 -1 1 -1 0 4 1 0 1 -1 1 -1 0 2 
1 0 1 -1 1 -1 1 -1 1 -1 1 -1 0 -12 1 0 
1 -1 1 -1 1 -1 2811 4246 100 MP stroke
1 -1 1 -1 1 0 1 -1 1 -1 1 -1 1 -1 1 -1 
1 -1 1 -1 1 -1 0 -1 0 1 1 4 1 -1 1 0 
1 -1 0 5 1 -1 1 -1 1 -1 0 6 1 -1 1 -1 
1 -1 0 7 1 -1 1 -1 1 -1 0 6 1 0 1 -1 
1 -1 0 6 1 0 1 -1 1 -1 0 -1 0 1 1 6 
1 -1 1 -1 0 -1 0 1 1 6 1 -1 1 -1 0 -1 
0 1 1 5 1 -1 1 -1 1 -1 0 5 1 -1 1 0 
1 -1 0 -1 0 5 1 -1 1 -1 1 -1 0 2 1 0 
1 -1 1 -1 0 -2 1 -1 1 -1 1 -1 1 -1 1 -1 
1 -1 1 -1 1 -1 1 -1 1 0 1 -1 1 -1 1 -1 
1 -1 1 -1 0 -1 0 1 1 7 1 -1 1 -1 0 -1 
0 1 1 7 1 -1 1 -1 0 -1 0 1 1 8 1 -1 
1 -1 1 -1 0 8 2737 4216 100 MP stroke
1 -1 1 -1 1 -1 0 7 1 0 1 -1 1 -1 0 6 
1 -1 1 -1 1 -1 0 5 1 0 1 -1 1 -1 0 -1 
0 1 1 3 1 -1 1 -1 0 -1 0 1 1 -1 1 -1 
1 -1 1 -1 1 -1 1 -1 1 -1 1 -1 1 -1 1 -1 
1 -1 1 -1 1 -1 1 -1 1 -1 0 8 1 -1 1 -1 
1 -1 1 -1 1 -1 1 -1 1 -1 1 -1 1 -1 1 -1 
1 -1 1 -1 1 -1 1 -1 1 -1 0 7 1 0 1 -1 
1 -1 0 -1 0 1 1 6 1 -1 1 -1 0 -1 0 7 
1 -1 1 -1 1 -1 0 5 1 0 1 -1 1 -1 0 -1 
0 6 1 -1 1 -1 1 -1 0 5 1 0 1 -1 1 -1 
1 -1 1 -1 1 -1 1 -1 1 -1 1 -1 1 -1 1 -1 
1 -1 1 -1 1 -1 1 -1 0 -1 0 1 1 7 0 -1 
2 -2 0 7 1 0 2658 4210 100 MP stroke
1 -1 1 -1 0 -1 0 1 1 5 1 -1 1 -1 0 -1 
0 1 1 4 1 -1 1 -1 0 -1 0 4 1 -1 1 -1 
0 -1 2 -2 1 -1 1 -1 1 -1 1 -1 0 -1 2 -2 
1 -1 1 -1 1 -1 1 -1 1 -1 1 -1 1 -1 1 -1 
0 -1 0 1 1 1 1 -1 0 -1 2 -2 1 -1 1 -1 
0 -1 0 1 1 -14 1 -1 1 -1 0 -1 2 -2 1 -1 
1 -1 1 -1 1 -1 1 -1 1 -1 1 -1 1 -1 1 -1 
1 -1 0 -1 0 1 1 2 1 -1 1 -1 0 -1 0 1 
1 2 1 -1 1 -1 0 -1 0 4 1 -1 1 -1 1 -1 
0 -1 0 4 1 -1 1 -1 1 -1 0 3 1 -1 1 -1 
1 -1 0 3 1 -1 1 -1 1 -1 0 3 1 -1 1 -1 
1 -1 0 3 1 0 0 -1 2 -2 0 4 1 -1 1 -1 
1 -1 0 3 1 -1 2583 4255 100 MP stroke
0 -1 2 3 1 -1 0 -1 2 3 0 -1 1 -1 1 -1 
0 -1 0 1 1 3 1 -1 1 -1 0 -1 0 5 1 -1 
1 -1 1 -1 0 -1 0 1 1 4 0 -1 2 -2 0 5 
1 -1 1 -1 1 -1 0 -1 0 6 1 -1 1 -1 1 -1 
0 -1 0 6 1 -1 1 -1 1 -1 0 5 1 0 1 -1 
1 -1 0 -1 0 1 1 5 0 -1 2 -2 0 6 1 -1 
1 -1 1 -1 0 6 1 -1 0 -1 2 4 1 -1 1 -1 
0 -1 0 1 1 4 1 -1 1 -1 0 -1 0 1 1 3 
1 -1 1 -1 0 -1 0 4 1 -1 1 -1 1 -1 0 -1 
0 3 1 -1 1 -1 1 -1 1 -1 1 -1 0 -1 2 -2 
1 -1 1 -1 1 -1 0 -1 2 -2 1 -1 1 -1 1 -1 
1 -1 1 -1 0 -1 0 6 1 -1 1 -1 1 -1 0 -1 
0 7 1 -1 1 -1 2513 4240 100 MP stroke
1 -1 0 -1 0 7 1 -1 1 -1 1 -1 0 6 1 0 
0 -1 2 -2 0 7 1 -1 1 -1 1 -1 0 6 1 -1 
1 -1 1 -1 0 6 1 -1 1 -1 1 5 -1 -6 0 6 
2 -2 1 -1 0 -1 0 1 1 4 1 -1 1 -1 0 -1 
0 1 1 3 0 -1 2 -2 0 3 1 -1 1 -1 1 -1 
0 -1 2 -2 1 -1 1 -1 1 -1 0 -1 2 -2 1 -1 
1 -1 1 -1 0 -1 2 -2 1 -1 1 -1 1 7 -1 -8 
0 8 2 -2 1 -1 0 -1 0 9 1 -1 1 -1 1 -1 
0 -1 0 9 1 -1 1 -1 1 -1 0 8 1 -1 0 -1 
2 7 1 -1 1 -1 0 -1 0 8 1 -1 1 -1 1 -1 
0 -1 0 8 1 -1 1 -1 1 -1 0 -1 0 7 1 -1 
0 -1 2 6 1 -1 1 -1 0 -1 0 11 1 -1 1 -1 
1 -1 0 -1 2 -2 2442 4192 100 MP stroke
1 -1 1 -1 1 -1 0 -1 2 -2 1 -1 1 -1 0 -1 
2 -2 1 -1 0 7 1 -1 0 -1 2 -2 0 8 0 -1 
2 -2 0 -1 0 1 1 11 1 -1 0 -1 2 -2 1 -1 
1 -1 0 -1 2 -2 1 -1 1 -1 0 -1 2 -2 1 -1 
1 -1 1 -1 0 -1 0 8 1 -1 0 -1 2 -2 0 9 
0 -1 1 -1 0 -1 2 14 0 -1 1 -1 1 -1 1 -1 
0 -1 2 -2 1 -1 0 -1 2 -2 1 -1 1 -1 0 -1 
2 -2 1 -1 1 -1 1 6 -1 -7 0 7 2 -2 1 -1 
0 6 1 -1 0 -1 2 -2 0 5 1 -1 1 -1 1 2 
-1 -3 0 3 2 -2 1 -1 0 -1 2 -2 1 -1 1 -1 
0 -1 2 -2 1 -1 1 -1 0 -1 2 -2 1 -1 0 -1 
2 -2 0 -1 2 -2 1 -1 0 -1 2 -2 1 -1 0 -1 
2 -2 1 -1 1 -1 2358 4220 100 MP stroke
0 -1 2 -2 1 -1 1 2 -1 -3 0 3 2 -2 1 -1 
0 -1 0 2 1 -1 1 -1 1 -1 0 -4 1 -1 1 -1 
0 -1 2 -2 1 -1 1 -1 0 -1 2 -2 1 -1 0 -1 
2 -2 1 -1 0 -1 2 -2 0 -1 0 1 1 3 1 -1 
1 -1 1 3 -1 -4 0 4 2 -2 1 -1 1 4 -1 0 
2 -2 1 -1 0 5 1 -1 0 -2 2 4 1 -1 1 -1 
0 -1 0 1 1 4 0 -1 2 -2 0 6 1 -1 0 -1 
2 -2 0 7 1 -1 1 -1 0 -2 1 7 1 -1 1 -1 
0 -1 0 1 1 6 0 -1 2 -2 0 8 1 -1 0 -2 
2 7 0 -1 2 -2 0 7 1 0 0 -1 2 -2 0 8 
0 -1 2 -2 0 -1 1 7 1 -1 1 -1 0 -1 0 7 
1 -1 1 -1 1 -1 0 -1 0 7 1 -1 1 -1 1 -1 
0 7 0 -1 2 -2 2286 4197 100 MP stroke
1 12 -1 -13 0 13 2 -2 1 -1 0 -1 2 -2 1 -1 
0 -1 2 -2 1 -1 0 -1 2 -2 1 -1 0 -1 2 -2 
1 -1 0 7 1 -1 1 -1 0 -1 0 1 1 5 0 -1 
2 -2 0 6 1 -1 0 -1 2 -2 0 6 0 -1 2 -2 
0 -1 0 8 1 -1 1 -1 0 -1 2 -2 0 -1 2 -2 
1 -1 0 -1 2 -2 1 -1 0 -1 2 -2 1 -1 0 -1 
2 -2 0 5 0 -1 2 -2 0 -1 0 1 1 4 0 -1 
2 -2 1 -1 0 -1 2 -2 0 -1 2 -2 1 -1 0 -1 
2 -2 0 -1 2 -2 1 -1 1 -1 0 -1 0 6 1 -1 
1 -1 0 -2 0 1 1 4 0 -1 2 -2 1 3 -1 -4 
0 4 2 -2 1 -1 0 2 0 -3 0 2 2 -2 1 -1 
0 -1 2 -2 0 -1 0 1 1 -10 0 -1 2 -2 0 -1 
2 -2 1 -1 0 -1 2210 4238 100 MP stroke
2 -2 0 -1 2 -2 1 -1 0 -1 2 -2 1 -1 1 2 
-1 -3 0 3 2 -2 1 -1 1 2 -1 -3 0 3 2 -2 
1 -1 0 3 1 -1 1 -1 0 -2 1 4 0 -1 1 -1 
1 -1 1 3 -1 -4 0 4 2 -2 1 -1 0 -1 0 5 
1 -1 0 -2 2 4 0 -1 2 -2 1 5 -1 -6 0 6 
2 -2 1 -1 0 -1 0 7 1 -1 0 -1 2 3 0 -1 
1 -1 1 -1 1 3 -1 -4 0 4 2 -2 1 -1 0 4 
0 -5 0 4 2 -2 1 -1 0 4 1 -1 1 -1 0 -1 
0 1 1 3 0 -1 2 -2 0 5 0 -1 2 -2 1 -1 
0 5 1 -1 1 -1 1 4 -1 -5 0 5 2 -2 1 -1 
0 6 0 -7 0 6 2 -2 1 -1 0 6 1 -1 1 -1 
0 -1 0 7 1 -1 0 -1 2 -2 0 8 1 -1 0 -2 
2 7 0 -1 1 -1 2144 4217 100 MP stroke
1 -1 1 7 -1 -8 0 8 2 -2 1 -1 0 8 0 -1 
2 -2 1 7 -1 -8 0 8 2 -2 1 -1 0 7 0 -8 
0 7 2 -2 0 -1 0 1 1 6 0 -1 2 -2 0 6 
0 -1 2 -2 1 -1 0 6 0 -1 1 -1 1 -1 1 4 
-1 -5 0 5 2 -2 1 -1 0 -1 0 7 1 -1 0 -1 
2 -2 0 -1 2 -2 1 -1 0 -1 2 -2 0 -1 2 -2 
0 -1 2 -2 0 -1 2 -2 0 5 1 -1 0 -1 2 -2 
0 9 1 -1 0 -2 2 -2 1 -1 0 -1 2 -2 0 -1 
2 -2 0 -1 2 -2 0 -1 2 -2 0 -1 2 -2 0 8 
1 -1 1 -1 1 7 -1 -9 0 9 2 -2 1 -1 0 8 
0 -9 0 8 2 -2 0 -1 1 8 0 -1 2 -2 0 -1 
0 8 1 -1 0 -1 2 -2 0 7 0 -1 1 -1 1 -1 
0 -1 0 1 1 4 2075 4187 100 MP stroke
0 -1 2 -2 0 4 1 -1 1 -1 0 -2 1 3 0 -1 
2 -2 0 -3 2 -2 0 -1 2 -2 0 -1 2 -2 0 -1 
2 -2 0 -1 2 -2 0 -1 2 -2 0 -1 2 -2 0 -6 
1 -1 0 -1 2 -2 0 -1 2 -2 0 -1 2 -2 0 -1 
2 -2 0 -1 2 -2 0 -1 2 -2 1 -1 1 2 -1 -4 
0 4 2 -2 1 -1 0 -1 0 4 1 -1 0 -1 2 -2 
0 4 0 -1 1 -1 1 -1 0 -1 0 1 1 2 0 -1 
2 -2 0 4 0 -1 2 -2 1 3 -1 -4 0 4 2 -2 
1 -1 0 -1 0 5 1 -1 0 -1 2 -2 0 5 0 -1 
2 -2 1 5 -1 -6 0 6 2 -2 1 -1 0 6 0 -7 
0 6 2 -2 1 7 -1 -8 0 8 2 -2 1 -1 0 -1 
0 6 1 -1 0 -2 2 4 0 -1 2 -2 0 6 0 -1 
2 -2 1 -1 0 6 2003 4218 100 MP stroke
0 -1 2 -2 1 5 -1 -6 0 6 2 -2 1 -1 0 6 
0 -7 0 6 2 -2 0 -1 1 6 0 -1 2 -2 0 6 
1 -1 0 -1 2 -2 0 6 0 -1 1 -1 1 -1 1 4 
-1 -5 0 5 2 -2 1 -1 0 4 0 -1 2 -2 0 4 
0 -1 2 -2 1 -1 0 3 0 -1 1 -1 1 -1 0 -1 
0 2 1 -1 0 -1 2 -2 0 -4 2 -2 0 -1 2 -2 
0 -1 2 -2 0 -1 2 -2 1 -1 0 -2 2 -2 0 -1 
2 -2 1 -1 0 4 0 -1 1 -1 1 -1 0 -1 0 4 
1 -1 0 -1 2 -2 0 4 0 -1 2 -2 0 -1 0 1 
1 3 0 -2 2 -2 0 4 0 -1 2 -2 1 3 -1 -4 
0 4 2 -2 1 -1 0 4 0 -1 1 -1 1 -1 0 -1 
0 4 1 -1 0 -1 2 -2 0 4 0 -1 2 -2 0 -1 
0 1 1 3 0 -2 1938 4231 100 MP stroke
2 -2 0 4 0 -1 2 -2 1 3 -1 -4 0 4 2 -2 
1 -1 0 4 0 -1 1 -1 1 -1 0 -1 0 4 1 -1 
0 -1 2 -2 0 4 0 -1 1 -1 1 -1 0 -1 0 4 
1 -1 0 -1 2 -2 0 4 0 -1 2 -2 1 3 -1 -4 
0 4 2 -2 1 -1 0 3 0 -4 0 3 2 -2 0 4 
0 -1 2 -2 1 -1 0 4 0 -1 1 -1 1 -1 0 -1 
0 4 1 -1 0 -1 2 -2 0 4 0 -1 2 -2 0 -1 
0 1 1 3 0 -2 2 -2 0 4 0 -1 2 -2 0 4 
0 -5 0 4 2 -2 1 -1 0 4 0 -1 1 -1 1 -1 
0 -1 0 1 1 3 0 -2 2 -2 0 4 0 -1 2 -2 
0 4 1 -1 0 -1 2 -2 0 4 0 -1 2 -2 0 4 
1 0 0 -2 2 -2 0 5 0 -1 1 -1 1 -1 0 -1 
0 5 1 -1 0 -1 1878 4224 100 MP stroke
2 -2 0 5 0 -1 2 -2 0 5 0 -6 0 5 2 -2 
1 -1 0 5 0 -1 2 -2 0 -1 0 6 1 -1 0 -1 
2 -2 0 6 0 -1 2 -2 1 5 -1 -6 0 6 2 -2 
1 -1 0 6 0 -1 2 -2 0 6 0 -7 0 6 2 -2 
1 -1 0 6 0 -1 2 -2 0 -1 0 7 1 -1 0 -1 
2 -2 0 7 0 -1 1 -1 1 -1 0 3 0 -4 0 3 
2 -2 1 -1 0 3 0 -1 1 -1 1 -1 1 1 -1 -2 
0 2 2 -2 0 -2 2 -2 0 -1 2 -2 1 -1 0 -2 
2 -2 1 -1 0 -2 2 -2 1 -1 0 -2 2 -2 0 -1 
2 -2 0 4 0 -1 2 -2 0 4 0 -5 0 4 2 -2 
1 3 -1 -4 0 4 2 -2 1 -1 0 4 0 -5 0 4 
1 -1 1 -1 0 -1 0 1 1 3 0 -2 2 -2 0 5 
0 -1 1 -1 1 -1 1813 4224 100 MP stroke
0 4 0 -5 0 4 2 -2 0 -1 0 1 1 4 0 -2 
2 -2 0 5 0 -1 2 -2 1 4 -1 -5 0 5 2 -2 
1 -1 0 5 0 -6 0 5 1 -1 1 -1 0 -1 0 6 
1 -1 0 -2 2 5 0 -2 2 -2 0 6 0 -1 2 -2 
0 -1 0 1 1 5 0 -2 2 -2 0 6 0 -1 2 -2 
0 6 1 -1 0 -2 2 5 0 -1 1 -1 1 -1 0 5 
0 -6 0 5 2 -2 1 4 -1 -5 0 5 2 -2 1 -1 
0 4 0 -5 0 4 2 -2 0 -1 0 5 1 -1 0 -1 
2 -2 0 4 0 -1 2 -2 0 4 0 -5 0 4 2 -2 
0 -1 0 7 1 -1 1 -1 0 -2 2 -2 1 -1 0 -2 
2 -2 1 -1 0 -2 2 -2 1 -1 0 -2 2 -2 1 -1 
0 -1 0 6 1 -1 0 -1 2 -2 0 6 0 -1 2 -2 
0 6 0 -7 0 6 1751 4204 100 MP stroke
2 -2 0 -1 1 7 0 -2 2 -2 0 7 0 -1 2 -2 
0 -1 0 1 1 6 0 -2 2 -2 0 7 0 -1 2 -2 
0 -1 0 7 1 -1 1 -1 0 -2 1 6 0 -1 2 -2 
0 5 0 -6 0 5 2 -2 0 -1 0 6 1 -1 0 -1 
2 -2 0 5 0 -1 1 -1 1 -1 0 4 0 -5 0 4 
2 -2 1 -1 0 7 1 -1 0 -2 2 -2 1 -1 0 -2 
2 -2 1 -1 0 -2 2 -2 0 -1 2 -2 0 -2 2 -2 
1 2 -1 -3 0 3 2 -2 1 -1 0 2 0 -3 0 2 
2 -2 0 -1 0 1 1 2 0 -2 2 -2 1 -1 0 -2 
2 -2 1 -1 0 -2 2 -2 0 -1 2 -2 0 -2 2 -2 
1 -1 1 4 -1 -5 0 5 2 -2 0 -2 1 6 0 -1 
1 -1 1 -1 0 -1 0 4 1 -1 1 -1 0 -2 0 5 
1 -1 0 -1 2 -2 1682 4218 100 MP stroke
0 4 0 -1 2 -2 1 3 -1 -4 0 4 2 -2 0 -2 
1 5 0 -1 1 -1 1 -1 0 4 0 -5 0 4 2 -2 
0 -1 0 5 1 -1 0 -1 2 -2 0 5 0 -1 2 -2 
0 5 0 -6 0 5 2 -2 0 -1 0 6 1 -1 0 -1 
2 -2 0 6 0 -1 1 -1 1 -1 1 5 -1 -6 0 6 
2 -2 0 -1 0 1 1 5 0 -2 2 -2 0 7 0 -1 
2 -2 0 7 0 -1 2 -2 0 -1 0 1 1 6 0 -2 
2 6 0 -2 2 -2 0 7 0 -1 2 -2 0 -1 0 7 
1 -1 1 -1 0 -2 1 6 0 -1 1 -1 1 -1 0 5 
0 -6 0 5 1 -1 1 -1 0 -1 0 1 1 3 0 -2 
2 3 0 -2 2 -2 0 4 0 -1 2 -2 0 -1 0 12 
1 -1 0 -1 2 -2 0 -2 2 -2 1 -1 0 -2 2 -2 
0 -1 2 -2 0 -2 1621 4184 100 MP stroke
2 -2 0 -1 2 -2 0 -2 2 -2 0 -1 2 -2 0 -2 
2 -2 0 -1 2 -2 0 -2 2 -2 1 -1 0 4 0 -5 
0 4 2 -2 1 4 -1 -5 0 5 2 -2 1 -1 0 5 
0 -6 0 5 2 -2 0 5 0 -6 0 5 2 -2 0 -1 
0 6 1 -1 0 -1 2 -2 0 5 0 -1 2 -2 1 5 
-1 0 2 -2 0 -2 0 1 1 5 0 -2 2 -2 0 6 
0 -1 1 -1 1 -1 0 4 0 -5 0 4 2 -2 0 -1 
0 1 1 4 0 -2 2 -2 0 4 0 -1 2 -2 0 -1 
0 4 1 -1 1 -1 0 -2 0 1 1 3 0 -2 2 -2 
0 4 0 -2 2 -2 0 4 0 -1 2 -2 0 -1 2 -2 
0 -2 2 -2 1 -1 0 -2 2 -2 0 -2 2 -2 1 -1 
0 -2 2 -2 0 4 0 -1 1 -1 1 -1 0 3 0 -4 
0 3 2 -2 0 -1 1553 4212 100 MP stroke
0 4 1 -1 1 -1 0 -2 1 4 0 -2 2 -2 0 3 
1 -1 1 -1 1 2 -1 -4 0 4 2 -2 0 -2 1 4 
0 -1 1 -1 1 -1 0 3 0 -4 0 3 2 -2 0 -1 
0 4 1 -1 1 -1 0 -2 1 4 0 -1 1 -1 1 -1 
0 4 0 -5 0 4 1 -1 1 -1 1 3 -1 -4 0 4 
2 -2 0 -2 0 6 1 -1 0 -1 2 -2 0 5 0 -1 
2 -2 0 -1 0 4 1 -1 1 -1 1 2 -1 -4 0 4 
2 -2 0 -1 1 -1 0 4 0 -1 2 -2 0 4 0 -5 
0 4 2 -2 0 -1 0 1 1 3 0 -2 2 -2 0 5 
0 -2 2 -2 0 4 0 -1 2 -2 0 4 0 -5 0 4 
2 -2 1 4 -1 -5 0 5 2 -2 0 -2 1 5 0 -2 
2 -2 0 5 0 -1 2 -2 0 -1 0 5 1 -1 1 -1 
0 -1 0 5 1 -1 1497 4197 100 MP stroke
1 -1 1 3 -1 -5 0 5 2 -2 1 -1 0 5 0 -1 
2 -2 0 5 0 -6 0 5 2 -2 0 5 0 -6 0 5 
2 -2 1 4 -1 -5 0 5 2 -2 1 -1 0 5 0 -1 
1 -1 1 -1 0 5 0 -6 0 4 2 -2 0 5 0 -1 
2 -2 0 -1 0 5 1 -1 1 -1 0 -2 1 5 0 -2 
2 -2 0 5 0 -1 2 -2 0 6 0 -7 0 6 2 -2 
0 14 0 -15 0 14 2 -2 0 -1 1 -1 0 -1 2 -2 
0 -2 2 -2 0 -1 1 -1 0 -1 2 -2 0 -2 2 -2 
0 -1 1 -1 1 -1 0 6 0 -1 1 -1 1 -1 0 5 
0 -6 0 5 2 -2 0 6 0 -7 0 6 2 -2 0 -1 
0 1 1 5 0 -2 2 -2 0 6 0 -1 1 -1 1 -1 
0 5 0 -6 0 5 2 -2 0 4 0 -5 0 4 2 -2 
0 -1 0 5 1 -1 1439 4172 100 MP stroke
0 -1 2 -2 0 5 0 -2 2 -2 0 5 0 -1 2 -2 
0 -1 0 12 1 -1 0 -2 2 -2 1 -1 0 -2 2 -2 
0 -2 2 -2 0 -1 2 -2 0 -2 2 -2 0 -2 2 3 
0 -1 1 -1 1 -1 0 7 0 -8 0 7 2 -2 0 -2 
2 -2 1 -1 0 -2 2 -2 0 -2 2 -2 0 -1 2 -2 
0 -2 2 -2 0 -1 0 4 1 -1 1 -1 0 -2 0 1 
1 3 0 -2 2 -2 0 4 0 -1 1 -1 0 -1 1 -1 
0 4 0 -1 2 -2 0 -1 0 4 1 -1 1 -1 0 -2 
0 1 1 3 0 -2 2 -2 0 4 0 -1 2 -2 0 4 
0 -5 0 3 2 -2 0 4 0 -1 2 -2 1 3 -1 -4 
0 4 2 -2 0 -2 1 5 0 -2 2 -2 0 5 0 -1 
2 -2 0 4 0 -5 0 4 2 -2 0 5 0 -6 0 5 
2 -2 1 4 -1 -5 1373 4195 100 MP stroke
0 5 2 -2 1 -1 0 6 0 -7 0 5 2 -2 0 6 
1 -1 1 -1 1 4 -1 -5 0 5 2 -2 0 -2 0 1 
1 5 0 -2 2 -2 0 6 0 -1 1 -1 1 -1 0 5 
0 -6 0 5 2 -2 0 5 0 -6 0 5 2 -2 0 5 
0 -6 0 5 2 -2 1 4 -1 -5 0 5 2 -2 0 -1 
0 1 1 4 0 -2 2 -2 0 5 0 -1 1 -1 1 -1 
0 5 0 -6 0 5 1 -1 1 -1 0 7 0 -8 0 7 
1 -1 1 -1 0 -1 0 17 1 -1 0 -1 2 -2 0 -2 
2 -2 0 -2 2 -2 0 -1 2 -2 0 -2 2 -2 0 -2 
2 -2 1 5 -1 -6 0 6 2 -2 0 -2 0 1 1 7 
0 -2 2 -2 0 18 0 -1 1 -1 0 -2 2 -2 0 -1 
2 -2 0 -2 2 -2 0 -2 2 -2 0 -1 2 -2 0 -2 
2 -2 0 4 0 -1 1311 4171 100 MP stroke
2 -2 0 4 0 -1 2 -2 0 5 0 -1 2 -2 1 5 
-1 -6 0 6 2 -2 1 14 -1 -15 0 15 2 -2 0 -2 
2 -2 0 -2 2 -2 0 -1 2 -2 0 -2 2 -2 0 -2 
2 -2 0 -1 2 -2 0 4 0 -5 0 4 2 -2 0 6 
0 -1 2 -2 1 14 -1 -15 0 15 2 -2 0 -2 2 -2 
0 -2 2 -2 0 -1 1 -1 0 -1 2 -2 0 -2 2 -2 
0 -2 2 -2 1 4 -1 -5 0 5 2 -2 0 -2 1 5 
0 -2 2 -2 0 5 0 -1 1 -1 1 -1 0 4 0 -5 
0 4 2 -2 0 4 0 -5 0 4 1 -1 1 -1 0 3 
0 -4 0 3 2 -2 0 -1 0 4 1 -1 1 -1 1 2 
-1 -4 0 4 2 -2 0 -2 1 5 0 -2 2 -2 0 5 
0 -1 1 -1 1 -1 0 11 0 -12 0 11 1 -1 0 -1 
1 -1 1 -1 0 -2 1247 4171 100 MP stroke
2 -2 0 -2 2 -2 0 -2 2 -2 0 -1 2 -2 0 -2 
2 -2 0 3 0 -4 0 3 2 -2 1 3 -1 -4 0 4 
2 -2 1 2 -1 -4 0 4 2 -2 0 -2 1 4 0 -2 
2 -2 0 4 0 -1 1 -1 1 -1 0 3 0 -4 0 3 
2 -2 0 3 0 -4 0 3 2 -2 0 3 0 -4 0 3 
2 -2 0 -1 0 4 1 -1 1 -1 1 2 -1 -4 0 4 
2 -2 0 -2 1 4 0 -2 2 -2 0 4 0 -1 2 -2 
0 4 0 -2 2 -2 0 4 0 -1 2 -2 0 4 0 -5 
0 4 2 -2 1 3 -1 -4 0 4 2 -2 1 2 -1 -3 
0 3 2 -2 0 -2 1 4 0 -2 2 2 0 -1 2 -2 
0 4 0 -2 2 -2 0 4 0 -2 2 -2 0 4 0 -1 
1 -1 1 -1 0 3 0 -4 0 3 2 -2 0 3 0 -4 
0 3 2 -2 0 4 1186 4181 100 MP stroke
0 -1 1 -1 0 -1 1 -1 0 4 0 -1 2 -2 0 3 
0 -4 0 3 2 -2 0 3 0 -4 0 3 2 -2 0 -1 
0 4 1 -1 1 -1 0 3 0 -4 0 3 2 -2 0 3 
0 -4 0 3 2 -2 1 3 -1 -4 0 4 2 -2 1 2 
-1 -4 0 4 2 -2 0 -1 0 4 1 -1 1 -1 1 2 
-1 -4 0 4 2 -2 1 3 -1 -4 0 4 2 -2 0 -2 
1 4 0 -1 1 -1 0 -1 1 4 0 -2 2 -2 0 5 
0 -2 2 -2 0 4 0 -1 2 -2 0 4 0 -1 2 -2 
0 4 0 -1 2 -2 0 4 0 -1 2 -2 0 5 0 -1 
1 -1 0 -1 1 -1 0 5 0 -1 2 -2 0 4 0 -5 
0 4 2 -2 0 5 0 -1 2 -2 0 4 0 -5 0 4 
2 -2 1 4 -1 -5 0 5 2 -2 1 3 -1 -4 0 4 
2 -2 1 3 -1 -4 1133 4167 100 MP stroke
0 4 2 -2 0 -1 0 4 1 -1 1 -1 1 2 -1 -4 
0 4 2 -2 1 2 -1 -3 0 3 2 -2 1 3 -1 -4 
0 4 2 -2 0 -2 1 7 0 -1 1 -1 0 -2 1 19 
0 -1 1 -1 0 -2 2 -2 0 -1 2 -2 0 -2 2 -2 
0 -2 2 -2 0 -2 2 -2 0 -1 2 -2 0 14 0 -1 
2 -2 0 -2 2 -2 0 -2 2 -2 0 -2 2 -2 1 -1 
0 -2 2 -2 0 -2 2 -2 0 4 0 -2 2 -2 0 4 
0 -1 2 -2 0 3 0 -4 0 3 2 -2 0 3 0 -4 
0 3 2 -2 0 3 0 -4 0 3 2 -2 1 3 -1 0 
2 -2 0 3 0 -4 0 3 2 -2 0 3 0 -4 0 3 
2 -2 0 -1 0 4 1 -1 1 -1 0 -2 0 4 1 -1 
1 -1 1 2 -1 -4 0 4 2 -2 1 2 -1 -4 0 4 
2 -2 1 2 -1 -3 1070 4175 100 MP stroke
0 3 2 -2 0 -1 1 4 0 -1 1 -1 0 -2 1 4 
0 -2 2 -2 0 4 0 -2 2 -2 0 4 0 -2 2 -2 
0 4 0 -1 1 -1 1 -1 0 3 0 -4 0 3 1 -1 
1 -1 0 3 0 -4 0 3 2 -2 0 3 0 -4 0 3 
2 -2 0 3 0 -4 0 3 2 -2 0 3 1 -1 1 -1 
0 -1 0 3 1 -1 1 -1 0 3 0 -4 0 3 2 -2 
0 3 0 -4 0 3 2 -2 0 -1 0 4 1 -1 0 -1 
1 -1 1 3 -1 -4 0 4 2 -2 0 3 0 -4 0 3 
2 -2 1 3 -1 -4 0 4 2 -2 1 2 -1 -4 0 4 
2 -2 0 -1 0 4 1 -1 0 -1 1 -1 1 3 -1 -4 
0 4 2 -2 1 2 -1 -4 0 4 2 -2 0 3 0 -4 
0 3 2 -2 1 3 -1 -4 0 4 2 -2 0 3 0 -4 
0 3 2 -2 0 -1 1019 4170 100 MP stroke
0 4 1 -1 1 -1 0 3 0 -4 0 3 2 -2 0 3 
0 -4 0 3 2 -2 0 4 0 -1 2 -2 0 3 0 -4 
0 3 2 -2 0 4 0 -1 2 -2 0 3 0 -4 0 3 
2 -2 0 4 0 -1 1 -1 1 -1 0 3 0 -4 0 3 
2 -2 0 3 0 -4 0 3 2 -2 0 3 0 -1 2 -2 
0 3 0 -1 2 -2 0 3 0 -1 2 -2 0 4 0 -2 
2 -2 0 5 0 -2 2 -2 0 7 0 -2 2 -2 0 17 
0 -1 1 -1 0 -1 2 -2 0 -2 2 -2 0 -2 2 -2 
0 -2 2 -2 0 -1 1 -1 0 -1 2 -2 1 2 -1 -4 
0 4 2 -2 1 2 -1 -4 0 4 2 -2 1 2 -1 -4 
0 4 2 -2 1 2 -1 -3 0 3 2 -2 1 2 -1 -3 
0 3 2 -2 1 2 -1 -3 0 3 2 -2 0 2 0 -3 
0 2 2 -2 0 3 961 4164 100 MP stroke
0 -4 0 3 2 -2 0 3 0 -4 0 3 2 -2 0 -1 
0 4 1 -1 0 -1 1 -1 0 5 0 -1 2 -2 0 7 
0 -8 0 7 2 -2 0 22 1 -1 0 -2 2 -2 0 -1 
1 -1 0 -1 2 -2 0 -2 2 -2 0 -2 2 -2 0 -2 
2 -2 1 -1 0 8 0 -9 0 8 1 -1 1 -1 0 14 
0 -15 0 14 2 -2 0 -1 0 39 1 -1 0 -2 1 -1 
0 -1 2 -2 0 -2 2 -2 0 -2 2 -2 0 -2 2 -2 
1 -1 0 -2 2 -2 0 10 0 -11 0 10 2 -2 0 10 
0 -11 0 10 2 -2 0 11 0 -2 2 -2 0 10 0 -1 
2 -2 0 9 0 -1 2 -2 0 8 0 -1 1 -1 1 -1 
0 6 1 -1 0 -2 2 -2 0 -2 2 -2 0 -2 2 -2 
0 -2 2 -2 0 -1 1 -1 0 -1 899 4107 94 MP stroke
/c10 { 0.000000 1.000000 0.000000 sr} bdef
c10
1 0 1 0 1 0 1 0 1 0 1 0 1 0 1 0 
1 0 1 0 1 0 1 0 1 0 1 0 1 0 1 0 
1 0 1 0 1 0 1 0 1 0 1 0 1 0 1 0 
1 0 1 0 1 0 1 0 1 0 1 0 1 0 1 0 
1 0 1 0 1 0 1 0 1 0 1 0 1 0 1 0 
1 0 1 0 1 0 1 0 1 0 1 0 1 0 1 0 
1 0 1 0 1 0 1 0 1 0 1 0 1 0 1 0 
1 0 1 0 1 0 1 0 1 0 1 0 1 0 1 0 
1 0 1 0 1 0 1 0 1 0 1 0 1 0 1 0 
1 0 1 0 1 0 1 0 1 0 1 0 1 0 1 0 
1 0 1 0 1 0 1 0 1 0 1 0 1 0 1 0 
1 0 1 0 1 0 1 0 1 0 1 0 1 0 1 0 
1 0 1 0 1 0 6156 4186 100 MP stroke
1 0 1 0 1 0 1 0 1 0 1 0 1 0 1 0 
1 0 1 0 1 0 1 0 1 0 1 0 1 0 1 0 
1 0 1 0 1 0 1 0 1 0 1 0 1 0 1 0 
1 0 1 0 1 0 1 0 1 0 1 0 1 0 1 0 
1 0 1 0 1 0 1 0 1 0 1 0 1 0 1 0 
1 0 1 0 1 0 1 0 1 0 1 0 1 0 1 0 
1 0 1 0 1 0 1 0 1 0 1 0 1 0 1 0 
1 0 1 0 1 0 1 0 1 0 1 0 1 0 1 0 
1 0 1 0 1 0 1 0 1 0 1 0 1 0 1 0 
1 0 1 0 1 0 1 0 1 0 1 0 1 0 1 0 
1 0 1 0 1 0 1 0 1 0 1 0 1 0 1 0 
1 0 1 0 1 0 1 0 1 0 1 0 1 0 1 0 
1 0 1 0 1 0 6057 4186 100 MP stroke
1 0 1 0 1 0 1 0 1 0 1 0 1 0 1 0 
1 0 1 0 1 0 1 0 1 0 1 0 1 0 1 0 
1 0 1 0 1 0 1 0 1 0 1 0 1 0 1 0 
1 0 1 0 1 0 1 0 1 0 1 0 1 0 1 0 
1 0 1 0 1 0 1 0 1 0 1 0 1 0 1 0 
1 0 1 0 1 0 1 0 1 0 1 0 1 0 1 0 
1 0 1 0 1 0 1 0 1 0 1 0 1 0 1 0 
1 0 1 0 1 0 1 0 1 0 1 0 1 0 1 0 
1 0 1 0 1 0 1 0 1 0 1 0 1 0 1 0 
1 0 1 0 1 0 1 0 1 0 1 0 1 0 1 0 
1 0 1 0 1 0 1 0 1 0 1 0 1 0 1 0 
1 0 1 0 1 0 1 0 1 0 1 0 1 0 1 0 
1 0 1 0 1 0 5958 4186 100 MP stroke
1 0 1 0 1 0 1 0 1 0 1 0 1 0 1 0 
1 0 1 0 1 0 1 0 1 0 1 0 1 0 1 0 
1 0 1 0 1 0 1 0 1 0 1 0 1 0 1 0 
1 0 1 0 1 0 1 0 1 0 1 0 1 0 1 0 
1 0 1 0 1 0 1 0 1 0 1 0 1 0 1 0 
1 0 1 0 1 0 1 0 1 0 1 0 1 0 1 0 
1 0 1 0 1 0 1 0 1 0 1 0 1 0 1 0 
1 0 1 0 1 0 1 0 1 0 1 0 1 0 1 0 
1 0 1 0 1 0 1 0 1 0 1 0 1 0 1 0 
1 0 1 0 1 0 1 0 1 0 1 0 1 0 1 0 
1 0 1 0 1 0 1 0 1 0 1 0 1 0 1 0 
1 0 1 0 1 0 1 0 1 0 1 0 1 0 1 0 
1 0 1 0 1 0 5859 4186 100 MP stroke
1 0 1 0 1 0 1 0 1 0 1 0 1 0 1 0 
1 0 1 0 1 0 1 0 1 0 1 0 1 0 1 0 
1 0 1 0 1 0 1 0 1 0 1 0 1 0 1 0 
1 0 1 0 1 0 1 0 1 0 1 0 1 0 1 0 
1 0 1 0 1 0 1 0 1 0 1 0 1 0 1 0 
1 0 1 0 1 0 1 0 1 0 1 0 1 0 1 0 
1 0 1 0 1 0 1 0 1 0 1 0 1 0 1 0 
1 0 1 0 1 0 1 0 1 0 1 0 1 0 1 0 
1 0 1 0 1 0 1 0 1 0 1 0 1 0 1 0 
1 0 1 0 1 0 1 0 1 0 1 0 1 0 1 0 
1 0 1 0 1 0 1 0 1 0 1 0 1 0 1 0 
1 0 1 0 1 0 1 0 1 0 1 0 1 0 1 0 
1 0 1 0 1 0 5760 4186 100 MP stroke
1 0 1 0 1 0 1 0 1 0 1 0 1 0 1 0 
1 0 1 0 1 0 1 0 1 0 1 0 1 0 1 0 
1 0 1 0 1 0 1 0 1 0 1 0 1 0 1 0 
1 0 1 0 1 0 1 0 1 0 1 0 1 0 1 0 
1 0 1 0 1 0 1 0 1 0 1 0 1 0 1 0 
1 0 1 0 1 0 1 0 1 0 1 0 1 0 1 0 
1 0 1 0 1 0 1 0 1 0 1 0 1 0 1 0 
1 0 1 0 1 0 1 0 1 0 1 0 1 0 1 0 
1 0 1 0 1 0 1 0 1 0 1 0 1 0 1 0 
1 0 1 0 1 0 1 0 1 0 1 0 1 0 1 0 
1 0 1 0 1 0 1 0 1 0 1 0 1 0 1 0 
1 0 1 0 1 0 1 0 1 0 1 0 1 0 1 0 
1 0 1 0 1 0 5661 4186 100 MP stroke
1 0 1 0 1 0 1 0 1 0 1 0 1 0 1 0 
1 0 1 0 1 0 1 0 1 0 1 0 1 0 1 0 
1 0 1 0 1 0 1 0 1 0 1 0 1 0 1 0 
1 0 1 0 1 0 1 0 1 0 1 0 1 0 1 0 
1 0 1 0 1 0 1 0 1 0 1 0 1 0 1 0 
1 0 1 0 1 0 1 0 1 0 1 0 1 0 1 0 
1 0 1 0 1 0 1 0 1 0 1 0 1 0 1 0 
1 0 1 0 1 0 1 0 1 0 1 0 1 0 1 0 
1 0 1 0 1 0 1 0 1 0 1 0 1 0 1 0 
1 0 1 0 1 0 1 0 1 0 1 0 1 0 1 0 
1 0 1 0 1 0 1 0 1 0 1 0 1 0 1 0 
1 0 1 0 1 0 1 0 1 0 1 0 1 0 1 0 
1 0 1 0 1 0 5562 4186 100 MP stroke
1 0 1 -1 1 0 1 0 1 0 1 0 1 0 1 0 
1 0 1 0 1 0 1 0 1 0 1 0 1 0 1 0 
1 0 1 0 1 0 1 0 1 0 1 0 1 0 1 0 
1 0 1 0 1 0 1 0 1 0 1 0 1 0 1 0 
1 0 1 0 1 0 1 0 1 0 1 0 1 0 1 0 
1 0 1 0 1 0 1 0 1 0 1 0 1 0 1 0 
1 -1 1 0 1 0 1 0 1 0 0 -2 1 0 1 0 
1 0 1 0 1 0 1 0 1 0 1 0 1 0 1 0 
1 0 1 0 1 0 1 0 1 0 1 0 1 0 1 0 
1 0 1 -1 1 0 1 0 1 0 1 0 1 -1 1 0 
1 0 1 0 1 0 1 -1 1 0 1 0 1 0 1 0 
1 0 1 0 1 0 1 0 1 0 1 0 1 0 1 0 
1 0 1 0 0 6 5465 4187 100 MP stroke
1 0 1 0 1 0 1 0 1 0 1 0 1 0 1 0 
1 0 1 0 1 0 1 0 1 0 1 0 1 0 1 0 
1 0 1 0 1 0 1 0 1 0 1 0 1 0 1 0 
1 0 1 0 1 0 1 0 1 0 1 0 1 0 1 0 
1 0 1 0 1 0 1 0 1 0 1 0 1 0 1 0 
1 0 1 0 1 0 1 0 1 0 1 0 1 0 1 0 
1 0 1 0 1 0 1 0 1 0 1 0 1 0 1 0 
1 0 1 0 1 0 1 0 1 0 1 0 1 0 1 0 
1 0 1 0 1 0 1 0 1 0 1 0 1 0 1 0 
1 0 1 0 1 0 1 0 1 0 1 0 1 0 1 0 
1 0 1 0 1 0 1 0 1 0 1 0 1 0 1 0 
1 0 1 0 1 0 1 0 1 0 1 0 1 0 1 0 
1 0 1 0 1 0 5366 4187 100 MP stroke
1 0 1 0 1 0 1 0 1 0 1 0 1 0 1 0 
1 0 1 0 1 0 1 0 1 0 1 0 1 0 1 0 
1 0 1 0 1 0 1 0 1 0 1 0 1 0 1 0 
1 0 1 0 1 0 1 0 1 0 1 0 1 0 1 0 
1 0 1 0 1 0 1 0 1 0 1 0 1 0 1 0 
1 0 1 0 1 0 1 0 1 0 1 0 1 0 1 0 
1 0 1 0 1 0 1 0 1 0 1 0 1 0 1 0 
1 0 1 0 1 0 1 0 1 0 1 0 1 0 1 0 
1 0 1 0 1 0 1 0 1 0 1 0 1 0 1 0 
1 0 1 0 1 0 1 0 1 0 1 0 1 0 1 0 
1 0 1 0 1 -1 1 0 1 0 1 0 1 0 1 0 
1 0 1 0 1 0 1 0 1 0 1 0 1 0 1 0 
1 0 1 0 1 0 5267 4188 100 MP stroke
1 0 1 0 1 0 1 0 1 0 1 0 1 0 1 0 
1 0 1 0 1 0 1 0 1 0 1 0 1 0 1 0 
1 0 1 0 1 0 1 0 1 0 1 0 1 0 1 0 
1 0 1 0 1 0 1 0 1 0 1 0 1 0 1 0 
1 0 1 0 1 0 1 0 1 0 1 0 1 0 1 0 
1 0 1 0 1 0 1 0 1 0 1 0 1 0 1 0 
1 0 1 0 1 0 1 0 1 0 1 0 1 0 1 0 
1 0 1 0 1 0 1 0 1 0 1 0 1 0 1 0 
1 0 1 0 1 0 1 0 1 0 1 0 1 0 1 0 
1 0 1 0 1 0 1 0 1 0 1 0 1 0 1 0 
1 0 1 0 1 0 1 0 1 0 1 0 1 0 1 0 
1 0 1 0 1 0 1 0 1 0 1 0 1 0 1 0 
1 0 1 0 1 0 5168 4188 100 MP stroke
1 0 1 0 1 0 1 0 1 0 1 0 1 0 1 0 
1 0 1 0 1 0 1 0 1 0 1 0 1 0 1 0 
1 0 1 0 1 0 1 0 1 0 1 0 1 0 1 0 
1 0 1 0 1 0 1 0 1 0 1 0 1 0 1 0 
1 0 1 0 1 0 1 0 1 0 1 0 1 0 1 0 
1 0 1 0 1 0 1 0 1 0 1 0 1 0 1 0 
1 0 1 0 1 0 1 0 1 0 1 0 1 0 1 0 
1 0 1 0 1 0 1 0 1 0 1 0 1 0 1 0 
1 0 1 0 1 0 1 0 1 0 1 0 1 0 1 0 
1 0 1 0 1 0 1 0 1 0 1 0 1 0 1 0 
1 0 1 0 1 0 1 0 1 0 1 0 1 0 1 0 
1 0 1 0 1 0 1 0 1 0 1 0 1 0 1 -1 
1 0 1 0 1 0 5069 4189 100 MP stroke
1 0 1 0 1 0 1 0 1 0 1 -1 1 0 1 0 
1 0 1 0 1 -1 1 0 1 0 1 0 1 0 1 -1 
1 0 1 0 1 0 1 0 0 -2 1 0 1 0 1 0 
1 0 1 0 1 -1 1 0 1 0 1 0 1 -2 1 0 
1 0 1 0 1 0 1 -1 1 0 1 0 1 0 1 0 
1 0 1 0 1 0 1 0 1 0 1 1 1 0 1 0 
1 0 1 0 0 3 1 0 1 0 1 0 1 0 1 0 
0 6 1 0 1 0 1 0 1 0 1 0 1 0 1 0 
1 0 1 0 1 0 1 0 1 0 1 0 1 0 1 0 
1 0 1 0 1 0 1 0 1 0 1 0 1 0 1 0 
1 0 1 0 1 0 1 0 1 0 1 -1 1 0 1 0 
1 0 1 0 1 0 1 0 1 0 1 0 1 0 1 0 
1 0 1 0 1 0 4973 4189 100 MP stroke
1 0 1 0 1 0 1 0 1 0 1 0 1 0 1 0 
1 0 1 0 1 0 1 0 1 0 1 0 1 0 1 0 
1 0 1 0 1 0 1 0 1 0 1 0 1 0 1 0 
1 0 1 0 1 0 1 0 1 0 1 0 1 0 1 0 
1 0 1 0 1 0 1 0 1 0 1 0 1 0 1 0 
1 0 1 0 1 0 1 0 1 0 1 0 1 0 1 0 
1 0 1 0 1 0 1 0 1 0 1 0 1 0 1 0 
1 0 1 0 1 0 1 0 1 0 1 0 1 0 1 0 
1 0 1 0 1 0 1 0 1 0 1 0 1 0 1 0 
1 0 1 0 1 0 1 0 1 0 1 0 1 0 1 0 
1 0 1 0 1 0 1 0 1 0 1 0 1 0 1 0 
1 0 1 0 1 0 1 0 1 0 1 0 1 0 1 0 
1 0 1 0 1 0 4874 4189 100 MP stroke
1 0 1 0 1 0 1 0 1 0 1 0 1 0 1 0 
1 0 1 0 1 0 1 0 1 0 1 0 1 0 1 0 
1 0 1 0 1 0 1 0 1 0 1 0 1 0 1 0 
1 0 1 0 1 0 1 0 1 0 1 0 1 0 1 0 
1 0 1 0 1 0 1 0 1 0 1 0 1 0 1 0 
1 0 1 0 1 0 1 0 1 0 1 0 1 0 1 0 
1 0 1 0 1 0 1 0 1 0 1 0 1 0 1 0 
1 0 1 0 1 0 1 0 1 0 1 0 1 0 1 0 
1 0 1 0 1 0 1 0 1 0 1 0 1 0 1 0 
1 0 1 0 1 0 1 0 1 0 1 0 1 0 1 0 
1 0 1 0 1 0 1 0 1 0 1 0 1 0 1 0 
1 0 1 0 1 0 1 0 1 0 1 0 1 0 1 0 
1 0 1 0 1 0 4775 4189 100 MP stroke
1 0 1 0 1 0 1 0 1 0 1 0 1 0 1 0 
1 0 1 0 1 0 1 0 1 0 1 0 1 0 1 0 
1 0 1 0 1 0 1 0 1 0 1 0 1 0 1 0 
0 -2 1 0 1 0 1 0 1 0 1 0 1 0 1 0 
1 0 1 0 1 0 1 0 1 0 1 0 1 0 1 0 
1 0 1 0 1 0 1 0 1 0 1 0 1 0 1 0 
1 0 1 0 1 0 1 0 1 0 1 0 1 0 1 0 
1 0 1 -1 1 0 1 0 1 0 1 0 1 -1 1 0 
1 0 1 0 0 -2 1 0 1 0 1 0 1 0 1 0 
1 -1 1 0 1 0 1 0 1 0 0 -2 1 0 1 0 
1 0 1 0 0 -2 1 0 1 0 1 0 1 0 1 0 
1 -1 1 0 1 0 1 0 1 0 1 0 1 0 1 0 
1 0 1 1 1 0 4680 4200 100 MP stroke
1 0 1 0 1 0 0 3 1 0 1 0 1 0 1 0 
1 7 1 0 1 0 1 0 1 0 1 0 1 0 1 0 
1 0 1 0 1 0 1 0 1 0 1 0 1 0 1 0 
1 0 1 0 1 0 1 0 1 0 1 0 1 0 1 0 
1 0 1 0 1 0 1 0 1 0 1 0 1 0 1 0 
1 0 1 0 1 0 1 0 1 0 1 0 1 0 1 0 
1 0 1 0 1 0 1 0 1 0 1 0 1 0 1 0 
1 0 1 0 1 0 1 0 1 0 1 0 1 0 1 0 
1 0 1 0 1 0 1 0 1 0 1 0 1 0 1 0 
1 0 1 0 1 0 1 0 1 0 1 0 1 0 1 0 
1 0 1 0 1 0 1 0 1 0 1 0 1 0 1 0 
1 0 1 0 1 0 1 0 1 0 1 0 1 0 1 0 
1 0 1 0 1 0 4582 4190 100 MP stroke
1 0 1 0 1 0 1 0 1 0 1 0 1 0 1 0 
1 0 1 0 1 0 1 0 1 0 1 0 1 0 1 0 
1 0 1 0 1 0 1 0 1 0 1 0 1 0 1 0 
1 0 1 0 1 0 1 0 1 0 1 0 1 0 1 0 
1 0 1 0 1 0 1 0 1 0 1 0 1 0 1 0 
1 0 1 0 1 0 1 0 1 0 1 0 1 0 1 0 
1 0 1 0 1 0 1 0 1 -1 1 0 1 0 1 0 
1 0 1 0 1 0 1 0 1 0 1 0 1 0 1 0 
1 0 1 0 1 0 1 0 1 0 1 0 1 0 1 0 
1 0 1 0 1 0 1 0 1 0 1 0 1 0 1 1 
1 0 1 0 1 0 1 0 1 0 1 0 1 0 1 0 
1 0 1 0 1 0 1 0 1 0 1 0 1 0 1 0 
1 0 1 0 1 0 4483 4190 100 MP stroke
1 0 1 0 1 0 1 0 1 0 1 0 1 0 1 0 
1 0 1 0 1 0 1 0 1 0 1 0 1 0 1 0 
1 0 1 0 1 0 1 0 1 0 1 0 1 0 1 0 
1 0 1 0 1 0 1 0 1 0 1 0 1 -1 1 0 
1 0 1 0 1 0 1 0 1 0 1 0 1 0 1 -2 
1 0 1 0 1 0 1 0 1 0 1 0 1 0 1 0 
1 0 1 0 1 0 1 0 1 0 1 0 1 0 1 0 
1 0 1 -1 1 0 1 0 1 0 1 0 0 -2 1 0 
1 0 1 0 1 0 1 -1 1 0 1 0 1 0 1 0 
0 -2 1 0 1 0 1 0 1 0 0 -2 1 0 1 0 
1 0 1 0 1 0 1 -1 1 0 1 0 1 0 1 -1 
1 0 1 0 1 0 1 0 1 -1 1 0 1 0 1 0 
0 2 1 0 1 0 4388 4202 100 MP stroke
1 0 1 0 1 0 0 3 1 0 1 0 1 0 1 0 
0 8 1 0 1 0 1 0 1 0 1 0 1 0 1 0 
1 0 1 0 1 0 1 0 1 0 1 0 1 0 1 0 
1 0 1 0 1 0 1 0 1 0 1 0 1 0 1 0 
1 0 1 0 1 0 1 0 1 0 1 0 1 0 1 0 
1 0 1 0 1 0 1 0 1 0 1 0 1 0 1 0 
1 0 1 0 1 0 1 0 1 0 1 0 1 0 1 0 
1 0 1 0 1 0 1 0 1 0 1 0 1 0 1 -1 
1 0 1 0 1 0 1 0 1 0 1 0 1 0 1 0 
1 0 1 0 1 0 1 0 1 0 1 0 1 0 1 0 
1 0 1 0 1 0 1 0 1 0 1 0 1 0 1 0 
1 0 1 0 1 0 1 0 1 0 1 0 1 0 1 0 
1 0 1 0 1 0 4291 4192 100 MP stroke
1 0 1 0 1 0 1 0 1 0 1 0 1 0 1 0 
1 0 1 0 1 0 1 0 1 0 1 0 1 0 1 0 
1 0 1 0 1 0 1 0 1 0 1 0 1 0 1 0 
1 0 1 0 1 0 1 0 1 0 1 0 1 0 1 0 
1 0 1 0 1 0 1 0 1 0 1 0 1 0 1 0 
1 0 1 0 1 0 1 0 1 0 1 0 1 0 1 0 
1 0 1 0 1 0 1 0 1 0 1 0 1 0 1 0 
1 0 1 0 1 0 1 0 1 0 1 0 1 0 1 0 
1 0 1 0 1 0 1 0 1 0 1 0 1 0 1 0 
1 0 1 0 1 0 1 0 1 0 1 0 1 0 1 0 
1 0 1 0 1 0 1 0 1 0 1 0 1 0 1 0 
1 0 1 0 1 0 1 0 1 0 1 0 1 0 1 0 
1 0 1 0 1 0 4192 4192 100 MP stroke
1 0 1 0 1 0 1 0 1 0 1 -1 1 0 1 0 
1 0 1 0 1 0 1 0 1 0 1 0 1 -1 1 0 
1 0 1 0 1 0 1 0 1 0 1 0 1 0 1 -1 
1 0 1 0 1 0 1 -1 1 0 1 0 1 0 1 -1 
1 0 1 0 1 0 0 -2 1 0 1 0 1 0 1 0 
1 0 0 -2 1 0 1 0 1 0 1 0 0 -4 1 0 
1 0 1 0 1 0 1 0 1 0 1 0 1 0 1 0 
1 0 1 0 1 0 1 0 1 0 1 0 1 0 1 0 
1 0 1 1 1 0 1 0 1 0 0 4 1 0 1 0 
1 0 1 0 0 8 1 0 1 0 1 0 1 0 1 0 
1 0 1 0 1 0 1 0 1 0 1 0 1 0 1 0 
1 0 1 0 1 0 1 0 1 0 1 0 1 0 1 0 
1 0 1 -1 1 0 4098 4193 100 MP stroke
1 0 1 0 1 0 1 0 1 0 1 0 1 0 1 0 
1 0 1 0 1 0 1 0 1 0 1 0 1 0 1 0 
1 0 1 0 1 0 1 0 1 0 1 0 1 0 1 0 
1 0 1 0 1 0 1 0 1 0 1 0 1 0 1 0 
1 0 1 0 1 0 1 0 1 0 1 0 1 0 1 0 
1 0 1 0 1 0 1 0 1 0 1 0 1 0 1 0 
1 0 1 0 1 0 1 0 1 0 1 0 1 0 1 0 
1 0 1 0 1 0 1 0 1 0 1 0 1 0 1 0 
1 0 1 0 1 0 1 0 1 0 1 0 1 0 1 0 
1 0 1 0 1 0 1 0 1 0 1 0 1 0 1 0 
1 0 1 0 1 0 1 0 1 0 1 0 1 0 1 0 
1 0 1 0 1 0 1 0 1 0 1 0 1 0 1 0 
1 0 1 0 1 0 3999 4193 100 MP stroke
1 0 1 0 1 0 1 0 1 0 1 0 1 0 1 0 
1 0 1 0 1 0 1 0 1 0 1 0 1 0 1 0 
1 0 1 0 1 0 1 0 1 0 1 0 1 0 1 0 
1 0 1 0 1 0 1 0 1 0 1 0 1 0 1 0 
1 0 1 0 1 0 1 0 1 0 1 0 1 0 1 0 
1 0 1 0 1 0 1 0 1 0 1 0 1 0 1 0 
1 0 1 0 1 0 1 0 1 -1 1 0 1 0 1 0 
1 0 1 0 1 0 1 0 1 0 1 0 1 0 1 0 
1 0 1 -1 1 0 1 0 1 0 1 -1 1 0 1 0 
1 0 1 -1 1 0 1 0 1 0 0 -2 1 0 1 0 
1 0 1 0 0 -5 1 0 1 0 1 0 1 0 1 0 
1 0 1 0 1 0 1 0 1 0 1 0 1 0 1 0 
1 0 1 0 1 0 3902 4204 100 MP stroke
1 0 1 -1 1 0 1 0 1 0 1 0 1 0 1 0 
1 0 1 1 1 0 1 0 1 0 1 0 0 4 1 0 
1 0 1 0 1 0 0 7 1 0 1 0 1 0 1 0 
1 0 1 0 1 0 1 0 1 -1 1 0 1 0 1 0 
1 0 1 0 1 0 1 0 1 0 1 0 1 0 1 0 
1 0 1 0 1 0 1 0 1 0 1 0 1 0 1 0 
1 0 1 0 1 0 1 0 1 0 1 0 1 0 1 0 
1 0 1 0 1 0 1 0 1 0 1 0 1 0 1 0 
1 0 1 0 1 0 1 0 1 0 1 0 1 0 1 0 
1 0 1 0 1 0 1 0 1 0 1 0 1 0 1 0 
1 0 1 0 1 0 1 0 1 0 1 0 1 0 1 0 
1 0 1 0 1 0 1 0 1 0 1 0 1 0 1 0 
1 0 1 0 1 0 3805 4194 100 MP stroke
1 0 1 0 1 0 1 0 1 0 1 0 1 0 1 0 
1 0 1 0 1 0 1 0 1 0 1 0 1 0 1 0 
1 0 1 0 1 0 1 0 1 0 1 0 1 0 1 0 
1 0 1 0 1 0 1 0 1 0 1 0 1 0 1 0 
1 0 1 0 1 0 1 0 1 0 1 0 1 0 1 0 
1 0 1 0 1 0 1 0 1 0 1 0 1 0 1 0 
1 0 1 0 1 0 1 0 1 0 1 0 1 0 1 0 
1 0 1 0 1 0 1 0 1 0 1 0 1 0 1 0 
1 0 1 0 1 0 1 0 1 0 1 0 1 0 1 0 
1 0 1 0 1 0 1 0 1 0 1 0 1 0 1 0 
1 0 1 0 1 0 1 0 1 0 1 0 1 0 1 -1 
1 0 1 0 1 0 1 0 1 0 1 0 1 0 1 -1 
1 0 1 0 1 0 3706 4196 100 MP stroke
1 0 1 0 1 0 1 0 1 -1 1 0 1 0 1 0 
1 -1 1 0 1 0 1 0 1 -1 1 0 1 0 1 0 
0 -2 1 0 1 0 1 0 1 0 1 -1 1 0 1 0 
1 0 0 -2 1 0 1 0 1 0 1 0 1 -1 1 0 
1 0 1 0 1 -1 1 0 1 0 1 0 1 0 1 0 
1 0 1 0 0 2 1 0 1 0 1 0 1 0 0 10 
1 0 1 0 1 0 1 0 1 0 1 0 1 0 1 0 
1 0 1 0 1 0 1 0 1 0 1 0 1 0 1 0 
1 0 1 0 1 0 1 0 1 0 1 0 1 0 1 0 
1 0 1 0 1 0 1 0 1 0 1 0 1 0 1 0 
1 0 1 0 1 0 1 0 1 0 1 0 1 0 1 0 
1 0 1 0 1 0 1 0 1 0 1 0 1 0 1 0 
1 0 1 0 1 0 3611 4194 100 MP stroke
1 0 1 0 1 0 1 0 1 0 1 0 1 0 1 0 
1 0 1 0 1 0 1 0 1 0 1 0 1 0 1 0 
1 0 1 0 1 0 1 0 1 0 1 0 1 0 1 0 
1 0 1 0 1 0 1 0 1 0 1 0 1 0 1 0 
1 0 1 -1 1 0 1 0 1 0 1 0 1 0 1 0 
1 0 1 0 1 0 1 0 1 0 1 0 1 0 1 0 
1 0 1 0 1 0 1 0 1 0 1 0 1 0 1 0 
1 0 1 0 1 0 1 0 1 0 1 0 1 0 1 0 
1 0 1 0 1 0 1 0 1 0 1 0 1 0 1 0 
1 0 1 0 1 0 1 0 1 0 1 0 1 0 1 0 
1 0 1 0 1 0 1 0 1 0 1 0 1 0 1 0 
1 0 1 0 1 0 1 0 1 0 1 0 1 0 1 0 
1 0 1 0 1 0 3512 4195 100 MP stroke
1 0 1 0 1 0 1 0 1 0 1 0 1 0 1 0 
1 0 1 0 1 -1 1 0 1 0 1 0 1 0 1 0 
1 0 1 -1 1 0 1 0 1 0 1 -1 1 0 1 0 
1 0 1 0 1 0 1 0 1 -2 1 0 1 0 1 0 
1 -1 1 0 1 0 1 0 1 -1 1 0 1 0 1 0 
1 -1 1 0 1 0 1 -2 1 0 1 0 1 0 1 0 
1 0 1 0 1 0 1 0 1 0 1 0 1 0 1 1 
1 0 1 0 1 3 1 0 1 0 1 0 0 7 1 0 
1 0 1 0 1 0 1 -1 1 0 1 0 1 0 1 0 
1 0 1 0 1 0 1 0 1 0 1 0 1 0 1 0 
1 0 1 0 1 0 1 0 1 0 1 0 1 0 1 0 
1 0 1 0 1 0 1 0 1 0 1 0 1 0 1 0 
1 0 1 0 1 0 3414 4195 100 MP stroke
1 0 1 0 1 0 1 0 1 0 1 0 1 0 1 0 
1 0 1 0 1 0 1 0 1 0 1 0 1 0 1 0 
1 0 1 0 1 0 1 0 1 0 1 0 1 0 1 0 
1 0 1 0 1 0 1 0 1 0 1 0 1 0 1 0 
1 0 1 0 1 0 1 0 1 0 1 0 1 0 1 0 
1 0 1 0 1 0 1 0 1 0 1 0 1 0 1 0 
1 0 1 0 1 0 1 0 1 0 1 0 1 0 1 0 
1 0 1 0 1 0 1 0 1 0 1 0 1 0 1 0 
1 0 1 1 1 0 1 0 1 0 1 0 1 0 1 0 
1 0 1 0 1 0 1 0 1 0 1 0 1 0 1 0 
1 0 1 0 1 0 1 0 1 0 1 0 1 0 1 0 
1 0 1 0 1 0 1 -1 1 0 1 0 1 0 1 0 
1 0 1 0 1 0 3315 4195 100 MP stroke
1 0 1 0 1 0 1 0 1 0 1 0 1 0 1 0 
0 -8 1 0 1 0 1 0 1 0 1 0 1 0 1 0 
1 0 1 0 1 0 1 0 1 0 1 0 1 0 1 0 
1 0 1 0 1 0 1 0 1 0 1 0 1 0 1 0 
1 0 1 0 1 0 1 0 1 0 1 0 0 -4 1 0 
1 0 1 0 1 0 1 0 1 0 1 0 1 0 1 0 
1 0 1 0 1 0 1 0 1 0 1 0 1 0 1 0 
1 0 1 0 1 2 1 0 1 0 1 0 0 4 1 0 
1 0 1 0 1 0 0 6 1 0 1 0 1 0 1 0 
1 0 1 0 1 0 1 0 1 0 1 0 1 0 1 0 
1 0 1 0 1 0 1 0 1 0 1 0 1 0 1 0 
1 0 1 0 1 0 1 0 1 0 1 0 1 0 1 0 
1 0 1 0 1 0 3220 4195 100 MP stroke
1 0 1 0 1 0 1 0 1 0 1 0 1 0 1 0 
1 0 1 0 1 0 1 0 1 0 1 0 1 0 1 0 
1 0 1 0 1 0 1 0 1 0 1 0 1 0 1 0 
1 0 1 0 1 0 1 0 1 0 1 0 1 0 1 0 
1 0 1 0 1 0 1 0 1 0 1 0 1 0 1 0 
1 0 1 0 1 0 1 0 1 0 1 0 1 0 1 0 
1 0 1 0 1 0 1 0 1 0 1 0 1 0 1 0 
1 0 1 0 1 0 1 0 1 0 1 0 1 0 1 0 
1 0 1 0 1 0 1 0 1 0 1 0 1 0 1 0 
1 0 1 0 1 0 1 0 1 0 1 0 1 0 1 0 
1 0 1 0 1 0 1 0 1 0 1 0 1 0 1 0 
1 0 1 0 1 0 1 0 1 0 1 0 1 0 1 0 
1 0 1 0 1 0 3121 4195 100 MP stroke
0 -2 1 0 1 0 1 0 1 0 1 0 1 0 1 0 
1 0 1 0 1 0 1 0 1 0 1 0 1 0 1 0 
1 0 1 0 1 0 1 0 1 0 1 -1 1 0 1 0 
1 -1 1 0 1 0 1 0 1 -1 1 0 1 0 0 -2 
1 0 1 0 1 0 1 -5 1 0 1 0 1 0 1 0 
1 0 1 0 1 0 1 0 1 0 1 0 1 0 1 0 
1 0 1 0 1 0 1 0 1 0 1 0 1 0 1 1 
1 0 1 0 1 1 1 0 1 0 0 4 1 0 1 0 
1 0 1 0 0 6 1 0 1 0 1 0 1 0 1 0 
1 0 1 0 1 0 1 0 1 0 1 0 1 0 1 0 
1 0 1 0 1 0 1 0 1 0 1 0 1 0 1 0 
1 0 1 0 1 0 1 0 1 0 1 0 1 0 1 0 
1 0 1 0 1 0 3026 4195 100 MP stroke
1 0 1 0 1 0 1 0 1 0 1 0 1 0 1 0 
1 0 1 0 1 0 1 0 1 0 1 0 1 0 1 0 
1 0 1 0 1 0 1 0 1 0 1 0 1 0 1 0 
1 0 1 0 1 0 1 0 1 0 1 0 1 0 1 0 
1 0 1 0 1 0 1 0 1 0 1 0 1 0 1 0 
1 0 1 0 1 0 1 0 1 0 1 0 1 0 1 0 
1 0 1 0 1 0 1 0 1 0 1 0 1 0 1 0 
1 0 1 0 1 0 1 0 1 0 1 0 1 0 1 0 
1 0 1 0 1 0 1 0 1 0 1 0 1 0 1 0 
1 0 1 0 1 0 1 0 1 0 1 0 1 0 1 0 
1 0 1 0 1 0 1 0 1 0 1 0 1 0 1 0 
1 0 1 0 1 -1 1 0 1 0 1 0 1 -1 1 0 
1 0 1 0 1 0 2927 4197 100 MP stroke
1 0 1 0 1 0 1 0 1 0 1 0 1 0 1 0 
1 0 1 0 1 -1 1 0 1 0 1 -1 1 0 1 0 
1 0 1 -1 1 0 1 0 1 -1 1 0 1 0 1 -1 
1 0 1 0 1 -1 1 0 1 0 1 -1 1 0 1 0 
1 0 1 -1 1 0 1 0 1 -1 1 0 1 0 1 0 
1 0 1 0 1 0 1 0 1 0 1 0 0 2 1 0 
1 0 1 0 0 4 1 0 1 0 1 0 0 5 1 0 
1 0 1 0 1 0 1 0 1 0 1 0 1 0 1 0 
1 0 1 0 1 0 1 0 1 0 1 0 1 0 1 0 
1 0 1 0 1 0 1 0 1 0 1 0 1 0 1 0 
1 0 1 0 1 0 1 0 1 0 1 0 1 0 1 0 
1 0 1 0 1 0 1 0 1 0 1 0 1 0 1 0 
1 0 1 0 1 0 2831 4195 100 MP stroke
1 0 1 0 1 0 1 0 1 0 1 0 1 0 1 0 
1 0 1 0 1 0 1 0 1 0 1 0 1 0 1 0 
1 0 1 0 1 0 1 0 1 0 1 0 1 0 1 0 
1 0 1 0 1 0 1 0 1 0 1 0 1 0 1 0 
1 0 1 0 1 0 1 0 1 0 1 0 1 0 1 0 
1 0 1 0 1 0 1 0 1 0 1 0 1 0 1 0 
1 0 1 0 1 0 1 0 1 0 1 0 1 0 1 0 
1 0 1 0 1 0 1 0 1 0 1 0 1 0 1 0 
1 0 1 0 1 -1 1 0 1 0 1 -1 1 0 1 0 
1 0 1 0 1 0 1 0 1 0 1 0 1 0 1 0 
1 0 1 0 1 0 1 0 1 -1 1 0 1 0 1 -1 
1 0 1 0 1 0 1 0 1 0 1 0 1 -1 1 0 
1 0 1 -1 1 0 2732 4201 100 MP stroke
1 0 1 0 1 0 1 0 1 -1 1 0 1 0 1 0 
1 0 1 0 1 0 1 0 1 0 1 0 1 0 1 0 
1 0 1 0 1 0 1 0 1 0 1 0 1 0 1 0 
1 0 0 7 1 0 1 0 1 0 1 0 1 0 1 0 
1 0 1 0 1 0 1 0 1 0 1 0 1 0 1 0 
1 0 1 0 1 0 1 0 1 0 1 0 1 0 1 0 
1 0 1 0 1 0 1 0 1 0 1 0 1 0 1 0 
1 0 1 0 1 0 1 0 1 0 1 0 1 0 1 0 
1 0 1 0 1 0 1 0 1 0 1 0 1 0 1 0 
1 0 1 0 1 0 1 0 1 0 1 0 1 0 1 0 
1 0 1 0 1 0 1 0 1 0 1 0 1 0 1 0 
1 0 1 0 1 0 1 0 1 0 1 0 1 0 1 0 
1 0 1 0 1 0 2634 4195 100 MP stroke
1 0 1 0 1 0 1 0 1 0 1 0 1 0 1 0 
1 0 1 0 1 0 1 0 1 0 1 0 1 0 1 0 
1 0 1 0 1 0 1 0 1 0 1 0 1 0 1 0 
1 0 1 0 1 0 1 0 1 0 1 0 1 0 1 0 
1 0 1 0 1 0 1 0 1 0 1 0 1 0 1 0 
1 0 1 0 1 0 1 0 1 0 1 0 1 0 1 0 
1 0 1 0 1 0 1 0 1 0 1 0 1 0 1 -1 
1 0 1 0 1 0 1 0 1 0 1 0 1 0 1 0 
1 -1 1 0 1 0 1 0 1 0 1 0 1 -1 1 0 
1 0 1 -1 1 0 1 0 1 -1 1 0 1 0 1 -1 
1 0 1 0 1 0 1 0 1 0 1 -1 1 0 1 -1 
1 0 1 0 1 0 1 0 1 0 1 0 1 0 1 0 
1 0 1 0 1 0 2535 4203 100 MP stroke
1 1 1 0 1 0 0 7 1 0 1 0 1 0 1 0 
1 0 1 0 1 0 1 0 1 0 1 0 1 0 1 0 
1 0 1 0 1 0 1 0 1 0 1 0 1 0 1 0 
1 0 1 0 1 0 1 0 1 0 1 0 1 0 1 0 
1 0 1 1 1 0 1 0 1 0 1 0 1 0 1 0 
1 0 1 0 1 0 1 0 1 0 1 0 1 0 1 0 
1 0 1 0 1 -1 1 0 1 0 1 0 1 0 1 0 
1 0 1 0 1 0 1 0 1 0 1 0 1 0 1 0 
1 0 1 0 1 0 1 0 1 0 1 0 1 0 1 0 
1 0 1 1 1 0 1 0 1 0 1 0 1 0 1 0 
1 0 1 0 1 0 1 0 1 0 1 0 1 0 1 0 
1 0 1 0 1 0 1 0 1 0 1 0 1 0 1 0 
1 0 1 0 1 0 2437 4194 100 MP stroke
1 0 1 0 1 0 1 0 1 0 1 0 1 0 1 0 
1 0 1 0 1 0 1 0 1 0 1 0 1 0 1 0 
1 0 1 0 1 0 1 0 1 0 1 0 1 0 1 0 
1 0 1 0 1 0 1 0 1 -1 1 0 1 0 1 0 
1 0 1 0 1 0 1 0 1 0 1 0 1 0 1 0 
1 0 1 0 1 0 1 0 1 0 1 -1 1 0 1 0 
1 0 1 0 1 0 1 -1 1 0 0 -3 1 0 1 0 
1 0 1 0 1 0 1 0 1 0 1 0 1 0 1 0 
1 0 1 0 1 0 1 0 1 0 0 -2 1 0 1 0 
1 0 1 0 1 0 1 0 1 0 1 0 1 0 1 0 
1 0 1 0 1 0 1 0 1 0 1 0 1 0 0 2 
1 0 1 0 1 0 0 6 1 0 1 0 1 0 1 0 
1 0 1 0 1 0 2342 4194 100 MP stroke
1 0 1 0 1 0 1 0 1 0 1 0 1 0 1 0 
1 0 1 0 1 0 1 0 1 0 1 0 1 0 1 0 
1 0 1 0 1 0 1 0 1 0 1 0 1 0 1 0 
1 0 1 0 1 0 1 0 1 0 1 0 1 0 1 0 
1 0 1 0 1 0 1 0 1 0 1 0 1 0 1 0 
1 0 1 0 1 0 1 0 1 0 1 0 1 0 1 0 
1 0 1 0 1 0 1 0 1 0 1 0 1 0 1 0 
1 0 1 0 1 0 1 0 1 0 1 0 1 0 1 0 
1 0 1 0 1 0 1 0 1 0 1 0 1 0 1 0 
1 0 1 0 1 0 1 0 1 0 1 0 1 0 1 0 
1 0 1 0 1 0 1 0 1 0 1 0 1 0 1 0 
1 0 1 0 1 0 1 0 1 0 1 0 1 0 1 0 
1 0 1 0 1 -1 2243 4195 100 MP stroke
1 0 1 0 1 0 1 0 1 0 1 0 1 0 1 0 
1 0 1 0 1 0 1 0 1 0 1 0 1 0 1 0 
1 0 1 0 1 0 1 0 1 0 1 0 1 -1 1 0 
1 -1 1 0 1 0 0 -3 1 0 1 0 1 0 1 0 
1 0 1 0 1 0 1 0 1 0 1 0 1 0 1 0 
1 0 1 0 1 -1 1 0 1 0 1 0 1 0 1 0 
1 -1 1 0 1 0 1 0 1 0 1 0 1 0 1 0 
1 1 1 0 1 1 1 0 1 0 0 2 1 0 1 0 
1 0 0 4 1 0 1 0 1 0 1 0 1 0 1 0 
1 0 1 0 1 0 1 0 1 0 1 0 1 0 1 0 
1 0 1 0 1 0 1 0 1 0 1 0 1 0 1 0 
1 0 1 0 1 0 1 0 1 0 1 0 1 0 1 0 
1 0 1 0 1 0 2147 4194 100 MP stroke
1 0 1 0 1 0 1 0 1 0 1 0 1 0 1 0 
1 0 1 0 1 0 1 0 1 0 1 0 1 0 1 0 
1 0 1 0 1 0 1 0 1 0 1 0 1 0 1 0 
1 0 1 0 1 0 1 0 1 0 1 0 1 0 1 0 
1 0 1 0 1 0 1 0 1 0 1 0 1 0 1 0 
1 0 1 0 1 0 1 0 1 0 1 0 1 0 1 0 
1 0 1 0 1 0 1 0 1 0 1 0 1 0 1 0 
1 0 1 0 1 1 1 0 1 0 1 0 1 0 1 0 
1 0 1 0 1 0 1 0 1 0 1 0 1 0 1 0 
1 0 1 0 1 -1 1 0 1 0 1 0 1 0 0 -2 
1 0 1 0 1 0 1 0 1 0 1 0 1 0 1 0 
1 0 1 0 1 0 1 0 1 0 1 0 0 -2 1 0 
1 0 1 0 1 0 2050 4198 100 MP stroke
1 0 1 0 1 0 1 0 1 0 1 0 1 0 1 0 
1 0 1 0 1 -1 1 0 1 0 1 0 1 0 1 0 
1 -1 1 0 1 -1 1 0 1 0 1 0 1 0 1 0 
1 0 1 0 1 0 1 0 1 0 1 1 1 0 1 1 
1 0 1 0 0 2 1 0 1 0 0 3 1 0 1 0 
1 0 1 0 1 0 1 0 1 0 1 0 1 0 1 0 
1 0 1 0 1 0 1 0 1 0 1 0 1 0 1 0 
1 0 1 0 1 0 1 0 1 0 1 0 1 0 1 0 
1 0 1 0 1 0 1 1 1 0 1 0 1 0 1 0 
1 -1 1 0 1 0 1 0 1 0 1 0 1 0 1 0 
1 0 1 0 1 0 1 0 1 0 1 0 1 0 1 0 
1 0 1 0 1 0 1 0 1 0 1 0 1 0 1 0 
1 0 1 0 1 0 1953 4194 100 MP stroke
1 0 1 0 1 0 1 0 1 0 1 0 1 0 1 0 
1 0 1 0 1 0 1 0 1 0 1 0 1 0 1 0 
1 0 1 0 1 0 1 0 1 0 1 0 1 0 1 0 
1 0 1 0 1 0 1 0 1 0 1 0 1 0 1 0 
1 0 1 0 1 0 1 0 1 0 1 0 1 0 1 0 
1 0 1 0 1 0 1 0 1 0 1 0 1 0 1 0 
1 0 1 0 1 0 1 0 1 0 1 0 1 0 1 0 
1 0 1 -1 1 0 1 0 1 0 1 0 1 0 1 0 
1 0 1 0 1 0 1 -1 1 0 1 0 1 0 1 0 
1 -1 1 0 1 0 1 0 1 0 1 -1 1 0 1 0 
1 0 1 0 1 -1 1 0 1 0 1 0 1 0 1 0 
1 0 1 0 1 0 1 0 1 0 1 0 1 0 1 0 
1 0 1 1 1 0 1854 4198 100 MP stroke
0 2 1 0 1 0 1 0 0 3 1 0 1 0 1 0 
1 0 1 0 1 0 1 0 1 0 1 0 1 0 1 0 
1 0 1 0 1 0 1 0 1 0 1 0 1 0 1 0 
1 0 1 0 1 0 1 0 1 0 1 0 1 0 1 0 
1 0 1 0 1 0 1 0 1 0 1 0 1 0 1 0 
1 0 1 0 1 0 1 0 1 0 1 0 1 0 1 0 
1 0 1 0 1 0 1 0 1 0 1 0 1 0 1 0 
1 0 1 0 1 0 1 0 1 0 1 0 1 0 1 0 
1 0 1 0 1 0 1 0 1 0 1 0 1 0 1 0 
1 0 1 0 1 0 1 0 1 0 1 0 1 0 1 0 
1 0 1 0 1 0 1 0 1 0 1 0 1 0 1 0 
1 0 1 0 1 0 1 0 1 0 1 0 1 0 1 0 
1 0 1 0 1 0 1757 4193 100 MP stroke
1 0 1 0 1 0 1 0 1 0 1 0 1 0 1 0 
1 -1 1 0 1 0 1 0 1 0 1 0 1 0 1 0 
1 0 1 0 1 0 1 0 1 0 1 0 1 0 1 0 
1 0 1 -1 1 0 1 0 1 0 1 0 1 -1 1 0 
1 0 1 -1 1 0 1 0 1 0 1 0 1 0 1 0 
1 0 1 0 1 0 1 0 1 0 1 0 1 0 1 0 
1 0 1 -1 1 0 1 1 1 0 1 0 1 0 1 0 
1 0 1 0 1 0 1 0 1 0 1 0 1 0 1 0 
1 0 1 1 1 0 1 3 1 0 1 0 1 0 1 0 
1 0 1 0 1 0 1 0 1 0 1 0 1 0 1 0 
1 0 1 0 1 0 1 0 1 0 1 0 1 0 1 0 
1 0 1 0 1 0 1 0 1 0 1 0 1 0 1 0 
1 0 1 0 1 0 1658 4193 100 MP stroke
1 0 1 0 1 0 1 0 1 0 1 0 1 0 1 0 
1 0 1 0 1 0 1 0 1 0 1 0 1 0 1 0 
1 0 1 0 1 0 1 0 1 0 1 0 1 0 1 0 
1 0 1 0 1 0 1 0 1 0 1 0 1 0 1 0 
1 0 1 0 1 0 1 0 1 0 1 0 1 0 1 0 
1 0 1 0 1 0 1 0 1 0 1 0 1 0 1 0 
1 0 1 0 1 0 1 0 1 0 1 0 1 0 1 0 
1 0 1 0 1 0 1 0 1 0 1 0 1 0 1 0 
1 0 1 0 1 0 1 0 1 0 1 0 1 0 1 0 
1 0 1 0 1 0 1 0 1 0 1 0 1 0 1 0 
1 0 1 0 1 0 1 0 1 0 1 -1 1 0 1 -1 
1 0 1 0 1 0 1 0 1 0 1 0 1 0 1 0 
1 0 1 0 1 0 1559 4195 100 MP stroke
1 0 1 0 1 -1 1 0 1 0 1 0 1 -1 1 0 
1 0 1 0 1 0 1 0 1 0 1 -1 1 0 1 0 
1 0 1 0 1 0 1 0 1 0 1 0 1 0 1 0 
1 0 1 1 1 0 1 1 1 0 1 1 1 0 1 0 
0 2 1 0 1 0 1 0 1 0 1 0 1 0 1 0 
1 0 1 0 1 0 1 0 1 0 1 0 1 0 1 0 
1 0 1 0 1 0 1 0 1 0 1 0 1 0 1 0 
1 0 1 0 1 0 1 0 1 0 1 0 1 0 1 0 
1 0 1 0 1 0 1 0 1 0 1 0 1 0 1 0 
1 0 1 0 1 0 1 0 1 0 1 0 1 0 1 0 
1 0 1 0 1 0 1 0 1 0 1 0 1 0 1 0 
1 0 1 0 1 0 1 0 1 0 1 0 1 0 1 0 
1 0 1 0 1 0 1461 4193 100 MP stroke
1 0 1 0 1 0 1 0 1 0 1 0 1 0 1 0 
1 1 1 0 1 0 1 0 1 0 1 0 1 0 1 0 
1 0 1 0 1 0 1 0 1 0 1 0 1 0 1 0 
1 0 1 0 1 0 1 0 1 -1 1 0 1 0 1 0 
1 0 1 0 1 0 1 0 1 0 1 0 1 0 1 0 
1 0 1 0 1 0 1 0 1 -1 1 0 1 0 1 0 
1 0 1 0 1 0 1 0 1 0 1 0 1 0 1 0 
1 0 1 0 1 0 1 -1 1 0 1 0 1 0 1 0 
1 0 1 0 1 -1 1 0 1 0 1 0 1 0 1 -1 
1 0 1 0 1 0 1 0 1 0 1 0 1 0 1 -1 
1 0 1 0 1 0 1 0 1 1 1 0 1 0 1 0 
1 1 1 0 1 0 0 2 1 0 1 0 1 1 1 0 
1 0 1 0 1 0 1363 4193 100 MP stroke
1 0 1 0 1 1 1 0 1 0 1 0 1 0 1 0 
1 0 1 0 1 0 1 0 1 0 1 0 1 0 1 0 
1 0 1 0 1 0 1 0 1 0 1 0 1 0 1 0 
1 0 1 0 1 0 1 0 1 0 1 0 1 0 1 0 
1 0 1 0 1 0 1 0 1 0 1 0 1 0 1 0 
1 0 1 0 1 0 1 0 1 0 1 0 1 0 1 0 
1 0 1 0 1 0 1 0 1 0 1 0 1 0 1 0 
1 0 1 0 1 0 1 0 1 0 1 0 1 0 1 0 
1 0 1 0 1 0 1 0 1 0 1 0 1 0 1 0 
1 0 1 0 1 0 1 0 1 0 1 0 1 -1 1 0 
1 0 1 0 1 0 1 0 1 0 1 0 1 0 1 0 
1 0 1 0 1 0 1 0 1 0 1 1 1 0 1 0 
1 0 1 0 1 0 1264 4192 100 MP stroke
1 0 1 -1 1 0 1 0 1 0 1 0 1 0 1 0 
1 0 1 0 1 0 1 0 1 0 1 0 1 -1 1 0 
1 0 1 0 1 0 1 0 1 0 1 0 1 0 1 0 
1 0 1 0 1 0 1 -1 1 0 1 0 1 0 1 0 
1 0 1 -1 1 0 1 0 1 0 1 0 1 0 1 0 
1 -1 1 0 1 0 1 0 1 0 1 0 1 0 1 0 
1 0 1 0 1 0 1 0 1 0 1 1 1 0 1 0 
1 0 1 1 1 0 0 2 1 0 1 0 1 0 1 0 
1 0 1 0 1 0 1 0 1 0 1 0 1 0 1 0 
1 0 1 0 1 0 1 0 1 0 1 0 1 0 1 0 
1 0 1 0 1 0 1 0 1 0 1 0 1 0 1 0 
1 0 1 0 1 0 1 0 1 0 1 0 1 0 1 0 
1 0 1 0 1 0 1166 4193 100 MP stroke
1 0 1 0 1 0 1 0 1 0 1 0 1 0 1 0 
1 0 1 0 1 0 1 0 1 0 1 0 1 0 1 0 
1 0 1 0 1 0 1 0 1 0 1 0 1 0 1 0 
1 0 1 0 1 0 1 0 1 0 1 0 1 0 1 0 
1 0 1 0 1 0 1 0 1 0 1 0 1 0 1 0 
1 0 1 0 1 0 1 0 1 0 1 0 1 0 1 0 
1 0 1 0 1 0 1 0 1 0 1 0 1 0 1 0 
1 0 1 0 1 0 1 -1 1 0 1 0 1 0 1 0 
1 0 1 0 1 0 1 0 1 0 1 0 1 0 1 0 
1 0 1 0 1 0 1 0 1 0 1 0 1 0 1 0 
1 0 1 0 1 0 1 0 1 0 1 0 1 0 1 0 
1 -1 1 0 1 0 1 0 1 0 1 0 1 0 1 0 
1 0 1 0 1 -1 1067 4196 100 MP stroke
1 0 1 0 1 0 1 0 1 0 1 0 1 0 1 0 
1 -1 1 0 1 0 1 0 1 0 1 0 1 -1 1 0 
1 0 1 0 1 0 1 0 1 -1 1 0 1 0 1 0 
1 0 1 0 1 0 1 0 1 1 1 0 1 0 1 0 
1 1 1 0 1 1 1 0 1 0 1 0 1 0 1 0 
1 0 1 0 1 0 1 0 1 0 1 0 1 0 1 0 
1 0 1 0 1 0 1 0 1 -1 1 0 1 0 1 0 
1 0 1 0 1 0 1 0 1 0 1 0 1 0 1 0 
1 0 1 0 1 -1 1 0 1 0 1 0 1 0 1 0 
1 0 1 0 1 -1 1 0 1 0 1 0 1 -1 1 0 
0 -2 1 0 1 0 1 0 1 0 1 0 1 0 1 0 
1 0 1 0 1 0 1 0 1 0 1 0 1 0 1 0 
1 0 1 -1 1 0 969 4203 100 MP stroke
1 0 1 0 1 -1 1 0 1 0 1 0 1 0 1 0 
1 0 1 0 1 0 1 0 1 0 1 0 1 0 1 0 
1 0 1 0 1 1 1 0 1 0 1 0 1 0 1 0 
1 0 1 0 1 0 1 0 1 0 1 0 1 0 0 2 
1 0 1 0 0 3 1 0 1 0 0 9 1 0 1 0 
1 0 1 0 1 0 1 0 1 0 1 0 1 0 1 0 
1 0 1 0 1 0 0 3 1 0 1 0 0 3 1 0 
1 0 0 3 1 0 1 0 0 3 1 0 1 0 0 3 
1 0 1 0 0 2 1 0 1 0 1 1 1 0 1 0 
1 0 1 0 1 0 1 0 1 0 1 0 1 0 899 4171 80 MP stroke
gr

c10
0 sg
3316 4903 mt 
(Tempo [s]) s
 546 3152 mt  -90 rotate
(Erro da Velocidade [m/s]) s
90 rotate
2705  294 mt 
(Erro na estimativa da Velocidade) s
 870 4670 mt 
( ) s
6227  443 mt 
( ) s
1 sg
0 520 648 0 0 -520 5303 1146 4 MP
PP
-648 0 0 520 648 0 0 -520 5303 1146 5 MP stroke
4 w
DO
SO
6 w
0 sg
5303 1146 mt 5951 1146 L
5303  626 mt 5951  626 L
5303 1146 mt 5303  626 L
5951 1146 mt 5951  626 L
5303 1146 mt 5951 1146 L
5303 1146 mt 5303  626 L
5303 1146 mt 5951 1146 L
5303  626 mt 5951  626 L
5303 1146 mt 5303  626 L
5951 1146 mt 5951  626 L
5772  769 mt 
(vx) s
gs 5303 626 649 521 MR c np
c8
360 0 5375 726 2 MP stroke
gr

c8
0 sg
5772  929 mt 
(vy) s
gs 5303 626 649 521 MR c np
c9
360 0 5375 886 2 MP stroke
gr

c9
0 sg
5772 1088 mt 
(vz) s
gs 5303 626 649 521 MR c np
c10
360 0 5375 1045 2 MP stroke
gr

c10

end %%Color Dict

eplot
%%EndObject

epage
end

showpage

%%Trailer
%%EOF
