%!PS-Adobe-2.0 EPSF-1.2
%%Creator: MATLAB, The Mathworks, Inc. Version 7.9.0.529 (R2009b). Operating System: Darwin 10.8.0 Darwin Kernel Version 10.8.0: Tue Jun  7 16:33:36 PDT 2011; root:xnu-1504.15.3~1/RELEASE_I386 i386.
%%Title: ./vD_vV_falhas_erro_covariancia_zoom2.eps
%%CreationDate: 12/05/2011  07:52:51
%%DocumentNeededFonts: Helvetica
%%DocumentProcessColors: Cyan Magenta Yellow Black
%%Extensions: CMYK
%%Pages: 1
%%BoundingBox:    60   199   543   602
%%EndComments

%%BeginProlog
% MathWorks dictionary
/MathWorks 160 dict begin
% definition operators
/bdef {bind def} bind def
/ldef {load def} bind def
/xdef {exch def} bdef
/xstore {exch store} bdef
% operator abbreviations
/c  /clip ldef
/cc /concat ldef
/cp /closepath ldef
/gr /grestore ldef
/gs /gsave ldef
/mt /moveto ldef
/np /newpath ldef
/cm /currentmatrix ldef
/sm /setmatrix ldef
/rm /rmoveto ldef
/rl /rlineto ldef
/s {show newpath} bdef
/sc {setcmykcolor} bdef
/sr /setrgbcolor ldef
/sg /setgray ldef
/w /setlinewidth ldef
/j /setlinejoin ldef
/cap /setlinecap ldef
/rc {rectclip} bdef
/rf {rectfill} bdef
% page state control
/pgsv () def
/bpage {/pgsv save def} bdef
/epage {pgsv restore} bdef
/bplot /gsave ldef
/eplot {stroke grestore} bdef
% orientation switch
/portraitMode 0 def /landscapeMode 1 def /rotateMode 2 def
% coordinate system mappings
/dpi2point 0 def
% font control
/FontSize 0 def
/FMS {/FontSize xstore findfont [FontSize 0 0 FontSize neg 0 0]
  makefont setfont} bdef
/reencode {exch dup where {pop load} {pop StandardEncoding} ifelse
  exch dup 3 1 roll findfont dup length dict begin
  { 1 index /FID ne {def}{pop pop} ifelse } forall
  /Encoding exch def currentdict end definefont pop} bdef
/isroman {findfont /CharStrings get /Agrave known} bdef
/FMSR {3 1 roll 1 index dup isroman {reencode} {pop pop} ifelse
  exch FMS} bdef
/csm {1 dpi2point div -1 dpi2point div scale neg translate
 dup landscapeMode eq {pop -90 rotate}
  {rotateMode eq {90 rotate} if} ifelse} bdef
% line types: solid, dotted, dashed, dotdash
/SO { [] 0 setdash } bdef
/DO { [.5 dpi2point mul 4 dpi2point mul] 0 setdash } bdef
/DA { [6 dpi2point mul] 0 setdash } bdef
/DD { [.5 dpi2point mul 4 dpi2point mul 6 dpi2point mul 4
  dpi2point mul] 0 setdash } bdef
% macros for lines and objects
/L {lineto stroke} bdef
/MP {3 1 roll moveto 1 sub {rlineto} repeat} bdef
/AP {{rlineto} repeat} bdef
/PDlw -1 def
/W {/PDlw currentlinewidth def setlinewidth} def
/PP {closepath eofill} bdef
/DP {closepath stroke} bdef
/MR {4 -2 roll moveto dup  0 exch rlineto exch 0 rlineto
  neg 0 exch rlineto closepath} bdef
/FR {MR stroke} bdef
/PR {MR fill} bdef
/L1i {{currentfile picstr readhexstring pop} image} bdef
/tMatrix matrix def
/MakeOval {newpath tMatrix currentmatrix pop translate scale
0 0 1 0 360 arc tMatrix setmatrix} bdef
/FO {MakeOval stroke} bdef
/PO {MakeOval fill} bdef
/PD {currentlinewidth 2 div 0 360 arc fill
   PDlw -1 eq not {PDlw w /PDlw -1 def} if} def
/FA {newpath tMatrix currentmatrix pop translate scale
  0 0 1 5 -2 roll arc tMatrix setmatrix stroke} bdef
/PA {newpath tMatrix currentmatrix pop	translate 0 0 moveto scale
  0 0 1 5 -2 roll arc closepath tMatrix setmatrix fill} bdef
/FAn {newpath tMatrix currentmatrix pop translate scale
  0 0 1 5 -2 roll arcn tMatrix setmatrix stroke} bdef
/PAn {newpath tMatrix currentmatrix pop translate 0 0 moveto scale
  0 0 1 5 -2 roll arcn closepath tMatrix setmatrix fill} bdef
/vradius 0 def /hradius 0 def /lry 0 def
/lrx 0 def /uly 0 def /ulx 0 def /rad 0 def
/MRR {/vradius xdef /hradius xdef /lry xdef /lrx xdef /uly xdef
  /ulx xdef newpath tMatrix currentmatrix pop ulx hradius add uly
  vradius add translate hradius vradius scale 0 0 1 180 270 arc 
  tMatrix setmatrix lrx hradius sub uly vradius add translate
  hradius vradius scale 0 0 1 270 360 arc tMatrix setmatrix
  lrx hradius sub lry vradius sub translate hradius vradius scale
  0 0 1 0 90 arc tMatrix setmatrix ulx hradius add lry vradius sub
  translate hradius vradius scale 0 0 1 90 180 arc tMatrix setmatrix
  closepath} bdef
/FRR {MRR stroke } bdef
/PRR {MRR fill } bdef
/MlrRR {/lry xdef /lrx xdef /uly xdef /ulx xdef /rad lry uly sub 2 div def
  newpath tMatrix currentmatrix pop ulx rad add uly rad add translate
  rad rad scale 0 0 1 90 270 arc tMatrix setmatrix lrx rad sub lry rad
  sub translate rad rad scale 0 0 1 270 90 arc tMatrix setmatrix
  closepath} bdef
/FlrRR {MlrRR stroke } bdef
/PlrRR {MlrRR fill } bdef
/MtbRR {/lry xdef /lrx xdef /uly xdef /ulx xdef /rad lrx ulx sub 2 div def
  newpath tMatrix currentmatrix pop ulx rad add uly rad add translate
  rad rad scale 0 0 1 180 360 arc tMatrix setmatrix lrx rad sub lry rad
  sub translate rad rad scale 0 0 1 0 180 arc tMatrix setmatrix
  closepath} bdef
/FtbRR {MtbRR stroke } bdef
/PtbRR {MtbRR fill } bdef
/stri 6 array def /dtri 6 array def
/smat 6 array def /dmat 6 array def
/tmat1 6 array def /tmat2 6 array def /dif 3 array def
/asub {/ind2 exch def /ind1 exch def dup dup
  ind1 get exch ind2 get sub exch } bdef
/tri_to_matrix {
  2 0 asub 3 1 asub 4 0 asub 5 1 asub
  dup 0 get exch 1 get 7 -1 roll astore } bdef
/compute_transform {
  dmat dtri tri_to_matrix tmat1 invertmatrix 
  smat stri tri_to_matrix tmat2 concatmatrix } bdef
/ds {stri astore pop} bdef
/dt {dtri astore pop} bdef
/db {2 copy /cols xdef /rows xdef mul dup 3 mul string
  currentfile exch readhexstring pop
  dup 0 3 index getinterval /rbmap xdef
  dup 2 index dup getinterval /gbmap xdef
  1 index dup 2 mul exch getinterval /bbmap xdef pop pop}bdef
/it {gs np dtri aload pop moveto lineto lineto cp c
  cols rows 8 compute_transform 
  rbmap gbmap bbmap true 3 colorimage gr}bdef
/il {newpath moveto lineto stroke}bdef
currentdict end def
%%EndProlog

%%BeginSetup
MathWorks begin

0 cap

end
%%EndSetup

%%Page: 1 1
%%BeginPageSetup
%%PageBoundingBox:    60   199   543   602
MathWorks begin
bpage
%%EndPageSetup

%%BeginObject: obj1
bplot

/dpi2point 12 def
portraitMode 0216 7344 csm

  513   110  5791  4845 MR c np
85 dict begin %Colortable dictionary
/c0 { 0.000000 0.000000 0.000000 sr} bdef
/c1 { 1.000000 1.000000 1.000000 sr} bdef
/c2 { 0.900000 0.000000 0.000000 sr} bdef
/c3 { 0.000000 0.820000 0.000000 sr} bdef
/c4 { 0.000000 0.000000 0.800000 sr} bdef
/c5 { 0.910000 0.820000 0.320000 sr} bdef
/c6 { 1.000000 0.260000 0.820000 sr} bdef
/c7 { 0.000000 0.820000 0.820000 sr} bdef
c0
1 j
1 sg
   0    0 6913 5186 PR
6 w
0 4226 5356 0 0 -4226 898 4615 4 MP
PP
-5356 0 0 4226 5356 0 0 -4226 898 4615 5 MP stroke
4 w
DO
0 sg
1244 4615 mt 1244  389 L
1244  389 mt 1244  389 L
1945 4615 mt 1945  389 L
1945  389 mt 1945  389 L
2646 4615 mt 2646  389 L
2646  389 mt 2646  389 L
3346 4615 mt 3346  389 L
3346  389 mt 3346  389 L
4047 4615 mt 4047  389 L
4047  389 mt 4047  389 L
4748 4615 mt 4748  389 L
4748  389 mt 4748  389 L
5449 4615 mt 5449  389 L
5449  389 mt 5449  389 L
6150 4615 mt 6150  389 L
6150  389 mt 6150  389 L
 898 4469 mt 6254 4469 L
6254 4469 mt 6254 4469 L
 898 3869 mt 6254 3869 L
6254 3869 mt 6254 3869 L
 898 3268 mt 6254 3268 L
6254 3268 mt 6254 3268 L
 898 2667 mt 6254 2667 L
6254 2667 mt 6254 2667 L
 898 2067 mt 6254 2067 L
6254 2067 mt 6254 2067 L
 898 1466 mt 6254 1466 L
6254 1466 mt 6254 1466 L
 898  865 mt 6254  865 L
6254  865 mt 6254  865 L
SO
6 w
 898 4615 mt 6254 4615 L
 898 4615 mt  898  389 L
1244 4615 mt 1244 4561 L
%%IncludeResource: font Helvetica
/Helvetica /ISOLatin1Encoding 120 FMSR

1144 4760 mt 
(129) s
1945 4615 mt 1945 4561 L
1845 4760 mt 
(130) s
2646 4615 mt 2646 4561 L
2546 4760 mt 
(131) s
3346 4615 mt 3346 4561 L
3246 4760 mt 
(132) s
4047 4615 mt 4047 4561 L
3947 4760 mt 
(133) s
4748 4615 mt 4748 4561 L
4648 4760 mt 
(134) s
5449 4615 mt 5449 4561 L
5349 4760 mt 
(135) s
6150 4615 mt 6150 4561 L
6050 4760 mt 
(136) s
 898 4469 mt  952 4469 L
 798 4513 mt 
(4) s
 898 3869 mt  952 3869 L
 798 3913 mt 
(5) s
 898 3268 mt  952 3268 L
 798 3312 mt 
(6) s
 898 2667 mt  952 2667 L
 798 2711 mt 
(7) s
 898 2067 mt  952 2067 L
 798 2111 mt 
(8) s
 898 1466 mt  952 1466 L
 798 1510 mt 
(9) s
 898  865 mt  952  865 L
 731  909 mt 
(10) s
gs 898 389 5357 4227 MR c np
/c8 { 0.000000 0.000000 1.000000 sr} bdef
c8
7 -30 7 -32 7 -31 7 -31 7 -32 7 -31 7 -31 7 -30 
7 -31 7 -30 7 -31 7 -30 7 -30 7 -30 7 -30 7 -29 
7 -30 7 -29 7 -29 7 -29 7 -29 7 -29 7 -28 7 -29 
7 -28 7 -28 7 -29 7 -27 7 -28 7 -28 7 -27 7 -28 
7 -27 7 -27 7 -27 7 -27 7 -27 7 -26 7 -27 7 -26 
7 -26 7 -26 7 -26 7 -26 7 -25 7 -26 7 -25 7 -25 
7 -26 7 -25 7 -24 7 -25 7 -25 7 -24 7 -24 8 -25 
7 -24 7 -24 7 -24 7 -23 7 -24 7 -23 7 -24 7 -23 
7 -23 7 -23 7 -23 7 -22 7 -23 7 -22 7 -23 7 -22 
7 -22 7 -22 7 -22 7 -21 7 -22 7 -22 7 -21 7 -21 
7 -21 7 -21 7 -21 7 -21 7 -21 7 -20 7 -21 7 -20 
7 -20 7 -20 7 -20 7 -20 7 -20 7 -19 7 -20 7 -19 
7 -19 7 -19 7 -20 5561 4061 100 MP stroke
7 -18 7 -19 7 -19 7 -19 7 -18 7 -18 7 -19 7 -18 
7 -18 7 -18 7 -18 7 -17 7 -18 7 -18 7 -17 7 -17 
7 -17 7 -17 7 -17 7 -17 7 -17 7 -17 7 -16 7 -17 
7 -16 7 -16 7 -16 7 -17 7 510 7 -19 7 -19 7 -19 
7 -19 7 -19 7 -18 7 -18 7 -19 7 -18 7 -18 7 -18 
7 -18 7 -17 7 -18 7 -18 7 -17 7 -17 7 -17 7 -18 
7 -16 7 -17 7 -17 7 -17 7 -16 7 -17 7 -16 7 -16 
7 -17 7 -16 7 509 7 -19 7 -19 7 -19 7 -18 7 -19 
7 -18 7 -19 7 -18 7 -18 7 -18 7 -18 7 -18 7 -18 
7 -17 7 -18 7 -17 8 -18 7 -17 7 -17 7 -17 7 -17 
7 -16 7 -17 7 -17 7 -16 7 -17 7 -16 7 -16 7 -16 
7 508 7 -19 7 -19 7 -18 7 -19 7 -19 7 -18 7 -19 
7 -18 7 -18 7 -18 4867 4225 100 MP stroke
7 -18 7 -18 7 -17 7 -18 7 -18 7 -17 7 -17 7 -17 
7 -18 7 -16 7 -17 7 -17 7 -17 7 -16 7 -17 7 -16 
7 -16 7 -16 7 -16 7 507 7 -19 7 -19 7 -18 7 -19 
7 -19 7 -18 7 -19 7 -18 7 -18 7 -18 7 -18 7 -18 
7 -17 7 -18 7 -17 7 -18 7 -17 7 -17 7 -17 7 -17 
7 -17 7 -17 7 -16 7 -17 7 -16 7 -17 7 -16 7 -16 
7 -16 7 507 7 -19 7 -19 7 -18 7 -19 7 -19 7 -18 
7 -18 7 -18 7 -19 7 -18 7 -17 7 -18 7 -18 7 -17 
7 -18 7 -17 7 -17 7 -17 7 -17 7 -17 7 -17 7 -17 
7 -16 7 -17 7 -16 7 -16 7 -17 7 -16 7 -16 7 507 
7 -19 7 -19 7 -18 7 -19 7 -18 7 -19 7 -18 7 -18 
7 -18 7 -18 7 -18 7 -18 7 -17 7 -18 7 -17 8 -17 
7 -17 7 -18 7 -16 4173 4379 100 MP stroke
7 -17 7 -17 7 -17 7 -16 7 -17 7 -16 7 -16 7 -16 
7 -16 7 -16 7 507 7 -19 7 -18 7 -19 7 -18 7 -19 
7 -18 7 -18 7 -18 7 -18 7 -18 7 -18 7 -18 7 -17 
7 -18 7 -17 7 -17 7 -17 7 -17 7 -17 7 -17 7 -16 
7 -17 7 -16 7 -17 7 -16 7 -16 7 -16 7 -16 7 -16 
7 510 7 -19 7 -19 7 -18 7 -19 7 -18 7 -18 7 -18 
7 -18 7 -18 7 -18 7 -18 7 -17 7 -18 7 -17 7 -17 
7 -17 7 -17 7 -17 7 -17 7 -17 7 -16 7 -17 7 -16 
7 -17 7 -16 7 -16 7 -16 7 -16 7 -15 7 515 7 -19 
7 -19 7 -18 7 -19 7 -18 7 -18 7 -18 7 -18 7 -18 
7 -18 7 -17 7 -18 7 -17 7 -17 7 -17 7 -18 7 -16 
7 -17 7 -17 7 -17 7 -16 7 -17 7 -16 7 -16 7 -16 
7 -16 7 -16 7 -16 3480 4496 100 MP stroke
7 -16 7 525 7 -19 7 -18 7 -19 7 -18 7 -18 7 -18 
7 -18 7 -18 7 -18 7 -18 7 -17 7 -18 7 -17 7 -17 
8 -17 7 -17 7 -17 7 -17 7 -17 7 -16 7 -17 7 -16 
7 -16 7 -17 7 -16 7 -16 7 -15 7 -16 7 -16 7 542 
7 -19 7 -18 7 -19 7 -18 7 -19 7 -18 7 -18 7 -18 
7 -17 7 -18 7 -18 7 -17 7 -17 7 -18 7 -17 7 -17 
7 -17 7 -17 7 -16 7 -17 7 -16 7 -17 7 -16 7 -16 
7 -16 7 -16 7 -16 7 -16 7 -16 7 570 7 -19 7 -18 
7 -19 7 -19 7 -18 7 -18 7 -18 7 -18 7 -18 7 -18 
7 -18 7 -17 7 -18 7 -17 7 -18 7 -17 7 -17 7 -17 
7 -17 7 -16 7 -17 7 -16 7 -17 7 -16 7 -16 7 -17 
7 -16 7 -15 7 -16 7 615 7 -19 7 -19 7 -19 7 -19 
7 -19 7 -18 7 -19 2786 3888 100 MP stroke
7 -18 7 -18 7 -19 7 -18 7 -17 7 -18 7 -18 7 -18 
7 -17 7 -17 7 -18 7 -17 7 -17 7 -17 7 -17 7 -17 
7 -16 7 -17 7 -16 7 -16 7 -17 7 -16 7 689 7 -20 
7 -20 7 -19 7 -20 7 -19 7 -20 7 -19 7 -19 7 -19 
7 -18 7 -19 7 -19 7 -18 8 -18 7 -19 7 -18 7 -18 
7 -18 7 -17 7 -18 7 -18 7 -17 7 -18 7 -17 7 -17 
7 -17 7 -17 7 -17 7 -17 7 810 7 -21 7 -21 7 -21 
7 -21 7 -20 7 -20 7 -21 7 -20 7 -20 7 -20 7 -20 
7 -20 7 -19 7 -20 7 -19 7 -19 7 -20 7 -19 7 -19 
7 -18 7 -19 7 -19 7 -18 7 -19 7 -18 7 -18 7 -18 
7 -18 7 -18 7 1020 7 -23 7 -23 7 -23 7 -23 7 -23 
7 -22 7 -23 7 -22 7 -22 7 -22 7 -22 7 -22 7 -22 
7 -22 7 -21 7 -22 2092 3198 100 MP stroke
7 -21 7 -21 7 -21 7 -21 7 -21 7 -21 7 -20 7 -21 
7 -20 7 -20 7 -21 7 -20 7 -20 7 1427 7 -27 7 -27 
7 -27 7 -27 7 -27 7 -27 7 -26 7 -27 7 -26 7 -26 
7 -26 7 -26 7 -26 7 -26 7 -25 7 -26 7 -25 7 -25 
7 -25 7 -25 7 -25 7 -24 7 -25 7 -24 7 -25 7 -24 
7 -24 7 -24 7 -24 7 2375 7 -36 7 -37 7 -36 7 -36 
7 -35 7 -36 7 -35 7 -35 7 -35 7 -35 7 -35 7 -35 
8 -34 7 -35 7 -34 7 -34 7 -34 7 -33 7 -34 7 -33 
7 -33 7 -33 7 -33 7 -33 7 -33 7 -32 7 -33 7 -32 
7 -32 7 -32 7 -31 7 -32 7 -31 7 -32 7 -31 7 -31 
7 -31 7 -30 7 -31 7 -30 7 -31 7 -30 7 -30 7 -30 
7 -29 7 -30 7 -29 7 -30 7 -29 7 -29 7 -29 7 -28 
7 -29 7 -28 7 -29 1398 2178 100 MP stroke
7 -28 7 -28 7 -28 7 -27 7 -28 7 -27 7 -28 7 -27 
7 -27 7 -27 7 -27 7 -26 7 -27 7 -26 7 -26 7 -27 
7 -25 7 -26 7 -26 7 -26 7 -25 7 -25 7 -26 7 -25 
7 -25 7 -24 7 -25 7 -24 7 -25 7 -24 7 -24 7 -24 
7 -24 7 -24 7 -24 7 -23 7 -23 7 -24 7 -23 7 -23 
7 -23 7 -22 7 -23 7 -23 7 -22 7 -22 7 -22 7 -22 
7 -22 7 -22 7 -22 7 -21 7 -22 7 -21 7 -21 7 -21 
7 -21 7 -21 7 -21 7 -20 7 -21 7 -20 7 -20 7 -20 
7 -20 7 -20 7 -20 7 -20 7 -19 7 -20 7 -19 3 -8 
898 3860 73 MP stroke
gr

c8
0 sg
3315 4903 mt 
(Tempo [s]) s
 649 3064 mt  -90 rotate
(Tra\347o da Covari\342ncia) s
90 rotate
2497  294 mt 
(Tra\347o da Covari\342ncia do Erro de Kalman) s

end %%Color Dict

eplot
%%EndObject

epage
end

showpage

%%Trailer
%%EOF
