%!PS-Adobe-2.0 EPSF-1.2
%%Creator: MATLAB, The Mathworks, Inc. Version 7.9.0.529 (R2009b). Operating System: Darwin 10.8.0 Darwin Kernel Version 10.8.0: Tue Jun  7 16:33:36 PDT 2011; root:xnu-1504.15.3~1/RELEASE_I386 i386.
%%Title: ./vD_vV_erro_covariancia_zoom.eps
%%CreationDate: 10/23/2011  02:51:17
%%DocumentNeededFonts: Helvetica
%%DocumentProcessColors: Cyan Magenta Yellow Black
%%Extensions: CMYK
%%Pages: 1
%%BoundingBox:    58   199   543   602
%%EndComments

%%BeginProlog
% MathWorks dictionary
/MathWorks 160 dict begin
% definition operators
/bdef {bind def} bind def
/ldef {load def} bind def
/xdef {exch def} bdef
/xstore {exch store} bdef
% operator abbreviations
/c  /clip ldef
/cc /concat ldef
/cp /closepath ldef
/gr /grestore ldef
/gs /gsave ldef
/mt /moveto ldef
/np /newpath ldef
/cm /currentmatrix ldef
/sm /setmatrix ldef
/rm /rmoveto ldef
/rl /rlineto ldef
/s {show newpath} bdef
/sc {setcmykcolor} bdef
/sr /setrgbcolor ldef
/sg /setgray ldef
/w /setlinewidth ldef
/j /setlinejoin ldef
/cap /setlinecap ldef
/rc {rectclip} bdef
/rf {rectfill} bdef
% page state control
/pgsv () def
/bpage {/pgsv save def} bdef
/epage {pgsv restore} bdef
/bplot /gsave ldef
/eplot {stroke grestore} bdef
% orientation switch
/portraitMode 0 def /landscapeMode 1 def /rotateMode 2 def
% coordinate system mappings
/dpi2point 0 def
% font control
/FontSize 0 def
/FMS {/FontSize xstore findfont [FontSize 0 0 FontSize neg 0 0]
  makefont setfont} bdef
/reencode {exch dup where {pop load} {pop StandardEncoding} ifelse
  exch dup 3 1 roll findfont dup length dict begin
  { 1 index /FID ne {def}{pop pop} ifelse } forall
  /Encoding exch def currentdict end definefont pop} bdef
/isroman {findfont /CharStrings get /Agrave known} bdef
/FMSR {3 1 roll 1 index dup isroman {reencode} {pop pop} ifelse
  exch FMS} bdef
/csm {1 dpi2point div -1 dpi2point div scale neg translate
 dup landscapeMode eq {pop -90 rotate}
  {rotateMode eq {90 rotate} if} ifelse} bdef
% line types: solid, dotted, dashed, dotdash
/SO { [] 0 setdash } bdef
/DO { [.5 dpi2point mul 4 dpi2point mul] 0 setdash } bdef
/DA { [6 dpi2point mul] 0 setdash } bdef
/DD { [.5 dpi2point mul 4 dpi2point mul 6 dpi2point mul 4
  dpi2point mul] 0 setdash } bdef
% macros for lines and objects
/L {lineto stroke} bdef
/MP {3 1 roll moveto 1 sub {rlineto} repeat} bdef
/AP {{rlineto} repeat} bdef
/PDlw -1 def
/W {/PDlw currentlinewidth def setlinewidth} def
/PP {closepath eofill} bdef
/DP {closepath stroke} bdef
/MR {4 -2 roll moveto dup  0 exch rlineto exch 0 rlineto
  neg 0 exch rlineto closepath} bdef
/FR {MR stroke} bdef
/PR {MR fill} bdef
/L1i {{currentfile picstr readhexstring pop} image} bdef
/tMatrix matrix def
/MakeOval {newpath tMatrix currentmatrix pop translate scale
0 0 1 0 360 arc tMatrix setmatrix} bdef
/FO {MakeOval stroke} bdef
/PO {MakeOval fill} bdef
/PD {currentlinewidth 2 div 0 360 arc fill
   PDlw -1 eq not {PDlw w /PDlw -1 def} if} def
/FA {newpath tMatrix currentmatrix pop translate scale
  0 0 1 5 -2 roll arc tMatrix setmatrix stroke} bdef
/PA {newpath tMatrix currentmatrix pop	translate 0 0 moveto scale
  0 0 1 5 -2 roll arc closepath tMatrix setmatrix fill} bdef
/FAn {newpath tMatrix currentmatrix pop translate scale
  0 0 1 5 -2 roll arcn tMatrix setmatrix stroke} bdef
/PAn {newpath tMatrix currentmatrix pop translate 0 0 moveto scale
  0 0 1 5 -2 roll arcn closepath tMatrix setmatrix fill} bdef
/vradius 0 def /hradius 0 def /lry 0 def
/lrx 0 def /uly 0 def /ulx 0 def /rad 0 def
/MRR {/vradius xdef /hradius xdef /lry xdef /lrx xdef /uly xdef
  /ulx xdef newpath tMatrix currentmatrix pop ulx hradius add uly
  vradius add translate hradius vradius scale 0 0 1 180 270 arc 
  tMatrix setmatrix lrx hradius sub uly vradius add translate
  hradius vradius scale 0 0 1 270 360 arc tMatrix setmatrix
  lrx hradius sub lry vradius sub translate hradius vradius scale
  0 0 1 0 90 arc tMatrix setmatrix ulx hradius add lry vradius sub
  translate hradius vradius scale 0 0 1 90 180 arc tMatrix setmatrix
  closepath} bdef
/FRR {MRR stroke } bdef
/PRR {MRR fill } bdef
/MlrRR {/lry xdef /lrx xdef /uly xdef /ulx xdef /rad lry uly sub 2 div def
  newpath tMatrix currentmatrix pop ulx rad add uly rad add translate
  rad rad scale 0 0 1 90 270 arc tMatrix setmatrix lrx rad sub lry rad
  sub translate rad rad scale 0 0 1 270 90 arc tMatrix setmatrix
  closepath} bdef
/FlrRR {MlrRR stroke } bdef
/PlrRR {MlrRR fill } bdef
/MtbRR {/lry xdef /lrx xdef /uly xdef /ulx xdef /rad lrx ulx sub 2 div def
  newpath tMatrix currentmatrix pop ulx rad add uly rad add translate
  rad rad scale 0 0 1 180 360 arc tMatrix setmatrix lrx rad sub lry rad
  sub translate rad rad scale 0 0 1 0 180 arc tMatrix setmatrix
  closepath} bdef
/FtbRR {MtbRR stroke } bdef
/PtbRR {MtbRR fill } bdef
/stri 6 array def /dtri 6 array def
/smat 6 array def /dmat 6 array def
/tmat1 6 array def /tmat2 6 array def /dif 3 array def
/asub {/ind2 exch def /ind1 exch def dup dup
  ind1 get exch ind2 get sub exch } bdef
/tri_to_matrix {
  2 0 asub 3 1 asub 4 0 asub 5 1 asub
  dup 0 get exch 1 get 7 -1 roll astore } bdef
/compute_transform {
  dmat dtri tri_to_matrix tmat1 invertmatrix 
  smat stri tri_to_matrix tmat2 concatmatrix } bdef
/ds {stri astore pop} bdef
/dt {dtri astore pop} bdef
/db {2 copy /cols xdef /rows xdef mul dup 3 mul string
  currentfile exch readhexstring pop
  dup 0 3 index getinterval /rbmap xdef
  dup 2 index dup getinterval /gbmap xdef
  1 index dup 2 mul exch getinterval /bbmap xdef pop pop}bdef
/it {gs np dtri aload pop moveto lineto lineto cp c
  cols rows 8 compute_transform 
  rbmap gbmap bbmap true 3 colorimage gr}bdef
/il {newpath moveto lineto stroke}bdef
currentdict end def
%%EndProlog

%%BeginSetup
MathWorks begin

0 cap

end
%%EndSetup

%%Page: 1 1
%%BeginPageSetup
%%PageBoundingBox:    58   199   543   602
MathWorks begin
bpage
%%EndPageSetup

%%BeginObject: obj1
bplot

/dpi2point 12 def
portraitMode 0216 7344 csm

  480   110  5825  4845 MR c np
85 dict begin %Colortable dictionary
/c0 { 0.000000 0.000000 0.000000 sr} bdef
/c1 { 1.000000 1.000000 1.000000 sr} bdef
/c2 { 0.900000 0.000000 0.000000 sr} bdef
/c3 { 0.000000 0.820000 0.000000 sr} bdef
/c4 { 0.000000 0.000000 0.800000 sr} bdef
/c5 { 0.910000 0.820000 0.320000 sr} bdef
/c6 { 1.000000 0.260000 0.820000 sr} bdef
/c7 { 0.000000 0.820000 0.820000 sr} bdef
c0
1 j
1 sg
   0    0 6913 5186 PR
6 w
0 4226 5357 0 0 -4226 898 4615 4 MP
PP
-5357 0 0 4226 5357 0 0 -4226 898 4615 5 MP stroke
4 w
DO
0 sg
1682 4615 mt 1682  389 L
1682  389 mt 1682  389 L
2565 4615 mt 2565  389 L
2565  389 mt 2565  389 L
3447 4615 mt 3447  389 L
3447  389 mt 3447  389 L
4330 4615 mt 4330  389 L
4330  389 mt 4330  389 L
5212 4615 mt 5212  389 L
5212  389 mt 5212  389 L
6094 4615 mt 6094  389 L
6094  389 mt 6094  389 L
 898 4160 mt 6255 4160 L
6255 4160 mt 6255 4160 L
 898 3691 mt 6255 3691 L
6255 3691 mt 6255 3691 L
 898 3221 mt 6255 3221 L
6255 3221 mt 6255 3221 L
 898 2752 mt 6255 2752 L
6255 2752 mt 6255 2752 L
 898 2282 mt 6255 2282 L
6255 2282 mt 6255 2282 L
 898 1813 mt 6255 1813 L
6255 1813 mt 6255 1813 L
 898 1343 mt 6255 1343 L
6255 1343 mt 6255 1343 L
 898  874 mt 6255  874 L
6255  874 mt 6255  874 L
 898  404 mt 6255  404 L
6255  404 mt 6255  404 L
SO
6 w
 898 4615 mt 6255 4615 L
 898 4615 mt  898  389 L
1682 4615 mt 1682 4561 L
%%IncludeResource: font Helvetica
/Helvetica /ISOLatin1Encoding 120 FMSR

1649 4760 mt 
(2) s
2565 4615 mt 2565 4561 L
2532 4760 mt 
(4) s
3447 4615 mt 3447 4561 L
3414 4760 mt 
(6) s
4330 4615 mt 4330 4561 L
4297 4760 mt 
(8) s
5212 4615 mt 5212 4561 L
5146 4760 mt 
(10) s
6094 4615 mt 6094 4561 L
6028 4760 mt 
(12) s
 898 4160 mt  952 4160 L
 698 4204 mt 
(1.2) s
 898 3691 mt  952 3691 L
 698 3735 mt 
(1.3) s
 898 3221 mt  952 3221 L
 698 3265 mt 
(1.4) s
 898 2752 mt  952 2752 L
 698 2796 mt 
(1.5) s
 898 2282 mt  952 2282 L
 698 2326 mt 
(1.6) s
 898 1813 mt  952 1813 L
 698 1857 mt 
(1.7) s
 898 1343 mt  952 1343 L
 698 1387 mt 
(1.8) s
 898  874 mt  952  874 L
 698  918 mt 
(1.9) s
 898  404 mt  952  404 L
 798  448 mt 
(2) s
gs 898 389 5358 4227 MR c np
/c8 { 0.000000 0.000000 1.000000 sr} bdef
c8
3 -34 4 -68 5 -67 4 -67 4 -66 5 -66 4 -65 5 -65 
4 -64 4 1540 5 -76 4 -76 5 -74 4 -75 4 -73 5 -73 
4 -73 5 -72 4 -71 5 -71 4 -70 4 -70 5 -69 4 -69 
5 -68 4 -67 4 -67 5 -66 4 -66 5 -65 4 -65 4 -64 
5 1540 4 -76 5 -76 4 -74 5 -75 4 -73 4 -73 5 -73 
4 -72 5 -71 4 -71 4 -70 5 -70 4 -69 5 -69 4 -68 
4 -67 5 -67 4 -66 5 -66 4 -65 5 -65 4 -64 4 1540 
5 -76 4 -76 5 -74 4 -75 4 -73 5 -73 4 -73 5 -72 
4 -71 4 -71 5 -70 4 -70 5 -69 4 -69 5 -68 4 -67 
4 -67 5 -66 4 -66 5 -65 4 -65 4 -64 5 1540 4 -76 
5 -76 4 -74 4 -75 5 -73 4 -73 5 -73 4 -72 5 -71 
4 -71 4 -70 5 -70 4 -69 5 -69 4 -68 4 -67 5 -67 
4 -66 5 -66 4 -65 5821 3413 100 MP stroke
4 -65 5 -64 4 1540 5 -76 4 -76 5 -74 4 -75 4 -73 
5 -73 4 -73 5 -72 4 -71 4 -71 5 -70 4 -70 5 -69 
4 -69 5 -68 4 -67 4 -67 5 -66 4 -66 5 -65 4 -65 
4 -64 5 1540 4 -76 5 -76 4 -74 4 -75 5 -73 4 -73 
5 -73 4 -72 5 -71 4 -71 4 -70 5 -70 4 -69 5 -69 
4 -68 4 -67 5 -67 4 -66 5 -66 4 -65 4 -65 5 -64 
4 1540 5 -76 4 -76 5 -74 4 -75 4 -73 5 -73 4 -73 
5 -72 4 -71 4 -71 5 -70 4 -70 5 -69 4 -69 4 -68 
5 -67 4 -67 5 -66 4 -66 5 -65 4 -65 4 -64 5 1540 
4 -76 5 -76 4 -74 4 -75 5 -73 4 -73 5 -73 4 -72 
4 -71 5 -71 4 -70 5 -70 4 -69 5 -69 4 -68 4 -67 
5 -67 4 -66 5 -66 4 -65 4 -65 5 -64 4 1540 5 -76 
4 -76 4 -74 5 -75 5384 2303 100 MP stroke
4 -73 5 -73 4 -73 5 -72 4 -71 4 -71 5 -70 4 -70 
5 -69 4 -68 4 -69 5 -67 4 -67 5 -66 4 -66 4 -65 
5 -65 4 -64 5 1540 4 -76 5 -76 4 -74 4 -75 5 -73 
4 -73 5 -73 4 -72 4 -71 5 -71 4 -70 5 -70 4 -69 
5 -68 4 -69 4 -67 5 -67 4 -66 5 -66 4 -65 4 -65 
5 -64 4 1540 5 -76 4 -76 4 -74 5 -75 4 -73 5 -73 
4 -73 5 -72 4 -71 4 -71 5 -70 4 -70 5 -69 4 -68 
4 -69 5 -67 4 -67 5 -66 4 -66 4 -65 5 -65 4 -64 
5 1540 4 -76 5 -76 4 -74 4 -75 5 -73 4 -73 5 -73 
4 -72 4 -71 5 -71 4 -70 5 -70 4 -69 4 -68 5 -69 
4 -67 5 -67 4 -66 5 -66 4 -65 4 -65 5 -64 4 1540 
5 -76 4 -76 4 -74 5 -75 4 -73 5 -73 4 -73 4 -72 
5 -71 4 -71 5 -70 4947 2806 100 MP stroke
4 -70 5 -69 4 -68 4 -69 5 -67 4 -67 5 -66 4 -66 
4 -65 5 -65 4 -64 5 1540 4 -76 4 -76 5 -74 4 -75 
5 -73 4 -73 5 -73 4 -72 4 -71 5 -71 4 -70 5 -70 
4 -69 4 -68 5 -69 4 -67 5 -67 4 -66 4 -66 5 -65 
4 -65 5 -64 4 1540 5 -76 4 -75 4 -75 5 -75 4 -73 
5 -73 4 -73 4 -72 5 -71 4 -71 5 -70 4 -70 4 -69 
5 -68 4 -68 5 -68 4 -67 5 -66 4 -66 4 -65 5 -65 
4 -64 5 1540 4 -76 4 -75 5 -75 4 -75 5 -73 4 -73 
5 -73 4 -72 4 -71 5 -71 4 -70 5 -70 4 -69 4 -68 
5 -68 4 -68 5 -67 4 -66 4 -66 5 -65 4 -65 5 -64 
4 1540 5 -76 4 -75 4 -75 5 -75 4 -73 5 -73 4 -73 
4 -72 5 -71 4 -71 5 -70 4 -70 4 -69 5 -68 4 -68 
5 -68 4 -67 5 -66 4510 3282 100 MP stroke
4 -66 4 -65 5 -65 4 -64 5 1540 4 -76 4 -75 5 -75 
4 -74 5 -74 4 -73 4 -73 5 -72 4 -71 5 -71 4 -70 
5 -70 4 -69 4 -68 5 -68 4 -68 5 -67 4 -66 4 -66 
5 -65 4 -65 5 -64 4 1540 4 -76 5 -75 4 -75 5 -74 
4 -74 5 -73 4 -73 4 -72 5 -71 4 -71 5 -70 4 -70 
4 -69 5 -68 4 -68 5 -68 4 -67 4 -66 5 -66 4 -65 
5 -65 4 -64 5 1540 4 -76 4 -75 5 -75 4 -74 5 -74 
4 -73 4 -73 5 -71 4 -72 5 -71 4 -70 4 -70 5 -69 
4 -68 5 -68 4 -68 5 -67 4 -66 4 -66 5 -65 4 -65 
5 -64 4 1540 4 -76 5 -75 4 -75 5 -74 4 -74 5 -73 
4 -72 4 -72 5 -72 4 -70 5 -71 4 -69 4 -70 5 -68 
4 -68 5 -68 4 -66 4 -67 5 -66 4 -65 5 -65 4 -64 
5 1541 4 -76 4 -76 4074 2153 100 MP stroke
5 -75 4 -74 5 -74 4 -73 4 -72 5 -72 4 -71 5 -71 
4 -70 4 -70 5 -69 4 -69 5 -68 4 -67 5 -67 4 -67 
4 -65 5 -66 4 -65 5 -64 4 1541 4 -76 5 -75 4 -75 
5 -75 4 -73 4 -73 5 -73 4 -72 5 -71 4 -71 5 -70 
4 -70 4 -69 5 -69 4 -68 5 -67 4 -67 4 -66 5 -66 
4 -65 5 -65 4 -64 4 1541 5 -76 4 -76 5 -75 4 -74 
5 -74 4 -73 4 -72 5 -72 4 -72 5 -70 4 -71 4 -69 
5 -69 4 -69 5 -68 4 -68 4 -66 5 -67 4 -66 5 -65 
4 -65 5 -64 4 1541 4 -76 5 -75 4 -75 5 -74 4 -74 
4 -73 5 -73 4 -72 5 -71 4 -71 4 -70 5 -70 4 -69 
5 -68 4 -68 5 -68 4 -67 4 -66 5 -66 4 -65 5 -65 
4 -64 4 1541 5 -76 4 -75 5 -75 4 -74 5 -74 4 -73 
4 -73 5 -72 4 -71 3637 2662 100 MP stroke
5 -71 4 -70 4 -70 5 -69 4 -69 5 -68 4 -67 4 -67 
5 -66 4 -66 5 -66 4 -64 5 -65 4 1543 4 -76 5 -76 
4 -75 5 -74 4 -74 4 -73 5 -72 4 -72 5 -72 4 -71 
4 -70 5 -70 4 -69 5 -68 4 -68 5 -68 4 -67 4 -66 
5 -66 4 -65 5 -65 4 -65 4 1543 5 -76 4 -75 5 -75 
4 -74 4 -74 5 -73 4 -73 5 -72 4 -71 5 -71 4 -70 
4 -70 5 -69 4 -69 5 -68 4 -67 4 -67 5 -67 4 -66 
5 -65 4 -65 4 -64 5 1544 4 -76 5 -76 4 -75 5 -74 
4 -74 4 -73 5 -73 4 -72 5 -71 4 -71 4 -70 5 -70 
4 -69 5 -69 4 -68 4 -67 5 -67 4 -67 5 -66 4 -65 
5 -65 4 -64 4 1545 5 -77 4 -75 5 -75 4 -74 4 -74 
5 -73 4 -73 5 -72 4 -71 4 -71 5 -71 4 -69 5 -70 
4 -68 5 -68 4 -68 3200 3139 100 MP stroke
4 -67 5 -66 4 -66 5 -66 4 -65 4 -64 5 1546 4 -76 
5 -76 4 -75 4 -74 5 -74 4 -73 5 -73 4 -72 5 -71 
4 -71 4 -70 5 -70 4 -70 5 -68 4 -68 4 -68 5 -67 
4 -67 5 -65 4 -66 5 -65 4 -64 4 1547 5 -76 4 -75 
5 -75 4 -75 4 -74 5 -73 4 -73 5 -72 4 -71 4 -71 
5 -71 4 -70 5 -69 4 -69 5 -68 4 -67 4 -67 5 -67 
4 -66 5 -65 4 -65 4 -65 5 1549 4 -76 5 -76 4 -75 
4 -74 5 -74 4 -73 5 -73 4 -72 5 -72 4 -71 4 -70 
5 -70 4 -70 5 -68 4 -69 4 -67 5 -67 4 -67 5 -66 
4 -65 4 -65 5 -65 4 1551 5 -77 4 -75 5 -75 4 -75 
4 -74 5 -73 4 -73 5 -72 4 -72 4 -71 5 -70 4 -70 
5 -70 4 -69 4 -68 5 -67 4 -68 5 -66 4 -66 5 -66 
4 -65 4 -64 5 1552 2763 1966 100 MP stroke
4 -77 5 -75 4 -76 4 -74 5 -74 4 -74 5 -72 4 -73 
4 -71 5 -71 4 -71 5 -70 4 -69 5 -69 4 -69 4 -67 
5 -67 4 -67 5 -66 4 -66 4 -65 5 -64 4 1553 5 -76 
4 -76 4 -75 5 -75 4 -74 5 -74 4 -72 5 -73 4 -71 
4 -72 5 -70 4 -70 5 -70 4 -69 4 -68 5 -68 4 -67 
5 -67 4 -66 5 -65 4 -65 4 -65 5 1554 4 -76 5 -76 
4 -75 4 -75 5 -74 4 -74 5 -72 4 -73 4 -72 5 -71 
4 -70 5 -70 4 -70 5 -69 4 -68 4 -68 5 -67 4 -67 
5 -66 4 -66 4 -65 5 -64 4 1554 5 -76 4 -76 4 -75 
5 -75 4 -74 5 -74 4 -73 5 -72 4 -72 4 -71 5 -70 
4 -71 5 -69 4 -69 4 -68 5 -68 4 -67 5 -67 4 -66 
4 -66 5 -65 4 -65 5 1555 4 -76 5 -76 4 -76 4 -74 
5 -74 4 -74 5 -73 2326 2465 100 MP stroke
4 -72 4 -72 5 -71 4 -71 5 -70 4 -69 4 -69 5 -69 
4 -67 5 -68 4 -66 5 -67 4 -65 4 -65 5 -65 4 1555 
5 -77 4 -76 4 -75 5 -75 4 -74 5 -73 4 -73 4 -72 
5 -72 4 -71 5 -71 4 -70 5 -69 4 -69 4 -68 5 -68 
4 -67 5 -67 4 -66 4 -66 5 -65 4 -64 5 1554 4 -76 
4 -76 5 -75 4 -75 5 -74 4 -73 5 -73 4 -72 4 -72 
5 -71 4 -71 5 -70 4 -69 4 -69 5 -68 4 -68 5 -67 
4 -66 4 -66 5 -66 4 -65 5 -64 4 1555 5 -76 4 -76 
4 -75 5 -74 4 -74 5 -73 4 -73 4 -72 5 -72 4 -71 
5 -70 4 -70 5 -69 4 -69 4 -68 5 -68 4 -67 5 -66 
4 -66 4 -65 5 -65 4 -65 5 1561 4 -76 4 -76 5 -75 
4 -74 5 -74 4 -73 5 -72 4 -73 4 -71 5 -71 4 -70 
5 -70 4 -69 4 -69 1890 2917 100 MP stroke
5 -68 4 -67 5 -67 4 -66 4 -66 5 -65 4 -65 5 -64 
4 1573 5 -76 4 -75 4 -75 5 -74 4 -74 5 -73 4 -73 
4 -72 5 -71 4 -71 5 -70 4 -70 4 -69 5 -68 4 -68 
5 -68 4 -66 5 -67 4 -65 4 -66 5 -64 4 -64 5 1601 
4 -76 4 -76 5 -75 4 -74 5 -74 4 -73 4 -73 5 -72 
4 -71 5 -71 4 -70 5 -70 4 -69 4 -68 5 -68 4 -68 
5 -67 4 -66 4 -66 5 -65 4 -65 5 -64 4 1655 4 -77 
5 -76 4 -75 5 -75 4 -74 5 -73 4 -73 4 -72 5 -72 
4 -71 5 -71 4 -70 4 -70 5 -68 4 -69 5 -68 4 -67 
4 -66 5 -67 4 -65 5 -65 4 -65 5 1755 4 -78 4 -77 
5 -76 4 -76 5 -75 4 -74 4 -74 5 -73 4 -73 5 -72 
4 -72 5 -71 4 -70 4 -70 5 -69 4 -69 5 -68 4 -68 
4 -67 5 -66 4 -66 1453 2994 100 MP stroke
5 -66 4 1937 4 -80 5 -79 4 -78 5 -78 4 -77 5 -77 
4 -76 4 -75 5 -75 4 -74 5 -74 4 -73 4 -72 5 -72 
4 -72 5 -70 4 -70 4 -70 5 -69 4 -69 5 -68 4 -67 
5 2276 4 -84 4 -83 5 -83 4 -82 5 -82 4 -81 4 -80 
5 -79 4 -80 5 -78 4 -78 4 -77 5 -77 4 -76 5 -75 
4 -75 5 -74 4 -74 4 -73 5 -73 4 -72 5 -71 4 -71 
4 -70 5 -70 4 -69 5 -69 4 -68 4 -67 5 -67 4 -67 
5 -66 4 -65 5 -65 4 -64 4 -64 5 -63 4 -63 5 -62 
4 -61 4 -62 5 -60 4 -60 5 -60 4 -59 4 -59 5 -58 
4 -57 5 -57 4 -57 5 -56 4 -56 4 -55 5 -55 4 -54 
5 -54 4 -53 4 -53 5 -52 4 -52 5 -51 4 -51 2 -25 
1067 4616 89 MP stroke
gr

c8
0 sg
3315 4903 mt 
(Tempo [s]) s
 616 3064 mt  -90 rotate
(Tra\347o da Covari\342ncia) s
90 rotate
2498  294 mt 
(Tra\347o da Covari\342ncia do Erro de Kalman) s

end %%Color Dict

eplot
%%EndObject

epage
end

showpage

%%Trailer
%%EOF
