\relax 
\@writefile{toc}{\contentsline {chapter}{\numberline {A}Manual do Simulador}{91}{appendix.A}}
\@writefile{lof}{\addvspace {10\p@ }}
\@writefile{lot}{\addvspace {10\p@ }}
\newlabel{app: manual}{{A}{91}{Manual do Simulador\relax }{appendix.A}{}}
\@writefile{toc}{\contentsline {section}{\numberline {A.1}Introdu\IeC {\c c}\IeC {\~a}o}{91}{section.A.1}}
\@writefile{toc}{\contentsline {section}{\numberline {A.2}Instala\IeC {\c c}\IeC {\~a}o}{91}{section.A.2}}
\@writefile{toc}{\contentsline {section}{\numberline {A.3}Simulador}{91}{section.A.3}}
\newlabel{sec:Simulador}{{A.3}{91}{Simulador\relax }{section.A.3}{}}
\@writefile{toc}{\contentsline {subsection}{\numberline {A.3.1}Ficheiros .m}{91}{subsection.A.3.1}}
\@writefile{lof}{\contentsline {figure}{\numberline {A.1}{\ignorespaces Ficheiro principal\relax }}{92}{figure.caption.81}}
\newlabel{fig: main}{{A.1}{92}{Ficheiro principal\relax \relax }{figure.caption.81}{}}
\@writefile{lot}{\contentsline {table}{\numberline {A.1}{\ignorespaces Par\IeC {\^a}metros de Simula\IeC {\c c}\IeC {\~a}o\relax }}{94}{table.caption.83}}
\newlabel{tab:dados_simulacao}{{A.1}{94}{Parâmetros de Simulação\relax \relax }{table.caption.83}{}}
\@writefile{toc}{\contentsline {subsection}{\numberline {A.3.2}Biblioteca System Vehicles for Human in Sea}{95}{subsection.A.3.2}}
\@writefile{lof}{\contentsline {figure}{\numberline {A.2}{\ignorespaces Biblioteca\relax }}{95}{figure.caption.85}}
\newlabel{fig: Biblioteca}{{A.2}{95}{Biblioteca\relax \relax }{figure.caption.85}{}}
\@writefile{toc}{\contentsline {section}{\numberline {A.4}Modelo em Simulador}{96}{section.A.4}}
\@writefile{lof}{\contentsline {figure}{\numberline {A.3}{\ignorespaces Vista geral do Simulador\relax }}{97}{figure.caption.86}}
\newlabel{fig: geral}{{A.3}{97}{Vista geral do Simulador\relax \relax }{figure.caption.86}{}}
\@setckpt{Appendix/Manual}{
\setcounter{page}{98}
\setcounter{equation}{0}
\setcounter{enumi}{7}
\setcounter{enumii}{0}
\setcounter{enumiii}{0}
\setcounter{enumiv}{0}
\setcounter{footnote}{0}
\setcounter{mpfootnote}{0}
\setcounter{part}{0}
\setcounter{chapter}{1}
\setcounter{section}{4}
\setcounter{subsection}{0}
\setcounter{subsubsection}{0}
\setcounter{paragraph}{0}
\setcounter{subparagraph}{0}
\setcounter{figure}{3}
\setcounter{table}{1}
\setcounter{parentequation}{4}
\setcounter{NAT@ctr}{33}
\setcounter{Item}{7}
\setcounter{Hfootnote}{0}
\setcounter{bookmark@seq@number}{40}
\setcounter{@todonotes@numberoftodonotes}{0}
\setcounter{defin}{0}
\setcounter{prob}{0}
\setcounter{theo}{0}
\setcounter{prop}{0}
\setcounter{ContinuedFloat}{0}
\setcounter{KVtest}{0}
\setcounter{subfigure}{0}
\setcounter{subfigure@save}{3}
\setcounter{lofdepth}{1}
\setcounter{subtable}{0}
\setcounter{subtable@save}{0}
\setcounter{lotdepth}{1}
\setcounter{section@level}{1}
}
