\relax 
\providecommand\HyperFirstAtBeginDocument{\AtBeginDocument}
\HyperFirstAtBeginDocument{\ifx\hyper@anchor\@undefined
\global\let\oldcontentsline\contentsline
\gdef\contentsline#1#2#3#4{\oldcontentsline{#1}{#2}{#3}}
\global\let\oldnewlabel\newlabel
\gdef\newlabel#1#2{\newlabelxx{#1}#2}
\gdef\newlabelxx#1#2#3#4#5#6{\oldnewlabel{#1}{{#2}{#3}}}
\AtEndDocument{\ifx\hyper@anchor\@undefined
\let\contentsline\oldcontentsline
\let\newlabel\oldnewlabel
\fi}
\fi}
\global\let\hyper@last\relax 
\gdef\HyperFirstAtBeginDocument#1{#1}
\providecommand\HyField@AuxAddToFields[1]{}
\citation{co3auvs:2011kx}
\global\@namedef{n@author@}{1}
\global\@namedef{n@collab@}{0}
\select@language{english}
\@writefile{toc}{\select@language{english}}
\@writefile{lof}{\select@language{english}}
\@writefile{lot}{\select@language{english}}
\@writefile{toc}{\contentsline {section}{\numberline {1}Introduction}{1}{section.1}}
\newlabel{sec:intro}{{1}{1}{Introduction\relax }{section.1}{}}
\@writefile{toc}{\contentsline {section}{\numberline {2}The Positioning System}{1}{section.2}}
\newlabel{sec:The Positioning System}{{2}{1}{The Positioning System\relax }{section.2}{}}
\@writefile{lof}{\contentsline {figure}{\numberline {1}{\ignorespaces Simple Scenario\relax }}{2}{figure.caption.1}}
\providecommand*\caption@xref[2]{\@setref\relax\@undefined{#1}}
\newlabel{fig:simple_scenario}{{1}{2}{Simple Scenario\relax \relax }{figure.caption.1}{}}
\@writefile{lof}{\contentsline {figure}{\numberline {2}{\ignorespaces General Ideia\relax }}{2}{figure.caption.2}}
\newlabel{fig: positioning_general_ideia}{{2}{2}{General Ideia\relax \relax }{figure.caption.2}{}}
\@writefile{toc}{\contentsline {subsection}{\numberline {2.1}Communication System}{2}{subsection.2.1}}
\newlabel{sec:communication-system}{{2.1}{2}{Communication System\relax }{subsection.2.1}{}}
\@writefile{lof}{\contentsline {figure}{\numberline {3}{\ignorespaces Acoustic Communications in time\relax }}{2}{figure.caption.3}}
\newlabel{fig: communications_in_time}{{3}{2}{Acoustic Communications in time\relax \relax }{figure.caption.3}{}}
\citation{Fan:2011kx}
\citation{Ruiqing:2010fk}
\citation{He:2009fk}
\@writefile{toc}{\contentsline {subsubsection}{\numberline {2.1.1}Without synchronous clocks}{3}{subsubsection.2.1.1}}
\newlabel{msg-chain-ping-alert}{{1}{3}{Without synchronous clocks\relax }{Item.1}{}}
\newlabel{msg-chain-ping}{{2}{3}{Without synchronous clocks\relax }{Item.2}{}}
\newlabel{msg-chain-pong-from-diver}{{4}{3}{Without synchronous clocks\relax }{Item.4}{}}
\newlabel{msg-chain-diver-pos}{{6}{3}{Without synchronous clocks\relax }{Item.6}{}}
\newlabel{fig:comm-without-ntp-radio}{{4a}{3}{Subfigure 4a\relax }{subfigure.4.1}{}}
\newlabel{sub@fig:comm-without-ntp-radio}{{(a)}{a}{Subfigure 4a\relax }{subfigure.4.1}{}}
\newlabel{fig:comm-without-ntp-acustic}{{4b}{3}{Subfigure 4b\relax }{subfigure.4.2}{}}
\newlabel{sub@fig:comm-without-ntp-acustic}{{(b)}{b}{Subfigure 4b\relax }{subfigure.4.2}{}}
\@writefile{lof}{\contentsline {figure}{\numberline {4}{\ignorespaces Messages without synchronous clocks\relax }}{3}{figure.caption.4}}
\@writefile{lof}{\contentsline {subfigure}{\numberline{(a)}{\ignorespaces {Radio}}}{3}{subfigure.4.1}}
\@writefile{lof}{\contentsline {subfigure}{\numberline{(b)}{\ignorespaces {Acoustic}}}{3}{subfigure.4.2}}
\newlabel{fig:comm-without-ntp}{{4}{3}{Messages without synchronous clocks\relax \relax }{figure.caption.4}{}}
\newlabel{sec:comm-with-ntp}{{2.1.2}{3}{With synchronous clocks\relax }{subsubsection.2.1.2}{}}
\@writefile{toc}{\contentsline {subsubsection}{\numberline {2.1.2}With synchronous clocks}{3}{subsubsection.2.1.2}}
\newlabel{eq:distance_between_diver_master}{{1}{3}{With synchronous clocks\relax }{equation.2.1}{}}
\newlabel{eq:distance_between_diver_vehicle}{{2}{3}{With synchronous clocks\relax }{equation.2.2}{}}
\newlabel{fig:comm-with-ntp-radio}{{5a}{4}{Subfigure 5a\relax }{subfigure.5.1}{}}
\newlabel{sub@fig:comm-with-ntp-radio}{{(a)}{a}{Subfigure 5a\relax }{subfigure.5.1}{}}
\newlabel{fig:comm-with-ntp-acustic}{{5b}{4}{Subfigure 5b\relax }{subfigure.5.2}{}}
\newlabel{sub@fig:comm-with-ntp-acustic}{{(b)}{b}{Subfigure 5b\relax }{subfigure.5.2}{}}
\@writefile{lof}{\contentsline {figure}{\numberline {5}{\ignorespaces Messages with synchronous clocks\relax }}{4}{figure.caption.5}}
\@writefile{lof}{\contentsline {subfigure}{\numberline{(a)}{\ignorespaces {Radio}}}{4}{subfigure.5.1}}
\@writefile{lof}{\contentsline {subfigure}{\numberline{(b)}{\ignorespaces {Acoustic}}}{4}{subfigure.5.2}}
\newlabel{fig:comm-with-ntp}{{5}{4}{Messages with synchronous clocks\relax \relax }{figure.caption.5}{}}
\newlabel{sec:falhas_comunicacao}{{2.1.3}{4}{Communication Failures\relax }{subsubsection.2.1.3}{}}
\@writefile{toc}{\contentsline {subsubsection}{\numberline {2.1.3}Communication Failures}{4}{subsubsection.2.1.3}}
\@writefile{toc}{\contentsline {subsubsection}{\numberline {2.1.4}Communications Applied to the Project}{4}{subsubsection.2.1.4}}
\newlabel{fig:comm-fail-diver}{{6a}{4}{Subfigure 6a\relax }{subfigure.6.1}{}}
\newlabel{sub@fig:comm-fail-diver}{{(a)}{a}{Subfigure 6a\relax }{subfigure.6.1}{}}
\newlabel{fig:comm-fail-master}{{6b}{4}{Subfigure 6b\relax }{subfigure.6.2}{}}
\newlabel{sub@fig:comm-fail-master}{{(b)}{b}{Subfigure 6b\relax }{subfigure.6.2}{}}
\newlabel{fig:comm-fail-vehicle}{{6c}{4}{Subfigure 6c\relax }{subfigure.6.3}{}}
\newlabel{sub@fig:comm-fail-vehicle}{{(c)}{c}{Subfigure 6c\relax }{subfigure.6.3}{}}
\@writefile{lof}{\contentsline {figure}{\numberline {6}{\ignorespaces Acoustic communications failures\relax }}{4}{figure.caption.6}}
\@writefile{lof}{\contentsline {subfigure}{\numberline{(a)}{\ignorespaces {Diver}}}{4}{subfigure.6.1}}
\@writefile{lof}{\contentsline {subfigure}{\numberline{(b)}{\ignorespaces {Master}}}{4}{subfigure.6.2}}
\@writefile{lof}{\contentsline {subfigure}{\numberline{(c)}{\ignorespaces {Vehicle \textit {i}}}}{4}{subfigure.6.3}}
\newlabel{fig:msg_perdas_geral}{{6}{4}{Acoustic communications failures\relax \relax }{figure.caption.6}{}}
\@writefile{toc}{\contentsline {subsection}{\numberline {2.2}Trilateration}{4}{subsection.2.2}}
\newlabel{sec:Trilateration}{{2.2}{4}{Trilateration\relax }{subsection.2.2}{}}
\citation{Penas:2009uq}
\citation{Thomas:2005vn}
\citation{Greg-Welch:2001zr}
\@writefile{lof}{\contentsline {figure}{\numberline {7}{\ignorespaces Acoustic communications delay\relax }}{5}{figure.caption.7}}
\newlabel{fig:comm-fail-delay}{{7}{5}{Acoustic communications delay\relax \relax }{figure.caption.7}{}}
\newlabel{eq: trilateration}{{4}{5}{Trilateration\relax }{equation.2.4}{}}
\@writefile{toc}{\contentsline {subsection}{\numberline {2.3}Kalman Filter}{5}{subsection.2.3}}
\citation{Greg-Welch:2001zr}
\citation{Maxwell:2005uq}
\citation{Gil:2002kx}
\newlabel{subeq:espaco_estados_hibrido}{{5}{6}{Kalman Filter\relax }{equation.2.5}{}}
\newlabel{subeq:medidas_hibrido}{{6}{6}{Kalman Filter\relax }{equation.2.6}{}}
\newlabel{subeq:actualizacao_medidas}{{9}{6}{Kalman Filter\relax }{equation.2.9}{}}
\@writefile{toc}{\contentsline {section}{\numberline {3}Simulator}{6}{section.3}}
\newlabel{sec:Simulator}{{3}{6}{Simulator\relax }{section.3}{}}
\@writefile{toc}{\contentsline {subsection}{\numberline {3.1}Implementation details}{6}{subsection.3.1}}
\@writefile{toc}{\contentsline {subsection}{\numberline {3.2}Simulation Results}{7}{subsection.3.2}}
\@writefile{lot}{\contentsline {table}{\numberline {1}{\ignorespaces Simulation Parameters: vehicles stopped\relax }}{7}{table.caption.8}}
\newlabel{tab:vD_vV_tabela}{{1}{7}{Simulation Parameters: vehicles stopped\relax \relax }{table.caption.8}{}}
\@writefile{lof}{\contentsline {figure}{\numberline {8}{\ignorespaces Distances between the diver and each of the vehicles\relax }}{7}{figure.caption.9}}
\newlabel{fig: vD_distance_zoom}{{8}{7}{Distances between the diver and each of the vehicles\relax \relax }{figure.caption.9}{}}
\@writefile{lof}{\contentsline {figure}{\numberline {9}{\ignorespaces Trajectory in the x-axis with the Diver moving and stopped vehicles\relax }}{7}{figure.caption.10}}
\newlabel{fig: vD_trajectoria_x}{{9}{7}{Trajectory in the x-axis with the Diver moving and stopped vehicles\relax \relax }{figure.caption.10}{}}
\@writefile{lof}{\contentsline {figure}{\numberline {10}{\ignorespaces Error estimate of the position of the diver, with the diver moving and vehicles holding position\relax }}{8}{figure.caption.11}}
\newlabel{fig: vD_erro_posicao}{{10}{8}{Error estimate of the position of the diver, with the diver moving and vehicles holding position\relax \relax }{figure.caption.11}{}}
\@writefile{lof}{\contentsline {figure}{\numberline {11}{\ignorespaces Trace of covariance of error estimate on extended Kalman, with the diver moving and vehicles holding position\relax }}{8}{figure.caption.12}}
\newlabel{fig: vD_erro_covariancia_zoom}{{11}{8}{Trace of covariance of error estimate on extended Kalman, with the diver moving and vehicles holding position\relax \relax }{figure.caption.12}{}}
\@writefile{lof}{\contentsline {figure}{\numberline {12}{\ignorespaces 3D global position with the diver moving and vehicles holding their position\relax }}{8}{figure.caption.13}}
\newlabel{fig: vD_trajectoria_3D}{{12}{8}{3D global position with the diver moving and vehicles holding their position\relax \relax }{figure.caption.13}{}}
\@writefile{lot}{\contentsline {table}{\numberline {2}{\ignorespaces Simulation parameters in the presence of communication failures\relax }}{8}{table.caption.14}}
\newlabel{tab:vD_vV_falhas_tabela}{{2}{8}{Simulation parameters in the presence of communication failures\relax \relax }{table.caption.14}{}}
\@writefile{lof}{\contentsline {figure}{\numberline {13}{\ignorespaces Distances between the diver and the vehicles\relax }}{9}{figure.caption.15}}
\newlabel{fig: vD_vV_falhas_distancias}{{13}{9}{Distances between the diver and the vehicles\relax \relax }{figure.caption.15}{}}
\@writefile{lof}{\contentsline {figure}{\numberline {14}{\ignorespaces Messages received and sent to buoy and diver, with evidence of communication gaps\relax }}{9}{figure.caption.16}}
\newlabel{fig: vD_vV_falhas_tempos_boia_diver_zoom}{{14}{9}{Messages received and sent to buoy and diver, with evidence of communication gaps\relax \relax }{figure.caption.16}{}}
\@writefile{lof}{\contentsline {figure}{\numberline {15}{\ignorespaces Messages received and sent to vehicles, with evidence of communication gaps\relax }}{9}{figure.caption.17}}
\newlabel{fig: vD_vV_falhas_tempos_veiculos_zoom}{{15}{9}{Messages received and sent to vehicles, with evidence of communication gaps\relax \relax }{figure.caption.17}{}}
\@writefile{toc}{\contentsline {section}{\numberline {4}Conclusions and Future Work}{9}{section.4}}
\newlabel{sec:Conclusions}{{4}{9}{Conclusions and Future Work\relax }{section.4}{}}
\@writefile{lof}{\contentsline {figure}{\numberline {16}{\ignorespaces Trajectory at x-axis in the presence of communication failures\relax }}{9}{figure.caption.18}}
\newlabel{fig: vD_vV_falhas_trajectoria_x_zoom}{{16}{9}{Trajectory at x-axis in the presence of communication failures\relax \relax }{figure.caption.18}{}}
\@writefile{lof}{\contentsline {figure}{\numberline {17}{\ignorespaces Error estimate of the diver's position\relax }}{9}{figure.caption.19}}
\newlabel{fig: vD_vV_falhas_erro_posicao}{{17}{9}{Error estimate of the diver's position\relax \relax }{figure.caption.19}{}}
\@writefile{lof}{\contentsline {figure}{\numberline {18}{\ignorespaces Trace of Kalman covariance of error estimate in the presence of communication failures\relax }}{9}{figure.caption.20}}
\newlabel{fig: vD_vV_falhas_erro_covariancia}{{18}{9}{Trace of Kalman covariance of error estimate in the presence of communication failures\relax \relax }{figure.caption.20}{}}
\bibstyle{abbrvnat}
\bibdata{SV4HS}
\bibcite{co3auvs:2011kx}{{1}{2011}{{co3}}{{}}}
\bibcite{Fan:2011kx}{{2}{2011}{{Fan et~al.}}{{Fan, Chen, and Zhao}}}
\bibcite{Gil:2002kx}{{3}{2002}{{Gil}}{{}}}
\bibcite{Greg-Welch:2001zr}{{4}{2001}{{Greg~Welch}}{{}}}
\bibcite{He:2009fk}{{5}{2009}{{He et~al.}}{{He, Peng, Yuan, Guo, and Zhao}}}
\bibcite{Maxwell:2005uq}{{6}{2005}{{Maxwell}}{{}}}
\bibcite{Penas:2009uq}{{7}{2009}{{Pe{\~n}as}}{{}}}
\bibcite{Ruiqing:2010fk}{{8}{2010}{{Ruiqing et~al.}}{{Ruiqing, Peng, Wenxue, Min, and Bin}}}
\bibcite{Thomas:2005vn}{{9}{2005}{{Thomas and Ros}}{{}}}
\@writefile{lof}{\contentsline {figure}{\numberline {19}{\ignorespaces Trace of Kalman covariance of error estimate in the presence of communication failures zoomed\relax }}{10}{figure.caption.21}}
\newlabel{fig: vD_vV_falhas_erro_covariancia_zoom}{{19}{10}{Trace of Kalman covariance of error estimate in the presence of communication failures zoomed\relax \relax }{figure.caption.21}{}}
\@writefile{lof}{\contentsline {figure}{\numberline {20}{\ignorespaces Trace of Kalman covariance of error estimate in the presence of communication failures\relax }}{10}{figure.caption.22}}
\newlabel{fig: vD_vV_miss_time_vehicle_compare_cov}{{20}{10}{Trace of Kalman covariance of error estimate in the presence of communication failures\relax \relax }{figure.caption.22}{}}
\@writefile{lof}{\contentsline {figure}{\numberline {21}{\ignorespaces 3D global position in the presence of communication failures\relax }}{10}{figure.caption.23}}
\newlabel{fig: vD_vV_falhas_trajectoria_3D}{{21}{10}{3D global position in the presence of communication failures\relax \relax }{figure.caption.23}{}}
\global\c@lastpage=10
\global\NAT@numbersfalse
