%!PS-Adobe-2.0 EPSF-1.2
%%Creator: MATLAB, The Mathworks, Inc. Version 7.9.0.529 (R2009b). Operating System: Darwin 10.8.0 Darwin Kernel Version 10.8.0: Tue Jun  7 16:33:36 PDT 2011; root:xnu-1504.15.3~1/RELEASE_I386 i386.
%%Title: ./vD_covariance_error_zoom.eps
%%CreationDate: 10/23/2011  06:07:30
%%DocumentNeededFonts: Helvetica
%%DocumentProcessColors: Cyan Magenta Yellow Black
%%Extensions: CMYK
%%Pages: 1
%%BoundingBox:    58   199   543   602
%%EndComments

%%BeginProlog
% MathWorks dictionary
/MathWorks 160 dict begin
% definition operators
/bdef {bind def} bind def
/ldef {load def} bind def
/xdef {exch def} bdef
/xstore {exch store} bdef
% operator abbreviations
/c  /clip ldef
/cc /concat ldef
/cp /closepath ldef
/gr /grestore ldef
/gs /gsave ldef
/mt /moveto ldef
/np /newpath ldef
/cm /currentmatrix ldef
/sm /setmatrix ldef
/rm /rmoveto ldef
/rl /rlineto ldef
/s {show newpath} bdef
/sc {setcmykcolor} bdef
/sr /setrgbcolor ldef
/sg /setgray ldef
/w /setlinewidth ldef
/j /setlinejoin ldef
/cap /setlinecap ldef
/rc {rectclip} bdef
/rf {rectfill} bdef
% page state control
/pgsv () def
/bpage {/pgsv save def} bdef
/epage {pgsv restore} bdef
/bplot /gsave ldef
/eplot {stroke grestore} bdef
% orientation switch
/portraitMode 0 def /landscapeMode 1 def /rotateMode 2 def
% coordinate system mappings
/dpi2point 0 def
% font control
/FontSize 0 def
/FMS {/FontSize xstore findfont [FontSize 0 0 FontSize neg 0 0]
  makefont setfont} bdef
/reencode {exch dup where {pop load} {pop StandardEncoding} ifelse
  exch dup 3 1 roll findfont dup length dict begin
  { 1 index /FID ne {def}{pop pop} ifelse } forall
  /Encoding exch def currentdict end definefont pop} bdef
/isroman {findfont /CharStrings get /Agrave known} bdef
/FMSR {3 1 roll 1 index dup isroman {reencode} {pop pop} ifelse
  exch FMS} bdef
/csm {1 dpi2point div -1 dpi2point div scale neg translate
 dup landscapeMode eq {pop -90 rotate}
  {rotateMode eq {90 rotate} if} ifelse} bdef
% line types: solid, dotted, dashed, dotdash
/SO { [] 0 setdash } bdef
/DO { [.5 dpi2point mul 4 dpi2point mul] 0 setdash } bdef
/DA { [6 dpi2point mul] 0 setdash } bdef
/DD { [.5 dpi2point mul 4 dpi2point mul 6 dpi2point mul 4
  dpi2point mul] 0 setdash } bdef
% macros for lines and objects
/L {lineto stroke} bdef
/MP {3 1 roll moveto 1 sub {rlineto} repeat} bdef
/AP {{rlineto} repeat} bdef
/PDlw -1 def
/W {/PDlw currentlinewidth def setlinewidth} def
/PP {closepath eofill} bdef
/DP {closepath stroke} bdef
/MR {4 -2 roll moveto dup  0 exch rlineto exch 0 rlineto
  neg 0 exch rlineto closepath} bdef
/FR {MR stroke} bdef
/PR {MR fill} bdef
/L1i {{currentfile picstr readhexstring pop} image} bdef
/tMatrix matrix def
/MakeOval {newpath tMatrix currentmatrix pop translate scale
0 0 1 0 360 arc tMatrix setmatrix} bdef
/FO {MakeOval stroke} bdef
/PO {MakeOval fill} bdef
/PD {currentlinewidth 2 div 0 360 arc fill
   PDlw -1 eq not {PDlw w /PDlw -1 def} if} def
/FA {newpath tMatrix currentmatrix pop translate scale
  0 0 1 5 -2 roll arc tMatrix setmatrix stroke} bdef
/PA {newpath tMatrix currentmatrix pop	translate 0 0 moveto scale
  0 0 1 5 -2 roll arc closepath tMatrix setmatrix fill} bdef
/FAn {newpath tMatrix currentmatrix pop translate scale
  0 0 1 5 -2 roll arcn tMatrix setmatrix stroke} bdef
/PAn {newpath tMatrix currentmatrix pop translate 0 0 moveto scale
  0 0 1 5 -2 roll arcn closepath tMatrix setmatrix fill} bdef
/vradius 0 def /hradius 0 def /lry 0 def
/lrx 0 def /uly 0 def /ulx 0 def /rad 0 def
/MRR {/vradius xdef /hradius xdef /lry xdef /lrx xdef /uly xdef
  /ulx xdef newpath tMatrix currentmatrix pop ulx hradius add uly
  vradius add translate hradius vradius scale 0 0 1 180 270 arc 
  tMatrix setmatrix lrx hradius sub uly vradius add translate
  hradius vradius scale 0 0 1 270 360 arc tMatrix setmatrix
  lrx hradius sub lry vradius sub translate hradius vradius scale
  0 0 1 0 90 arc tMatrix setmatrix ulx hradius add lry vradius sub
  translate hradius vradius scale 0 0 1 90 180 arc tMatrix setmatrix
  closepath} bdef
/FRR {MRR stroke } bdef
/PRR {MRR fill } bdef
/MlrRR {/lry xdef /lrx xdef /uly xdef /ulx xdef /rad lry uly sub 2 div def
  newpath tMatrix currentmatrix pop ulx rad add uly rad add translate
  rad rad scale 0 0 1 90 270 arc tMatrix setmatrix lrx rad sub lry rad
  sub translate rad rad scale 0 0 1 270 90 arc tMatrix setmatrix
  closepath} bdef
/FlrRR {MlrRR stroke } bdef
/PlrRR {MlrRR fill } bdef
/MtbRR {/lry xdef /lrx xdef /uly xdef /ulx xdef /rad lrx ulx sub 2 div def
  newpath tMatrix currentmatrix pop ulx rad add uly rad add translate
  rad rad scale 0 0 1 180 360 arc tMatrix setmatrix lrx rad sub lry rad
  sub translate rad rad scale 0 0 1 0 180 arc tMatrix setmatrix
  closepath} bdef
/FtbRR {MtbRR stroke } bdef
/PtbRR {MtbRR fill } bdef
/stri 6 array def /dtri 6 array def
/smat 6 array def /dmat 6 array def
/tmat1 6 array def /tmat2 6 array def /dif 3 array def
/asub {/ind2 exch def /ind1 exch def dup dup
  ind1 get exch ind2 get sub exch } bdef
/tri_to_matrix {
  2 0 asub 3 1 asub 4 0 asub 5 1 asub
  dup 0 get exch 1 get 7 -1 roll astore } bdef
/compute_transform {
  dmat dtri tri_to_matrix tmat1 invertmatrix 
  smat stri tri_to_matrix tmat2 concatmatrix } bdef
/ds {stri astore pop} bdef
/dt {dtri astore pop} bdef
/db {2 copy /cols xdef /rows xdef mul dup 3 mul string
  currentfile exch readhexstring pop
  dup 0 3 index getinterval /rbmap xdef
  dup 2 index dup getinterval /gbmap xdef
  1 index dup 2 mul exch getinterval /bbmap xdef pop pop}bdef
/it {gs np dtri aload pop moveto lineto lineto cp c
  cols rows 8 compute_transform 
  rbmap gbmap bbmap true 3 colorimage gr}bdef
/il {newpath moveto lineto stroke}bdef
currentdict end def
%%EndProlog

%%BeginSetup
MathWorks begin

0 cap

end
%%EndSetup

%%Page: 1 1
%%BeginPageSetup
%%PageBoundingBox:    58   199   543   602
MathWorks begin
bpage
%%EndPageSetup

%%BeginObject: obj1
bplot

/dpi2point 12 def
portraitMode 0216 7344 csm

  480   110  5825  4845 MR c np
85 dict begin %Colortable dictionary
/c0 { 0.000000 0.000000 0.000000 sr} bdef
/c1 { 1.000000 1.000000 1.000000 sr} bdef
/c2 { 0.900000 0.000000 0.000000 sr} bdef
/c3 { 0.000000 0.820000 0.000000 sr} bdef
/c4 { 0.000000 0.000000 0.800000 sr} bdef
/c5 { 0.910000 0.820000 0.320000 sr} bdef
/c6 { 1.000000 0.260000 0.820000 sr} bdef
/c7 { 0.000000 0.820000 0.820000 sr} bdef
c0
1 j
1 sg
   0    0 6913 5186 PR
6 w
0 4226 5357 0 0 -4226 898 4615 4 MP
PP
-5357 0 0 4226 5357 0 0 -4226 898 4615 5 MP stroke
4 w
DO
0 sg
1219 4615 mt 1219  389 L
1219  389 mt 1219  389 L
1889 4615 mt 1889  389 L
1889  389 mt 1889  389 L
2558 4615 mt 2558  389 L
2558  389 mt 2558  389 L
3227 4615 mt 3227  389 L
3227  389 mt 3227  389 L
3897 4615 mt 3897  389 L
3897  389 mt 3897  389 L
4566 4615 mt 4566  389 L
4566  389 mt 4566  389 L
5236 4615 mt 5236  389 L
5236  389 mt 5236  389 L
5905 4615 mt 5905  389 L
5905  389 mt 5905  389 L
 898 4299 mt 6255 4299 L
6255 4299 mt 6255 4299 L
 898 3740 mt 6255 3740 L
6255 3740 mt 6255 3740 L
 898 3180 mt 6255 3180 L
6255 3180 mt 6255 3180 L
 898 2620 mt 6255 2620 L
6255 2620 mt 6255 2620 L
 898 2061 mt 6255 2061 L
6255 2061 mt 6255 2061 L
 898 1501 mt 6255 1501 L
6255 1501 mt 6255 1501 L
 898  942 mt 6255  942 L
6255  942 mt 6255  942 L
SO
6 w
 898 4615 mt 6255 4615 L
 898 4615 mt  898  389 L
1219 4615 mt 1219 4561 L
%%IncludeResource: font Helvetica
/Helvetica /ISOLatin1Encoding 120 FMSR

1186 4760 mt 
(1) s
1889 4615 mt 1889 4561 L
1856 4760 mt 
(2) s
2558 4615 mt 2558 4561 L
2525 4760 mt 
(3) s
3227 4615 mt 3227 4561 L
3194 4760 mt 
(4) s
3897 4615 mt 3897 4561 L
3864 4760 mt 
(5) s
4566 4615 mt 4566 4561 L
4533 4760 mt 
(6) s
5236 4615 mt 5236 4561 L
5203 4760 mt 
(7) s
5905 4615 mt 5905 4561 L
5872 4760 mt 
(8) s
 898 4299 mt  952 4299 L
 698 4343 mt 
(1.3) s
 898 3740 mt  952 3740 L
 698 3784 mt 
(1.4) s
 898 3180 mt  952 3180 L
 698 3224 mt 
(1.5) s
 898 2620 mt  952 2620 L
 698 2664 mt 
(1.6) s
 898 2061 mt  952 2061 L
 698 2105 mt 
(1.7) s
 898 1501 mt  952 1501 L
 698 1545 mt 
(1.8) s
 898  942 mt  952  942 L
 698  986 mt 
(1.9) s
gs 898 389 5358 4227 MR c np
/c8 { 0.000000 0.000000 1.000000 sr} bdef
c8
3 -31 7 -86 6 -85 7 -84 7 -84 6 -83 7 -82 7 -82 
6 -81 7 -81 7 -79 7 -79 6 -79 7 -78 7 -77 6 -76 
7 1835 7 -90 6 -90 7 -89 7 -89 7 -87 6 -88 7 -86 
7 -86 6 -85 7 -84 7 -84 6 -83 7 -82 7 -82 6 -81 
7 -80 7 -80 7 -79 6 -79 7 -78 7 -77 6 -76 7 1835 
7 -90 6 -90 7 -89 7 -89 6 -87 7 -88 7 -86 7 -86 
6 -85 7 -84 7 -84 6 -83 7 -82 7 -82 6 -81 7 -80 
7 -80 6 -79 7 -79 7 -78 7 -77 6 -76 7 1836 7 -91 
6 -90 7 -89 7 -88 6 -88 7 -87 7 -87 7 -86 6 -85 
7 -84 7 -84 6 -83 7 -82 7 -82 6 -81 7 -80 7 -80 
6 -79 7 -79 7 -77 7 -78 6 -76 7 1836 7 -91 6 -90 
7 -89 7 -88 6 -88 7 -87 7 -87 6 -85 7 -85 7 -85 
7 -83 6 -84 7 -82 5597 3410 100 MP stroke
7 -82 6 -81 7 -80 7 -80 6 -79 7 -78 7 -78 6 -77 
7 -77 7 1836 7 -90 6 -90 7 -90 7 -88 6 -88 7 -87 
7 -86 6 -86 7 -85 7 -84 7 -84 6 -83 7 -83 7 -81 
6 -81 7 -81 7 -80 6 -79 7 -78 7 -78 6 -77 7 -77 
7 1837 7 -91 6 -90 7 -89 7 -89 6 -87 7 -87 7 -87 
6 -86 7 -85 7 -84 6 -84 7 -83 7 -82 7 -82 6 -81 
7 -80 7 -80 6 -79 7 -79 7 -78 6 -77 7 -76 7 1836 
7 -90 6 -90 7 -89 7 -89 6 -88 7 -87 7 -86 6 -86 
7 -85 7 -84 6 -84 7 -83 7 -83 7 -81 6 -81 7 -81 
7 -80 6 -79 7 -78 7 -78 6 -77 7 -77 7 1837 6 -90 
7 -90 7 -90 7 -88 6 -88 7 -87 7 -86 6 -86 7 -85 
7 -85 6 -83 7 -83 7 -83 6 -82 7 -81 7 -80 7 -80 
6 -79 7 -79 7 -77 4934 3966 100 MP stroke
6 -78 7 -76 7 1837 6 -90 7 -90 7 -89 7 -89 6 -88 
7 -87 7 -86 6 -86 7 -85 7 -85 6 -83 7 -83 7 -83 
6 -82 7 -81 7 -80 7 -80 6 -79 7 -78 7 -78 6 -78 
7 -76 7 1838 6 -91 7 -90 7 -89 6 -88 7 -88 7 -87 
7 -87 6 -86 7 -85 7 -84 6 -84 7 -83 7 -82 6 -82 
7 -81 7 -81 6 -79 7 -80 7 -78 7 -78 6 -77 7 -77 
7 1839 6 -91 7 -90 7 -89 6 -88 7 -88 7 -87 7 -87 
6 -86 7 -85 7 -84 6 -84 7 -83 7 -82 6 -82 7 -81 
7 -81 6 -80 7 -79 7 -78 7 -78 6 -78 7 -76 7 1840 
6 -91 7 -90 7 -89 6 -89 7 -88 7 -87 6 -86 7 -86 
7 -85 7 -85 6 -83 7 -84 7 -82 6 -82 7 -81 7 -81 
6 -79 7 -80 7 -78 6 -78 7 -77 7 -77 7 1841 6 -90 
7 -90 7 -90 6 -88 4272 2631 100 MP stroke
7 -88 7 -88 6 -86 7 -86 7 -85 7 -85 6 -83 7 -84 
7 -82 6 -82 7 -81 7 -81 6 -80 7 -79 7 -78 6 -78 
7 -78 7 -76 7 1842 6 -90 7 -90 7 -90 6 -88 7 -88 
7 -88 6 -86 7 -86 7 -85 6 -85 7 -84 7 -83 7 -82 
6 -82 7 -82 7 -80 6 -80 7 -79 7 -79 6 -78 7 -77 
7 -77 6 1844 7 -90 7 -91 7 -89 6 -89 7 -88 7 -87 
6 -87 7 -85 7 -86 6 -84 7 -84 7 -83 7 -83 6 -82 
7 -81 7 -81 6 -80 7 -79 7 -79 6 -78 7 -77 7 -77 
6 1846 7 -91 7 -90 7 -89 6 -89 7 -88 7 -87 6 -87 
7 -86 7 -85 6 -85 7 -84 7 -83 6 -83 7 -82 7 -81 
7 -81 6 -80 7 -79 7 -79 6 -78 7 -77 7 -77 6 1848 
7 -91 7 -90 6 -90 7 -89 7 -88 7 -87 6 -87 7 -86 
7 -85 6 -85 7 -84 3609 3213 100 MP stroke
7 -83 6 -83 7 -82 7 -82 7 -80 6 -80 7 -80 7 -78 
6 -78 7 -78 7 -77 6 1850 7 -91 7 -90 6 -90 7 -89 
7 -88 7 -87 6 -87 7 -86 7 -86 6 -85 7 -84 7 -83 
6 -83 7 -82 7 -81 6 -81 7 -80 7 -80 7 -78 6 -78 
7 -78 7 -77 6 1851 7 -91 7 -90 6 -90 7 -89 7 -88 
7 -87 6 -87 7 -86 7 -86 6 -85 7 -84 7 -83 6 -83 
7 -82 7 -82 6 -80 7 -81 7 -79 7 -79 6 -78 7 -78 
7 -76 6 1852 7 -91 7 -91 6 -89 7 -89 7 -89 6 -87 
7 -87 7 -86 7 -86 6 -85 7 -84 7 -83 6 -83 7 -82 
7 -82 6 -81 7 -80 7 -79 6 -79 7 -78 7 -78 7 -77 
6 1853 7 -91 7 -90 6 -90 7 -89 7 -88 6 -88 7 -87 
7 -86 7 -86 6 -85 7 -84 7 -83 6 -83 7 -82 7 -82 
6 -81 7 -80 7 -79 2946 3756 100 MP stroke
6 -79 7 -78 7 -78 7 -77 6 1853 7 -91 7 -91 6 -89 
7 -89 7 -89 6 -87 7 -87 7 -86 6 -86 7 -85 7 -84 
7 -83 6 -83 7 -82 7 -82 6 -81 7 -80 7 -79 6 -79 
7 -78 7 -78 6 -77 7 1853 7 -91 7 -91 6 -89 7 -89 
7 -89 6 -87 7 -87 7 -86 6 -86 7 -85 7 -84 7 -83 
6 -83 7 -82 7 -82 6 -80 7 -80 7 -80 6 -79 7 -78 
7 -77 6 -77 7 1852 7 -91 7 -90 6 -90 7 -89 7 -88 
6 -87 7 -87 7 -86 6 -86 7 -84 7 -84 6 -84 7 -82 
7 -82 7 -82 6 -80 7 -80 7 -80 6 -78 7 -78 7 -78 
6 -77 7 1854 7 -91 6 -90 7 -89 7 -89 7 -88 6 -87 
7 -87 7 -86 6 -85 7 -85 7 -84 6 -83 7 -83 7 -81 
7 -82 6 -80 7 -80 7 -79 6 -79 7 -78 7 -77 6 -77 
7 1860 7 -90 6 -90 2284 2350 100 MP stroke
7 -90 7 -88 7 -88 6 -88 7 -86 7 -86 6 -85 7 -85 
7 -83 6 -83 7 -83 7 -82 6 -81 7 -80 7 -80 7 -79 
6 -78 7 -78 7 -77 6 -77 7 1876 7 -91 6 -90 7 -89 
7 -89 6 -88 7 -87 7 -86 7 -86 6 -85 7 -84 7 -84 
6 -83 7 -82 7 -82 6 -81 7 -80 7 -80 7 -79 6 -78 
7 -78 7 -77 6 -76 7 1908 7 -91 6 -90 7 -89 7 -89 
6 -88 7 -87 7 -86 7 -86 6 -85 7 -85 7 -83 6 -83 
7 -83 7 -81 6 -82 7 -80 7 -80 6 -79 7 -78 7 -78 
7 -77 6 -76 7 1972 7 -91 6 -91 7 -89 7 -90 6 -88 
7 -87 7 -87 6 -87 7 -85 7 -85 7 -84 6 -84 7 -82 
7 -82 6 -82 7 -81 7 -80 6 -79 7 -79 7 -78 7 -78 
6 -77 7 2091 7 -92 6 -92 7 -91 7 -90 6 -89 7 -89 
7 -88 6 -87 7 -87 1621 2482 100 MP stroke
7 -86 7 -85 6 -85 7 -84 7 -83 6 -83 7 -82 7 -81 
6 -80 7 -80 7 -79 6 -79 7 -78 7 2307 7 -94 6 -95 
7 -93 7 -93 6 -92 7 -91 7 -90 6 -90 7 -89 7 -89 
6 -87 7 -88 7 -86 7 -86 6 -85 7 -84 7 -84 6 -82 
7 -83 7 -81 6 -81 7 -81 7 2713 7 -101 6 -99 7 -98 
7 -98 6 -97 7 -97 7 -95 6 -95 7 -94 7 -94 6 -93 
7 -92 7 -91 7 -91 6 -90 7 -89 7 -88 6 -88 7 -87 
7 -87 6 -86 7 -85 7 -84 6 -84 7 -83 7 -82 7 -82 
6 -81 7 -81 7 -80 6 -79 7 -78 7 -78 6 -77 7 -77 
7 -76 7 -75 6 -75 7 -74 7 -74 6 -72 7 -73 7 -71 
6 -71 7 -71 7 -70 6 -69 7 -69 7 -68 7 -67 0 -9 
1038 4616 89 MP stroke
gr

c8
0 sg
3362 4903 mt 
(Time [s]) s
 616 2942 mt  -90 rotate
(Error covariance) s
90 rotate
3137  294 mt 
(Error covariance) s

end %%Color Dict

eplot
%%EndObject

epage
end

showpage

%%Trailer
%%EOF
