%!PS-Adobe-2.0 EPSF-1.2
%%Creator: MATLAB, The Mathworks, Inc. Version 7.9.0.529 (R2009b). Operating System: Darwin 10.8.0 Darwin Kernel Version 10.8.0: Tue Jun  7 16:33:36 PDT 2011; root:xnu-1504.15.3~1/RELEASE_I386 i386.
%%Title: ./vD_erro_covariancia.eps
%%CreationDate: 09/20/2011  00:18:56
%%DocumentNeededFonts: Helvetica
%%DocumentProcessColors: Cyan Magenta Yellow Black
%%Extensions: CMYK
%%Pages: 1
%%BoundingBox:    58   199   543   602
%%EndComments

%%BeginProlog
% MathWorks dictionary
/MathWorks 160 dict begin
% definition operators
/bdef {bind def} bind def
/ldef {load def} bind def
/xdef {exch def} bdef
/xstore {exch store} bdef
% operator abbreviations
/c  /clip ldef
/cc /concat ldef
/cp /closepath ldef
/gr /grestore ldef
/gs /gsave ldef
/mt /moveto ldef
/np /newpath ldef
/cm /currentmatrix ldef
/sm /setmatrix ldef
/rm /rmoveto ldef
/rl /rlineto ldef
/s {show newpath} bdef
/sc {setcmykcolor} bdef
/sr /setrgbcolor ldef
/sg /setgray ldef
/w /setlinewidth ldef
/j /setlinejoin ldef
/cap /setlinecap ldef
/rc {rectclip} bdef
/rf {rectfill} bdef
% page state control
/pgsv () def
/bpage {/pgsv save def} bdef
/epage {pgsv restore} bdef
/bplot /gsave ldef
/eplot {stroke grestore} bdef
% orientation switch
/portraitMode 0 def /landscapeMode 1 def /rotateMode 2 def
% coordinate system mappings
/dpi2point 0 def
% font control
/FontSize 0 def
/FMS {/FontSize xstore findfont [FontSize 0 0 FontSize neg 0 0]
  makefont setfont} bdef
/reencode {exch dup where {pop load} {pop StandardEncoding} ifelse
  exch dup 3 1 roll findfont dup length dict begin
  { 1 index /FID ne {def}{pop pop} ifelse } forall
  /Encoding exch def currentdict end definefont pop} bdef
/isroman {findfont /CharStrings get /Agrave known} bdef
/FMSR {3 1 roll 1 index dup isroman {reencode} {pop pop} ifelse
  exch FMS} bdef
/csm {1 dpi2point div -1 dpi2point div scale neg translate
 dup landscapeMode eq {pop -90 rotate}
  {rotateMode eq {90 rotate} if} ifelse} bdef
% line types: solid, dotted, dashed, dotdash
/SO { [] 0 setdash } bdef
/DO { [.5 dpi2point mul 4 dpi2point mul] 0 setdash } bdef
/DA { [6 dpi2point mul] 0 setdash } bdef
/DD { [.5 dpi2point mul 4 dpi2point mul 6 dpi2point mul 4
  dpi2point mul] 0 setdash } bdef
% macros for lines and objects
/L {lineto stroke} bdef
/MP {3 1 roll moveto 1 sub {rlineto} repeat} bdef
/AP {{rlineto} repeat} bdef
/PDlw -1 def
/W {/PDlw currentlinewidth def setlinewidth} def
/PP {closepath eofill} bdef
/DP {closepath stroke} bdef
/MR {4 -2 roll moveto dup  0 exch rlineto exch 0 rlineto
  neg 0 exch rlineto closepath} bdef
/FR {MR stroke} bdef
/PR {MR fill} bdef
/L1i {{currentfile picstr readhexstring pop} image} bdef
/tMatrix matrix def
/MakeOval {newpath tMatrix currentmatrix pop translate scale
0 0 1 0 360 arc tMatrix setmatrix} bdef
/FO {MakeOval stroke} bdef
/PO {MakeOval fill} bdef
/PD {currentlinewidth 2 div 0 360 arc fill
   PDlw -1 eq not {PDlw w /PDlw -1 def} if} def
/FA {newpath tMatrix currentmatrix pop translate scale
  0 0 1 5 -2 roll arc tMatrix setmatrix stroke} bdef
/PA {newpath tMatrix currentmatrix pop	translate 0 0 moveto scale
  0 0 1 5 -2 roll arc closepath tMatrix setmatrix fill} bdef
/FAn {newpath tMatrix currentmatrix pop translate scale
  0 0 1 5 -2 roll arcn tMatrix setmatrix stroke} bdef
/PAn {newpath tMatrix currentmatrix pop translate 0 0 moveto scale
  0 0 1 5 -2 roll arcn closepath tMatrix setmatrix fill} bdef
/vradius 0 def /hradius 0 def /lry 0 def
/lrx 0 def /uly 0 def /ulx 0 def /rad 0 def
/MRR {/vradius xdef /hradius xdef /lry xdef /lrx xdef /uly xdef
  /ulx xdef newpath tMatrix currentmatrix pop ulx hradius add uly
  vradius add translate hradius vradius scale 0 0 1 180 270 arc 
  tMatrix setmatrix lrx hradius sub uly vradius add translate
  hradius vradius scale 0 0 1 270 360 arc tMatrix setmatrix
  lrx hradius sub lry vradius sub translate hradius vradius scale
  0 0 1 0 90 arc tMatrix setmatrix ulx hradius add lry vradius sub
  translate hradius vradius scale 0 0 1 90 180 arc tMatrix setmatrix
  closepath} bdef
/FRR {MRR stroke } bdef
/PRR {MRR fill } bdef
/MlrRR {/lry xdef /lrx xdef /uly xdef /ulx xdef /rad lry uly sub 2 div def
  newpath tMatrix currentmatrix pop ulx rad add uly rad add translate
  rad rad scale 0 0 1 90 270 arc tMatrix setmatrix lrx rad sub lry rad
  sub translate rad rad scale 0 0 1 270 90 arc tMatrix setmatrix
  closepath} bdef
/FlrRR {MlrRR stroke } bdef
/PlrRR {MlrRR fill } bdef
/MtbRR {/lry xdef /lrx xdef /uly xdef /ulx xdef /rad lrx ulx sub 2 div def
  newpath tMatrix currentmatrix pop ulx rad add uly rad add translate
  rad rad scale 0 0 1 180 360 arc tMatrix setmatrix lrx rad sub lry rad
  sub translate rad rad scale 0 0 1 0 180 arc tMatrix setmatrix
  closepath} bdef
/FtbRR {MtbRR stroke } bdef
/PtbRR {MtbRR fill } bdef
/stri 6 array def /dtri 6 array def
/smat 6 array def /dmat 6 array def
/tmat1 6 array def /tmat2 6 array def /dif 3 array def
/asub {/ind2 exch def /ind1 exch def dup dup
  ind1 get exch ind2 get sub exch } bdef
/tri_to_matrix {
  2 0 asub 3 1 asub 4 0 asub 5 1 asub
  dup 0 get exch 1 get 7 -1 roll astore } bdef
/compute_transform {
  dmat dtri tri_to_matrix tmat1 invertmatrix 
  smat stri tri_to_matrix tmat2 concatmatrix } bdef
/ds {stri astore pop} bdef
/dt {dtri astore pop} bdef
/db {2 copy /cols xdef /rows xdef mul dup 3 mul string
  currentfile exch readhexstring pop
  dup 0 3 index getinterval /rbmap xdef
  dup 2 index dup getinterval /gbmap xdef
  1 index dup 2 mul exch getinterval /bbmap xdef pop pop}bdef
/it {gs np dtri aload pop moveto lineto lineto cp c
  cols rows 8 compute_transform 
  rbmap gbmap bbmap true 3 colorimage gr}bdef
/il {newpath moveto lineto stroke}bdef
currentdict end def
%%EndProlog

%%BeginSetup
MathWorks begin

0 cap

end
%%EndSetup

%%Page: 1 1
%%BeginPageSetup
%%PageBoundingBox:    58   199   543   602
MathWorks begin
bpage
%%EndPageSetup

%%BeginObject: obj1
bplot

/dpi2point 12 def
portraitMode 0216 7344 csm

  480   110  5825  4845 MR c np
85 dict begin %Colortable dictionary
/c0 { 0.000000 0.000000 0.000000 sr} bdef
/c1 { 1.000000 1.000000 1.000000 sr} bdef
/c2 { 0.900000 0.000000 0.000000 sr} bdef
/c3 { 0.000000 0.820000 0.000000 sr} bdef
/c4 { 0.000000 0.000000 0.800000 sr} bdef
/c5 { 0.910000 0.820000 0.320000 sr} bdef
/c6 { 1.000000 0.260000 0.820000 sr} bdef
/c7 { 0.000000 0.820000 0.820000 sr} bdef
c0
1 j
1 sg
   0    0 6913 5186 PR
6 w
0 4226 5356 0 0 -4226 899 4615 4 MP
PP
-5356 0 0 4226 5356 0 0 -4226 899 4615 5 MP stroke
4 w
DO
0 sg
 899 4615 mt  899  389 L
 899  389 mt  899  389 L
1642 4615 mt 1642  389 L
1642  389 mt 1642  389 L
2386 4615 mt 2386  389 L
2386  389 mt 2386  389 L
3130 4615 mt 3130  389 L
3130  389 mt 3130  389 L
3874 4615 mt 3874  389 L
3874  389 mt 3874  389 L
4618 4615 mt 4618  389 L
4618  389 mt 4618  389 L
5362 4615 mt 5362  389 L
5362  389 mt 5362  389 L
6106 4615 mt 6106  389 L
6106  389 mt 6106  389 L
 899 4615 mt 6255 4615 L
6255 4615 mt 6255 4615 L
 899 4011 mt 6255 4011 L
6255 4011 mt 6255 4011 L
 899 3407 mt 6255 3407 L
6255 3407 mt 6255 3407 L
 899 2803 mt 6255 2803 L
6255 2803 mt 6255 2803 L
 899 2200 mt 6255 2200 L
6255 2200 mt 6255 2200 L
 899 1596 mt 6255 1596 L
6255 1596 mt 6255 1596 L
 899  992 mt 6255  992 L
6255  992 mt 6255  992 L
 899  389 mt 6255  389 L
6255  389 mt 6255  389 L
SO
6 w
 899 4615 mt 6255 4615 L
 899 4615 mt  899  389 L
 899 4615 mt  899 4561 L
%%IncludeResource: font Helvetica
/Helvetica /ISOLatin1Encoding 120 FMSR

 866 4760 mt 
(0) s
1642 4615 mt 1642 4561 L
1576 4760 mt 
(50) s
2386 4615 mt 2386 4561 L
2286 4760 mt 
(100) s
3130 4615 mt 3130 4561 L
3030 4760 mt 
(150) s
3874 4615 mt 3874 4561 L
3774 4760 mt 
(200) s
4618 4615 mt 4618 4561 L
4518 4760 mt 
(250) s
5362 4615 mt 5362 4561 L
5262 4760 mt 
(300) s
6106 4615 mt 6106 4561 L
6006 4760 mt 
(350) s
 899 4615 mt  952 4615 L
 798 4659 mt 
(0) s
 899 4011 mt  952 4011 L
 698 4055 mt 
(0.5) s
 899 3407 mt  952 3407 L
 798 3451 mt 
(1) s
 899 2803 mt  952 2803 L
 698 2847 mt 
(1.5) s
 899 2200 mt  952 2200 L
 798 2244 mt 
(2) s
 899 1596 mt  952 1596 L
 698 1640 mt 
(2.5) s
 899  992 mt  952  992 L
 798 1036 mt 
(3) s
 899  389 mt  952  389 L
 698  433 mt 
(3.5) s
gs 899 389 5357 4227 MR c np
/c8 { 0.000000 0.000000 1.000000 sr} bdef
c8
1 -23 0 -114 1 -22 0 -130 1 -21 0 -123 1 1388 0 -147 
1 -29 0 -168 1 -28 0 -161 1 -26 0 -154 1 -25 0 -122 
1 -24 0 -140 1 -23 0 -133 1 -21 0 -106 1 -20 0 1327 
0 -1388 0 1329 1 -29 0 -173 1 -28 0 -164 1 -27 0 -131 
1 -26 0 -150 1 -25 0 -143 1 -23 0 -114 1 -22 0 -130 
1 -21 0 -123 1 1388 0 -176 1 -28 0 -141 1 -27 0 -161 
1 -26 0 -154 1 -25 0 -146 1 -24 0 -116 1 -23 0 -133 
1 -21 0 -127 1 -20 0 1348 0 -1388 0 1329 1 -30 0 -172 
1 -28 0 -164 1 -27 0 -157 1 -25 0 -125 1 -25 0 -143 
1 -23 0 -136 1 -22 0 -108 1 -21 0 -124 1 1389 0 -176 
1 -28 0 -168 1 -27 0 -134 1 -26 0 -154 1 -25 0 -146 
1 -24 0 -139 1 -22 0 -111 1 -21 0 -127 1 -20 0 1348 
0 -1389 0 1300 1 -29 6208 1005 100 MP stroke
0 -143 1 -28 0 -165 1 -26 0 -157 1 -26 0 -149 1 -24 
0 -119 1 -23 0 -136 1 -22 0 -129 1 -21 0 -103 1 1389 
0 -176 1 -29 0 -167 1 -28 0 -160 1 -26 0 -127 1 -25 
0 -146 1 -24 0 -139 1 -23 0 -132 1 -21 0 -105 1 -20 
0 1348 0 -1389 0 1300 1 -29 0 -171 1 -28 0 -137 1 -27 
0 -156 1 -26 0 -149 1 -24 0 -142 1 -23 0 -113 1 -22 
0 -129 1 -21 0 -103 0 1389 1 -30 0 -146 1 -29 0 -168 
1 -27 0 -160 1 -26 0 -152 1 -25 0 -122 1 -23 0 -139 
1 -23 0 -132 1 -21 0 -105 1 -20 0 1347 0 -1388 0 1300 
1 -30 0 -171 1 -28 0 -163 1 -26 0 -131 1 -25 0 -149 
1 -25 0 -142 1 -23 0 -135 1 -22 0 -107 1 -21 0 -102 
0 1388 1 -30 0 -174 1 -29 0 -139 1 -27 0 -160 1 -26 
0 -153 1 -24 0 -146 6162 1796 100 MP stroke
1 -23 0 -116 1 -22 0 -132 1 -22 0 -125 1 -20 0 1368 
0 -1388 0 1299 1 -29 0 -171 1 -28 0 -163 1 -27 0 -156 
1 -25 0 -124 1 -24 0 -142 1 -23 0 -135 1 -22 0 -128 
1 -21 0 -82 0 1387 1 -29 0 -175 1 -28 0 -167 1 -27 
0 -133 1 -26 0 -153 1 -24 0 -146 1 -23 0 -138 1 -23 
0 -109 1 -22 0 -125 1 -20 0 1363 0 -1383 0 1266 1 -29 
0 -143 1 -27 0 -164 1 -26 0 -156 1 -25 0 -148 1 -24 
0 -118 1 -23 0 -135 1 -22 0 -128 1 -21 0 1293 0 -1374 
0 1345 1 -30 0 -144 1 -29 0 -166 1 -27 0 -158 1 -26 
0 -126 1 -25 0 -145 1 -23 0 -138 1 -22 0 -131 1 -21 
0 -104 1 -20 0 1335 0 -1355 0 1238 1 -29 0 -168 1 -28 
0 -134 1 -26 0 -154 1 -26 0 -146 1 -24 0 -140 1 -22 
0 -111 1 -22 0 -127 6117 2211 100 MP stroke
1 -20 0 1294 0 -1355 0 1296 1 -29 0 -171 1 -28 0 -136 
1 -27 0 -156 1 -25 0 -149 1 -24 0 -119 1 -23 0 -135 
1 -22 0 -129 1 -21 0 -102 0 1355 1 -30 0 -144 1 -29 
0 -166 1 -27 0 -158 1 -26 0 -126 1 -25 0 -145 1 -23 
0 -138 1 -22 0 -131 1 -21 0 -104 1 -20 0 1335 0 -1355 
0 1238 1 -29 0 -168 1 -28 0 -134 1 -26 0 -154 1 -26 
0 -146 1 -24 0 -140 1 -22 0 -111 1 -22 0 -127 1 -20 
0 1294 0 -1355 0 1296 1 -29 0 -171 1 -28 0 -136 1 -27 
0 -156 1 -25 0 -149 1 -24 0 -119 1 -23 0 -135 1 -22 
0 -129 1 -21 0 -102 0 1355 1 -30 0 -144 1 -29 0 -166 
1 -27 0 -158 1 -26 0 -126 1 -25 0 -145 1 -23 0 -138 
1 -22 0 -131 1 -21 0 -104 1 -20 0 1335 0 -1355 0 1238 
1 -29 0 -168 1 -28 6072 1279 100 MP stroke
0 -160 1 -27 0 -127 1 -26 0 -146 1 -24 0 -140 1 -22 
0 -111 1 -22 0 -127 1 -20 0 1294 0 -1355 0 1296 1 -29 
0 -171 1 -28 0 -136 1 -27 0 -156 1 -25 0 -149 1 -24 
0 -119 1 -23 0 -135 1 -22 0 -129 1 -21 0 -102 0 1355 
1 -30 0 -144 1 -29 0 -166 1 -27 0 -158 1 -26 0 -151 
1 -25 0 -120 1 -23 0 -138 1 -22 0 -131 1 -21 0 -104 
1 -20 0 1335 0 -1355 0 1238 1 -29 0 -168 1 -28 0 -160 
1 -27 0 -128 1 -25 0 -146 1 -24 0 -140 1 -22 0 -111 
1 -22 0 -127 1 -20 0 1294 0 -1355 0 1296 1 -29 0 -171 
1 -28 0 -136 1 -27 0 -156 1 -25 0 -149 1 -24 0 -119 
1 -23 0 -135 1 -22 0 -129 1 -21 0 -102 0 1355 1 -30 
0 -144 1 -29 0 -166 1 -27 0 -159 1 -25 0 -151 1 -25 
0 -120 1 -23 0 -138 6027 1974 100 MP stroke
1 -22 0 -131 1 -21 0 -104 1 -20 0 1335 0 -1355 0 1238 
1 -29 0 -168 1 -28 0 -160 1 -27 0 -128 1 -25 0 -146 
1 -24 0 -140 1 -22 0 -111 1 -22 0 -127 1 -20 0 1294 
0 -1355 0 1296 1 -29 0 -171 1 -28 0 -136 1 -27 0 -156 
1 -25 0 -149 1 -24 0 -142 1 -23 0 -112 1 -22 0 -129 
1 -21 0 -102 0 1354 1 -29 0 -145 1 -28 0 -166 1 -27 
0 -159 1 -25 0 -151 1 -25 0 -120 1 -24 0 -137 1 -22 
0 -131 1 -21 0 -104 1 -20 0 1334 0 -1354 0 1237 1 -28 
0 -169 1 -27 0 -161 1 -26 0 -128 1 -25 0 -147 1 -23 
0 -140 1 -23 0 -132 1 -22 0 -105 1 -20 0 1293 0 -1354 
0 1295 1 -29 0 -171 1 -27 0 -136 1 -27 0 -156 1 -26 
0 -149 1 -24 0 -141 1 -23 0 -113 1 -22 0 -128 1 -21 
0 -102 0 1354 1 -30 5982 968 100 MP stroke
0 -144 1 -29 0 -166 1 -27 0 -158 1 -26 0 -151 1 -24 
0 -120 1 -24 0 -137 1 -23 0 -130 1 -21 0 -124 1 -20 
0 1354 0 -117 1 -29 0 -168 1 -28 0 -160 1 -26 0 -128 
1 -25 0 -147 1 -24 0 -139 1 -23 0 -133 1 -21 0 -105 
1 -21 0 1294 0 -1355 0 1296 1 -29 0 -171 1 -28 0 -136 
1 -27 0 -156 1 -25 0 -149 1 -24 0 -142 1 -23 0 -112 
1 -22 0 -129 1 -21 0 -102 0 1354 1 -29 0 -145 1 -28 
0 -166 1 -27 0 -159 1 -26 0 -151 1 -24 0 -120 1 -24 
0 -137 1 -23 0 -130 1 -21 0 -124 1 -20 0 1353 0 -117 
1 -29 0 -168 1 -28 0 -160 1 -26 0 -128 1 -26 0 -146 
1 -24 0 -140 1 -22 0 -133 1 -21 0 -106 1 -20 0 1289 
0 -1350 0 1291 1 -29 0 -171 1 -28 0 -136 1 -26 0 -156 
1 -26 0 -149 1 -24 5936 1749 100 MP stroke
0 -141 1 -23 0 -113 1 -22 0 -128 1 -21 0 -102 0 1341 
1 -30 0 -172 1 -28 0 -138 1 -27 0 -158 1 -26 0 -150 
1 -24 0 -120 1 -24 0 -137 1 -22 0 -130 1 -21 0 -124 
1 -20 0 1321 0 -116 1 -28 0 -167 1 -27 0 -159 1 -26 
0 -127 1 -24 0 -146 1 -23 0 -138 1 -23 0 -131 1 -21 
0 -104 1 -20 0 1280 0 -1321 0 1234 1 -29 0 -167 1 -28 
0 -160 1 -26 0 -128 1 -25 0 -146 1 -24 0 -139 1 -22 
0 -111 1 -21 0 -127 1 -20 0 1260 0 -1321 0 1263 1 -29 
0 -169 1 -27 0 -135 1 -27 0 -154 1 -26 0 -147 1 -24 
0 -117 1 -23 0 -134 1 -22 0 -127 1 -21 0 1240 0 -1321 
0 1292 1 -29 0 -142 1 -28 0 -164 1 -26 0 -156 1 -25 
0 -124 1 -25 0 -142 1 -23 0 -135 1 -22 0 -128 1 -21 
0 -102 1 1321 0 -172 5891 1160 100 MP stroke
1 -28 0 -165 1 -27 0 -157 1 -25 0 -125 1 -24 0 -144 
1 -23 0 -136 1 -22 0 -108 1 -21 0 -124 1 -20 0 1321 
0 -144 1 -28 0 -166 1 -27 0 -132 1 -26 0 -151 1 -25 
0 -144 1 -24 0 -114 1 -23 0 -131 1 -21 0 -124 1 -21 
0 1301 0 -1321 0 1205 1 -28 0 -139 1 -28 0 -160 1 -26 
0 -153 1 -24 0 -146 1 -23 0 -116 1 -22 0 -132 1 -22 
0 -125 1 -20 0 1280 0 -1321 0 1263 1 -29 0 -169 1 -27 
0 -162 1 -26 0 -154 1 -25 0 -122 1 -24 0 -140 1 -23 
0 -133 1 -21 0 -106 1 -21 0 1240 0 -1321 0 1292 1 -29 
0 -170 1 -28 0 -162 1 -27 0 -129 1 -25 0 -149 1 -24 
0 -141 1 -23 0 -134 1 -22 0 -106 1 -21 0 -102 0 1321 
1 -29 0 -171 1 -28 0 -137 1 -27 0 -157 1 -25 0 -149 
1 -25 0 -142 1 -23 5845 1901 100 MP stroke
0 -113 1 -22 0 -129 1 -21 0 -123 1 1321 0 -144 1 -28 
0 -166 1 -27 0 -158 1 -26 0 -150 1 -24 0 -120 1 -24 
0 -137 1 -22 0 -130 1 -21 0 -124 1 -20 0 1321 0 -116 
1 -28 0 -167 1 -27 0 -159 1 -26 0 -127 1 -24 0 -146 
1 -23 0 -138 1 -23 0 -131 1 -21 0 -104 1 -20 0 1280 
0 -1321 0 1234 1 -29 0 -168 1 -27 0 -134 1 -26 0 -154 
1 -25 0 -146 1 -24 0 -139 1 -22 0 -111 1 -21 0 -127 
1 -20 0 1260 0 -1321 0 1263 1 -29 0 -142 1 -27 0 -163 
1 -26 0 -155 1 -25 0 -147 1 -24 0 -117 1 -23 0 -134 
1 -22 0 -127 1 -21 0 1240 0 -1321 0 1291 1 -29 0 -142 
1 -28 0 -163 1 -27 0 -155 1 -26 0 -124 1 -24 0 -142 
1 -23 0 -135 1 -22 0 -128 1 -21 0 -102 1 1321 0 -173 
1 -28 0 -164 1 -27 5799 1380 100 MP stroke
0 -131 1 -26 0 -150 1 -25 0 -143 1 -23 0 -136 1 -22 
0 -108 1 -22 0 -123 1 -20 0 1320 0 -144 1 -28 0 -166 
1 -27 0 -132 1 -26 0 -151 1 -25 0 -144 1 -23 0 -115 
1 -22 0 -131 1 -22 0 -124 1 -20 0 1300 0 -1320 0 1205 
1 -29 0 -139 1 -28 0 -160 1 -26 0 -152 1 -25 0 -121 
1 -24 0 -139 1 -23 0 -132 1 -21 0 -126 1 -20 0 1280 
0 -1320 0 1262 1 -29 0 -169 1 -27 0 -162 1 -26 0 -153 
1 -25 0 -123 1 -24 0 -140 1 -22 0 -134 1 -21 0 -106 
1 -20 0 1239 0 -1320 0 1290 1 -29 0 -170 1 -27 0 -163 
1 -26 0 -129 1 -26 0 -148 1 -24 0 -141 1 -23 0 -112 
1 -22 0 -129 1 -20 0 -102 0 1319 1 -29 0 -171 1 -28 
0 -137 1 -27 0 -157 1 -25 0 -150 1 -24 0 -119 1 -23 
0 -136 1 -22 0 -129 5754 2168 100 MP stroke
1 -21 0 -123 1 1316 0 -144 1 -28 0 -166 1 -27 0 -158 
1 -25 0 -151 1 -24 0 -120 1 -23 0 -137 1 -22 0 -130 
1 -22 0 -103 1 -20 0 1287 0 -1307 0 1191 1 -28 0 -166 
1 -27 0 -159 1 -26 0 -126 1 -24 0 -145 1 -24 0 -137 
1 -23 0 -109 1 -21 0 -125 1 -20 0 1247 0 -1287 0 1200 
1 -28 0 -166 1 -27 0 -133 1 -26 0 -152 1 -24 0 -145 
1 -24 0 -137 1 -23 0 -109 1 -21 0 -125 1 -20 0 1247 
0 -1287 0 1200 1 -28 0 -139 1 -27 0 -160 1 -26 0 -152 
1 -24 0 -145 1 -24 0 -115 1 -22 0 -132 1 -21 0 -125 
1 -20 0 1247 0 -1287 0 1229 1 -29 0 -167 1 -27 0 -160 
1 -26 0 -152 1 -24 0 -122 1 -23 0 -139 1 -22 0 -132 
1 -21 0 -125 1 -20 0 1247 0 -1287 0 1229 1 -29 0 -167 
1 -27 0 -160 1 -26 5709 1505 100 MP stroke
0 -127 1 -25 0 -146 1 -23 0 -139 1 -22 0 -132 1 -21 
0 -105 1 -20 0 1227 0 -1287 0 1229 1 -29 0 -167 1 -27 
0 -134 1 -26 0 -153 1 -25 0 -146 1 -23 0 -139 1 -22 
0 -110 1 -22 0 -126 1 -20 0 1227 0 -1287 0 1229 1 -29 
0 -167 1 -27 0 -134 1 -26 0 -153 1 -25 0 -146 1 -23 
0 -116 1 -23 0 -132 1 -22 0 -126 1 -20 0 1227 0 -1287 
0 1229 1 -29 0 -140 1 -27 0 -161 1 -26 0 -153 1 -25 
0 -122 1 -24 0 -139 1 -23 0 -132 1 -22 0 -126 1 -20 
0 1227 0 -1287 0 1258 1 -29 0 -169 1 -27 0 -161 1 -26 
0 -128 1 -25 0 -147 1 -24 0 -139 1 -23 0 -132 1 -22 
0 -105 1 -21 0 1207 0 -1287 0 1258 1 -29 0 -169 1 -27 
0 -161 1 -26 0 -128 1 -25 0 -147 1 -24 0 -139 1 -23 
0 -111 1 -21 0 -127 5665 2224 100 MP stroke
1 -21 0 1207 0 -1287 0 1258 1 -29 0 -169 1 -27 0 -134 
1 -27 0 -154 1 -25 0 -147 1 -24 0 -116 1 -23 0 -134 
1 -21 0 -127 1 -21 0 1207 0 -1288 0 1259 1 -29 0 -141 
1 -28 0 -161 1 -27 0 -154 1 -25 0 -147 1 -24 0 -116 
1 -23 0 -134 1 -21 0 -127 1 -21 0 -81 0 1288 1 -29 
0 -170 1 -28 0 -161 1 -27 0 -154 1 -25 0 -123 1 -24 
0 -140 1 -23 0 -134 1 -21 0 -106 1 -21 0 -102 0 1287 
1 -28 0 -170 1 -28 0 -161 1 -27 0 -129 1 -25 0 -148 
1 -24 0 -140 1 -23 0 -134 1 -21 0 -107 1 -20 0 -102 
0 1287 1 -29 0 -169 1 -28 0 -135 1 -27 0 -155 1 -25 
0 -148 1 -24 0 -140 1 -23 0 -112 1 -22 0 -128 1 -20 
0 -102 0 1287 1 -29 0 -142 1 -27 0 -163 1 -27 0 -155 
1 -25 0 -148 1 -24 5619 1779 100 MP stroke
0 -118 1 -23 0 -134 1 -22 0 -128 1 -20 0 -102 1 1287 
0 -171 1 -28 0 -162 1 -27 0 -155 1 -25 0 -124 1 -24 
0 -142 1 -23 0 -134 1 -22 0 -128 1 -21 0 -101 1 1287 
0 -171 1 -28 0 -163 1 -26 0 -130 1 -25 0 -149 1 -24 
0 -142 1 -23 0 -134 1 -22 0 -107 1 -21 0 -122 1 1287 
0 -171 1 -28 0 -136 1 -27 0 -156 1 -25 0 -149 1 -24 
0 -142 1 -23 0 -113 1 -22 0 -128 1 -21 0 -122 1 1287 
0 -171 1 -28 0 -136 1 -27 0 -156 1 -26 0 -148 1 -25 
0 -118 1 -23 0 -136 1 -22 0 -128 1 -21 0 -122 1 1286 
0 -143 1 -28 0 -164 1 -26 0 -157 1 -25 0 -125 1 -24 
0 -143 1 -23 0 -135 1 -22 0 -129 1 -21 0 -102 1 -20 
0 1285 0 -142 1 -28 0 -164 1 -27 0 -156 1 -26 0 -124 
1 -25 0 -142 1 -23 5570 1899 100 MP stroke
0 -136 1 -22 0 -108 1 -21 0 -123 1 -20 0 1282 0 -142 
1 -28 0 -164 1 -27 0 -131 1 -25 0 -150 1 -24 0 -143 
1 -23 0 -113 1 -22 0 -130 1 -21 0 -123 1 -20 0 1273 
0 -142 1 -28 0 -137 1 -27 0 -156 1 -26 0 -149 1 -25 
0 -142 1 -23 0 -113 1 -22 0 -129 1 -21 0 -123 1 -20 
0 1254 0 -113 1 -28 0 -164 1 -26 0 -156 1 -25 0 -149 
1 -24 0 -118 1 -23 0 -135 1 -22 0 -128 1 -21 0 -102 
1 -20 0 1254 0 -141 1 -28 0 -162 1 -27 0 -154 1 -25 
0 -124 1 -24 0 -141 1 -23 0 -134 1 -22 0 -106 1 -21 
0 -122 1 1254 0 -169 1 -27 0 -162 1 -26 0 -128 1 -25 
0 -148 1 -24 0 -140 1 -23 0 -133 1 -21 0 -106 1 -21 
0 -101 0 1254 1 -28 0 -168 1 -28 0 -134 1 -26 0 -153 
1 -25 0 -147 1 -24 5523 1822 100 MP stroke
0 -139 1 -22 0 -111 1 -21 0 -127 1 -20 0 1173 0 -1254 
0 1226 1 -29 0 -139 1 -28 0 -160 1 -26 0 -152 1 -25 
0 -146 1 -23 0 -116 1 -22 0 -132 1 -22 0 -125 1 -20 
0 1193 0 -1254 0 1197 1 -28 0 -139 1 -27 0 -159 1 -26 
0 -151 1 -25 0 -121 1 -23 0 -138 1 -23 0 -131 1 -21 
0 -124 1 -21 0 1214 0 -1254 0 1197 1 -28 0 -166 1 -27 
0 -158 1 -25 0 -126 1 -25 0 -144 1 -24 0 -137 1 -22 
0 -130 1 -21 0 -103 1 -21 0 1214 0 -1254 0 1169 1 -28 
0 -165 1 -27 0 -156 1 -26 0 -125 1 -24 0 -144 1 -23 
0 -136 1 -22 0 -108 1 -21 0 -124 1 -20 0 1234 0 -1254 
0 1141 1 -28 0 -164 1 -26 0 -130 1 -26 0 -149 1 -25 
0 -142 1 -23 0 -113 1 -22 0 -129 1 -21 0 -123 1 -20 
0 1254 0 -141 1 -28 5479 1258 100 MP stroke
0 -136 1 -26 0 -156 1 -25 0 -149 1 -24 0 -118 1 -23 
0 -135 1 -22 0 -128 1 -21 0 -122 1 1254 0 -141 1 -28 
0 -162 1 -27 0 -154 1 -26 0 -147 1 -24 0 -117 1 -23 
0 -134 1 -22 0 -127 1 -21 0 -101 1 1254 0 -169 1 -27 
0 -162 1 -26 0 -154 1 -25 0 -122 1 -24 0 -140 1 -23 
0 -133 1 -21 0 -106 1 -21 0 -101 0 1254 1 -29 0 -168 
1 -27 0 -160 1 -26 0 -128 1 -25 0 -146 1 -24 0 -139 
1 -22 0 -132 1 -22 0 -105 1 -20 0 1173 0 -1254 0 1225 
1 -28 0 -167 1 -27 0 -133 1 -26 0 -153 1 -25 0 -145 
1 -23 0 -138 1 -23 0 -110 1 -21 0 -125 1 -21 0 1194 
0 -1254 0 1197 1 -29 0 -138 1 -27 0 -159 1 -26 0 -152 
1 -24 0 -144 1 -24 0 -115 1 -22 0 -131 1 -21 0 -125 
1 -20 0 1214 0 -1254 5433 2343 100 MP stroke
0 1168 1 -28 0 -137 1 -27 0 -158 1 -26 0 -150 1 -25 
0 -120 1 -23 0 -137 1 -22 0 -131 1 -21 0 -123 1 -20 
0 1233 0 -1253 0 1168 1 -28 0 -165 1 -26 0 -157 1 -26 
0 -125 1 -24 0 -143 1 -23 0 -136 1 -23 0 -129 1 -21 
0 -102 1 -20 0 1233 0 -1253 0 1140 1 -28 0 -163 1 -27 
0 -156 1 -25 0 -124 1 -24 0 -143 1 -23 0 -135 1 -22 
0 -107 1 -21 0 -122 1 -20 0 1253 0 -141 1 -28 0 -162 
1 -27 0 -129 1 -25 0 -149 1 -24 0 -141 1 -23 0 -112 
1 -22 0 -128 1 -21 0 -122 1 1254 0 -169 1 -28 0 -135 
1 -26 0 -155 1 -25 0 -147 1 -24 0 -117 1 -23 0 -134 
1 -22 0 -128 1 -20 0 -101 0 1252 1 -29 0 -140 1 -28 
0 -161 1 -26 0 -154 1 -25 0 -146 1 -24 0 -116 1 -23 
0 -133 1 -22 0 -126 5387 2245 100 MP stroke
1 -20 0 -81 0 1249 1 -29 0 -168 1 -27 0 -160 1 -26 
0 -153 1 -24 0 -122 1 -24 0 -139 1 -22 0 -132 1 -22 
0 -104 1 -21 0 1159 0 -1239 0 1211 1 -29 0 -166 1 -27 
0 -158 1 -26 0 -126 1 -25 0 -145 1 -23 0 -138 1 -22 
0 -131 1 -21 0 -104 1 -20 0 1161 0 -1221 0 1164 1 -28 
0 -164 1 -26 0 -131 1 -26 0 -150 1 -24 0 -143 1 -23 
0 -135 1 -22 0 -108 1 -21 0 -123 1 -20 0 1201 0 -1221 
0 1109 1 -28 0 -135 1 -27 0 -155 1 -25 0 -148 1 -24 
0 -141 1 -23 0 -111 1 -22 0 -128 1 -21 0 -121 1 1221 
0 -168 1 -27 0 -133 1 -26 0 -153 1 -25 0 -146 1 -24 
0 -116 1 -22 0 -133 1 -22 0 -125 1 -21 0 1141 0 -1221 
0 1192 1 -28 0 -138 1 -27 0 -158 1 -26 0 -151 1 -25 
0 -120 1 -23 0 -138 5342 2002 100 MP stroke
1 -22 0 -131 1 -21 0 -124 1 -20 0 1181 0 -1221 0 1164 
1 -28 0 -164 1 -26 0 -157 1 -25 0 -125 1 -24 0 -143 
1 -23 0 -135 1 -22 0 -129 1 -21 0 -102 1 -20 0 1201 
0 -1221 0 1109 1 -28 0 -162 1 -26 0 -154 1 -25 0 -123 
1 -24 0 -141 1 -23 0 -133 1 -22 0 -106 1 -21 0 -121 
1 1221 0 -168 1 -27 0 -159 1 -26 0 -127 1 -25 0 -146 
1 -24 0 -138 1 -23 0 -110 1 -22 0 -125 1 -21 0 1141 
0 -1221 0 1192 1 -28 0 -165 1 -27 0 -131 1 -26 0 -151 
1 -25 0 -143 1 -24 0 -136 1 -22 0 -109 1 -21 0 -124 
1 -20 0 1181 0 -1221 0 1136 1 -28 0 -136 1 -26 0 -157 
1 -25 0 -149 1 -24 0 -142 1 -23 0 -112 1 -22 0 -129 
1 -21 0 -122 1 -20 0 1221 0 -113 1 -27 0 -162 1 -26 
0 -154 1 -26 0 -146 5297 1793 100 MP stroke
1 -24 0 -117 1 -23 0 -133 1 -22 0 -127 1 -20 0 -101 
0 1221 1 -29 0 -139 1 -27 0 -159 1 -26 0 -152 1 -25 
0 -121 1 -24 0 -138 1 -23 0 -132 1 -21 0 -125 1 -20 
0 1161 0 -1221 0 1192 1 -28 0 -165 1 -27 0 -157 1 -26 
0 -125 1 -25 0 -144 1 -23 0 -136 1 -23 0 -129 1 -21 
0 -103 1 -20 0 1180 0 -1220 0 1136 1 -28 0 -163 1 -26 
0 -155 1 -26 0 -123 1 -25 0 -141 1 -23 0 -135 1 -22 
0 -106 1 -21 0 -122 1 -20 0 1220 0 -140 1 -27 0 -161 
1 -26 0 -128 1 -25 0 -147 1 -24 0 -139 1 -23 0 -111 
1 -21 0 -127 1 -21 0 -100 0 1220 1 -28 0 -166 1 -27 
0 -133 1 -26 0 -152 1 -25 0 -144 1 -24 0 -115 1 -22 
0 -132 1 -21 0 -125 1 -21 0 1161 0 -1220 0 1163 1 -28 
0 -137 1 -26 0 -158 5252 1546 100 MP stroke
1 -25 0 -150 1 -25 0 -142 1 -24 0 -113 1 -22 0 -130 
1 -21 0 -123 1 -20 0 1201 0 -1221 0 1136 1 -27 0 -163 
1 -27 0 -155 1 -25 0 -148 1 -24 0 -118 1 -23 0 -134 
1 -22 0 -128 1 -21 0 -101 1 -20 0 1221 0 -140 1 -28 
0 -160 1 -26 0 -154 1 -24 0 -122 1 -24 0 -140 1 -22 
0 -133 1 -22 0 -125 1 -21 0 -80 0 1220 1 -28 0 -166 
1 -27 0 -159 1 -26 0 -126 1 -25 0 -144 1 -24 0 -138 
1 -22 0 -131 1 -21 0 -103 1 -21 0 1159 0 -1219 0 1163 
1 -28 0 -164 1 -27 0 -131 1 -25 0 -150 1 -24 0 -143 
1 -23 0 -136 1 -22 0 -108 1 -21 0 -123 1 -20 0 1196 
0 -1215 0 1103 1 -28 0 -162 1 -26 0 -129 1 -25 0 -148 
1 -24 0 -140 1 -23 0 -112 1 -21 0 -128 1 -21 0 -121 
1 1207 0 -167 1 -27 5206 1355 100 MP stroke
0 -133 1 -26 0 -153 1 -25 0 -145 1 -23 0 -116 1 -22 
0 -133 1 -21 0 -125 1 -21 0 1109 0 -1189 0 1160 1 -27 
0 -137 1 -27 0 -157 1 -25 0 -150 1 -24 0 -119 1 -23 
0 -136 1 -22 0 -129 1 -21 0 -123 1 -20 0 1169 0 -1189 
0 1105 1 -28 0 -161 1 -26 0 -154 1 -25 0 -146 1 -24 
0 -116 1 -23 0 -133 1 -22 0 -126 1 -20 0 -101 1 1189 
0 -166 1 -27 0 -158 1 -26 0 -150 1 -25 0 -119 1 -24 
0 -137 1 -22 0 -130 1 -21 0 -104 1 -20 0 1129 0 -1189 
0 1133 1 -28 0 -163 1 -26 0 -155 1 -25 0 -123 1 -24 
0 -141 1 -23 0 -134 1 -22 0 -127 1 -21 0 -101 1 -20 
0 1189 0 -139 1 -27 0 -159 1 -26 0 -127 1 -25 0 -145 
1 -23 0 -138 1 -23 0 -131 1 -21 0 -104 1 -21 0 1109 
0 -1189 0 1160 1 -27 5161 1245 100 MP stroke
0 -164 1 -27 0 -130 1 -25 0 -150 1 -24 0 -142 1 -23 
0 -135 1 -22 0 -107 1 -21 0 -123 1 -20 0 1169 0 -1189 
0 1077 1 -27 0 -160 1 -26 0 -128 1 -25 0 -146 1 -24 
0 -139 1 -22 0 -111 1 -22 0 -126 1 -20 0 -101 0 1189 
1 -29 0 -164 1 -27 0 -131 1 -26 0 -150 1 -25 0 -143 
1 -23 0 -114 1 -22 0 -130 1 -21 0 -124 1 -20 0 1148 
0 -1188 0 1105 1 -28 0 -135 1 -26 0 -155 1 -25 0 -147 
1 -24 0 -140 1 -23 0 -111 1 -22 0 -127 1 -21 0 -121 
1 1188 0 -138 1 -27 0 -159 1 -26 0 -152 1 -24 0 -144 
1 -24 0 -114 1 -23 0 -131 1 -21 0 -125 1 -20 0 1128 
0 -1188 0 1160 1 -28 0 -163 1 -27 0 -155 1 -26 0 -148 
1 -24 0 -118 1 -23 0 -135 1 -22 0 -128 1 -21 0 -102 
1 -20 0 1168 0 -1188 5116 2378 100 MP stroke
0 1077 1 -27 0 -160 1 -26 0 -153 1 -25 0 -121 1 -24 
0 -139 1 -23 0 -132 1 -21 0 -125 1 -21 0 -80 0 1188 
1 -28 0 -164 1 -27 0 -157 1 -25 0 -125 1 -25 0 -143 
1 -23 0 -136 1 -22 0 -130 1 -21 0 -102 1 -20 0 1148 
0 -1188 0 1104 1 -27 0 -161 1 -26 0 -129 1 -25 0 -147 
1 -24 0 -140 1 -23 0 -133 1 -22 0 -105 1 -21 0 -121 
1 1188 0 -166 1 -27 0 -158 1 -25 0 -126 1 -25 0 -144 
1 -23 0 -137 1 -23 0 -108 1 -22 0 -124 1 -20 0 1128 
0 -1188 0 1132 1 -28 0 -162 1 -27 0 -129 1 -25 0 -149 
1 -24 0 -141 1 -23 0 -112 1 -22 0 -128 1 -21 0 -121 
1 -20 0 1188 0 -139 1 -27 0 -133 1 -26 0 -153 1 -24 
0 -145 1 -24 0 -138 1 -23 0 -109 1 -22 0 -125 1 -20 
0 1108 0 -1188 0 1159 5071 1219 100 MP stroke
1 -27 0 -137 1 -27 0 -157 1 -25 0 -150 1 -24 0 -142 
1 -23 0 -113 1 -22 0 -129 1 -21 0 -123 1 -20 0 1168 
0 -1187 0 1104 1 -28 0 -161 1 -26 0 -154 1 -25 0 -146 
1 -24 0 -116 1 -23 0 -133 1 -22 0 -126 1 -20 0 -101 
1 1188 0 -166 1 -27 0 -158 1 -25 0 -151 1 -24 0 -120 
1 -23 0 -138 1 -22 0 -130 1 -21 0 -124 1 -20 0 1147 
0 -1186 0 1130 1 -28 0 -162 1 -27 0 -154 1 -25 0 -124 
1 -24 0 -141 1 -23 0 -134 1 -22 0 -127 1 -20 0 -101 
1 -20 0 1182 0 -138 1 -27 0 -159 1 -26 0 -126 1 -25 
0 -145 1 -24 0 -138 1 -22 0 -131 1 -22 0 -104 1 -20 
0 1094 0 -1174 0 1146 1 -28 0 -162 1 -27 0 -155 1 -25 
0 -124 1 -24 0 -142 1 -23 0 -134 1 -22 0 -107 1 -21 
0 -122 1 -20 0 1136 5025 1240 100 MP stroke
0 -1155 0 1045 1 -27 0 -158 1 -26 0 -126 1 -25 0 -145 
1 -23 0 -138 1 -22 0 -109 1 -22 0 -125 1 -20 0 1076 
0 -1155 0 1127 1 -27 0 -162 1 -26 0 -129 1 -25 0 -148 
1 -24 0 -141 1 -23 0 -133 1 -22 0 -106 1 -21 0 -121 
1 -19 0 1155 0 -137 1 -27 0 -131 1 -26 0 -151 1 -25 
0 -143 1 -24 0 -136 1 -22 0 -109 1 -21 0 -124 1 -20 
0 1096 0 -1155 0 1100 1 -28 0 -134 1 -26 0 -154 1 -25 
0 -147 1 -24 0 -140 1 -22 0 -111 1 -22 0 -127 1 -20 
0 -120 1 1155 0 -164 1 -26 0 -131 1 -26 0 -150 1 -24 
0 -143 1 -23 0 -113 1 -22 0 -130 1 -21 0 -123 1 -20 
0 1116 0 -1155 0 1072 1 -27 0 -133 1 -26 0 -153 1 -25 
0 -146 1 -24 0 -116 1 -22 0 -133 1 -21 0 -126 1 -21 
0 -99 0 1155 1 -28 4980 1268 100 MP stroke
0 -136 1 -26 0 -157 1 -25 0 -149 1 -24 0 -119 1 -23 
0 -135 1 -22 0 -129 1 -21 0 -122 1 -20 0 1136 0 -1155 
0 1072 1 -27 0 -159 1 -26 0 -152 1 -25 0 -145 1 -23 
0 -115 1 -23 0 -131 1 -22 0 -125 1 -20 0 -79 0 1155 
1 -28 0 -162 1 -27 0 -155 1 -25 0 -148 1 -24 0 -118 
1 -23 0 -134 1 -22 0 -128 1 -21 0 -101 1 -20 0 1136 
0 -1155 0 1045 1 -27 0 -158 1 -26 0 -151 1 -25 0 -120 
1 -23 0 -138 1 -22 0 -131 1 -21 0 -124 1 -20 0 1096 
0 -1155 0 1127 1 -27 0 -162 1 -26 0 -155 1 -25 0 -122 
1 -24 0 -141 1 -23 0 -133 1 -22 0 -127 1 -20 0 -101 
1 -19 0 1155 0 -137 1 -27 0 -157 1 -26 0 -125 1 -25 
0 -143 1 -24 0 -136 1 -23 0 -129 1 -21 0 -103 1 -20 
0 1096 0 -1156 0 1100 4936 1296 100 MP stroke
1 -27 0 -161 1 -26 0 -153 1 -25 0 -122 1 -23 0 -140 
1 -23 0 -132 1 -22 0 -105 1 -20 0 -121 1 1156 0 -164 
1 -27 0 -156 1 -26 0 -124 1 -24 0 -143 1 -23 0 -136 
1 -22 0 -107 1 -21 0 -123 1 -20 0 1115 0 -1155 0 1073 
1 -28 0 -159 1 -26 0 -127 1 -25 0 -146 1 -23 0 -139 
1 -22 0 -132 1 -21 0 -105 1 -20 0 -100 0 1155 1 -27 
0 -163 1 -27 0 -130 1 -25 0 -149 1 -24 0 -141 1 -23 
0 -135 1 -22 0 -107 1 -21 0 -122 1 -19 0 1135 0 -1155 
0 1045 1 -27 0 -132 1 -26 0 -152 1 -25 0 -145 1 -23 
0 -138 1 -22 0 -109 1 -22 0 -124 1 -21 0 1076 0 -1155 
0 1127 1 -27 0 -136 1 -26 0 -155 1 -25 0 -148 1 -24 
0 -141 1 -23 0 -111 1 -22 0 -128 1 -21 0 -121 1 -19 
0 1154 0 -137 1 -27 4890 1406 100 MP stroke
0 -131 1 -26 0 -151 1 -24 0 -144 1 -23 0 -115 1 -22 
0 -131 1 -21 0 -124 1 -20 0 1094 0 -1153 0 1098 1 -27 
0 -135 1 -26 0 -154 1 -25 0 -147 1 -24 0 -116 1 -23 
0 -134 1 -22 0 -126 1 -21 0 -120 1 1150 0 -137 1 -27 
0 -157 1 -26 0 -150 1 -24 0 -142 1 -23 0 -114 1 -22 
0 -129 1 -21 0 -123 1 -20 0 1102 0 -1142 0 1086 1 -27 
0 -160 1 -26 0 -152 1 -25 0 -145 1 -24 0 -115 1 -23 
0 -132 1 -21 0 -126 1 -20 0 -99 1 1123 0 -162 1 -27 
0 -154 1 -25 0 -148 1 -24 0 -117 1 -23 0 -134 1 -21 
0 -128 1 -20 0 -121 1 -19 0 1123 0 -109 1 -27 0 -157 
1 -25 0 -149 1 -25 0 -118 1 -24 0 -136 1 -22 0 -129 
1 -21 0 -122 1 -20 0 1084 0 -1123 0 1068 1 -27 0 -159 
1 -26 0 -151 1 -25 4844 1733 100 MP stroke
0 -120 1 -24 0 -138 1 -22 0 -131 1 -22 0 -124 1 -20 
0 -79 0 1123 1 -28 0 -161 1 -26 0 -153 1 -25 0 -123 
1 -24 0 -140 1 -22 0 -133 1 -22 0 -126 1 -21 0 -100 
1 -19 0 1123 0 -136 1 -26 0 -156 1 -25 0 -149 1 -24 
0 -118 1 -23 0 -135 1 -22 0 -128 1 -21 0 -101 1 -20 
0 1084 0 -1123 0 1041 1 -27 0 -158 1 -26 0 -150 1 -24 
0 -120 1 -23 0 -137 1 -23 0 -130 1 -21 0 -103 1 -20 
0 1044 0 -1123 0 1095 1 -27 0 -160 1 -26 0 -152 1 -25 
0 -122 1 -23 0 -139 1 -23 0 -132 1 -21 0 -126 1 -20 
0 -99 1 1123 0 -162 1 -27 0 -154 1 -26 0 -123 1 -24 
0 -141 1 -23 0 -134 1 -21 0 -128 1 -20 0 -101 1 -20 
0 1104 0 -1123 0 1014 1 -27 0 -157 1 -25 0 -125 1 -24 
0 -143 1 -24 0 -136 4799 2060 100 MP stroke
1 -22 0 -129 1 -21 0 -102 1 -20 0 1064 0 -1124 0 1069 
1 -27 0 -159 1 -26 0 -151 1 -25 0 -120 1 -24 0 -138 
1 -22 0 -132 1 -21 0 -104 1 -20 0 -100 0 1124 1 -28 
0 -161 1 -26 0 -154 1 -25 0 -122 1 -24 0 -140 1 -23 
0 -133 1 -21 0 -106 1 -20 0 -121 1 -20 0 1124 0 -136 
1 -27 0 -155 1 -26 0 -124 1 -24 0 -142 1 -23 0 -135 
1 -22 0 -128 1 -21 0 -102 1 -19 0 1084 0 -1124 0 1042 
1 -27 0 -158 1 -26 0 -126 1 -24 0 -144 1 -24 0 -137 
1 -22 0 -130 1 -21 0 -103 1 -21 0 1044 0 -1123 0 1096 
1 -27 0 -160 1 -27 0 -127 1 -25 0 -146 1 -24 0 -139 
1 -22 0 -132 1 -22 0 -105 1 -20 0 -120 1 1123 0 -162 
1 -26 0 -130 1 -25 0 -148 1 -24 0 -141 1 -23 0 -134 
1 -22 0 -106 1 -21 4753 2253 100 MP stroke
0 -122 1 -19 0 1103 0 -1123 0 1014 1 -27 0 -156 1 -26 
0 -125 1 -24 0 -143 1 -23 0 -136 1 -22 0 -108 1 -22 
0 -123 1 -20 0 1064 0 -1123 0 1068 1 -27 0 -159 1 -26 
0 -126 1 -25 0 -145 1 -24 0 -138 1 -22 0 -110 1 -21 
0 -126 1 -20 0 -99 0 1123 1 -28 0 -161 1 -26 0 -128 
1 -26 0 -147 1 -24 0 -140 1 -23 0 -133 1 -21 0 -106 
1 -20 0 -121 1 -20 0 1123 0 -136 1 -26 0 -130 1 -26 
0 -149 1 -24 0 -142 1 -24 0 -135 1 -22 0 -107 1 -21 
0 -122 1 -20 0 1082 0 -1121 0 1039 1 -27 0 -132 1 -26 
0 -151 1 -25 0 -144 1 -23 0 -137 1 -23 0 -108 1 -22 
0 -124 1 -20 0 1038 0 -1117 0 1090 1 -27 0 -160 1 -26 
0 -128 1 -25 0 -146 1 -23 0 -139 1 -23 0 -110 1 -22 
0 -126 1 -20 0 -120 4709 2422 100 MP stroke
1 1109 0 -162 1 -26 0 -129 1 -25 0 -148 1 -24 0 -140 
1 -23 0 -111 1 -22 0 -128 1 -21 0 -121 1 -19 0 1072 
0 -1092 0 984 1 -27 0 -129 1 -26 0 -148 1 -25 0 -141 
1 -23 0 -112 1 -22 0 -129 1 -21 0 -122 1 -20 0 1053 
0 -1092 0 1011 1 -27 0 -131 1 -25 0 -150 1 -24 0 -143 
1 -23 0 -135 1 -22 0 -108 1 -21 0 -123 1 -20 0 1033 
0 -1092 0 1037 1 -26 0 -132 1 -26 0 -150 1 -25 0 -144 
1 -23 0 -136 1 -22 0 -109 1 -21 0 -124 1 -20 0 1013 
0 -1092 0 1065 1 -28 0 -132 1 -26 0 -152 1 -24 0 -145 
1 -24 0 -137 1 -22 0 -110 1 -21 0 -125 1 -20 0 -99 
0 1092 1 -27 0 -160 1 -26 0 -127 1 -25 0 -145 1 -24 
0 -139 1 -22 0 -110 1 -22 0 -125 1 -21 0 -119 1 1092 
0 -161 1 -26 0 -128 4664 1655 100 MP stroke
1 -25 0 -147 1 -23 0 -140 1 -23 0 -110 1 -22 0 -127 
1 -20 0 -120 1 -20 0 1092 0 -135 1 -26 0 -129 1 -25 
0 -148 1 -24 0 -140 1 -23 0 -133 1 -22 0 -106 1 -21 
0 -121 1 -19 0 1072 0 -1092 0 984 1 -27 0 -129 1 -26 
0 -148 1 -25 0 -141 1 -23 0 -135 1 -21 0 -107 1 -21 
0 -122 1 -20 0 1053 0 -1092 0 1011 1 -27 0 -131 1 -25 
0 -150 1 -24 0 -143 1 -23 0 -136 1 -22 0 -107 1 -21 
0 -123 1 -20 0 1033 0 -1092 0 1037 1 -26 0 -158 1 -25 
0 -126 1 -24 0 -144 1 -23 0 -136 1 -23 0 -108 1 -21 
0 -124 1 -20 0 1013 0 -1092 0 1064 1 -27 0 -158 1 -26 
0 -126 1 -25 0 -144 1 -24 0 -137 1 -22 0 -110 1 -21 
0 -125 1 -20 0 -99 0 1091 1 -27 0 -159 1 -26 0 -127 
1 -25 0 -146 1 -23 4619 1874 100 MP stroke
0 -139 1 -22 0 -110 1 -22 0 -125 1 -21 0 -119 1 1091 
0 -160 1 -26 0 -128 1 -25 0 -147 1 -24 0 -139 1 -23 
0 -132 1 -22 0 -105 1 -21 0 -120 1 -19 0 1091 0 -134 
1 -26 0 -129 1 -25 0 -148 1 -24 0 -141 1 -22 0 -134 
1 -21 0 -106 1 -21 0 -121 1 -20 0 1072 0 -1091 0 983 
1 -26 0 -130 1 -25 0 -149 1 -24 0 -142 1 -23 0 -134 
1 -22 0 -107 1 -21 0 -121 1 -20 0 1052 0 -1091 0 1010 
1 -27 0 -156 1 -25 0 -125 1 -24 0 -143 1 -23 0 -135 
1 -22 0 -108 1 -21 0 -123 1 -20 0 1033 0 -1091 0 1036 
1 -26 0 -158 1 -25 0 -125 1 -25 0 -143 1 -24 0 -136 
1 -22 0 -109 1 -21 0 -124 1 -20 0 1012 0 -1091 0 1064 
1 -27 0 -158 1 -26 0 -126 1 -25 0 -144 1 -24 0 -137 
1 -22 0 -131 1 -21 4574 2210 100 MP stroke
0 -104 1 -20 0 -99 0 1091 1 -27 0 -160 1 -26 0 -127 
1 -25 0 -145 1 -24 0 -138 1 -23 0 -131 1 -22 0 -104 
1 -21 0 -119 1 1090 0 -161 1 -26 0 -128 1 -25 0 -147 
1 -23 0 -140 1 -23 0 -132 1 -22 0 -105 1 -20 0 -120 
1 -20 0 1086 0 -134 1 -27 0 -128 1 -25 0 -148 1 -24 
0 -140 1 -23 0 -133 1 -22 0 -106 1 -21 0 -120 1 -20 
0 1058 0 -1078 0 970 1 -26 0 -155 1 -25 0 -123 1 -24 
0 -141 1 -23 0 -134 1 -21 0 -107 1 -20 0 -122 1 -20 
0 1022 0 -1060 0 979 1 -26 0 -155 1 -25 0 -123 1 -24 
0 -141 1 -23 0 -134 1 -21 0 -107 1 -20 0 -122 1 -20 
0 1022 0 -1060 0 979 1 -26 0 -155 1 -25 0 -123 1 -24 
0 -141 1 -23 0 -134 1 -21 0 -127 1 -21 0 -101 1 -20 
0 1022 0 -1060 0 979 4530 1471 100 MP stroke
1 -26 0 -155 1 -25 0 -123 1 -24 0 -141 1 -23 0 -134 
1 -21 0 -127 1 -21 0 -101 1 -20 0 1022 0 -1060 0 979 
1 -26 0 -155 1 -25 0 -123 1 -24 0 -141 1 -23 0 -134 
1 -21 0 -127 1 -21 0 -101 1 -20 0 1022 0 -1060 0 979 
1 -26 0 -155 1 -25 0 -147 1 -24 0 -117 1 -23 0 -134 
1 -21 0 -127 1 -21 0 -101 1 -20 0 1022 0 -1060 0 979 
1 -26 0 -155 1 -25 0 -147 1 -24 0 -117 1 -23 0 -134 
1 -21 0 -127 1 -21 0 -101 1 -20 0 1021 0 -1059 0 979 
1 -26 0 -155 1 -25 0 -147 1 -24 0 -117 1 -23 0 -134 
1 -21 0 -127 1 -21 0 -121 1 -19 0 1040 0 -1059 0 979 
1 -26 0 -155 1 -25 0 -147 1 -24 0 -117 1 -23 0 -134 
1 -21 0 -127 1 -21 0 -121 1 -19 0 1040 0 -1059 0 979 
1 -26 0 -155 1 -25 4486 1677 100 MP stroke
0 -147 1 -24 0 -117 1 -23 0 -134 1 -21 0 -127 1 -21 
0 -121 1 -19 0 1040 0 -1059 0 979 1 -26 0 -155 1 -25 
0 -147 1 -24 0 -117 1 -23 0 -134 1 -21 0 -127 1 -21 
0 -121 1 -19 0 1040 0 -1060 0 980 1 -26 0 -155 1 -25 
0 -147 1 -24 0 -140 1 -23 0 -111 1 -21 0 -128 1 -20 
0 -121 1 -19 0 1040 0 -1060 0 980 1 -26 0 -155 1 -25 
0 -147 1 -24 0 -140 1 -23 0 -111 1 -22 0 -127 1 -20 
0 -121 1 -19 0 1040 0 -1060 0 980 1 -27 0 -154 1 -25 
0 -147 1 -24 0 -140 1 -23 0 -111 1 -22 0 -127 1 -20 
0 -121 1 -19 0 1040 0 -1060 0 953 1 -26 0 -128 1 -25 
0 -147 1 -24 0 -140 1 -23 0 -111 1 -22 0 -127 1 -20 
0 -121 1 -19 0 1040 0 -1060 0 953 1 -26 0 -128 1 -25 
0 -148 1 -23 0 -140 4443 1988 100 MP stroke
1 -23 0 -111 1 -22 0 -127 1 -21 0 -120 1 -20 0 1041 
0 -1060 0 953 1 -26 0 -128 1 -26 0 -147 1 -24 0 -139 
1 -23 0 -133 1 -22 0 -105 1 -21 0 -120 1 -20 0 1040 
0 -1059 0 953 1 -26 0 -129 1 -25 0 -147 1 -24 0 -140 
1 -22 0 -133 1 -22 0 -105 1 -21 0 -120 1 -20 0 1040 
0 -1059 0 953 1 -27 0 -128 1 -25 0 -147 1 -24 0 -140 
1 -23 0 -132 1 -22 0 -106 1 -20 0 -121 1 -19 0 1040 
0 -1060 0 953 1 -26 0 -129 1 -25 0 -147 1 -24 0 -140 
1 -22 0 -133 1 -22 0 -105 1 -21 0 -121 1 -19 0 1038 
0 -1057 0 951 1 -27 0 -153 1 -25 0 -122 1 -24 0 -140 
1 -23 0 -132 1 -22 0 -106 1 -20 0 -121 1 -19 0 1034 
0 -1054 0 948 1 -26 0 -154 1 -24 0 -122 1 -24 0 -140 
1 -23 0 -133 1 -21 4399 2174 100 MP stroke
0 -105 1 -21 0 -120 1 -20 0 1026 0 -1045 0 939 1 -26 
0 -153 1 -25 0 -121 1 -24 0 -140 1 -22 0 -133 1 -21 
0 -126 1 -20 0 -100 1 -19 0 1009 0 -1028 0 923 1 -26 
0 -152 1 -24 0 -121 1 -24 0 -138 1 -23 0 -131 1 -21 
0 -125 1 -20 0 -99 1 -19 0 1028 0 -131 1 -26 0 -150 
1 -25 0 -120 1 -23 0 -138 1 -22 0 -130 1 -22 0 -123 
1 -20 0 -98 1 1028 0 -157 1 -25 0 -150 1 -24 0 -143 
1 -23 0 -113 1 -22 0 -130 1 -21 0 -122 1 -20 0 -78 
0 1028 1 -26 0 -156 1 -26 0 -148 1 -24 0 -142 1 -23 
0 -112 1 -22 0 -129 1 -20 0 -122 1 -20 0 970 0 -1028 
0 1002 1 -27 0 -155 1 -25 0 -147 1 -24 0 -141 1 -23 
0 -111 1 -22 0 -127 1 -21 0 -121 1 -20 0 990 0 -1028 
0 949 1 -26 0 -128 4355 1674 100 MP stroke
1 -25 0 -146 1 -24 0 -140 1 -22 0 -111 1 -22 0 -126 
1 -21 0 -120 1 -19 0 1009 0 -1028 0 923 1 -26 0 -127 
1 -25 0 -145 1 -24 0 -138 1 -23 0 -110 1 -21 0 -126 
1 -20 0 -119 1 -19 0 1028 0 -131 1 -26 0 -126 1 -24 
0 -145 1 -23 0 -138 1 -22 0 -109 1 -21 0 -125 1 -20 
0 -118 1 1028 0 -157 1 -25 0 -126 1 -24 0 -143 1 -24 
0 -136 1 -22 0 -130 1 -21 0 -102 1 -20 0 -98 0 1028 
1 -26 0 -156 1 -26 0 -124 1 -24 0 -143 1 -23 0 -135 
1 -22 0 -129 1 -20 0 -102 1 -20 0 950 0 -1028 0 1002 
1 -27 0 -155 1 -25 0 -123 1 -25 0 -141 1 -23 0 -134 
1 -22 0 -127 1 -21 0 -101 1 -20 0 970 0 -1028 0 975 
1 -26 0 -154 1 -25 0 -147 1 -23 0 -117 1 -23 0 -133 
1 -22 0 -126 1 -21 4309 2311 100 MP stroke
0 -100 1 -20 0 990 0 -1028 0 949 1 -26 0 -153 1 -25 
0 -146 1 -23 0 -116 1 -22 0 -133 1 -21 0 -126 1 -20 
0 -100 1 -19 0 1009 0 -1029 0 923 1 -26 0 -151 1 -25 
0 -144 1 -24 0 -115 1 -22 0 -131 1 -22 0 -124 1 -21 
0 -118 1 1029 0 -132 1 -25 0 -151 1 -25 0 -143 1 -23 
0 -114 1 -22 0 -131 1 -21 0 -124 1 -20 0 -98 0 1029 
1 -27 0 -131 1 -25 0 -150 1 -24 0 -142 1 -23 0 -114 
1 -22 0 -129 1 -21 0 -123 1 -20 0 950 0 -1028 0 1002 
1 -27 0 -129 1 -26 0 -148 1 -24 0 -142 1 -23 0 -112 
1 -22 0 -128 1 -21 0 -122 1 -20 0 970 0 -1028 0 975 
1 -26 0 -129 1 -25 0 -147 1 -24 0 -141 1 -22 0 -134 
1 -21 0 -106 1 -21 0 -121 1 -19 0 989 0 -1028 0 949 
1 -26 0 -128 1 -25 4265 1700 100 MP stroke
0 -147 1 -23 0 -140 1 -22 0 -133 1 -21 0 -105 1 -21 
0 -120 1 -19 0 1008 0 -1028 0 923 1 -26 0 -127 1 -25 
0 -145 1 -24 0 -138 1 -23 0 -131 1 -21 0 -105 1 -20 
0 -119 1 -19 0 1026 0 -131 1 -26 0 -151 1 -24 0 -120 
1 -24 0 -137 1 -22 0 -131 1 -21 0 -103 1 -21 0 -118 
1 1023 0 -157 1 -26 0 -149 1 -24 0 -119 1 -23 0 -137 
1 -22 0 -129 1 -21 0 -103 1 -20 0 -97 0 1014 1 -27 
0 -155 1 -26 0 -147 1 -25 0 -117 1 -23 0 -135 1 -22 
0 -128 1 -20 0 -122 1 -19 0 939 0 -998 0 972 1 -26 
0 -154 1 -25 0 -145 1 -24 0 -116 1 -23 0 -133 1 -21 
0 -126 1 -21 0 -119 1 -19 0 978 0 -998 0 920 1 -26 
0 -151 1 -25 0 -144 1 -23 0 -114 1 -23 0 -130 1 -22 
0 -124 1 -20 0 -118 4220 2489 100 MP stroke
1 998 0 -130 1 -25 0 -149 1 -24 0 -142 1 -23 0 -135 
1 -22 0 -107 1 -21 0 -122 1 -20 0 920 0 -998 0 972 
1 -26 0 -129 1 -25 0 -147 1 -23 0 -140 1 -23 0 -133 
1 -21 0 -105 1 -21 0 -120 1 -20 0 959 0 -998 0 920 
1 -26 0 -127 1 -24 0 -145 1 -24 0 -137 1 -23 0 -130 
1 -22 0 -104 1 -20 0 -118 1 -20 0 998 0 -130 1 -25 
0 -125 1 -24 0 -143 1 -23 0 -136 1 -22 0 -129 1 -21 
0 -102 1 -20 0 -98 0 998 1 -26 0 -155 1 -25 0 -147 
1 -23 0 -117 1 -23 0 -134 1 -22 0 -126 1 -21 0 -101 
1 -19 0 939 0 -998 0 946 1 -26 0 -153 1 -24 0 -145 
1 -24 0 -115 1 -22 0 -132 1 -22 0 -125 1 -20 0 -99 
1 -19 0 978 0 -998 0 894 1 -26 0 -150 1 -24 0 -143 
1 -23 0 -114 1 -22 4175 2097 100 MP stroke
0 -130 1 -21 0 -123 1 -20 0 -98 0 998 1 -26 0 -129 
1 -26 0 -148 1 -24 0 -140 1 -23 0 -112 1 -22 0 -128 
1 -21 0 -121 1 -20 0 940 0 -998 0 945 1 -26 0 -127 
1 -25 0 -146 1 -23 0 -139 1 -23 0 -110 1 -21 0 -126 
1 -21 0 -119 1 -19 0 978 0 -998 0 893 1 -25 0 -126 
1 -24 0 -144 1 -23 0 -137 1 -22 0 -130 1 -21 0 -103 
1 -20 0 -118 1 998 0 -156 1 -25 0 -124 1 -24 0 -142 
1 -23 0 -134 1 -22 0 -128 1 -21 0 -101 1 -20 0 919 
0 -997 0 971 1 -26 0 -153 1 -25 0 -122 1 -24 0 -140 
1 -22 0 -133 1 -22 0 -126 1 -20 0 -100 1 -19 0 958 
0 -997 0 919 1 -26 0 -151 1 -25 0 -120 1 -23 0 -138 
1 -22 0 -131 1 -21 0 -124 1 -21 0 -98 1 -19 0 997 
0 -130 1 -25 0 -149 4131 1796 100 MP stroke
1 -24 0 -142 1 -23 0 -113 1 -22 0 -129 1 -20 0 -123 
1 -19 0 -78 0 997 1 -26 0 -155 1 -25 0 -146 1 -24 
0 -140 1 -23 0 -111 1 -21 0 -127 1 -21 0 -120 1 -20 
0 959 0 -997 0 944 1 -26 0 -152 1 -25 0 -144 1 -24 
0 -138 1 -22 0 -109 1 -22 0 -125 1 -20 0 -119 1 -19 
0 997 0 -130 1 -25 0 -125 1 -24 0 -143 1 -23 0 -136 
1 -22 0 -108 1 -21 0 -123 1 -20 0 -98 0 996 1 -27 
0 -154 1 -25 0 -123 1 -24 0 -141 1 -23 0 -133 1 -22 
0 -106 1 -21 0 -121 1 -20 0 933 0 -991 0 939 1 -26 
0 -152 1 -25 0 -121 1 -23 0 -139 1 -22 0 -132 1 -21 
0 -125 1 -20 0 -99 1 -20 0 964 0 -983 0 879 1 -25 
0 -150 1 -24 0 -119 1 -23 0 -136 1 -22 0 -129 1 -21 
0 -123 1 -20 0 -97 4086 2508 100 MP stroke
1 967 0 -154 1 -25 0 -146 1 -24 0 -116 1 -23 0 -133 
1 -22 0 -126 1 -20 0 -120 1 -20 0 929 0 -967 0 915 
1 -26 0 -150 1 -25 0 -143 1 -23 0 -136 1 -22 0 -108 
1 -21 0 -124 1 -20 0 -117 1 967 0 -129 1 -25 0 -147 
1 -24 0 -140 1 -23 0 -133 1 -22 0 -105 1 -21 0 -121 
1 -19 0 909 0 -967 0 915 1 -26 0 -125 1 -25 0 -144 
1 -24 0 -137 1 -22 0 -130 1 -21 0 -104 1 -20 0 -118 
1 -19 0 967 0 -129 1 -25 0 -123 1 -24 0 -141 1 -23 
0 -134 1 -22 0 -127 1 -21 0 -101 1 -20 0 890 0 -967 
0 941 1 -26 0 -151 1 -25 0 -144 1 -24 0 -114 1 -23 
0 -131 1 -21 0 -125 1 -20 0 -99 1 -19 0 948 0 -967 
0 864 1 -26 0 -148 1 -24 0 -141 1 -23 0 -112 1 -22 
0 -128 1 -21 0 -122 4041 2411 100 MP stroke
1 -20 0 -77 0 967 1 -26 0 -153 1 -25 0 -145 1 -23 
0 -138 1 -23 0 -110 1 -21 0 -125 1 -21 0 -119 1 -19 
0 948 0 -967 0 864 1 -26 0 -124 1 -24 0 -142 1 -23 
0 -135 1 -22 0 -107 1 -21 0 -123 1 -20 0 -97 0 967 
1 -26 0 -153 1 -25 0 -121 1 -24 0 -139 1 -22 0 -133 
1 -21 0 -105 1 -20 0 -120 1 -20 0 929 0 -967 0 889 
1 -25 0 -150 1 -24 0 -119 1 -23 0 -136 1 -22 0 -130 
1 -21 0 -122 1 -20 0 -97 1 967 0 -154 1 -25 0 -146 
1 -24 0 -116 1 -23 0 -133 1 -22 0 -126 1 -21 0 -119 
1 -20 0 929 0 -967 0 915 1 -26 0 -150 1 -25 0 -143 
1 -23 0 -114 1 -22 0 -131 1 -21 0 -123 1 -20 0 -117 
1 966 0 -128 1 -25 0 -147 1 -24 0 -140 1 -23 0 -112 
1 -21 0 -128 1 -20 3995 2310 100 MP stroke
0 -121 1 -20 0 909 0 -966 0 914 1 -25 0 -126 1 -25 
0 -144 1 -23 0 -137 1 -23 0 -130 1 -21 0 -103 1 -20 
0 -118 1 -19 0 966 0 -128 1 -25 0 -124 1 -24 0 -141 
1 -23 0 -134 1 -22 0 -127 1 -21 0 -100 1 -20 0 889 
0 -967 0 941 1 -26 0 -151 1 -25 0 -121 1 -23 0 -138 
1 -23 0 -131 1 -21 0 -124 1 -21 0 -98 1 -20 0 948 
0 -967 0 864 1 -26 0 -148 1 -24 0 -141 1 -23 0 -112 
1 -22 0 -128 1 -21 0 -122 1 -20 0 -77 0 967 1 -26 
0 -153 1 -25 0 -145 1 -24 0 -138 1 -22 0 -110 1 -21 
0 -126 1 -20 0 -119 1 -19 0 947 0 -966 0 888 1 -25 
0 -150 1 -24 0 -142 1 -23 0 -135 1 -22 0 -108 1 -21 
0 -122 1 -20 0 -97 0 964 1 -26 0 -152 1 -25 0 -122 
1 -23 0 -140 1 -22 3951 2056 100 MP stroke
0 -132 1 -22 0 -105 1 -20 0 -120 1 -19 0 922 0 -961 
0 883 1 -25 0 -149 1 -24 0 -119 1 -23 0 -136 1 -22 
0 -129 1 -21 0 -103 1 -20 0 -117 1 953 0 -153 1 -25 
0 -146 1 -23 0 -116 1 -23 0 -132 1 -22 0 -126 1 -20 
0 -119 1 -20 0 899 0 -937 0 885 1 -25 0 -149 1 -24 
0 -141 1 -23 0 -113 1 -22 0 -128 1 -21 0 -122 1 -20 
0 -97 0 937 1 -26 0 -126 1 -25 0 -144 1 -24 0 -137 
1 -23 0 -109 1 -21 0 -125 1 -20 0 -119 1 -19 0 918 
0 -937 0 835 1 -25 0 -123 1 -24 0 -140 1 -23 0 -134 
1 -21 0 -106 1 -21 0 -121 1 -20 0 860 0 -937 0 911 
1 -26 0 -149 1 -25 0 -119 1 -23 0 -137 1 -22 0 -129 
1 -21 0 -123 1 -20 0 -98 1 -19 0 937 0 -127 1 -25 
0 -146 1 -23 0 -116 3907 2028 100 MP stroke
1 -23 0 -132 1 -22 0 -126 1 -20 0 -119 1 -20 0 899 
0 -937 0 885 1 -25 0 -149 1 -24 0 -141 1 -23 0 -113 
1 -22 0 -128 1 -21 0 -122 1 -20 0 -97 0 937 1 -26 
0 -126 1 -25 0 -144 1 -24 0 -137 1 -23 0 -130 1 -21 
0 -104 1 -20 0 -119 1 -19 0 918 0 -937 0 835 1 -25 
0 -123 1 -24 0 -140 1 -23 0 -134 1 -21 0 -127 1 -21 
0 -100 1 -20 0 860 0 -937 0 911 1 -26 0 -149 1 -25 
0 -119 1 -23 0 -137 1 -22 0 -129 1 -22 0 -122 1 -20 
0 -98 1 -19 0 937 0 -127 1 -25 0 -146 1 -23 0 -139 
1 -22 0 -110 1 -22 0 -126 1 -20 0 -119 1 -20 0 899 
0 -937 0 885 1 -25 0 -149 1 -24 0 -142 1 -23 0 -134 
1 -22 0 -107 1 -20 0 -122 1 -20 0 -97 0 937 1 -26 
0 -126 1 -25 0 -145 3863 1913 100 MP stroke
1 -23 0 -138 1 -22 0 -130 1 -22 0 -103 1 -20 0 -119 
1 -19 0 917 0 -936 0 834 1 -25 0 -122 1 -24 0 -141 
1 -23 0 -133 1 -22 0 -126 1 -21 0 -100 1 -20 0 859 
0 -936 0 910 1 -25 0 -150 1 -24 0 -143 1 -23 0 -113 
1 -22 0 -130 1 -21 0 -123 1 -20 0 -97 1 -19 0 936 
0 -127 1 -25 0 -145 1 -24 0 -138 1 -23 0 -110 1 -21 
0 -126 1 -21 0 -119 1 -19 0 898 0 -936 0 885 1 -26 
0 -148 1 -25 0 -141 1 -23 0 -135 1 -21 0 -107 1 -21 
0 -122 1 -20 0 -96 0 936 1 -26 0 -151 1 -24 0 -120 
1 -24 0 -137 1 -23 0 -130 1 -21 0 -104 1 -20 0 -118 
1 -19 0 917 0 -937 0 835 1 -25 0 -147 1 -24 0 -116 
1 -23 0 -134 1 -21 0 -127 1 -21 0 -100 1 -20 0 859 
0 -936 0 911 1 -26 3819 1644 100 MP stroke
0 -150 1 -24 0 -143 1 -23 0 -113 1 -22 0 -130 1 -21 
0 -123 1 -20 0 -116 1 935 0 -127 1 -25 0 -145 1 -24 
0 -138 1 -23 0 -110 1 -21 0 -126 1 -20 0 -120 1 -19 
0 896 0 -934 0 857 1 -25 0 -124 1 -24 0 -141 1 -23 
0 -135 1 -22 0 -106 1 -21 0 -122 1 -20 0 -97 0 931 
1 -26 0 -151 1 -24 0 -120 1 -24 0 -137 1 -22 0 -131 
1 -21 0 -123 1 -20 0 -99 1 -19 0 903 0 -922 0 821 
1 -25 0 -146 1 -24 0 -116 1 -23 0 -133 1 -21 0 -126 
1 -21 0 -119 1 -20 0 850 0 -907 0 881 1 -25 0 -148 
1 -24 0 -141 1 -23 0 -112 1 -22 0 -128 1 -21 0 -121 
1 -20 0 -96 0 907 1 -26 0 -125 1 -24 0 -143 1 -23 
0 -136 1 -22 0 -108 1 -21 0 -123 1 -20 0 -117 1 -19 
0 907 0 -126 1 -25 3774 1792 100 MP stroke
0 -120 1 -23 0 -138 1 -23 0 -131 1 -21 0 -124 1 -20 
0 -99 1 -19 0 869 0 -907 0 831 1 -25 0 -146 1 -24 
0 -116 1 -23 0 -133 1 -21 0 -126 1 -21 0 -119 1 -20 
0 850 0 -907 0 881 1 -25 0 -148 1 -24 0 -141 1 -23 
0 -112 1 -22 0 -128 1 -21 0 -121 1 -20 0 -96 0 907 
1 -26 0 -125 1 -24 0 -143 1 -23 0 -136 1 -22 0 -129 
1 -21 0 -102 1 -20 0 -117 1 -19 0 907 0 -126 1 -25 
0 -120 1 -23 0 -138 1 -23 0 -131 1 -21 0 -124 1 -20 
0 -99 1 -19 0 869 0 -907 0 831 1 -25 0 -146 1 -24 
0 -116 1 -23 0 -133 1 -21 0 -126 1 -21 0 -119 1 -20 
0 850 0 -907 0 881 1 -25 0 -148 1 -24 0 -141 1 -23 
0 -134 1 -22 0 -106 1 -21 0 -121 1 -20 0 -96 0 906 
1 -25 0 -125 1 -24 3730 1816 100 MP stroke
0 -143 1 -23 0 -136 1 -22 0 -129 1 -21 0 -102 1 -20 
0 -117 1 -19 0 906 0 -125 1 -25 0 -120 1 -24 0 -137 
1 -23 0 -131 1 -21 0 -124 1 -20 0 -99 1 -19 0 868 
0 -906 0 830 1 -24 0 -146 1 -24 0 -116 1 -23 0 -133 
1 -21 0 -126 1 -21 0 -119 1 -20 0 849 0 -906 0 881 
1 -26 0 -148 1 -24 0 -140 1 -23 0 -134 1 -22 0 -106 
1 -21 0 -121 1 -20 0 -96 0 906 1 -25 0 -125 1 -25 
0 -142 1 -24 0 -135 1 -22 0 -129 1 -21 0 -103 1 -20 
0 -116 1 -19 0 906 0 -126 1 -24 0 -121 1 -23 0 -138 
1 -22 0 -131 1 -21 0 -125 1 -20 0 -98 1 -19 0 868 
0 -906 0 830 1 -25 0 -146 1 -24 0 -138 1 -23 0 -110 
1 -22 0 -126 1 -20 0 -120 1 -19 0 849 0 -906 0 880 
1 -25 0 -148 1 -24 3686 1865 100 MP stroke
0 -141 1 -23 0 -134 1 -21 0 -107 1 -20 0 -122 1 -19 
0 -97 0 906 1 -25 0 -125 1 -24 0 -143 1 -23 0 -136 
1 -22 0 -129 1 -21 0 -102 1 -20 0 -117 1 -19 0 906 
0 -125 1 -25 0 -144 1 -23 0 -115 1 -22 0 -131 1 -21 
0 -124 1 -21 0 -98 1 -19 0 867 0 -905 0 829 1 -25 
0 -146 1 -23 0 -139 1 -23 0 -110 1 -22 0 -126 1 -20 
0 -120 1 -19 0 846 0 -903 0 878 1 -25 0 -148 1 -24 
0 -141 1 -23 0 -134 1 -22 0 -106 1 -21 0 -121 1 -20 
0 -96 0 900 1 -25 0 -149 1 -24 0 -119 1 -23 0 -136 
1 -22 0 -129 1 -20 0 -103 1 -20 0 -116 1 -19 0 892 
0 -125 1 -25 0 -143 1 -23 0 -114 1 -22 0 -131 1 -21 
0 -123 1 -20 0 -98 1 -19 0 838 0 -876 0 801 1 -24 
0 -144 1 -24 0 -137 3642 2096 100 MP stroke
1 -22 0 -109 1 -22 0 -124 1 -20 0 -118 1 -19 0 838 
0 -876 0 826 1 -25 0 -145 1 -23 0 -139 1 -22 0 -131 
1 -22 0 -104 1 -20 0 -119 1 -19 0 819 0 -876 0 826 
1 -25 0 -145 1 -23 0 -116 1 -23 0 -132 1 -21 0 -126 
1 -20 0 -100 1 -19 0 800 0 -876 0 851 1 -25 0 -146 
1 -24 0 -139 1 -23 0 -110 1 -22 0 -126 1 -21 0 -120 
1 -19 0 -76 0 876 1 -25 0 -147 1 -24 0 -140 1 -23 
0 -133 1 -22 0 -106 1 -20 0 -121 1 -20 0 -95 0 876 
1 -25 0 -147 1 -24 0 -117 1 -23 0 -134 1 -22 0 -128 
1 -20 0 -101 1 -20 0 -115 1 876 0 -148 1 -24 0 -141 
1 -23 0 -112 1 -22 0 -129 1 -21 0 -121 1 -20 0 -96 
1 -19 0 876 0 -124 1 -24 0 -142 1 -23 0 -135 1 -22 
0 -108 1 -21 0 -122 3597 2413 100 MP stroke
1 -20 0 -116 1 -19 0 876 0 -124 1 -24 0 -119 1 -23 
0 -136 1 -22 0 -130 1 -21 0 -102 1 -20 0 -117 1 -19 
0 857 0 -876 0 777 1 -25 0 -143 1 -23 0 -114 1 -22 
0 -131 1 -21 0 -123 1 -20 0 -98 1 -19 0 838 0 -876 
0 801 1 -24 0 -145 1 -23 0 -137 1 -22 0 -109 1 -22 
0 -124 1 -20 0 -118 1 -20 0 839 0 -876 0 801 1 -24 
0 -121 1 -24 0 -138 1 -22 0 -131 1 -22 0 -104 1 -20 
0 -119 1 -19 0 819 0 -876 0 826 1 -25 0 -145 1 -24 
0 -115 1 -23 0 -132 1 -22 0 -125 1 -20 0 -100 1 -19 
0 800 0 -876 0 851 1 -25 0 -147 1 -23 0 -139 1 -23 
0 -111 1 -21 0 -127 1 -20 0 -120 1 -19 0 -77 0 877 
1 -25 0 -148 1 -24 0 -140 1 -23 0 -133 1 -21 0 -106 
1 -21 0 -120 1 -20 3553 2473 100 MP stroke
0 -96 0 877 1 -26 0 -147 1 -24 0 -117 1 -23 0 -134 
1 -22 0 -127 1 -21 0 -101 1 -20 0 -115 1 877 0 -149 
1 -24 0 -141 1 -23 0 -112 1 -22 0 -128 1 -21 0 -122 
1 -20 0 -96 1 -19 0 876 0 -124 1 -24 0 -142 1 -23 
0 -135 1 -22 0 -108 1 -21 0 -122 1 -20 0 -116 1 -19 
0 876 0 -124 1 -24 0 -119 1 -23 0 -136 1 -23 0 -129 
1 -21 0 -102 1 -20 0 -117 1 -19 0 857 0 -876 0 776 
1 -24 0 -143 1 -24 0 -114 1 -22 0 -130 1 -21 0 -124 
1 -20 0 -98 1 -19 0 838 0 -876 0 801 1 -25 0 -144 
1 -24 0 -137 1 -22 0 -109 1 -21 0 -125 1 -20 0 -118 
1 -19 0 836 0 -874 0 799 1 -25 0 -120 1 -24 0 -138 
1 -22 0 -132 1 -21 0 -104 1 -20 0 -119 1 -19 0 813 
0 -870 0 819 1 -24 3509 1778 100 MP stroke
0 -145 1 -24 0 -115 1 -23 0 -132 1 -21 0 -126 1 -20 
0 -99 1 -20 0 786 0 -862 0 837 1 -25 0 -145 1 -24 
0 -138 1 -23 0 -110 1 -21 0 -126 1 -21 0 -119 1 -19 
0 -76 0 847 1 -25 0 -145 1 -24 0 -138 1 -23 0 -131 
1 -22 0 -104 1 -21 0 -119 1 -19 0 771 0 -847 0 822 
1 -24 0 -145 1 -23 0 -115 1 -23 0 -131 1 -22 0 -125 
1 -20 0 -99 1 -19 0 771 0 -847 0 822 1 -24 0 -145 
1 -23 0 -138 1 -22 0 -109 1 -22 0 -125 1 -20 0 -118 
1 -19 0 790 0 -847 0 822 1 -24 0 -145 1 -23 0 -138 
1 -22 0 -131 1 -21 0 -104 1 -20 0 -118 1 -19 0 790 
0 -847 0 798 1 -25 0 -143 1 -24 0 -114 1 -22 0 -131 
1 -21 0 -124 1 -20 0 -98 1 -19 0 790 0 -847 0 798 
1 -25 0 -143 1 -24 3466 1983 100 MP stroke
0 -136 1 -22 0 -109 1 -21 0 -124 1 -20 0 -117 1 -19 
0 809 0 -847 0 798 1 -25 0 -143 1 -24 0 -136 1 -22 
0 -130 1 -21 0 -103 1 -20 0 -117 1 -19 0 809 0 -847 
0 773 1 -24 0 -143 1 -23 0 -113 1 -22 0 -130 1 -21 
0 -123 1 -20 0 -97 1 -19 0 809 0 -847 0 773 1 -24 
0 -143 1 -23 0 -135 1 -22 0 -108 1 -21 0 -123 1 -20 
0 -116 1 -19 0 828 0 -847 0 773 1 -24 0 -143 1 -23 
0 -136 1 -22 0 -128 1 -21 0 -102 1 -20 0 -116 1 -19 
0 828 0 -847 0 749 1 -25 0 -141 1 -23 0 -113 1 -22 
0 -128 1 -21 0 -122 1 -20 0 -97 1 -18 0 828 0 -847 
0 748 1 -24 0 -141 1 -23 0 -135 1 -22 0 -106 1 -21 
0 -122 1 -20 0 -116 1 -18 0 847 0 -99 1 -24 0 -141 
1 -23 0 -135 1 -22 3423 2186 100 MP stroke
0 -127 1 -21 0 -101 1 -20 0 -116 1 -18 0 847 0 -123 
1 -24 0 -118 1 -23 0 -134 1 -22 0 -127 1 -21 0 -121 
1 -20 0 -96 1 -18 0 846 0 -122 1 -24 0 -141 1 -22 
0 -134 1 -22 0 -106 1 -20 0 -121 1 -20 0 -115 1 847 
0 -122 1 -24 0 -141 1 -23 0 -133 1 -22 0 -126 1 -21 
0 -100 1 -20 0 -115 1 847 0 -146 1 -24 0 -117 1 -23 
0 -133 1 -22 0 -127 1 -20 0 -120 1 -20 0 -95 1 847 
0 -147 1 -23 0 -140 1 -23 0 -132 1 -22 0 -105 1 -20 
0 -120 1 -20 0 -95 0 847 1 -25 0 -122 1 -24 0 -139 
1 -23 0 -133 1 -21 0 -126 1 -20 0 -100 1 -19 0 -96 
0 846 1 -24 0 -146 1 -24 0 -116 1 -22 0 -133 1 -21 
0 -126 1 -20 0 -120 1 -19 0 -76 0 844 1 -24 0 -146 
1 -24 0 -138 1 -22 3376 2102 100 MP stroke
0 -132 1 -21 0 -105 1 -20 0 -119 1 -20 0 765 0 -840 
0 815 1 -25 0 -120 1 -24 0 -138 1 -23 0 -131 1 -21 
0 -125 1 -20 0 -99 1 -19 0 757 0 -833 0 808 1 -25 
0 -143 1 -24 0 -114 1 -23 0 -130 1 -22 0 -124 1 -20 
0 -118 1 -19 0 762 0 -818 0 793 1 -24 0 -143 1 -23 
0 -136 1 -22 0 -108 1 -21 0 -123 1 -20 0 -117 1 -19 
0 781 0 -818 0 745 1 -24 0 -118 1 -23 0 -135 1 -22 
0 -128 1 -20 0 -122 1 -19 0 -97 1 -18 0 799 0 -818 
0 721 1 -24 0 -140 1 -23 0 -111 1 -21 0 -127 1 -21 
0 -120 1 -20 0 -114 1 818 0 -121 1 -24 0 -139 1 -22 
0 -132 1 -21 0 -105 1 -21 0 -119 1 -19 0 -95 0 818 
1 -25 0 -143 1 -24 0 -114 1 -23 0 -130 1 -22 0 -124 
1 -20 0 -118 1 -19 3332 2554 100 MP stroke
0 762 0 -818 0 793 1 -24 0 -143 1 -23 0 -136 1 -22 
0 -108 1 -21 0 -123 1 -20 0 -117 1 -19 0 781 0 -818 
0 745 1 -24 0 -118 1 -23 0 -135 1 -22 0 -128 1 -20 
0 -102 1 -20 0 -116 1 -18 0 799 0 -818 0 721 1 -24 
0 -140 1 -23 0 -111 1 -22 0 -126 1 -21 0 -121 1 -19 
0 -114 1 818 0 -121 1 -24 0 -139 1 -22 0 -132 1 -21 
0 -105 1 -21 0 -119 1 -19 0 -95 0 818 1 -25 0 -144 
1 -23 0 -114 1 -23 0 -131 1 -21 0 -124 1 -20 0 -98 
1 -20 0 743 0 -818 0 793 1 -24 0 -143 1 -23 0 -136 
1 -22 0 -108 1 -21 0 -123 1 -20 0 -117 1 -19 0 781 
0 -818 0 745 1 -24 0 -118 1 -23 0 -135 1 -22 0 -128 
1 -21 0 -101 1 -20 0 -116 1 -19 0 800 0 -818 0 720 
1 -23 0 -140 1 -23 3289 2076 100 MP stroke
0 -111 1 -22 0 -127 1 -20 0 -121 1 -19 0 -96 1 -18 
0 818 0 -122 1 -23 0 -139 1 -23 0 -131 1 -22 0 -104 
1 -21 0 -119 1 -20 0 -94 0 817 1 -24 0 -120 1 -24 
0 -138 1 -22 0 -131 1 -21 0 -124 1 -20 0 -99 1 -19 
0 742 0 -817 0 793 1 -25 0 -142 1 -24 0 -135 1 -22 
0 -108 1 -21 0 -124 1 -19 0 -117 1 -19 0 780 0 -818 
0 769 1 -24 0 -142 1 -23 0 -135 1 -21 0 -128 1 -21 
0 -102 1 -19 0 -116 1 -19 0 799 0 -818 0 721 1 -24 
0 -117 1 -23 0 -134 1 -21 0 -127 1 -21 0 -120 1 -20 
0 -95 1 -19 0 818 0 -121 1 -24 0 -139 1 -22 0 -132 
1 -21 0 -105 1 -20 0 -120 1 -19 0 -95 0 818 1 -25 
0 -120 1 -24 0 -137 1 -23 0 -131 1 -21 0 -124 1 -20 
0 -99 1 -19 0 742 3245 1794 100 MP stroke
0 -817 0 793 1 -25 0 -143 1 -23 0 -113 1 -23 0 -129 
1 -21 0 -124 1 -20 0 -116 1 -19 0 779 0 -817 0 768 
1 -24 0 -142 1 -23 0 -135 1 -22 0 -128 1 -20 0 -102 
1 -20 0 -116 1 -18 0 796 0 -815 0 718 1 -24 0 -117 
1 -23 0 -134 1 -21 0 -127 1 -21 0 -120 1 -20 0 -95 
1 -19 0 811 0 -121 1 -23 0 -139 1 -22 0 -110 1 -22 
0 -126 1 -20 0 -119 1 -20 0 -94 0 803 1 -24 0 -120 
1 -23 0 -137 1 -23 0 -130 1 -21 0 -103 1 -20 0 -118 
1 -19 0 714 0 -789 0 764 1 -24 0 -141 1 -23 0 -112 
1 -22 0 -128 1 -21 0 -121 1 -20 0 -115 1 -19 0 771 
0 -789 0 716 1 -23 0 -139 1 -23 0 -132 1 -22 0 -104 
1 -21 0 -120 1 -19 0 -113 1 789 0 -143 1 -24 0 -113 
1 -23 0 -130 1 -21 3201 2296 100 MP stroke
0 -123 1 -20 0 -98 1 -19 0 714 0 -789 0 764 1 -24 
0 -141 1 -23 0 -134 1 -22 0 -106 1 -21 0 -121 1 -20 
0 -115 1 -19 0 771 0 -789 0 693 1 -24 0 -115 1 -23 
0 -132 1 -22 0 -125 1 -20 0 -100 1 -19 0 -113 1 789 
0 -143 1 -24 0 -136 1 -22 0 -108 1 -21 0 -123 1 -21 
0 -116 1 -19 0 733 0 -789 0 764 1 -24 0 -141 1 -23 
0 -134 1 -22 0 -127 1 -20 0 -101 1 -20 0 -115 1 -19 
0 771 0 -790 0 694 1 -24 0 -138 1 -23 0 -109 1 -22 
0 -125 1 -20 0 -119 1 -19 0 -95 1 790 0 -144 1 -23 
0 -136 1 -22 0 -129 1 -21 0 -103 1 -20 0 -117 1 -19 
0 734 0 -790 0 741 1 -24 0 -117 1 -23 0 -134 1 -22 
0 -127 1 -21 0 -120 1 -20 0 -95 1 -19 0 770 0 -789 
0 693 1 -23 0 -138 3158 2100 100 MP stroke
1 -23 0 -131 1 -21 0 -104 1 -20 0 -119 1 -20 0 -94 
0 789 1 -24 0 -119 1 -23 0 -136 1 -22 0 -129 1 -21 
0 -123 1 -20 0 -97 1 -19 0 733 0 -789 0 741 1 -24 
0 -140 1 -23 0 -111 1 -22 0 -127 1 -21 0 -120 1 -20 
0 -114 1 -19 0 789 0 -96 1 -24 0 -138 1 -22 0 -131 
1 -21 0 -104 1 -21 0 -119 1 -19 0 -94 0 789 1 -24 
0 -142 1 -23 0 -113 1 -22 0 -130 1 -21 0 -122 1 -20 
0 -116 1 -19 0 752 0 -789 0 740 1 -23 0 -141 1 -22 
0 -133 1 -22 0 -105 1 -21 0 -121 1 -19 0 -115 1 -18 
0 789 0 -120 1 -23 0 -115 1 -22 0 -131 1 -22 0 -124 
1 -20 0 -99 1 -19 0 -94 0 789 1 -25 0 -142 1 -23 
0 -135 1 -22 0 -107 1 -21 0 -122 1 -20 0 -116 1 -19 
0 751 0 -788 0 716 3114 1916 100 MP stroke
1 -24 0 -116 1 -23 0 -133 1 -21 0 -127 1 -20 0 -100 
1 -20 0 -114 1 -19 0 789 0 -120 1 -23 0 -137 1 -23 
0 -108 1 -22 0 -124 1 -20 0 -118 1 -19 0 -75 0 788 
1 -25 0 -142 1 -23 0 -135 1 -22 0 -128 1 -21 0 -102 
1 -19 0 -117 1 -18 0 748 0 -786 0 714 1 -24 0 -139 
1 -22 0 -111 1 -21 0 -126 1 -21 0 -120 1 -19 0 -95 
1 -18 0 782 0 -120 1 -23 0 -137 1 -22 0 -130 1 -21 
0 -103 1 -20 0 -118 1 -19 0 699 0 -774 0 750 1 -24 
0 -117 1 -23 0 -134 1 -22 0 -128 1 -20 0 -121 1 -20 
0 -96 1 -18 0 723 0 -760 0 689 1 -24 0 -137 1 -22 
0 -109 1 -22 0 -124 1 -20 0 -119 1 -19 0 -93 0 760 
1 -24 0 -117 1 -23 0 -134 1 -22 0 -128 1 -20 0 -121 
1 -20 0 -96 1 -18 3069 2616 100 MP stroke
0 723 0 -760 0 689 1 -24 0 -137 1 -22 0 -109 1 -22 
0 -124 1 -20 0 -119 1 -19 0 -93 0 760 1 -24 0 -117 
1 -23 0 -134 1 -22 0 -128 1 -20 0 -101 1 -20 0 -116 
1 -18 0 723 0 -760 0 689 1 -24 0 -137 1 -22 0 -109 
1 -22 0 -124 1 -20 0 -119 1 -19 0 -93 0 760 1 -24 
0 -117 1 -23 0 -134 1 -22 0 -128 1 -20 0 -101 1 -20 
0 -116 1 -18 0 723 0 -760 0 689 1 -24 0 -137 1 -22 
0 -109 1 -22 0 -124 1 -20 0 -119 1 -19 0 -93 1 760 
0 -141 1 -23 0 -134 1 -22 0 -128 1 -20 0 -101 1 -20 
0 -116 1 -18 0 723 0 -760 0 689 1 -24 0 -137 1 -22 
0 -109 1 -22 0 -124 1 -20 0 -119 1 -19 0 -93 1 760 
0 -141 1 -23 0 -134 1 -22 0 -128 1 -20 0 -101 1 -20 
0 -116 1 -18 0 723 3025 1893 100 MP stroke
0 -760 0 689 1 -24 0 -115 1 -22 0 -131 1 -22 0 -124 
1 -21 0 -118 1 -19 0 -93 1 760 0 -141 1 -23 0 -134 
1 -22 0 -128 1 -20 0 -102 1 -19 0 -116 1 -18 0 723 
0 -760 0 689 1 -24 0 -115 1 -22 0 -132 1 -21 0 -124 
1 -21 0 -118 1 -19 0 -94 1 761 0 -141 1 -23 0 -135 
1 -21 0 -107 1 -21 0 -122 1 -20 0 -115 1 -19 0 724 
0 -761 0 689 1 -23 0 -115 1 -22 0 -132 1 -21 0 -125 
1 -20 0 -99 1 -19 0 -113 1 761 0 -142 1 -23 0 -134 
1 -22 0 -106 1 -21 0 -122 1 -20 0 -115 1 -19 0 723 
0 -760 0 689 1 -23 0 -115 1 -23 0 -131 1 -21 0 -125 
1 -20 0 -99 1 -19 0 -113 1 760 0 -141 1 -23 0 -134 
1 -22 0 -107 1 -20 0 -122 1 -20 0 -115 1 -19 0 723 
0 -760 0 712 1 -23 2980 1965 100 MP stroke
0 -138 1 -23 0 -131 1 -22 0 -124 1 -20 0 -99 1 -20 
0 -112 1 760 0 -141 1 -23 0 -135 1 -21 0 -107 1 -21 
0 -122 1 -19 0 -116 1 -19 0 723 0 -760 0 713 1 -24 
0 -138 1 -23 0 -131 1 -21 0 -125 1 -20 0 -99 1 -19 
0 -113 1 759 0 -141 1 -23 0 -113 1 -22 0 -128 1 -21 
0 -122 1 -19 0 -116 1 -19 0 721 0 -758 0 710 1 -24 
0 -138 1 -22 0 -132 1 -21 0 -124 1 -21 0 -98 1 -20 
0 -112 1 753 0 -141 1 -23 0 -112 1 -22 0 -128 1 -21 
0 -122 1 -19 0 -115 1 -19 0 709 0 -746 0 698 1 -23 
0 -138 1 -22 0 -131 1 -21 0 -104 1 -20 0 -118 1 -19 
0 -112 1 732 0 -140 1 -22 0 -111 1 -22 0 -127 1 -20 
0 -120 1 -20 0 -95 1 -19 0 696 0 -732 0 661 1 -23 
0 -135 1 -22 0 -129 2935 2323 100 MP stroke
1 -21 0 -102 1 -20 0 -116 1 -19 0 658 0 -732 0 708 
1 -23 0 -138 1 -22 0 -109 1 -22 0 -125 1 -20 0 -118 
1 -19 0 -94 1 -18 0 732 0 -117 1 -23 0 -133 1 -22 
0 -127 1 -20 0 -101 1 -19 0 -115 1 -19 0 696 0 -732 
0 661 1 -23 0 -113 1 -22 0 -130 1 -21 0 -123 1 -20 
0 -116 1 -19 0 -74 0 732 1 -24 0 -138 1 -23 0 -131 
1 -22 0 -125 1 -20 0 -99 1 -19 0 -113 1 -18 0 732 
0 -117 1 -23 0 -111 1 -22 0 -128 1 -21 0 -121 1 -19 
0 -115 1 -19 0 696 0 -732 0 685 1 -24 0 -136 1 -22 
0 -130 1 -21 0 -103 1 -20 0 -117 1 -19 0 -93 0 732 
1 -24 0 -138 1 -23 0 -110 1 -21 0 -126 1 -21 0 -119 
1 -19 0 -113 1 -18 0 732 0 -94 1 -23 0 -134 1 -22 
0 -128 1 -21 0 -101 2891 2466 100 MP stroke
1 -20 0 -115 1 -19 0 677 0 -733 0 686 1 -24 0 -136 
1 -22 0 -109 1 -21 0 -124 1 -20 0 -118 1 -19 0 -93 
1 733 0 -140 1 -22 0 -133 1 -22 0 -125 1 -21 0 -100 
1 -19 0 -114 1 -18 0 714 0 -733 0 639 1 -23 0 -135 
1 -21 0 -107 1 -21 0 -122 1 -20 0 -116 1 -18 0 677 
0 -733 0 709 1 -24 0 -137 1 -22 0 -131 1 -21 0 -124 
1 -20 0 -99 1 -19 0 -112 1 732 0 -139 1 -23 0 -111 
1 -21 0 -127 1 -21 0 -120 1 -19 0 -114 1 -19 0 714 
0 -732 0 662 1 -23 0 -136 1 -22 0 -129 1 -20 0 -102 
1 -20 0 -117 1 -19 0 658 0 -732 0 708 1 -23 0 -138 
1 -22 0 -109 1 -21 0 -125 1 -21 0 -118 1 -19 0 -112 
1 732 0 -117 1 -22 0 -134 1 -22 0 -126 1 -21 0 -100 
1 -20 0 -115 1 -18 2846 2639 100 MP stroke
0 695 0 -732 0 661 1 -23 0 -135 1 -22 0 -108 1 -21 
0 -123 1 -20 0 -116 1 -19 0 -74 0 732 1 -24 0 -138 
1 -23 0 -131 1 -22 0 -125 1 -20 0 -99 1 -19 0 -113 
1 -18 0 732 0 -117 1 -23 0 -134 1 -21 0 -106 1 -21 
0 -121 1 -20 0 -114 1 -19 0 695 0 -732 0 685 1 -24 
0 -136 1 -22 0 -130 1 -21 0 -123 1 -20 0 -97 1 -19 
0 -93 0 730 1 -23 0 -139 1 -22 0 -110 1 -22 0 -126 
1 -20 0 -119 1 -20 0 -113 1 -18 0 729 0 -94 1 -23 
0 -134 1 -22 0 -127 1 -21 0 -121 1 -20 0 -96 1 -19 
0 670 0 -725 0 678 1 -23 0 -136 1 -23 0 -108 1 -21 
0 -124 1 -20 0 -117 1 -19 0 -93 0 718 1 -24 0 -115 
1 -22 0 -132 1 -21 0 -126 1 -20 0 -99 1 -19 0 -114 
1 -18 0 686 0 -704 2803 2698 100 MP stroke
0 612 1 -23 0 -133 1 -21 0 -105 1 -21 0 -120 1 -20 
0 -114 1 -19 0 668 0 -704 0 658 1 -23 0 -135 1 -22 
0 -128 1 -20 0 -122 1 -19 0 -97 1 -18 0 630 0 -704 
0 681 1 -23 0 -136 1 -22 0 -129 1 -21 0 -102 1 -20 
0 -117 1 -19 0 -92 0 704 1 -23 0 -114 1 -23 0 -130 
1 -22 0 -124 1 -20 0 -118 1 -19 0 -93 1 -18 0 704 
0 -115 1 -22 0 -132 1 -21 0 -105 1 -21 0 -119 1 -19 
0 -114 1 -18 0 686 0 -704 0 612 1 -23 0 -111 1 -22 
0 -126 1 -21 0 -120 1 -20 0 -114 1 -19 0 668 0 -704 
0 658 1 -23 0 -135 1 -22 0 -128 1 -21 0 -101 1 -20 
0 -116 1 -18 0 630 0 -704 0 681 1 -23 0 -136 1 -22 
0 -108 1 -21 0 -123 1 -20 0 -117 1 -19 0 -92 1 704 
0 -137 1 -23 0 -131 2760 2285 100 MP stroke
1 -21 0 -124 1 -20 0 -98 1 -20 0 -112 1 -18 0 704 
0 -115 1 -22 0 -132 1 -22 0 -104 1 -21 0 -119 1 -19 
0 -114 1 -18 0 686 0 -704 0 635 1 -23 0 -134 1 -22 
0 -127 1 -20 0 -121 1 -19 0 -95 1 -19 0 649 0 -704 
0 658 1 -23 0 -135 1 -22 0 -107 1 -21 0 -122 1 -20 
0 -116 1 -19 0 631 0 -704 0 681 1 -23 0 -114 1 -22 
0 -130 1 -21 0 -123 1 -20 0 -117 1 -19 0 -92 1 704 
0 -138 1 -22 0 -131 1 -21 0 -104 1 -20 0 -119 1 -19 
0 -112 1 -18 0 704 0 -115 1 -23 0 -110 1 -22 0 -126 
1 -20 0 -119 1 -20 0 -94 1 -19 0 668 0 -704 0 634 
1 -23 0 -133 1 -22 0 -127 1 -21 0 -100 1 -20 0 -115 
1 -19 0 650 0 -705 0 658 1 -23 0 -113 1 -22 0 -129 
1 -20 0 -123 1 -19 2716 2490 100 MP stroke
0 -116 1 -19 0 -74 0 704 1 -23 0 -137 1 -22 0 -130 
1 -21 0 -123 1 -20 0 -97 1 -19 0 -112 1 704 0 -137 
1 -23 0 -109 1 -21 0 -125 1 -21 0 -118 1 -19 0 -113 
1 -18 0 704 0 -92 1 -23 0 -133 1 -21 0 -126 1 -21 
0 -100 1 -19 0 -114 1 -19 0 668 0 -704 0 634 1 -22 
0 -134 1 -22 0 -106 1 -21 0 -121 1 -20 0 -115 1 -18 
0 648 0 -703 0 657 1 -23 0 -113 1 -22 0 -129 1 -21 
0 -122 1 -20 0 -97 1 -19 0 -92 0 703 1 -24 0 -136 
1 -23 0 -129 1 -21 0 -103 1 -21 0 -117 1 -19 0 -112 
1 701 0 -115 1 -22 0 -132 1 -21 0 -125 1 -21 0 -118 
1 -19 0 -94 1 -19 0 679 0 -697 0 605 1 -23 0 -132 
1 -22 0 -125 1 -21 0 -99 1 -20 0 -114 1 -18 0 653 
0 -690 0 621 1 -23 2672 2113 100 MP stroke
0 -111 1 -22 0 -127 1 -21 0 -120 1 -20 0 -114 1 -18 
0 622 0 -677 0 654 1 -23 0 -134 1 -22 0 -127 1 -21 
0 -100 1 -20 0 -115 1 -19 0 604 0 -677 0 654 1 -23 
0 -134 1 -22 0 -106 1 -21 0 -121 1 -20 0 -115 1 -19 
0 -73 0 677 1 -23 0 -135 1 -22 0 -128 1 -21 0 -121 
1 -20 0 -96 1 -19 0 -92 0 677 1 -23 0 -135 1 -22 
0 -128 1 -21 0 -102 1 -19 0 -116 1 -19 0 -92 0 677 
1 -23 0 -113 1 -22 0 -129 1 -21 0 -123 1 -19 0 -116 
1 -19 0 -92 1 677 0 -136 1 -22 0 -129 1 -21 0 -103 
1 -20 0 -116 1 -19 0 -111 1 677 0 -136 1 -22 0 -108 
1 -21 0 -124 1 -20 0 -116 1 -19 0 -111 1 677 0 -114 
1 -22 0 -130 1 -21 0 -124 1 -20 0 -97 1 -19 0 -112 
1 -18 0 677 0 -114 2627 2158 100 MP stroke
1 -22 0 -130 1 -21 0 -103 1 -21 0 -117 1 -19 0 -112 
1 -18 0 677 0 -91 1 -23 0 -131 1 -21 0 -124 1 -21 
0 -117 1 -19 0 -94 1 -18 0 659 0 -677 0 585 1 -22 
0 -131 1 -21 0 -124 1 -21 0 -98 1 -19 0 -113 1 -18 
0 659 0 -677 0 585 1 -22 0 -110 1 -21 0 -125 1 -20 
0 -119 1 -19 0 -113 1 -18 0 659 0 -677 0 608 1 -23 
0 -132 1 -21 0 -125 1 -21 0 -99 1 -19 0 -114 1 -18 
0 641 0 -677 0 608 1 -23 0 -132 1 -21 0 -105 1 -20 
0 -120 1 -19 0 -114 1 -18 0 640 0 -676 0 608 1 -23 
0 -110 1 -22 0 -126 1 -20 0 -120 1 -19 0 -95 1 -19 
0 622 0 -676 0 630 1 -22 0 -133 1 -22 0 -126 1 -21 
0 -100 1 -19 0 -114 1 -19 0 622 0 -676 0 630 1 -23 
0 -111 1 -21 0 -128 2585 2374 100 MP stroke
1 -20 0 -121 1 -19 0 -114 1 -19 0 622 0 -677 0 654 
1 -23 0 -134 1 -22 0 -127 1 -20 0 -101 1 -20 0 -115 
1 -19 0 604 0 -677 0 654 1 -23 0 -134 1 -22 0 -106 
1 -21 0 -121 1 -20 0 -115 1 -19 0 604 0 -677 0 654 
1 -23 0 -112 1 -22 0 -128 1 -21 0 -121 1 -20 0 -96 
1 -19 0 -92 0 677 1 -23 0 -135 1 -22 0 -128 1 -21 
0 -102 1 -20 0 -115 1 -19 0 -92 0 676 1 -23 0 -113 
1 -22 0 -129 1 -21 0 -122 1 -20 0 -116 1 -19 0 -91 
1 676 0 -136 1 -22 0 -129 1 -21 0 -123 1 -20 0 -97 
1 -19 0 -110 1 675 0 -136 1 -22 0 -108 1 -21 0 -123 
1 -20 0 -117 1 -19 0 -111 1 673 0 -113 1 -22 0 -130 
1 -21 0 -124 1 -20 0 -97 1 -19 0 -112 1 -18 0 669 
0 -113 1 -22 0 -130 2540 2324 100 MP stroke
1 -21 0 -103 1 -20 0 -118 1 -19 0 -111 1 -18 0 662 
0 -113 1 -22 0 -108 1 -21 0 -124 1 -20 0 -117 1 -19 
0 -92 1 -18 0 631 0 -649 0 559 1 -22 0 -129 1 -21 
0 -123 1 -20 0 -97 1 -19 0 -110 1 -18 0 649 0 -112 
1 -22 0 -107 1 -21 0 -123 1 -20 0 -116 1 -19 0 -109 
1 649 0 -112 1 -22 0 -128 1 -21 0 -122 1 -19 0 -97 
1 -19 0 -109 1 649 0 -134 1 -22 0 -127 1 -21 0 -101 
1 -19 0 -116 1 -18 0 -91 0 649 1 -23 0 -133 1 -21 
0 -106 1 -21 0 -120 1 -20 0 -114 1 -19 0 -72 0 649 
1 -23 0 -133 1 -21 0 -127 1 -20 0 -120 1 -19 0 -95 
1 -19 0 577 0 -649 0 626 1 -22 0 -132 1 -22 0 -105 
1 -20 0 -120 1 -19 0 -114 1 -18 0 595 0 -649 0 604 
1 -23 0 -109 1 -22 2495 2294 100 MP stroke
0 -125 1 -20 0 -119 1 -20 0 -112 1 -18 0 613 0 -649 
0 604 1 -23 0 -131 1 -21 0 -125 1 -20 0 -98 1 -20 
0 -112 1 -18 0 613 0 -649 0 581 1 -22 0 -130 1 -21 
0 -104 1 -20 0 -118 1 -19 0 -111 1 -19 0 632 0 -649 
0 581 1 -22 0 -130 1 -21 0 -124 1 -20 0 -117 1 -19 
0 -92 1 -19 0 632 0 -650 0 560 1 -22 0 -129 1 -21 
0 -123 1 -20 0 -97 1 -19 0 -111 1 -18 0 650 0 -112 
1 -22 0 -107 1 -21 0 -123 1 -20 0 -116 1 -19 0 -110 
1 650 0 -112 1 -22 0 -128 1 -21 0 -122 1 -20 0 -96 
1 -19 0 -110 1 650 0 -134 1 -22 0 -127 1 -21 0 -101 
1 -20 0 -115 1 -19 0 -91 0 650 1 -23 0 -133 1 -22 
0 -105 1 -21 0 -121 1 -19 0 -115 1 -18 0 -73 0 649 
1 -22 0 -133 1 -22 2451 2273 100 MP stroke
0 -126 1 -21 0 -120 1 -19 0 -95 1 -18 0 576 0 -649 
0 627 1 -23 0 -132 1 -22 0 -104 1 -21 0 -120 1 -19 
0 -113 1 -19 0 595 0 -649 0 604 1 -23 0 -109 1 -22 
0 -125 1 -20 0 -119 1 -19 0 -95 1 -18 0 595 0 -649 
0 604 1 -23 0 -131 1 -21 0 -124 1 -21 0 -98 1 -20 
0 -112 1 -18 0 613 0 -649 0 581 1 -22 0 -130 1 -21 
0 -104 1 -20 0 -118 1 -19 0 -112 1 -18 0 632 0 -650 
0 582 1 -22 0 -131 1 -21 0 -123 1 -20 0 -117 1 -19 
0 -93 1 -18 0 631 0 -649 0 559 1 -22 0 -130 1 -20 
0 -103 1 -20 0 -117 1 -19 0 -111 1 -18 0 648 0 -112 
1 -22 0 -107 1 -21 0 -123 1 -20 0 -116 1 -19 0 -109 
1 645 0 -112 1 -22 0 -128 1 -21 0 -121 1 -20 0 -96 
1 -19 0 -110 1 642 2408 2110 100 MP stroke
0 -134 1 -21 0 -127 1 -21 0 -101 1 -19 0 -115 1 -19 
0 -91 0 635 1 -23 0 -110 1 -22 0 -126 1 -21 0 -120 
1 -19 0 -114 1 -18 0 -72 0 622 1 -22 0 -131 1 -22 
0 -124 1 -20 0 -118 1 -20 0 -93 1 -18 0 568 0 -622 
0 578 1 -22 0 -130 1 -21 0 -102 1 -20 0 -118 1 -19 
0 -110 1 -18 0 604 0 -622 0 534 1 -22 0 -107 1 -21 
0 -121 1 -20 0 -115 1 -19 0 -91 1 -18 0 622 0 -110 
1 -22 0 -126 1 -21 0 -120 1 -19 0 -95 1 -19 0 -90 
0 622 1 -22 0 -131 1 -22 0 -104 1 -20 0 -119 1 -19 
0 -113 1 -18 0 568 0 -622 0 578 1 -22 0 -109 1 -21 
0 -123 1 -20 0 -118 1 -19 0 -110 1 -18 0 604 0 -622 
0 556 1 -22 0 -129 1 -21 0 -121 1 -20 0 -97 1 -18 
0 -110 1 -18 0 622 2365 2146 100 MP stroke
0 -110 1 -22 0 -126 1 -21 0 -100 1 -20 0 -114 1 -19 
0 -90 0 622 1 -22 0 -110 1 -21 0 -126 1 -20 0 -119 
1 -19 0 -113 1 -18 0 568 0 -622 0 600 1 -22 0 -131 
1 -21 0 -123 1 -21 0 -117 1 -19 0 -92 1 -19 0 587 
0 -622 0 555 1 -21 0 -129 1 -21 0 -102 1 -19 0 -117 
1 -19 0 -110 1 -17 0 622 0 -110 1 -22 0 -106 1 -20 
0 -121 1 -20 0 -114 1 -19 0 -90 1 622 0 -132 1 -22 
0 -125 1 -20 0 -119 1 -20 0 -94 1 -18 0 550 0 -622 
0 600 1 -23 0 -130 1 -21 0 -124 1 -20 0 -98 1 -19 
0 -112 1 -18 0 587 0 -623 0 556 1 -22 0 -107 1 -21 
0 -123 1 -20 0 -116 1 -19 0 -110 1 -18 0 623 0 -89 
1 -22 0 -127 1 -21 0 -121 1 -19 0 -96 1 -19 0 -109 
1 623 0 -132 1 -22 2321 2300 100 MP stroke
0 -125 1 -21 0 -99 1 -20 0 -113 1 -19 0 551 0 -623 
0 600 1 -22 0 -130 1 -21 0 -104 1 -20 0 -118 1 -19 
0 -112 1 -18 0 587 0 -623 0 578 1 -22 0 -130 1 -21 
0 -122 1 -20 0 -116 1 -19 0 -92 1 -18 0 604 0 -622 
0 534 1 -22 0 -128 1 -20 0 -101 1 -20 0 -115 1 -19 
0 -109 1 622 0 -132 1 -21 0 -105 1 -21 0 -120 1 -19 
0 -114 1 -18 0 -72 0 622 1 -22 0 -132 1 -21 0 -124 
1 -21 0 -118 1 -19 0 -93 1 -19 0 569 0 -623 0 578 
1 -22 0 -129 1 -21 0 -123 1 -20 0 -97 1 -19 0 -111 
1 -18 0 604 0 -622 0 533 1 -22 0 -106 1 -21 0 -122 
1 -20 0 -115 1 -19 0 -109 1 621 0 -111 1 -21 0 -127 
1 -20 0 -120 1 -19 0 -95 1 -19 0 -91 0 619 1 -22 
0 -131 1 -22 0 -124 2278 2453 100 MP stroke
1 -20 0 -99 1 -19 0 -113 1 -18 0 561 0 -615 0 570 
1 -22 0 -129 1 -21 0 -102 1 -20 0 -117 1 -19 0 -110 
1 -18 0 590 0 -608 0 541 1 -21 0 -128 1 -21 0 -121 
1 -19 0 -115 1 -18 0 -91 1 -18 0 597 0 -110 1 -21 
0 -125 1 -20 0 -99 1 -19 0 -113 1 -18 0 525 0 -597 
0 574 1 -22 0 -128 1 -21 0 -102 1 -20 0 -116 1 -19 
0 -110 1 -18 0 579 0 -597 0 509 1 -22 0 -105 1 -20 
0 -120 1 -20 0 -113 1 -19 0 -90 1 597 0 -131 1 -21 
0 -124 1 -20 0 -117 1 -19 0 -93 1 -18 0 543 0 -597 
0 552 1 -21 0 -128 1 -21 0 -101 1 -20 0 -115 1 -19 
0 -109 1 -18 0 597 0 -110 1 -21 0 -104 1 -21 0 -119 
1 -19 0 -113 1 -18 0 525 0 -597 0 574 1 -22 0 -107 
1 -21 0 -123 1 -20 2235 2512 100 MP stroke
0 -116 1 -19 0 -92 1 -18 0 561 0 -597 0 531 1 -22 
0 -127 1 -20 0 -120 1 -20 0 -95 1 -18 0 -109 1 596 
0 -130 1 -21 0 -104 1 -20 0 -118 1 -19 0 -112 1 -18 
0 542 0 -596 0 552 1 -21 0 -107 1 -21 0 -122 1 -20 
0 -115 1 -19 0 -91 1 -18 0 578 0 -596 0 509 1 -22 
0 -125 1 -21 0 -119 1 -19 0 -94 1 -19 0 -90 0 596 
1 -22 0 -129 1 -21 0 -123 1 -20 0 -97 1 -19 0 -111 
1 -18 0 560 0 -596 0 530 1 -21 0 -106 1 -21 0 -121 
1 -19 0 -115 1 -18 0 -109 1 596 0 -109 1 -21 0 -125 
1 -20 0 -118 1 -19 0 -94 1 -18 0 524 0 -596 0 574 
1 -22 0 -128 1 -21 0 -122 1 -20 0 -96 1 -19 0 -110 
1 -18 0 578 0 -596 0 509 1 -22 0 -126 1 -20 0 -100 
1 -19 0 -114 1 -18 2192 2703 100 MP stroke
0 -90 0 596 1 -22 0 -108 1 -22 0 -123 1 -20 0 -118 
1 -19 0 -111 1 -17 0 560 0 -596 0 552 1 -22 0 -128 
1 -20 0 -121 1 -20 0 -96 1 -18 0 -109 1 -18 0 596 
0 -109 1 -22 0 -124 1 -21 0 -98 1 -20 0 -112 1 -19 
0 525 0 -596 0 573 1 -22 0 -128 1 -21 0 -102 1 -20 
0 -116 1 -19 0 -110 1 -18 0 578 0 -595 0 530 1 -22 
0 -127 1 -20 0 -120 1 -20 0 -113 1 -19 0 -89 1 595 
0 -130 1 -21 0 -124 1 -20 0 -98 1 -19 0 -112 1 -18 
0 542 0 -596 0 552 1 -22 0 -127 1 -21 0 -101 1 -20 
0 -115 1 -19 0 -109 1 -18 0 596 0 -88 1 -21 0 -126 
1 -20 0 -119 1 -20 0 -112 1 -19 0 -71 0 595 1 -22 
0 -130 1 -21 0 -123 1 -19 0 -117 1 -19 0 -92 1 -18 
0 559 0 -594 0 528 2150 2267 100 MP stroke
1 -22 0 -126 1 -21 0 -100 1 -20 0 -114 1 -19 0 -108 
1 592 0 -130 1 -21 0 -104 1 -20 0 -118 1 -19 0 -112 
1 -18 0 535 0 -589 0 566 1 -21 0 -129 1 -20 0 -122 
1 -19 0 -116 1 -18 0 -91 1 -18 0 563 0 -581 0 494 
1 -21 0 -125 1 -20 0 -118 1 -19 0 -94 1 -18 0 -89 
0 569 1 -21 0 -128 1 -21 0 -101 1 -20 0 -115 1 -19 
0 -109 1 -18 0 552 0 -569 0 483 1 -21 0 -104 1 -20 
0 -118 1 -19 0 -112 1 -18 0 -71 0 569 1 -21 0 -128 
1 -21 0 -121 1 -19 0 -115 1 -18 0 -91 1 -18 0 552 
0 -569 0 483 1 -21 0 -124 1 -20 0 -117 1 -19 0 -93 
1 -18 0 498 0 -569 0 548 1 -22 0 -127 1 -20 0 -101 
1 -19 0 -115 1 -18 0 -109 1 -17 0 569 0 -107 1 -21 
0 -103 1 -20 0 -117 2107 2616 100 MP stroke
1 -19 0 -111 1 -18 0 516 0 -569 0 548 1 -22 0 -127 
1 -20 0 -120 1 -20 0 -113 1 -19 0 -90 1 -17 0 569 
0 -107 1 -21 0 -123 1 -20 0 -116 1 -19 0 -92 1 -18 
0 516 0 -569 0 526 1 -22 0 -125 1 -21 0 -99 1 -20 
0 -113 1 -19 0 -107 1 569 0 -128 1 -21 0 -102 1 -20 
0 -116 1 -19 0 -110 1 -18 0 534 0 -569 0 526 1 -22 
0 -125 1 -21 0 -119 1 -19 0 -113 1 -18 0 -89 1 569 
0 -128 1 -21 0 -122 1 -20 0 -96 1 -19 0 -110 1 -18 
0 534 0 -569 0 504 1 -21 0 -125 1 -20 0 -99 1 -19 
0 -113 1 -18 0 -90 0 570 1 -22 0 -127 1 -21 0 -101 
1 -20 0 -115 1 -19 0 -109 1 -18 0 552 0 -570 0 505 
1 -21 0 -125 1 -20 0 -118 1 -19 0 -112 1 -18 0 -72 
0 570 1 -22 0 -127 2064 2397 100 MP stroke
1 -21 0 -121 1 -20 0 -95 1 -19 0 -109 1 -18 0 552 
0 -570 0 484 1 -22 0 -123 1 -20 0 -98 1 -20 0 -112 
1 -18 0 499 0 -570 0 548 1 -22 0 -126 1 -21 0 -100 
1 -20 0 -114 1 -19 0 -108 1 -18 0 570 0 -87 1 -21 
0 -123 1 -21 0 -117 1 -19 0 -111 1 -18 0 517 0 -570 
0 548 1 -22 0 -126 1 -21 0 -120 1 -19 0 -96 1 -18 
0 -109 1 -17 0 569 0 -107 1 -21 0 -123 1 -20 0 -97 
1 -19 0 -111 1 -18 0 516 0 -569 0 526 1 -22 0 -125 
1 -21 0 -99 1 -20 0 -113 1 -19 0 -107 1 569 0 -107 
1 -21 0 -123 1 -20 0 -116 1 -19 0 -110 1 -18 0 534 
0 -569 0 526 1 -22 0 -126 1 -20 0 -119 1 -19 0 -95 
1 -18 0 -108 1 570 0 -129 1 -21 0 -122 1 -19 0 -97 
1 -19 0 -110 1 -18 2020 2784 100 MP stroke
0 534 0 -569 0 504 1 -22 0 -104 1 -20 0 -120 1 -19 
0 -113 1 -18 0 -89 0 568 1 -22 0 -107 1 -21 0 -122 
1 -19 0 -116 1 -19 0 -109 1 -18 0 548 0 -565 0 501 
1 -22 0 -124 1 -21 0 -118 1 -19 0 -93 1 -19 0 -89 
0 562 1 -22 0 -127 1 -21 0 -120 1 -20 0 -95 1 -19 
0 -109 1 -18 0 538 0 -555 0 469 1 -21 0 -103 1 -20 
0 -117 1 -19 0 -111 1 -18 0 473 0 -544 0 523 1 -22 
0 -104 1 -20 0 -120 1 -19 0 -113 1 -18 0 -107 1 544 
0 -106 1 -20 0 -121 1 -20 0 -115 1 -18 0 -91 1 -18 
0 509 0 -544 0 480 1 -21 0 -123 1 -20 0 -116 1 -19 
0 -92 1 -18 0 473 0 -544 0 523 1 -22 0 -124 1 -21 
0 -99 1 -19 0 -113 1 -18 0 -107 1 544 0 -126 1 -21 
0 -100 1 -20 0 -115 1978 2681 100 MP stroke
1 -18 0 -109 1 -17 0 526 0 -544 0 459 1 -21 0 -102 
1 -20 0 -116 1 -19 0 -110 1 -18 0 491 0 -544 0 523 
1 -22 0 -124 1 -21 0 -118 1 -19 0 -112 1 -18 0 -89 
1 544 0 -126 1 -21 0 -120 1 -20 0 -95 1 -18 0 -109 
1 -17 0 526 0 -544 0 459 1 -21 0 -122 1 -19 0 -97 
1 -19 0 -110 1 -18 0 491 0 -544 0 501 1 -21 0 -124 
1 -20 0 -98 1 -19 0 -112 1 -18 0 -89 0 544 1 -21 
0 -105 1 -21 0 -120 1 -20 0 -113 1 -19 0 -107 1 -18 
0 544 0 -85 1 -21 0 -122 1 -19 0 -116 1 -19 0 -91 
1 -18 0 491 0 -544 0 501 1 -21 0 -124 1 -20 0 -117 
1 -19 0 -93 1 -18 0 -89 0 544 1 -21 0 -126 1 -21 
0 -99 1 -20 0 -113 1 -19 0 -107 1 -18 0 544 0 -106 
1 -21 0 -101 1 -20 1935 2547 100 MP stroke
0 -115 1 -19 0 -109 1 -18 0 509 0 -544 0 480 1 -21 
0 -103 1 -20 0 -117 1 -19 0 -111 1 -18 0 -71 0 544 
1 -22 0 -125 1 -21 0 -119 1 -19 0 -113 1 -18 0 -90 
1 -17 0 544 0 -106 1 -21 0 -121 1 -20 0 -95 1 -19 
0 -109 1 -18 0 509 0 -544 0 480 1 -21 0 -123 1 -20 
0 -98 1 -19 0 -111 1 -18 0 473 0 -543 0 522 1 -21 
0 -125 1 -20 0 -99 1 -20 0 -112 1 -19 0 -106 1 543 
0 -106 1 -20 0 -121 1 -20 0 -114 1 -19 0 -108 1 -18 
0 526 0 -543 0 479 1 -21 0 -123 1 -20 0 -116 1 -19 
0 -92 1 -18 0 473 0 -544 0 523 1 -22 0 -124 1 -21 
0 -118 1 -19 0 -94 1 -18 0 -107 1 544 0 -127 1 -20 
0 -120 1 -20 0 -95 1 -18 0 -109 1 -17 0 526 0 -544 
0 459 1 -21 0 -102 1893 2508 100 MP stroke
1 -20 0 -117 1 -18 0 -111 1 -17 0 490 0 -543 0 500 
1 -21 0 -103 1 -21 0 -118 1 -19 0 -112 1 -18 0 -89 
1 543 0 -126 1 -21 0 -120 1 -20 0 -113 1 -19 0 -90 
1 -17 0 524 0 -542 0 457 1 -21 0 -122 1 -20 0 -96 
1 -19 0 -110 1 -18 0 487 0 -540 0 497 1 -21 0 -124 
1 -20 0 -98 1 -19 0 -112 1 -18 0 -88 0 535 1 -21 
0 -125 1 -21 0 -99 1 -20 0 -113 1 -18 0 -107 1 -18 
0 529 0 -84 1 -21 0 -121 1 -20 0 -114 1 -19 0 -108 
1 -18 0 484 0 -519 0 477 1 -21 0 -122 1 -20 0 -115 
1 -19 0 -92 1 -18 0 449 0 -519 0 498 1 -21 0 -123 
1 -20 0 -117 1 -18 0 -93 1 -18 0 -88 0 519 1 -21 
0 -124 1 -20 0 -118 1 -19 0 -93 1 -18 0 -106 1 519 
0 -125 1 -20 0 -99 1850 2594 100 MP stroke
1 -19 0 -113 1 -19 0 -106 1 -18 0 519 0 -104 1 -21 
0 -100 1 -19 0 -114 1 -18 0 -108 1 -17 0 501 0 -519 
0 456 1 -21 0 -121 1 -20 0 -114 1 -19 0 -108 1 -18 
0 484 0 -519 0 477 1 -21 0 -122 1 -20 0 -115 1 -19 
0 -110 1 -17 0 466 0 -519 0 498 1 -21 0 -123 1 -20 
0 -117 1 -18 0 -93 1 -18 0 -88 0 519 1 -21 0 -124 
1 -20 0 -118 1 -19 0 -93 1 -18 0 -106 1 519 0 -125 
1 -20 0 -99 1 -19 0 -113 1 -19 0 -106 1 -18 0 519 
0 -105 1 -20 0 -100 1 -19 0 -114 1 -18 0 -108 1 -17 
0 501 0 -519 0 435 1 -21 0 -100 1 -20 0 -114 1 -19 
0 -108 1 -18 0 484 0 -519 0 477 1 -21 0 -122 1 -20 
0 -116 1 -18 0 -110 1 -17 0 466 0 -519 0 498 1 -21 
0 -123 1 -20 0 -117 1808 2652 100 MP stroke
1 -19 0 -92 1 -18 0 -88 0 519 1 -22 0 -123 1 -20 
0 -118 1 -19 0 -93 1 -18 0 -106 1 519 0 -125 1 -20 
0 -99 1 -20 0 -112 1 -19 0 -106 1 -18 0 519 0 -105 
1 -20 0 -100 1 -19 0 -114 1 -19 0 -107 1 -18 0 501 
0 -518 0 435 1 -21 0 -100 1 -20 0 -115 1 -18 0 -109 
1 -17 0 483 0 -518 0 476 1 -21 0 -122 1 -19 0 -116 
1 -19 0 -109 1 -18 0 466 0 -518 0 497 1 -21 0 -123 
1 -20 0 -116 1 -19 0 -92 1 -18 0 -88 0 518 1 -21 
0 -124 1 -20 0 -117 1 -19 0 -93 1 -18 0 -106 1 518 
0 -125 1 -20 0 -118 1 -19 0 -94 1 -18 0 -107 1 -17 
0 518 0 -105 1 -20 0 -100 1 -19 0 -114 1 -18 0 -108 
1 -17 0 501 0 -518 0 434 1 -21 0 -100 1 -20 0 -114 
1 -19 0 -108 1 -18 1764 2835 100 MP stroke
0 484 0 -519 0 476 1 -21 0 -121 1 -20 0 -116 1 -18 
0 -110 1 -17 0 465 0 -518 0 497 1 -21 0 -123 1 -20 
0 -116 1 -19 0 -110 1 -18 0 -70 0 518 1 -21 0 -124 
1 -20 0 -118 1 -19 0 -93 1 -18 0 -106 1 518 0 -125 
1 -20 0 -119 1 -19 0 -94 1 -18 0 -107 1 -17 0 516 
0 -104 1 -20 0 -100 1 -20 0 -113 1 -19 0 -107 1 -18 
0 497 0 -514 0 430 1 -20 0 -101 1 -19 0 -115 1 -18 
0 -108 1 -18 0 475 0 -510 0 468 1 -21 0 -121 1 -20 
0 -115 1 -19 0 -108 1 -18 0 451 0 -503 0 482 1 -21 
0 -121 1 -20 0 -116 1 -19 0 -109 1 -18 0 -69 0 493 
1 -21 0 -121 1 -20 0 -116 1 -19 0 -91 1 -18 0 -87 
0 493 1 -21 0 -121 1 -20 0 -116 1 -19 0 -91 1 -18 
0 -87 0 493 1 -21 1722 2423 100 MP stroke
0 -121 1 -20 0 -97 1 -19 0 -110 1 -18 0 -87 0 493 
1 -21 0 -121 1 -20 0 -97 1 -19 0 -110 1 -18 0 -87 
0 493 1 -21 0 -122 1 -19 0 -97 1 -19 0 -110 1 -18 
0 -87 0 493 1 -21 0 -102 1 -20 0 -116 1 -19 0 -110 
1 -18 0 -87 0 493 1 -21 0 -102 1 -20 0 -116 1 -19 
0 -110 1 -18 0 -87 1 493 0 -123 1 -20 0 -116 1 -19 
0 -110 1 -18 0 -87 1 493 0 -123 1 -20 0 -116 1 -19 
0 -110 1 -18 0 -87 1 493 0 -123 1 -20 0 -116 1 -19 
0 -92 1 -18 0 -105 1 493 0 -123 1 -20 0 -116 1 -19 
0 -92 1 -18 0 -105 1 493 0 -123 1 -20 0 -97 1 -19 
0 -111 1 -18 0 -105 1 493 0 -123 1 -20 0 -97 1 -19 
0 -111 1 -18 0 -105 1 493 0 -123 1 -20 0 -97 1 -19 
0 -111 1 -18 0 -105 1675 2895 100 MP stroke
1 493 0 -103 1 -20 0 -117 1 -19 0 -111 1 -18 0 -105 
1 493 0 -103 1 -20 0 -117 1 -19 0 -111 1 -18 0 -88 
1 -17 0 493 0 -103 1 -20 0 -117 1 -19 0 -111 1 -18 
0 -88 1 -17 0 493 0 -103 1 -20 0 -117 1 -19 0 -93 
1 -18 0 -106 1 -17 0 493 0 -103 1 -20 0 -117 1 -19 
0 -93 1 -18 0 -106 1 -17 0 493 0 -103 1 -20 0 -117 
1 -19 0 -93 1 -18 0 -106 1 -17 0 493 0 -103 1 -20 
0 -98 1 -20 0 -111 1 -19 0 -105 1 -18 0 493 0 -102 
1 -20 0 -99 1 -19 0 -112 1 -18 0 -106 1 -17 0 493 
0 -82 1 -20 0 -119 1 -19 0 -112 1 -18 0 -106 1 -17 
0 493 0 -82 1 -21 0 -118 1 -19 0 -112 1 -18 0 -106 
1 -17 0 493 0 -82 1 -21 0 -118 1 -19 0 -112 1 -18 
0 -89 1 -17 0 476 1630 2403 100 MP stroke
0 -493 0 410 1 -20 0 -118 1 -19 0 -112 1 -18 0 -89 
1 -17 0 476 0 -493 0 410 1 -20 0 -118 1 -20 0 -93 
1 -18 0 -107 1 -17 0 475 0 -493 0 410 1 -20 0 -118 
1 -19 0 -94 1 -18 0 -107 1 -17 0 475 0 -492 0 409 
1 -20 0 -118 1 -19 0 -94 1 -18 0 -107 1 -17 0 473 
0 -490 0 408 1 -20 0 -99 1 -20 0 -112 1 -19 0 -106 
1 -18 0 472 0 -489 0 407 1 -21 0 -98 1 -20 0 -112 
1 -19 0 -106 1 -17 0 467 0 -485 0 423 1 -20 0 -119 
1 -19 0 -112 1 -19 0 -106 1 -17 0 461 0 -478 0 417 
1 -21 0 -118 1 -19 0 -112 1 -18 0 -89 1 -17 0 434 
0 -468 0 407 1 -20 0 -117 1 -19 0 -111 1 -18 0 -88 
1 -17 0 451 0 -468 0 387 1 -20 0 -116 1 -19 0 -110 
1 -18 0 -87 1 -17 1590 2922 100 MP stroke
0 468 0 -101 1 -19 0 -116 1 -19 0 -91 1 -18 0 -104 
1 468 0 -120 1 -20 0 -115 1 -18 0 -91 1 -18 0 -86 
0 468 1 -20 0 -120 1 -20 0 -95 1 -18 0 -109 1 -17 
0 399 0 -468 0 448 1 -20 0 -120 1 -19 0 -94 1 -19 
0 -107 1 -18 0 417 0 -468 0 428 1 -21 0 -118 1 -19 
0 -94 1 -18 0 -107 1 -17 0 434 0 -468 0 407 1 -20 
0 -98 1 -19 0 -112 1 -18 0 -106 1 -17 0 451 0 -468 
0 387 1 -20 0 -97 1 -19 0 -111 1 -18 0 -105 1 -17 
0 468 0 -81 1 -20 0 -116 1 -19 0 -110 1 -18 0 -104 
1 468 0 -101 1 -19 0 -116 1 -19 0 -109 1 -18 0 -86 
0 468 1 -20 0 -100 1 -20 0 -115 1 -18 0 -109 1 -17 
0 -69 0 468 1 -20 0 -120 1 -20 0 -113 1 -19 0 -107 
1 -18 0 417 0 -468 1548 2922 100 MP stroke
0 448 1 -21 0 -119 1 -19 0 -113 1 -18 0 -89 1 -18 
0 417 0 -468 0 427 1 -20 0 -118 1 -19 0 -112 1 -18 
0 -89 1 -17 0 434 0 -468 0 407 1 -20 0 -117 1 -19 
0 -111 1 -18 0 -88 1 -17 0 451 0 -468 0 387 1 -20 
0 -116 1 -19 0 -92 1 -18 0 -105 1 -17 0 468 0 -101 
1 -20 0 -115 1 -19 0 -91 1 -18 0 -104 1 468 0 -121 
1 -19 0 -96 1 -19 0 -109 1 -18 0 -86 0 468 1 -21 
0 -119 1 -20 0 -95 1 -19 0 -108 1 -17 0 399 0 -468 
0 447 1 -20 0 -100 1 -19 0 -114 1 -18 0 -108 1 -17 
0 417 0 -468 0 427 1 -20 0 -99 1 -19 0 -113 1 -18 
0 -107 1 -17 0 434 0 -468 0 407 1 -21 0 -98 1 -19 
0 -112 1 -18 0 -105 1 -18 0 452 0 -469 0 407 1 -20 
0 -117 1 -19 0 -111 1507 2783 100 MP stroke
1 -18 0 -105 1 -17 0 468 0 -81 1 -20 0 -116 1 -19 
0 -110 1 -18 0 -87 1 -17 0 468 0 -101 1 -20 0 -115 
1 -19 0 -109 1 -18 0 -86 1 468 0 -121 1 -19 0 -115 
1 -18 0 -109 1 -17 0 -69 0 468 1 -21 0 -119 1 -20 
0 -114 1 -18 0 -90 1 -17 0 399 0 -468 0 447 1 -20 
0 -119 1 -20 0 -112 1 -19 0 -89 1 -17 0 416 0 -468 
0 427 1 -20 0 -118 1 -19 0 -94 1 -18 0 -107 1 -17 
0 433 0 -467 0 406 1 -21 0 -117 1 -19 0 -93 1 -18 
0 -106 1 -17 0 449 0 -466 0 385 1 -20 0 -116 1 -19 
0 -92 1 -18 0 -105 1 -17 0 464 0 -101 1 -20 0 -97 
1 -18 0 -110 1 -18 0 -104 1 460 0 -121 1 -19 0 -96 
1 -18 0 -109 1 -18 0 -86 0 454 1 -21 0 -99 1 -20 
0 -113 1 -19 0 -107 1464 2864 100 MP stroke
1 -17 0 375 0 -444 0 424 1 -20 0 -98 1 -19 0 -112 
1 -18 0 -106 1 -17 0 410 0 -444 0 404 1 -20 0 -116 
1 -19 0 -110 1 -18 0 -104 1 -17 0 444 0 -80 1 -19 
0 -115 1 -18 0 -108 1 -18 0 -86 0 444 1 -20 0 -99 
1 -19 0 -113 1 -18 0 -106 1 -18 0 393 0 -444 0 424 
1 -20 0 -117 1 -19 0 -111 1 -18 0 -105 1 -17 0 427 
0 -444 0 384 1 -20 0 -115 1 -19 0 -109 1 -17 0 -87 
1 -17 0 444 0 -99 1 -20 0 -113 1 -19 0 -107 1 -17 
0 -69 0 444 1 -20 0 -118 1 -19 0 -112 1 -18 0 -106 
1 -17 0 410 0 -444 0 404 1 -20 0 -116 1 -19 0 -110 
1 -18 0 -87 1 -17 0 427 0 -444 0 364 1 -19 0 -115 
1 -18 0 -108 1 -18 0 -86 1 444 0 -119 1 -19 0 -113 
1 -18 0 -89 1 -17 1422 2881 100 MP stroke
0 375 0 -444 0 424 1 -20 0 -117 1 -19 0 -111 1 -18 
0 -88 1 -17 0 410 0 -444 0 384 1 -20 0 -115 1 -19 
0 -109 1 -17 0 -87 1 -17 0 444 0 -99 1 -20 0 -113 
1 -19 0 -89 1 -18 0 -86 0 444 1 -20 0 -118 1 -19 
0 -112 1 -18 0 -88 1 -18 0 393 0 -444 0 404 1 -20 
0 -116 1 -19 0 -92 1 -18 0 -105 1 -17 0 427 0 -444 
0 364 1 -19 0 -115 1 -18 0 -91 1 -17 0 -104 1 444 
0 -119 1 -19 0 -113 1 -18 0 -89 1 -17 0 375 0 -444 
0 424 1 -20 0 -117 1 -19 0 -93 1 -18 0 -106 1 -17 
0 410 0 -444 0 384 1 -20 0 -115 1 -19 0 -91 1 -18 
0 -104 1 -17 0 444 0 -100 1 -19 0 -95 1 -18 0 -109 
1 -17 0 -86 0 444 1 -20 0 -118 1 -19 0 -94 1 -18 
0 -107 1 -17 0 393 1381 2506 100 MP stroke
0 -444 0 404 1 -20 0 -98 1 -19 0 -110 1 -18 0 -105 
1 -17 0 427 0 -444 0 364 1 -20 0 -96 1 -18 0 -109 
1 -18 0 -103 1 444 0 -119 1 -20 0 -94 1 -18 0 -108 
1 -17 0 375 0 -443 0 423 1 -20 0 -98 1 -19 0 -112 
1 -18 0 -105 1 -18 0 410 0 -443 0 383 1 -20 0 -96 
1 -19 0 -110 1 -18 0 -104 1 -16 0 443 0 -80 1 -19 
0 -115 1 -18 0 -108 1 -18 0 -86 0 444 1 -20 0 -99 
1 -19 0 -113 1 -18 0 -107 1 -17 0 393 0 -444 0 404 
1 -20 0 -98 1 -19 0 -110 1 -18 0 -105 1 -17 0 426 
0 -443 0 383 1 -19 0 -116 1 -18 0 -110 1 -17 0 -103 
1 443 0 -100 1 -19 0 -114 1 -18 0 -108 1 -17 0 -68 
0 442 1 -20 0 -118 1 -19 0 -112 1 -18 0 -106 1 -17 
0 408 0 -442 0 401 1340 2553 100 MP stroke
1 -20 0 -116 1 -19 0 -109 1 -18 0 -104 1 -17 0 439 
0 -80 1 -19 0 -115 1 -18 0 -108 1 -18 0 -85 1 435 
0 -118 1 -20 0 -112 1 -18 0 -106 1 -17 0 378 0 -429 
0 409 1 -20 0 -116 1 -19 0 -110 1 -17 0 -87 1 -17 
0 386 0 -420 0 361 1 -20 0 -113 1 -18 0 -108 1 -17 
0 -85 1 420 0 -117 1 -19 0 -111 1 -18 0 -87 1 -17 
0 369 0 -420 0 380 1 -19 0 -114 1 -19 0 -108 1 -18 
0 -85 1 -17 0 420 0 -98 1 -19 0 -112 1 -18 0 -105 
1 -17 0 369 0 -420 0 400 1 -20 0 -115 1 -18 0 -109 
1 -18 0 -86 1 -17 0 403 0 -420 0 341 1 -19 0 -112 
1 -19 0 -106 1 -17 0 -68 0 420 1 -20 0 -116 1 -19 
0 -110 1 -17 0 -87 1 -17 0 386 0 -420 0 361 1 -20 
0 -113 1 -18 0 -108 1298 2876 100 MP stroke
1 -17 0 -85 1 420 0 -117 1 -19 0 -111 1 -18 0 -104 
1 -17 0 386 0 -420 0 380 1 -19 0 -114 1 -19 0 -108 
1 -18 0 -85 1 -17 0 420 0 -98 1 -19 0 -112 1 -18 
0 -105 1 -17 0 369 0 -420 0 400 1 -20 0 -115 1 -18 
0 -109 1 -18 0 -86 1 -17 0 403 0 -420 0 341 1 -19 
0 -112 1 -19 0 -106 1 -17 0 -68 0 420 1 -20 0 -116 
1 -19 0 -110 1 -17 0 -104 1 -17 0 403 0 -420 0 361 
1 -20 0 -113 1 -18 0 -108 1 -17 0 -85 1 420 0 -117 
1 -19 0 -111 1 -18 0 -104 1 -17 0 386 0 -420 0 380 
1 -19 0 -114 1 -19 0 -108 1 -18 0 -85 1 -17 0 420 
0 -98 1 -19 0 -112 1 -18 0 -105 1 -17 0 369 0 -420 
0 400 1 -20 0 -115 1 -19 0 -109 1 -17 0 -103 1 -17 
0 420 0 -79 1 -19 1256 2656 100 MP stroke
0 -112 1 -19 0 -106 1 -17 0 -68 0 420 1 -20 0 -116 
1 -19 0 -110 1 -18 0 -103 1 -17 0 403 0 -420 0 361 
1 -20 0 -113 1 -19 0 -107 1 -17 0 -85 1 420 0 -117 
1 -19 0 -111 1 -18 0 -105 1 -17 0 387 0 -420 0 380 
1 -20 0 -114 1 -18 0 -108 1 -18 0 -85 1 -17 0 419 
0 -97 1 -19 0 -112 1 -18 0 -106 1 -17 0 369 0 -419 
0 399 1 -19 0 -115 1 -19 0 -109 1 -18 0 -103 1 -16 
0 419 0 -78 1 -20 0 -112 1 -18 0 -107 1 -17 0 -67 
0 419 1 -20 0 -116 1 -19 0 -109 1 -18 0 -104 1 -17 
0 403 0 -420 0 361 1 -20 0 -113 1 -18 0 -108 1 -17 
0 -85 1 420 0 -117 1 -19 0 -111 1 -18 0 -104 1 -17 
0 386 0 -420 0 380 1 -19 0 -115 1 -18 0 -108 1 -18 
0 -102 1 420 0 -98 1214 2657 100 MP stroke
1 -19 0 -112 1 -18 0 -106 1 -17 0 369 0 -419 0 400 
1 -20 0 -115 1 -19 0 -109 1 -18 0 -103 1 -16 0 419 
0 -79 1 -19 0 -112 1 -19 0 -106 1 -17 0 -68 0 419 
1 -20 0 -116 1 -19 0 -109 1 -18 0 -104 1 -17 0 402 
0 -419 0 359 1 -19 0 -113 1 -19 0 -107 1 -17 0 -85 
0 417 1 -20 0 -97 1 -19 0 -111 1 -18 0 -104 1 -17 
0 381 0 -415 0 375 1 -19 0 -114 1 -19 0 -108 1 -17 
0 -102 1 411 0 -98 1 -19 0 -111 1 -18 0 -105 1 -17 
0 355 0 -405 0 385 1 -19 0 -114 1 -19 0 -108 1 -17 
0 -102 1 -17 0 396 0 -77 1 -19 0 -110 1 -18 0 -105 
1 -17 0 346 0 -396 0 377 1 -20 0 -113 1 -18 0 -107 
1 -18 0 -101 1 396 0 -96 1 -19 0 -109 1 -18 0 -104 
1 -17 0 363 0 -396 1172 3007 100 MP stroke
0 338 1 -19 0 -93 1 -18 0 -107 1 -17 0 -84 0 396 
1 -19 0 -96 1 -18 0 -109 1 -18 0 -103 1 -16 0 379 
0 -396 0 319 1 -19 0 -92 1 -18 0 -106 1 -17 0 329 
0 -396 0 377 1 -20 0 -94 1 -19 0 -108 1 -17 0 -102 
1 -17 0 396 0 -96 1 -19 0 -91 1 -18 0 -105 1 -17 
0 346 0 -396 0 357 1 -19 0 -112 1 -18 0 -89 1 -18 
0 -101 1 396 0 -115 1 -18 0 -91 1 -18 0 -104 1 -17 
0 363 0 -396 0 338 1 -19 0 -111 1 -18 0 -89 1 -17 
0 -84 0 396 1 -19 0 -114 1 -19 0 -90 1 -18 0 -103 
1 -16 0 379 0 -396 0 319 1 -19 0 -110 1 -18 0 -88 
1 -17 0 329 0 -396 0 377 1 -20 0 -113 1 -18 0 -107 
1 -18 0 -84 1 -17 0 396 0 -96 1 -19 0 -109 1 -18 
0 -87 1 -17 0 346 1131 2611 100 MP stroke
0 -396 0 357 1 -19 0 -112 1 -18 0 -107 1 -17 0 -84 
1 396 0 -115 1 -18 0 -109 1 -18 0 -86 1 -17 0 363 
0 -396 0 338 1 -19 0 -111 1 -18 0 -106 1 -17 0 -67 
0 396 1 -19 0 -114 1 -19 0 -108 1 -17 0 -102 1 -17 
0 396 0 -77 1 -19 0 -110 1 -18 0 -105 1 -17 0 346 
0 -396 0 377 1 -20 0 -113 1 -18 0 -107 1 -18 0 -101 
1 396 0 -96 1 -19 0 -109 1 -18 0 -104 1 -17 0 363 
0 -396 0 357 1 -19 0 -112 1 -18 0 -107 1 -17 0 -84 
0 396 1 -19 0 -96 1 -18 0 -109 1 -18 0 -103 1 -16 
0 379 0 -396 0 338 1 -19 0 -111 1 -18 0 -106 1 -17 
0 329 0 -396 0 377 1 -20 0 -94 1 -19 0 -108 1 -17 
0 -102 1 -17 0 396 0 -96 1 -19 0 -92 1 -17 0 -105 
1 -17 0 346 0 -396 1090 3007 100 MP stroke
0 357 1 -19 0 -94 1 -18 0 -107 1 -18 0 -101 1 396 
0 -115 1 -19 0 -91 1 -17 0 -104 1 -17 0 363 0 -396 
0 338 1 -19 0 -93 1 -19 0 -106 1 -17 0 -84 0 396 
1 -20 0 -114 1 -18 0 -91 1 -17 0 -103 1 -17 0 380 
0 -396 0 319 1 -19 0 -111 1 -18 0 -87 1 -17 0 329 
0 -396 0 376 1 -19 0 -113 1 -19 0 -89 1 -18 0 -102 
1 -16 0 396 0 -97 1 -18 0 -110 1 -18 0 -87 1 -16 
0 345 0 -395 0 356 1 -19 0 -112 1 -18 0 -89 1 -17 
0 -102 1 396 0 -115 1 -18 0 -109 1 -18 0 -86 1 -17 
0 363 0 -396 0 338 1 -19 0 -111 1 -19 0 -105 1 -17 
0 -67 0 396 1 -19 0 -115 1 -18 0 -108 1 -17 0 -86 
1 -16 0 379 0 -396 0 319 1 -19 0 -111 1 -18 0 -104 
1 -17 0 346 0 -396 1049 3008 100 MP stroke
0 376 1 -19 0 -113 1 -19 0 -107 1 -17 0 -85 1 -16 
0 395 0 -96 1 -19 0 -110 1 -17 0 -104 1 -17 0 362 
0 -395 0 356 1 -19 0 -112 1 -18 0 -107 1 -17 0 -84 
1 395 0 -115 1 -19 0 -109 1 -17 0 -103 1 -17 0 377 
0 -393 0 334 1 -19 0 -111 1 -18 0 -105 1 -17 0 324 
0 -391 0 371 1 -19 0 -95 1 -18 0 -108 1 -17 0 -102 
1 -17 0 387 0 -76 1 -19 0 -110 1 -18 0 -104 1 -17 
0 332 0 -382 0 343 1 -19 0 -93 1 -18 0 -106 1 -17 
0 -100 1 372 0 -94 1 -19 0 -107 1 -18 0 -102 1 -16 
0 356 0 -372 0 296 1 -18 0 -91 1 -18 0 -103 1 -17 
0 323 0 -373 0 335 1 -19 0 -110 1 -18 0 -87 1 -17 
0 -84 0 373 1 -19 0 -112 1 -18 0 -89 1 -17 0 -101 
1 -17 0 373 0 -95 1008 2759 100 MP stroke
1 -18 0 -108 1 -17 0 -85 1 -17 0 340 0 -373 0 316 
1 -19 0 -109 1 -18 0 -87 1 -17 0 307 0 -373 0 353 
1 -19 0 -111 1 -18 0 -105 1 -17 0 -83 1 372 0 -112 
1 -19 0 -107 1 -17 0 -101 1 -16 0 372 0 -76 1 -18 
0 -109 1 -17 0 -103 1 -17 0 340 0 -372 0 334 1 -19 
0 -111 1 -17 0 -105 1 -17 0 306 0 -372 0 353 1 -19 
0 -93 1 -18 0 -106 1 -17 0 -100 1 372 0 -95 1 -18 
0 -108 1 -17 0 -102 1 -16 0 355 0 -372 0 296 1 -18 
0 -91 1 -18 0 -103 1 -17 0 322 0 -371 0 333 1 -19 
0 -110 1 -18 0 -87 1 -17 0 -83 0 370 1 -19 0 -112 
1 -18 0 -88 1 -17 0 -101 1 -17 0 370 0 -94 1 -18 
0 -108 1 -17 0 -85 1 -16 0 336 0 -369 0 312 1 -19 
0 -109 1 -17 0 -87 967 2963 100 MP stroke
1 -16 0 301 0 -367 0 348 1 -19 0 -110 1 -18 0 -105 
1 -17 0 -82 1 366 0 -112 1 -19 0 -106 1 -17 0 -84 
1 -16 0 347 0 -363 0 288 1 -18 0 -108 1 -17 0 -102 
1 -16 0 328 0 -361 0 323 1 -19 0 -109 1 -17 0 -103 
1 -17 0 291 0 -356 0 337 1 -19 0 -91 1 -18 0 -104 
1 -17 0 -98 1 350 0 -93 1 -18 0 -105 1 -17 0 -99 
1 -16 0 326 0 -342 0 269 1 -18 0 -88 1 -17 0 -100 
1 -17 0 284 0 -332 0 295 1 -18 0 -88 1 -17 0 -101 
1 -16 0 -79 0 317 1 -18 0 -105 1 -17 0 -83 1 -17 
0 -94 1 -16 0 300 0 -87 1 -17 0 -99 1 -16 0 -78 
1 -15 0 248 0 -278 0 227 1 -17 0 -97 1 -16 0 -77 
1 -16 0 193 0 -252 0 236 1 -17 0 -95 1 -15 0 -91 
1 -14 0 -72 1 222 926 3108 100 MP stroke
0 -92 1 -15 0 -87 1 -14 0 -70 1 -13 0 175 0 -189 
0 131 1 -15 0 -83 1 -14 0 -79 1 -13 0 129 0 -154 
0 127 1 -14 0 -79 1 -12 0 -75 1 -13 0 73 0 -120 
0 107 1 -12 0 -62 1 -12 0 -70 1 -11 0 -67 1 -11 
0 -54 1 -10 0 -61 1 -10 0 -59 1 -10 0 -56 1 -9 
0 -46 1 -9 0 -52 1 -9 0 -50 1 -8 0 -41 1 -8 
0 -48 1 -8 0 -46 1 -8 0 -45 1 -8 0 -37 1 -7 
0 -45 1 -7 0 -44 1 -7 0 -43 899 4607 62 MP stroke
gr

c8
0 sg
3316 4903 mt 
(Tempo [s]) s
 616 3064 mt  -90 rotate
(Tra\347o da Covari\342ncia) s
90 rotate
2498  294 mt 
(Tra\347o da Covari\342ncia do Erro de Kalman) s

end %%Color Dict

eplot
%%EndObject

epage
end

showpage

%%Trailer
%%EOF
