%!PS-Adobe-2.0 EPSF-1.2
%%Creator: MATLAB, The Mathworks, Inc. Version 7.9.0.529 (R2009b). Operating System: Darwin 10.8.0 Darwin Kernel Version 10.8.0: Tue Jun  7 16:33:36 PDT 2011; root:xnu-1504.15.3~1/RELEASE_I386 i386.
%%Title: ./vD_erro_velocidade.eps
%%CreationDate: 09/20/2011  00:39:10
%%DocumentNeededFonts: Helvetica
%%DocumentProcessColors: Cyan Magenta Yellow Black
%%Extensions: CMYK
%%Pages: 1
%%BoundingBox:    52   199   545   602
%%EndComments

%%BeginProlog
% MathWorks dictionary
/MathWorks 160 dict begin
% definition operators
/bdef {bind def} bind def
/ldef {load def} bind def
/xdef {exch def} bdef
/xstore {exch store} bdef
% operator abbreviations
/c  /clip ldef
/cc /concat ldef
/cp /closepath ldef
/gr /grestore ldef
/gs /gsave ldef
/mt /moveto ldef
/np /newpath ldef
/cm /currentmatrix ldef
/sm /setmatrix ldef
/rm /rmoveto ldef
/rl /rlineto ldef
/s {show newpath} bdef
/sc {setcmykcolor} bdef
/sr /setrgbcolor ldef
/sg /setgray ldef
/w /setlinewidth ldef
/j /setlinejoin ldef
/cap /setlinecap ldef
/rc {rectclip} bdef
/rf {rectfill} bdef
% page state control
/pgsv () def
/bpage {/pgsv save def} bdef
/epage {pgsv restore} bdef
/bplot /gsave ldef
/eplot {stroke grestore} bdef
% orientation switch
/portraitMode 0 def /landscapeMode 1 def /rotateMode 2 def
% coordinate system mappings
/dpi2point 0 def
% font control
/FontSize 0 def
/FMS {/FontSize xstore findfont [FontSize 0 0 FontSize neg 0 0]
  makefont setfont} bdef
/reencode {exch dup where {pop load} {pop StandardEncoding} ifelse
  exch dup 3 1 roll findfont dup length dict begin
  { 1 index /FID ne {def}{pop pop} ifelse } forall
  /Encoding exch def currentdict end definefont pop} bdef
/isroman {findfont /CharStrings get /Agrave known} bdef
/FMSR {3 1 roll 1 index dup isroman {reencode} {pop pop} ifelse
  exch FMS} bdef
/csm {1 dpi2point div -1 dpi2point div scale neg translate
 dup landscapeMode eq {pop -90 rotate}
  {rotateMode eq {90 rotate} if} ifelse} bdef
% line types: solid, dotted, dashed, dotdash
/SO { [] 0 setdash } bdef
/DO { [.5 dpi2point mul 4 dpi2point mul] 0 setdash } bdef
/DA { [6 dpi2point mul] 0 setdash } bdef
/DD { [.5 dpi2point mul 4 dpi2point mul 6 dpi2point mul 4
  dpi2point mul] 0 setdash } bdef
% macros for lines and objects
/L {lineto stroke} bdef
/MP {3 1 roll moveto 1 sub {rlineto} repeat} bdef
/AP {{rlineto} repeat} bdef
/PDlw -1 def
/W {/PDlw currentlinewidth def setlinewidth} def
/PP {closepath eofill} bdef
/DP {closepath stroke} bdef
/MR {4 -2 roll moveto dup  0 exch rlineto exch 0 rlineto
  neg 0 exch rlineto closepath} bdef
/FR {MR stroke} bdef
/PR {MR fill} bdef
/L1i {{currentfile picstr readhexstring pop} image} bdef
/tMatrix matrix def
/MakeOval {newpath tMatrix currentmatrix pop translate scale
0 0 1 0 360 arc tMatrix setmatrix} bdef
/FO {MakeOval stroke} bdef
/PO {MakeOval fill} bdef
/PD {currentlinewidth 2 div 0 360 arc fill
   PDlw -1 eq not {PDlw w /PDlw -1 def} if} def
/FA {newpath tMatrix currentmatrix pop translate scale
  0 0 1 5 -2 roll arc tMatrix setmatrix stroke} bdef
/PA {newpath tMatrix currentmatrix pop	translate 0 0 moveto scale
  0 0 1 5 -2 roll arc closepath tMatrix setmatrix fill} bdef
/FAn {newpath tMatrix currentmatrix pop translate scale
  0 0 1 5 -2 roll arcn tMatrix setmatrix stroke} bdef
/PAn {newpath tMatrix currentmatrix pop translate 0 0 moveto scale
  0 0 1 5 -2 roll arcn closepath tMatrix setmatrix fill} bdef
/vradius 0 def /hradius 0 def /lry 0 def
/lrx 0 def /uly 0 def /ulx 0 def /rad 0 def
/MRR {/vradius xdef /hradius xdef /lry xdef /lrx xdef /uly xdef
  /ulx xdef newpath tMatrix currentmatrix pop ulx hradius add uly
  vradius add translate hradius vradius scale 0 0 1 180 270 arc 
  tMatrix setmatrix lrx hradius sub uly vradius add translate
  hradius vradius scale 0 0 1 270 360 arc tMatrix setmatrix
  lrx hradius sub lry vradius sub translate hradius vradius scale
  0 0 1 0 90 arc tMatrix setmatrix ulx hradius add lry vradius sub
  translate hradius vradius scale 0 0 1 90 180 arc tMatrix setmatrix
  closepath} bdef
/FRR {MRR stroke } bdef
/PRR {MRR fill } bdef
/MlrRR {/lry xdef /lrx xdef /uly xdef /ulx xdef /rad lry uly sub 2 div def
  newpath tMatrix currentmatrix pop ulx rad add uly rad add translate
  rad rad scale 0 0 1 90 270 arc tMatrix setmatrix lrx rad sub lry rad
  sub translate rad rad scale 0 0 1 270 90 arc tMatrix setmatrix
  closepath} bdef
/FlrRR {MlrRR stroke } bdef
/PlrRR {MlrRR fill } bdef
/MtbRR {/lry xdef /lrx xdef /uly xdef /ulx xdef /rad lrx ulx sub 2 div def
  newpath tMatrix currentmatrix pop ulx rad add uly rad add translate
  rad rad scale 0 0 1 180 360 arc tMatrix setmatrix lrx rad sub lry rad
  sub translate rad rad scale 0 0 1 0 180 arc tMatrix setmatrix
  closepath} bdef
/FtbRR {MtbRR stroke } bdef
/PtbRR {MtbRR fill } bdef
/stri 6 array def /dtri 6 array def
/smat 6 array def /dmat 6 array def
/tmat1 6 array def /tmat2 6 array def /dif 3 array def
/asub {/ind2 exch def /ind1 exch def dup dup
  ind1 get exch ind2 get sub exch } bdef
/tri_to_matrix {
  2 0 asub 3 1 asub 4 0 asub 5 1 asub
  dup 0 get exch 1 get 7 -1 roll astore } bdef
/compute_transform {
  dmat dtri tri_to_matrix tmat1 invertmatrix 
  smat stri tri_to_matrix tmat2 concatmatrix } bdef
/ds {stri astore pop} bdef
/dt {dtri astore pop} bdef
/db {2 copy /cols xdef /rows xdef mul dup 3 mul string
  currentfile exch readhexstring pop
  dup 0 3 index getinterval /rbmap xdef
  dup 2 index dup getinterval /gbmap xdef
  1 index dup 2 mul exch getinterval /bbmap xdef pop pop}bdef
/it {gs np dtri aload pop moveto lineto lineto cp c
  cols rows 8 compute_transform 
  rbmap gbmap bbmap true 3 colorimage gr}bdef
/il {newpath moveto lineto stroke}bdef
currentdict end def
%%EndProlog

%%BeginSetup
MathWorks begin

0 cap

end
%%EndSetup

%%Page: 1 1
%%BeginPageSetup
%%PageBoundingBox:    52   199   545   602
MathWorks begin
bpage
%%EndPageSetup

%%BeginObject: obj1
bplot

/dpi2point 12 def
portraitMode 0216 7344 csm

  410   110  5923  4845 MR c np
86 dict begin %Colortable dictionary
/c0 { 0.000000 0.000000 0.000000 sr} bdef
/c1 { 1.000000 1.000000 1.000000 sr} bdef
/c2 { 0.900000 0.000000 0.000000 sr} bdef
/c3 { 0.000000 0.820000 0.000000 sr} bdef
/c4 { 0.000000 0.000000 0.800000 sr} bdef
/c5 { 0.910000 0.820000 0.320000 sr} bdef
/c6 { 1.000000 0.260000 0.820000 sr} bdef
/c7 { 0.000000 0.820000 0.820000 sr} bdef
c0
1 j
1 sg
   0    0 6913 5186 PR
6 w
0 4226 5356 0 0 -4226 899 4615 4 MP
PP
-5356 0 0 4226 5356 0 0 -4226 899 4615 5 MP stroke
4 w
DO
0 sg
 899 4615 mt  899  389 L
 899  389 mt  899  389 L
1642 4615 mt 1642  389 L
1642  389 mt 1642  389 L
2386 4615 mt 2386  389 L
2386  389 mt 2386  389 L
3130 4615 mt 3130  389 L
3130  389 mt 3130  389 L
3874 4615 mt 3874  389 L
3874  389 mt 3874  389 L
4618 4615 mt 4618  389 L
4618  389 mt 4618  389 L
5362 4615 mt 5362  389 L
5362  389 mt 5362  389 L
6106 4615 mt 6106  389 L
6106  389 mt 6106  389 L
 899 4615 mt 6255 4615 L
6255 4615 mt 6255 4615 L
 899 4192 mt 6255 4192 L
6255 4192 mt 6255 4192 L
 899 3769 mt 6255 3769 L
6255 3769 mt 6255 3769 L
 899 3347 mt 6255 3347 L
6255 3347 mt 6255 3347 L
 899 2924 mt 6255 2924 L
6255 2924 mt 6255 2924 L
 899 2502 mt 6255 2502 L
6255 2502 mt 6255 2502 L
 899 2079 mt 6255 2079 L
6255 2079 mt 6255 2079 L
 899 1656 mt 6255 1656 L
6255 1656 mt 6255 1656 L
 899 1234 mt 6255 1234 L
6255 1234 mt 6255 1234 L
 899  811 mt 6255  811 L
6255  811 mt 6255  811 L
 899  389 mt 6255  389 L
6255  389 mt 6255  389 L
SO
6 w
 899 4615 mt 6255 4615 L
 899  389 mt 6255  389 L
 899 4615 mt  899  389 L
6255 4615 mt 6255  389 L
 899 4615 mt 6255 4615 L
 899 4615 mt  899  389 L
 899 4615 mt  899 4561 L
 899  389 mt  899  442 L
%%IncludeResource: font Helvetica
/Helvetica /ISOLatin1Encoding 120 FMSR

 866 4760 mt 
(0) s
1642 4615 mt 1642 4561 L
1642  389 mt 1642  442 L
1576 4760 mt 
(50) s
2386 4615 mt 2386 4561 L
2386  389 mt 2386  442 L
2286 4760 mt 
(100) s
3130 4615 mt 3130 4561 L
3130  389 mt 3130  442 L
3030 4760 mt 
(150) s
3874 4615 mt 3874 4561 L
3874  389 mt 3874  442 L
3774 4760 mt 
(200) s
4618 4615 mt 4618 4561 L
4618  389 mt 4618  442 L
4518 4760 mt 
(250) s
5362 4615 mt 5362 4561 L
5362  389 mt 5362  442 L
5262 4760 mt 
(300) s
6106 4615 mt 6106 4561 L
6106  389 mt 6106  442 L
6006 4760 mt 
(350) s
 899 4615 mt  952 4615 L
6255 4615 mt 6201 4615 L
 628 4659 mt 
(-0.1) s
 899 4192 mt  952 4192 L
6255 4192 mt 6201 4192 L
 798 4236 mt 
(0) s
 899 3769 mt  952 3769 L
6255 3769 mt 6201 3769 L
 698 3813 mt 
(0.1) s
 899 3347 mt  952 3347 L
6255 3347 mt 6201 3347 L
 698 3391 mt 
(0.2) s
 899 2924 mt  952 2924 L
6255 2924 mt 6201 2924 L
 698 2968 mt 
(0.3) s
 899 2502 mt  952 2502 L
6255 2502 mt 6201 2502 L
 698 2546 mt 
(0.4) s
 899 2079 mt  952 2079 L
6255 2079 mt 6201 2079 L
 698 2123 mt 
(0.5) s
 899 1656 mt  952 1656 L
6255 1656 mt 6201 1656 L
 698 1700 mt 
(0.6) s
 899 1234 mt  952 1234 L
6255 1234 mt 6201 1234 L
 698 1278 mt 
(0.7) s
 899  811 mt  952  811 L
6255  811 mt 6201  811 L
 698  855 mt 
(0.8) s
 899  389 mt  952  389 L
6255  389 mt 6201  389 L
 698  433 mt 
(0.9) s
 899 4615 mt 6255 4615 L
 899  389 mt 6255  389 L
 899 4615 mt  899  389 L
6255 4615 mt 6255  389 L
gs 899 389 5357 4227 MR c np
/c8 { 0.000000 0.000000 1.000000 sr} bdef
c8
1 0 0 1 2 2 0 1 1 -10 1 1 1 1 0 1 
2 2 1 1 1 1 1 1 1 1 1 -9 -1 0 2 2 
1 1 1 1 1 1 1 1 1 1 0 1 2 -8 1 1 
1 1 1 1 1 1 1 1 1 1 0 1 2 2 0 -10 
1 1 1 1 1 1 1 1 0 1 2 2 1 1 0 1 
2 -9 1 1 1 1 0 1 2 2 1 1 1 1 1 1 
1 1 0 -9 1 0 0 1 2 2 1 1 1 1 1 1 
1 1 0 1 2 -9 0 1 1 1 1 1 1 1 1 1 
1 1 1 1 1 1 1 1 0 1 0 -10 1 1 1 1 
1 1 1 1 1 1 1 1 1 1 1 1 0 1 0 -1 
1 -8 1 1 1 1 1 1 1 1 1 1 0 1 2 2 
1 1 0 -10 1 1 1 1 1 1 1 1 0 1 2 2 
1 1 1 1 0 1 6167 4225 100 MP stroke
0 -1 1 -9 1 1 1 1 0 1 2 2 1 1 1 1 
1 1 1 1 1 -9 -1 0 2 2 1 1 1 1 1 1 
1 1 1 1 1 1 0 1 0 -1 1 -8 1 1 1 1 
1 1 1 1 0 1 2 2 1 1 1 1 0 -9 1 1 
1 1 1 1 1 1 1 1 1 1 0 1 2 2 0 -8 
1 0 1 1 1 1 1 1 0 1 2 2 1 1 1 1 
1 1 0 -9 1 1 1 1 1 1 1 1 1 1 1 1 
1 1 1 1 0 1 0 -1 1 -8 1 1 1 1 0 1 
2 2 1 1 1 1 1 1 0 1 0 -10 1 1 1 1 
1 1 1 1 1 1 1 1 1 1 1 1 1 1 0 1 
0 -10 1 1 1 1 1 1 0 1 2 2 1 1 1 1 
1 1 1 -9 -1 0 2 2 1 1 1 1 1 1 1 1 
1 1 1 1 0 1 6083 4226 100 MP stroke
0 -1 1 -8 1 1 1 1 1 1 1 1 0 1 2 2 
1 1 1 1 1 -9 -1 0 2 2 1 1 1 1 1 1 
1 1 1 1 1 1 0 1 0 -10 1 1 1 1 1 1 
1 1 1 1 0 1 2 2 1 1 0 1 0 -1 1 -9 
0 1 2 2 1 1 1 1 1 1 1 1 1 1 1 1 
0 -9 1 1 1 1 1 1 1 1 1 1 1 1 0 1 
2 2 0 -9 1 0 1 1 0 1 2 2 1 1 1 1 
1 1 1 1 0 1 0 -1 1 -8 1 1 1 1 1 1 
1 1 1 1 0 1 2 2 1 1 0 -10 1 1 1 1 
1 1 0 1 2 2 1 1 1 1 1 1 0 -9 1 1 
1 1 1 1 1 1 1 1 1 1 1 1 1 1 0 1 
0 -1 1 -8 1 1 1 1 1 1 1 1 0 1 2 2 
1 1 1 1 1 -9 5998 4237 100 MP stroke
-1 0 2 2 1 1 1 1 1 1 1 1 1 1 1 1 
0 1 0 -10 1 1 1 1 1 1 1 1 1 1 1 1 
0 1 2 2 0 -9 1 0 1 1 0 1 2 2 1 1 
1 1 1 1 1 1 1 1 0 -9 1 1 1 1 1 1 
1 1 1 1 0 1 2 2 1 1 0 -9 1 0 1 1 
0 1 2 2 1 1 1 1 1 1 1 1 0 1 0 -1 
1 -8 1 1 1 1 1 1 1 1 0 1 2 2 1 1 
1 1 0 -9 1 1 1 1 1 1 1 1 0 1 2 2 
1 1 1 1 0 -9 1 1 1 1 1 1 1 1 0 1 
2 2 1 1 1 1 0 1 1 -9 -1 0 2 2 1 1 
1 1 1 1 1 1 1 1 1 1 1 1 0 -8 1 1 
1 1 1 1 1 1 1 1 1 1 1 1 1 1 0 1 
0 -9 1 1 1 1 5914 4234 100 MP stroke
1 1 1 1 1 1 1 1 1 1 1 1 0 1 0 -9 
1 1 1 1 1 1 1 1 1 1 1 1 1 1 1 1 
0 1 0 -1 1 -8 1 1 0 1 2 2 1 1 1 1 
1 1 0 1 2 -8 1 1 1 1 1 1 1 1 1 1 
1 1 0 1 2 2 0 -11 0 1 2 2 1 1 1 1 
1 1 1 1 1 1 1 1 0 1 0 -12 1 1 1 1 
0 1 2 2 1 1 1 1 1 1 1 1 0 1 0 -10 
1 1 1 1 1 1 1 1 1 1 0 1 2 2 1 1 
1 -9 -1 0 2 2 1 1 1 1 1 1 1 1 1 1 
1 1 0 1 0 -1 1 -8 1 1 1 1 0 1 2 2 
1 1 1 1 0 1 2 -8 1 1 1 1 1 1 1 1 
1 1 0 1 2 2 1 1 0 -10 0 1 2 2 1 1 
1 1 1 1 1 1 5828 4234 100 MP stroke
1 1 1 1 0 1 0 -10 1 1 1 1 1 1 0 1 
2 2 1 1 1 1 1 1 0 -9 1 1 1 1 1 1 
1 1 1 1 1 1 0 1 2 2 0 -9 1 0 1 1 
0 1 2 2 1 1 1 1 1 1 0 1 2 -8 1 1 
1 1 1 1 1 1 0 1 2 2 1 1 1 1 0 -10 
0 1 2 2 1 1 1 1 1 1 1 1 1 1 1 1 
0 1 0 -10 1 1 1 1 1 1 0 1 2 2 1 1 
1 1 1 1 0 -9 1 1 1 1 1 1 1 1 1 1 
0 1 2 2 1 1 0 -9 1 0 0 1 2 2 1 1 
1 1 1 1 1 1 1 1 0 1 0 -1 1 -8 1 1 
1 1 0 1 2 2 1 1 1 1 0 1 2 -8 1 1 
1 1 1 1 1 1 1 1 0 1 2 2 1 1 0 -9 
1 1 1 1 1 1 5741 4239 100 MP stroke
1 1 1 1 1 1 0 1 2 2 1 -9 -1 0 2 2 
1 1 1 1 1 1 1 1 1 1 1 1 0 1 0 -1 
1 -8 1 1 0 1 2 2 1 1 1 1 1 1 1 1 
0 1 0 -10 1 1 1 1 1 1 1 1 0 1 2 2 
1 1 1 1 0 -9 1 1 1 1 1 1 1 1 1 1 
0 1 2 2 1 1 0 -9 1 1 1 1 1 1 1 1 
1 1 1 1 1 1 1 1 0 1 1 -9 -1 0 2 2 
1 1 1 1 1 1 1 1 1 1 1 1 0 1 0 -1 
1 -8 1 1 0 1 2 2 1 1 1 1 1 1 1 1 
0 1 0 -1 1 -8 1 1 1 1 1 1 0 1 2 2 
1 1 1 1 0 -9 1 1 1 1 1 1 1 1 1 1 
1 1 0 1 2 2 0 -9 1 1 1 1 1 1 1 1 
1 1 1 1 1 1 5657 4237 100 MP stroke
1 1 0 1 0 -1 1 -8 0 1 2 2 1 1 1 1 
1 1 1 1 1 1 0 1 0 -1 1 -8 1 1 0 1 
2 2 1 1 1 1 1 1 1 1 0 1 0 -1 1 -8 
1 1 1 1 1 1 0 1 2 2 1 1 1 1 0 1 
0 -1 1 -8 1 1 1 1 1 1 1 1 1 1 0 1 
2 2 0 1 0 -10 1 1 1 1 1 1 1 1 1 1 
1 1 0 1 2 2 1 -9 0 1 1 1 1 1 1 1 
1 1 1 1 1 1 0 1 2 -8 0 1 1 1 1 1 
1 1 1 1 1 1 1 1 0 1 2 -8 1 1 0 1 
2 2 1 1 1 1 1 1 0 1 2 -8 1 1 0 1 
2 2 1 1 1 1 1 1 0 1 2 -8 0 1 2 2 
1 1 1 1 1 1 1 1 1 1 1 1 0 -9 0 1 
2 2 1 1 1 1 5571 4240 100 MP stroke
1 1 1 1 1 1 1 1 0 -9 0 1 2 2 1 1 
1 1 1 1 1 1 1 1 1 1 0 -9 1 1 1 1 
0 1 2 2 1 1 1 1 1 1 1 1 1 -8 -1 0 
2 2 1 1 1 1 1 1 1 1 1 1 1 1 0 -8 
1 1 1 1 1 1 1 1 1 1 1 1 0 1 2 -7 
1 1 1 1 1 1 1 1 0 1 2 2 1 1 0 -8 
1 0 1 1 1 1 1 1 1 1 0 1 2 2 1 1 
0 -9 1 1 1 1 1 1 1 1 1 1 1 1 1 1 
1 1 0 1 0 -10 1 1 1 1 1 1 1 1 1 1 
0 1 2 2 1 1 1 -10 -1 0 2 2 1 1 1 1 
1 1 1 1 1 1 1 1 0 1 1 -9 -1 0 2 2 
1 1 1 1 1 1 1 1 1 1 1 1 0 1 0 -9 
1 1 1 1 1 1 5485 4244 100 MP stroke
1 1 1 1 1 1 1 1 1 1 0 -8 1 1 1 1 
1 1 1 1 1 1 1 1 0 1 2 -8 0 1 2 2 
1 1 1 1 1 1 1 1 0 1 2 -8 0 1 2 2 
1 1 1 1 1 1 1 1 1 1 0 1 1 -9 -1 0 
2 2 1 1 1 1 1 1 1 1 1 1 1 1 0 1 
1 -9 -1 0 2 2 1 1 1 1 1 1 1 1 1 1 
1 1 0 1 0 -9 1 1 1 1 1 1 1 1 1 1 
1 1 0 1 2 2 0 -9 1 1 1 1 1 1 1 1 
1 1 1 1 0 1 2 2 0 -9 1 1 1 1 1 1 
1 1 1 1 0 1 2 2 1 1 0 -9 1 1 1 1 
1 1 1 1 0 1 2 2 1 1 1 1 0 -9 1 1 
1 1 1 1 0 1 2 2 1 1 0 1 2 -8 1 1 
1 1 1 1 1 1 5397 4244 100 MP stroke
0 1 2 2 1 1 0 1 0 -1 1 -8 1 1 1 1 
1 1 1 1 1 1 0 1 2 2 0 -9 1 0 0 1 
2 2 1 1 1 1 1 1 1 1 1 1 0 1 0 -10 
1 1 1 1 1 1 1 1 0 1 2 2 1 1 1 1 
0 -9 1 1 1 1 1 1 0 1 2 2 1 1 1 1 
1 1 0 -9 1 1 1 1 0 1 2 2 1 1 1 1 
0 1 2 -8 1 1 1 1 0 1 2 2 1 1 1 1 
1 1 0 1 0 -1 1 -8 1 1 0 1 2 2 1 1 
1 1 1 1 1 1 0 1 0 -1 1 -8 0 1 2 2 
1 1 1 1 1 1 1 1 1 1 1 -8 -1 0 2 2 
1 1 1 1 1 1 1 1 0 1 2 -8 0 1 1 1 
1 1 1 1 1 1 1 1 1 1 1 1 0 1 0 -9 
1 1 1 1 1 1 5313 4248 100 MP stroke
1 1 1 1 1 1 0 1 2 2 0 -9 1 1 1 1 
1 1 1 1 1 1 0 1 2 2 1 1 0 -9 1 1 
1 1 0 1 2 2 1 1 1 1 1 1 0 1 0 -1 
1 -8 1 1 0 1 2 2 1 1 1 1 1 1 1 1 
0 1 1 -9 -1 0 2 2 1 1 1 1 1 1 1 1 
1 1 1 1 0 1 0 -9 1 1 1 1 1 1 1 1 
1 1 1 1 0 1 2 2 0 -9 1 1 1 1 1 1 
0 1 2 2 1 1 1 1 0 1 0 -1 1 -8 1 1 
0 1 2 2 1 1 1 1 1 1 1 1 0 1 0 -9 
1 1 1 1 1 1 1 1 1 1 1 1 0 1 2 2 
0 -9 1 1 1 1 0 1 2 2 1 1 1 1 1 1 
1 1 0 -9 0 1 2 2 1 1 1 1 1 1 1 1 
1 1 0 1 0 -9 5231 4251 100 MP stroke
1 1 1 1 1 1 1 1 1 1 1 1 1 1 1 1 
0 1 0 -9 1 1 1 1 1 1 1 1 1 1 1 1 
0 1 2 2 0 -9 1 1 1 1 1 1 1 1 1 1 
1 1 0 1 2 -8 1 1 1 1 1 1 1 1 0 1 
2 2 1 1 0 -8 1 0 0 1 2 2 1 1 1 1 
1 1 1 1 1 1 0 -8 1 1 1 1 1 1 1 1 
1 1 0 1 2 2 1 -8 1 1 0 1 2 2 1 1 
1 1 1 1 1 1 1 -8 -1 0 2 2 1 1 1 1 
1 1 1 1 1 1 1 1 0 -8 1 1 1 1 1 1 
1 1 1 1 1 1 1 1 0 1 1 -9 -1 0 2 2 
1 1 1 1 1 1 1 1 1 1 1 1 0 -9 1 1 
1 1 1 1 0 1 2 2 1 1 1 1 0 1 0 -1 
1 -8 1 1 0 1 5145 4252 100 MP stroke
2 2 1 1 1 1 1 1 1 1 0 -8 1 1 1 1 
1 1 1 1 1 1 1 1 0 1 2 -7 1 1 1 1 
1 1 1 1 0 1 2 2 1 1 0 -8 1 0 1 1 
0 1 2 2 1 1 1 1 1 1 1 1 0 -8 1 1 
1 1 1 1 1 1 1 1 1 1 1 1 0 1 0 -1 
1 -7 1 1 1 1 1 1 0 1 2 2 1 1 1 1 
1 -8 -1 0 2 2 1 1 1 1 1 1 1 1 0 1 
2 -7 1 1 1 1 1 1 0 1 2 2 1 1 1 1 
0 -8 1 1 1 1 1 1 1 1 1 1 1 1 1 1 
1 1 0 -8 1 1 1 1 0 1 2 2 1 1 1 1 
1 1 0 1 0 -9 1 1 1 1 1 1 1 1 1 1 
1 1 1 1 1 1 0 1 0 -9 1 1 1 1 0 1 
2 2 1 1 1 1 5057 4247 100 MP stroke
0 1 2 -8 0 1 2 2 1 1 1 1 1 1 1 1 
1 1 0 1 0 -1 1 -8 0 1 2 2 1 1 1 1 
1 1 1 1 1 1 0 -9 1 1 1 1 1 1 0 1 
2 2 1 1 1 1 0 -9 1 0 1 1 1 1 0 1 
2 2 1 1 1 1 1 1 0 -8 1 1 1 1 1 1 
1 1 1 1 1 1 1 1 0 1 0 -1 1 -7 1 1 
1 1 1 1 0 1 2 2 1 1 1 1 0 -9 1 1 
0 1 2 2 1 1 1 1 1 1 1 1 0 1 0 -9 
1 1 1 1 1 1 1 1 1 1 1 1 0 1 2 -7 
1 1 1 1 0 1 2 2 1 1 1 1 1 1 0 -8 
1 1 1 1 1 1 1 1 1 1 1 1 1 1 0 1 
0 -1 1 -7 1 1 1 1 1 1 0 1 2 2 1 1 
1 1 1 -8 -1 0 4973 4257 100 MP stroke
2 2 1 1 1 1 1 1 1 1 1 1 0 1 0 -1 
1 -7 1 1 1 1 1 1 0 1 2 2 1 1 1 1 
0 -8 1 1 1 1 1 1 1 1 1 1 1 1 1 1 
0 1 0 -1 1 -7 1 1 1 1 0 1 2 2 1 1 
1 1 1 1 0 -8 1 1 1 1 1 1 1 1 1 1 
1 1 1 1 0 1 1 -8 -1 0 2 2 1 1 1 1 
1 1 1 1 0 1 2 -7 1 1 1 1 0 1 2 2 
1 1 1 1 1 1 0 -8 1 1 1 1 1 1 1 1 
0 1 2 2 1 1 0 -7 1 0 1 1 1 1 1 1 
1 1 1 1 0 1 2 2 0 -8 1 1 1 1 1 1 
1 1 1 1 1 1 1 1 0 1 0 -1 1 -7 1 1 
0 1 2 2 1 1 1 1 1 1 1 1 0 -8 1 1 
1 1 1 1 1 1 4887 4252 100 MP stroke
1 1 1 1 1 1 0 1 0 -9 1 1 1 1 1 1 
1 1 1 1 1 1 0 1 2 -8 0 1 2 2 1 1 
1 1 1 1 1 1 1 1 0 1 1 -10 -1 0 2 2 
1 1 1 1 1 1 1 1 0 1 2 -7 1 1 1 1 
1 1 0 1 2 2 1 1 1 1 0 -8 1 1 1 1 
1 1 1 1 1 1 1 1 1 1 0 1 0 -1 1 -7 
1 1 1 1 0 1 2 2 1 1 1 1 0 1 0 -9 
1 1 1 1 1 1 1 1 1 1 1 1 1 1 1 1 
0 -8 1 1 0 1 2 2 1 0 -1 0 2 2 1 1 
1 1 0 -8 1 1 1 1 1 1 1 1 1 1 1 1 
1 1 0 1 0 -1 1 -7 1 1 1 1 0 1 2 2 
1 1 0 1 2 -7 1 1 1 1 1 1 1 1 1 1 
1 1 1 1 0 1 4803 4252 100 MP stroke
0 -8 1 1 1 1 1 1 1 1 1 1 1 1 1 1 
0 1 0 -1 1 -7 1 1 1 1 0 1 2 2 1 1 
1 1 0 1 0 -1 1 -7 1 1 1 1 1 1 1 1 
1 1 0 1 2 2 0 -8 1 1 1 1 1 1 1 1 
1 1 1 1 1 1 0 1 0 -8 1 1 1 1 1 1 
1 1 1 1 1 1 1 1 0 1 0 -8 1 1 1 1 
1 1 1 1 1 1 1 1 0 1 2 -6 1 1 1 1 
1 1 1 1 1 1 1 1 1 1 0 -7 1 1 1 1 
1 1 1 1 1 1 1 1 1 1 0 1 0 -8 1 1 
1 1 1 1 1 1 1 1 1 1 1 1 0 1 0 -1 
1 -7 1 1 0 1 2 2 1 1 1 1 1 1 1 1 
0 -8 1 1 1 1 1 1 1 1 1 1 0 1 2 2 
0 -8 1 0 1 1 4721 4258 100 MP stroke
1 1 0 1 2 2 1 1 1 1 0 -9 1 1 1 1 
1 1 1 1 1 1 1 1 0 1 2 -9 0 1 1 1 
1 1 1 1 1 1 1 1 1 1 1 1 0 -7 1 0 
1 1 0 1 2 2 1 1 1 1 1 1 0 -8 1 1 
1 1 1 1 1 1 1 1 1 1 1 1 0 1 0 -8 
1 1 1 1 1 1 1 1 1 1 1 1 1 1 0 1 
0 -1 1 -7 0 1 2 2 1 1 1 1 1 1 1 1 
0 1 0 -1 1 -7 1 1 1 1 0 1 2 2 1 0 
-1 0 2 2 0 1 1 -8 1 1 1 1 1 1 1 1 
1 1 1 1 1 1 0 -7 1 1 1 1 1 1 1 1 
1 1 1 1 1 1 0 -7 1 1 1 1 1 1 1 1 
1 1 1 1 1 1 0 -7 1 0 0 1 2 2 1 1 
1 1 1 1 1 1 4637 4256 100 MP stroke
0 -7 1 0 1 1 0 1 2 2 1 1 1 1 1 1 
0 -7 1 0 1 1 0 1 2 2 1 1 1 1 1 1 
0 1 0 -1 1 -7 1 1 0 1 2 2 1 1 1 1 
0 1 2 -7 0 1 1 1 1 1 1 1 1 1 1 1 
1 1 1 1 0 -7 1 1 1 1 1 1 1 1 1 1 
1 1 1 1 0 -7 1 1 1 1 1 1 1 1 1 1 
1 1 1 1 0 1 0 -8 1 1 1 1 1 1 1 1 
1 1 1 1 1 1 0 1 0 -1 1 -6 1 1 1 1 
1 1 1 1 1 1 1 1 0 1 0 -1 1 -6 1 1 
1 1 1 1 1 1 1 1 1 1 0 1 0 -1 1 -6 
1 1 1 1 1 1 1 1 1 1 0 1 2 -7 1 1 
1 1 1 1 1 1 1 1 1 1 1 1 0 -8 1 0 
0 1 2 2 1 1 4554 4259 100 MP stroke
1 1 1 1 1 1 0 -10 1 1 1 1 1 1 1 1 
1 1 1 1 1 1 0 1 0 -8 1 1 1 1 1 1 
1 1 1 1 1 1 1 1 0 1 0 -8 1 1 1 1 
1 1 1 1 1 1 1 1 1 1 0 -7 1 1 1 1 
1 1 1 1 1 1 1 1 1 1 1 -7 -1 0 2 2 
1 0 -1 0 2 2 1 1 1 1 1 1 0 -7 1 0 
0 1 2 2 1 1 1 1 1 1 1 1 0 -7 1 0 
0 1 2 2 1 1 1 1 1 1 1 1 0 -7 1 1 
1 1 1 1 1 1 1 1 1 1 1 1 1 -7 -1 0 
2 2 1 1 1 1 1 1 1 1 1 1 0 -7 1 1 
1 1 1 1 1 1 1 1 1 1 1 1 0 -7 1 1 
1 1 1 1 1 1 1 1 1 1 1 1 0 -7 1 1 
1 1 1 1 1 1 4470 4262 100 MP stroke
1 1 1 1 1 1 0 -7 1 1 1 1 1 1 1 1 
1 1 1 1 1 1 0 1 0 -1 1 -6 0 1 2 2 
1 1 1 1 1 1 1 1 0 -7 1 1 1 1 1 1 
1 1 1 1 1 1 1 1 0 -7 1 1 1 1 1 1 
1 1 1 1 0 1 2 2 0 -7 1 1 1 1 1 1 
1 1 1 1 1 1 1 1 0 -7 1 1 1 1 1 1 
1 1 1 1 1 1 1 1 0 -7 1 1 1 1 1 1 
1 1 1 1 1 1 1 1 0 -7 1 1 1 1 1 1 
1 1 1 1 1 1 1 1 0 -8 1 1 1 1 1 1 
1 1 1 1 1 1 1 1 0 1 0 -9 1 1 1 1 
1 1 1 1 1 1 1 1 1 1 0 -9 1 0 1 1 
1 1 0 1 2 2 1 1 1 1 0 -7 1 0 1 1 
1 1 0 1 2 2 4385 4263 100 MP stroke
1 1 1 1 0 -8 1 1 1 1 1 1 0 1 2 2 
1 1 1 -7 1 1 0 1 2 2 1 1 1 1 1 1 
0 -7 1 0 0 1 2 2 1 1 1 1 1 1 1 1 
1 -7 -1 0 2 2 1 1 1 1 1 1 1 1 1 1 
0 -7 1 1 1 1 1 1 1 1 1 1 1 1 1 1 
0 -7 1 1 1 1 1 1 1 1 1 1 1 1 1 1 
0 -7 1 1 1 1 1 1 1 1 1 1 0 1 2 -6 
1 1 1 1 1 1 1 1 1 1 1 1 0 1 0 -1 
1 -6 1 1 1 1 1 1 1 1 1 1 1 1 0 1 
0 -7 1 1 1 1 1 1 1 1 1 1 1 1 1 1 
0 -7 1 1 1 1 1 1 1 1 1 1 1 1 1 1 
0 -6 1 0 1 1 1 1 1 1 0 1 2 2 1 0 
0 1 0 -7 1 1 4300 4267 100 MP stroke
1 1 1 1 1 1 1 1 0 1 2 -6 1 1 0 1 
2 2 1 0 -1 0 2 2 1 1 0 -6 1 0 1 1 
1 1 1 1 1 1 1 1 1 1 0 1 0 -7 1 1 
1 0 -1 0 2 2 1 1 1 1 1 1 1 1 0 -6 
1 0 1 1 1 1 1 1 1 1 1 1 1 1 0 -6 
1 0 1 1 1 1 1 1 1 1 1 1 1 1 0 -7 
1 1 1 1 1 1 1 1 1 1 1 1 1 1 0 -8 
1 1 1 1 1 1 1 1 1 1 0 1 2 -7 1 1 
1 1 1 1 1 1 1 1 1 1 0 1 0 -1 1 -9 
1 1 1 1 1 1 1 1 1 1 1 1 0 1 0 -1 
1 -6 1 1 1 1 1 1 1 1 1 1 1 1 0 -7 
1 1 1 1 1 1 1 1 1 1 0 1 2 -6 1 1 
1 1 1 1 1 1 4215 4269 100 MP stroke
1 1 1 1 0 1 0 -1 1 -6 1 1 0 1 2 2 
1 1 1 0 -1 0 2 2 0 -7 1 1 1 1 1 1 
1 1 1 1 1 1 1 1 0 -6 1 0 1 1 1 1 
0 1 2 2 1 0 0 1 0 -1 1 -5 1 1 1 1 
1 1 1 1 1 1 1 1 0 1 0 -7 1 1 1 1 
1 1 1 1 1 1 1 1 1 1 0 -7 1 1 1 1 
1 1 1 1 1 1 1 1 0 1 0 -7 1 1 1 1 
1 1 1 1 1 1 1 1 1 1 0 -6 1 0 1 1 
1 1 1 1 1 1 1 1 1 1 0 -6 1 1 1 1 
1 1 1 1 1 1 0 1 2 -6 0 1 1 1 1 0 
0 1 2 2 1 1 1 0 0 1 0 -1 1 -5 1 1 
1 1 1 1 1 1 1 1 1 1 0 1 0 -7 1 1 
1 1 1 1 1 1 4135 4266 100 MP stroke
1 1 1 1 1 1 0 -6 1 1 1 1 1 1 1 1 
1 1 1 1 0 1 0 -1 1 -6 0 1 2 2 1 1 
1 0 -1 0 2 2 1 1 0 -7 1 1 1 1 1 1 
1 1 1 1 1 1 1 1 0 -7 1 1 1 1 1 1 
1 1 1 1 1 1 0 1 1 -8 -1 0 2 2 1 0 
1 1 1 1 1 1 1 1 0 1 0 -1 1 -7 1 1 
1 1 1 1 1 1 1 1 1 1 0 -9 1 0 1 1 
1 1 1 1 1 1 0 1 2 -5 1 1 1 1 1 1 
1 1 1 1 1 1 0 -6 1 0 1 1 1 1 1 1 
1 1 0 1 2 -5 1 0 1 1 1 1 1 1 1 1 
1 1 0 1 0 -7 1 1 1 1 1 1 1 1 1 1 
1 1 1 1 0 -7 1 1 1 1 1 1 1 1 1 1 
1 1 0 1 0 -7 4053 4275 100 MP stroke
1 1 1 1 1 1 1 1 1 1 1 1 1 1 0 -7 
1 1 1 1 1 1 1 1 1 1 1 1 0 1 0 -7 
1 1 1 1 1 1 1 1 1 0 -1 0 2 2 1 1 
0 -7 1 1 1 1 1 1 1 1 1 1 1 1 0 1 
0 -1 1 -5 1 1 1 1 1 1 1 1 1 1 1 1 
0 -6 1 0 1 1 1 1 1 1 1 1 0 1 2 -5 
1 1 1 1 1 1 1 1 1 1 1 1 0 -6 1 1 
1 1 1 1 1 1 1 1 0 1 2 -5 1 1 1 1 
1 1 1 1 1 1 1 1 0 -6 1 1 1 1 1 1 
1 1 1 1 1 1 1 1 0 -6 1 1 1 1 1 1 
1 1 1 1 1 1 0 -6 1 1 1 1 1 0 -1 0 
2 2 1 1 1 1 1 0 0 1 0 -1 1 -5 1 1 
1 1 1 1 1 1 3969 4267 100 MP stroke
1 1 0 1 0 -1 1 -5 1 1 1 1 1 1 1 1 
1 1 1 1 0 -7 1 1 1 1 1 1 1 1 1 1 
1 1 0 -7 1 0 1 1 1 1 1 1 1 1 1 1 
1 1 0 -8 1 0 1 1 1 1 1 1 1 1 0 1 
2 -9 0 1 2 2 1 0 1 1 1 1 1 1 0 1 
0 -7 1 1 1 1 1 1 1 1 1 1 1 1 0 -6 
1 0 1 1 1 1 1 1 1 1 1 1 1 1 0 -6 
1 1 1 0 1 1 1 1 1 1 1 1 0 1 0 -1 
1 -5 1 1 1 1 1 1 1 1 1 1 1 1 0 -6 
1 1 1 1 1 1 1 1 1 1 1 1 0 -6 1 1 
1 1 1 1 1 1 1 1 1 1 0 -5 1 1 1 0 
1 1 1 1 1 1 1 1 1 1 0 -6 1 1 1 1 
1 1 1 1 1 1 3885 4273 100 MP stroke
1 1 0 -5 1 0 1 1 1 1 1 1 1 1 1 1 
1 1 0 -6 1 1 1 1 1 1 1 1 1 0 1 1 
0 1 0 -1 1 -5 1 1 1 1 1 1 1 1 1 1 
0 1 0 -6 1 1 1 0 1 1 1 1 1 1 1 1 
1 1 0 -5 1 1 1 0 1 1 1 1 1 1 1 1 
0 1 0 -6 1 1 1 1 1 1 1 0 1 1 1 1 
1 1 0 -5 1 1 1 1 1 1 1 1 1 1 1 1 
0 -5 1 0 1 1 1 1 1 1 1 1 1 1 0 -5 
1 0 1 1 1 1 1 1 1 1 1 1 1 1 0 -6 
1 1 1 1 1 1 1 1 1 1 1 1 0 -5 1 0 
1 1 1 1 1 1 1 1 1 1 1 -6 1 1 1 1 
1 1 1 1 1 1 1 1 0 -7 1 1 1 1 1 1 
1 1 1 0 1 1 3801 4270 100 MP stroke
0 1 0 -1 1 -7 1 1 1 1 1 1 1 1 1 1 
1 1 0 -9 1 1 1 1 1 0 1 1 1 1 1 1 
0 1 0 -1 1 -5 1 1 1 1 1 1 1 1 1 1 
0 1 0 -1 1 -5 1 1 1 1 1 1 1 1 1 1 
1 1 0 -6 1 1 1 0 1 1 1 1 1 1 1 1 
0 -5 1 0 1 1 1 1 1 1 1 1 1 1 0 -5 
1 0 1 1 1 1 1 1 1 1 1 1 0 -5 1 0 
1 1 1 1 1 1 1 1 1 0 1 1 0 -5 1 1 
1 0 1 1 1 1 1 1 1 1 0 -5 1 0 1 1 
1 1 1 1 1 1 1 1 0 -5 1 0 1 1 1 1 
1 1 1 1 1 1 0 1 0 -1 1 -5 1 1 1 1 
1 1 1 1 1 1 1 1 0 -5 1 0 1 1 1 1 
1 1 1 1 1 1 3719 4274 100 MP stroke
0 -5 1 0 1 1 1 1 1 1 1 1 1 1 0 1 
0 -6 1 1 1 1 1 1 1 1 1 0 1 1 0 1 
0 -1 1 -4 1 1 1 1 1 1 1 1 1 1 1 1 
0 -6 1 1 1 1 1 1 1 1 1 1 1 1 0 -5 
1 1 1 1 1 0 1 1 1 1 1 1 0 1 0 -6 
1 1 1 1 1 1 1 1 1 0 1 1 0 1 0 -1 
1 -4 1 1 1 1 1 1 1 1 1 0 1 1 0 -5 
1 1 1 0 1 1 1 1 1 1 1 1 0 -6 1 1 
1 1 1 1 1 0 1 1 1 1 0 1 0 -1 1 -6 
1 1 1 1 1 1 1 1 1 1 0 -8 1 0 1 1 
1 1 1 1 1 1 1 1 1 1 0 -10 1 1 1 1 
1 1 1 1 1 1 1 1 0 -6 1 1 1 1 1 1 
1 0 1 1 1 1 3638 4280 100 MP stroke
0 1 0 -1 1 -5 1 1 1 1 1 1 1 1 1 1 
0 -5 1 0 1 1 1 1 1 1 1 1 1 0 0 1 
0 -6 1 1 1 1 1 1 1 0 1 1 1 1 0 1 
0 -6 1 1 1 0 1 1 1 1 1 1 1 1 0 1 
0 -1 1 -4 1 1 1 1 1 1 1 0 0 1 2 -4 
1 1 1 1 1 1 1 1 1 1 1 1 0 -4 1 1 
1 1 1 0 1 1 1 1 1 1 0 -5 1 1 1 1 
1 0 1 1 1 1 1 1 0 -5 1 1 1 1 1 1 
1 0 1 1 1 1 0 -5 1 1 1 1 1 1 1 1 
1 1 1 0 0 1 0 -1 1 -4 1 1 1 1 1 1 
1 1 1 1 0 -5 1 1 1 1 1 0 1 1 1 1 
1 1 0 -4 1 0 1 1 1 1 1 1 1 1 1 0 
0 1 0 -1 1 -4 3558 4281 100 MP stroke
1 1 1 1 1 1 1 1 1 1 0 1 0 -1 1 -4 
1 1 1 1 1 1 1 1 1 0 -1 0 2 -3 1 1 
1 0 1 1 1 1 1 1 1 1 0 -5 1 1 1 1 
1 1 1 1 1 1 1 0 0 -4 1 0 1 1 1 1 
1 1 1 1 1 1 0 -5 1 0 1 1 1 1 1 1 
1 1 1 1 0 -6 1 1 1 1 1 1 1 0 1 1 
1 1 0 -6 1 1 1 0 1 1 1 1 1 1 1 1 
0 -7 1 0 1 1 1 1 1 1 1 1 1 0 0 1 
0 -1 1 -8 1 1 1 1 1 1 1 1 1 1 0 -5 
1 0 1 1 1 1 1 1 1 1 1 1 0 -5 1 0 
1 1 1 1 1 1 1 1 1 1 0 -5 1 0 1 1 
1 1 1 1 1 1 1 1 0 -5 1 0 1 1 1 1 
1 1 1 1 1 1 3474 4281 100 MP stroke
0 -5 1 0 1 1 1 1 1 1 1 1 1 1 0 -5 
1 0 1 1 1 1 1 1 1 1 1 1 0 -5 1 1 
1 0 1 1 1 1 1 1 1 1 0 -5 1 1 1 1 
1 0 1 1 1 1 1 1 0 -4 1 0 1 1 1 1 
1 1 1 1 1 0 0 1 0 -1 1 -4 1 1 1 1 
1 1 1 1 1 1 0 -5 1 1 1 1 1 1 1 0 
1 1 1 1 0 -4 1 0 1 1 1 1 1 1 1 1 
1 1 0 -5 1 1 1 1 1 1 1 1 1 0 1 1 
0 -4 1 1 1 0 1 1 1 1 1 1 1 1 0 -4 
1 0 1 1 1 1 1 1 1 1 1 -4 1 1 1 1 
1 1 1 1 1 0 -1 0 2 -3 1 0 1 1 1 1 
1 1 1 1 1 -4 1 1 1 1 1 0 1 1 1 1 
0 1 0 -1 1 -4 3390 4281 100 MP stroke
1 1 1 0 1 1 1 1 1 1 0 1 0 -1 1 -5 
1 1 1 1 1 1 1 0 1 1 0 1 0 -7 1 1 
1 0 1 1 1 1 1 1 1 1 0 -7 1 0 1 1 
1 1 1 0 1 1 1 1 0 1 0 -10 1 1 1 1 
1 0 1 1 1 1 1 1 0 -5 1 0 1 1 1 1 
1 1 1 1 1 1 0 -5 1 0 1 1 1 1 1 1 
1 1 1 0 0 -5 1 1 1 1 1 1 1 0 0 1 
2 -4 1 1 1 1 1 1 1 0 1 1 0 1 0 -1 
1 -4 1 1 1 1 1 1 1 0 1 1 0 1 0 -1 
1 -4 1 1 1 1 1 1 1 1 1 0 0 1 0 -1 
1 -3 1 1 1 1 1 0 1 1 1 1 0 -3 1 0 
1 1 1 1 1 1 1 0 -1 0 2 -2 1 1 1 1 
1 1 1 0 1 1 3309 4285 100 MP stroke
0 1 0 -1 1 -4 1 1 1 1 1 1 1 1 1 1 
0 -4 1 0 1 1 1 1 1 0 1 1 1 1 0 -4 
1 0 1 1 1 1 1 1 1 1 1 0 0 1 0 -5 
1 1 1 1 1 1 1 0 1 1 1 1 0 -4 1 1 
1 1 1 0 1 1 1 1 0 1 0 -1 1 -3 1 0 
1 1 1 1 1 1 1 1 0 -4 1 0 1 1 1 1 
1 1 1 1 1 1 0 -4 1 0 1 1 1 1 1 1 
1 1 1 0 0 1 0 -1 1 -3 1 1 1 1 1 1 
1 0 1 1 0 -4 1 1 1 1 1 1 1 0 1 1 
0 1 0 -1 1 -3 1 0 1 1 1 1 1 1 1 1 
0 -4 1 0 1 1 1 0 1 1 1 1 1 1 0 -5 
1 0 1 1 1 1 1 1 1 1 1 0 0 1 0 -1 
1 -5 1 1 1 1 3230 4283 100 MP stroke
1 1 1 0 1 1 0 -7 1 1 1 1 1 0 1 1 
1 1 0 1 0 -1 1 -8 1 1 1 1 1 1 1 0 
1 1 0 1 0 -1 1 -4 1 1 1 1 1 1 1 1 
1 0 0 1 0 -5 1 1 1 0 1 1 1 1 1 1 
1 -4 1 1 1 1 1 0 1 1 1 1 0 -4 1 0 
1 1 1 1 1 1 1 0 1 1 0 -4 1 1 1 0 
1 1 1 1 1 1 1 -4 1 1 1 1 1 1 1 0 
1 1 0 1 0 -5 1 1 1 0 1 1 1 1 1 1 
1 1 0 -5 1 1 1 1 1 1 1 0 0 1 2 -3 
1 1 1 0 1 1 1 1 1 1 0 -4 1 0 1 1 
1 1 1 1 1 0 1 1 0 -4 1 1 1 1 1 1 
1 0 1 1 0 1 0 -1 1 -3 1 1 1 0 1 1 
1 1 1 1 0 -4 3148 4290 100 MP stroke
1 1 1 1 1 0 1 1 1 1 1 1 0 -4 1 1 
1 0 1 1 1 1 1 1 0 -3 1 0 1 1 1 0 
1 1 1 1 1 1 0 -4 1 1 1 0 1 1 1 1 
1 1 1 1 0 -4 1 1 1 0 1 1 1 1 1 1 
0 -4 1 0 1 1 1 1 1 1 1 1 1 0 0 1 
0 -1 1 -3 1 1 1 0 1 1 1 1 1 1 0 -5 
1 1 1 1 1 0 1 1 1 1 0 -5 1 0 1 1 
1 1 1 1 1 1 1 0 0 1 0 -1 1 -5 1 1 
1 0 1 1 1 1 1 1 0 -7 1 0 1 1 1 1 
1 0 1 1 0 1 0 -1 1 -8 1 1 1 1 1 0 
1 1 1 1 0 -4 1 0 1 1 1 1 1 0 1 1 
0 1 0 -1 1 -4 1 1 1 1 1 1 1 0 1 1 
0 -4 1 0 1 1 3067 4297 100 MP stroke
1 1 1 1 1 0 0 1 0 -1 1 -3 1 0 1 1 
1 1 1 1 1 0 0 1 0 -5 1 1 1 1 1 0 
1 1 1 1 0 1 0 -1 1 -3 1 0 1 1 1 1 
1 1 1 0 0 1 0 -4 1 1 1 1 1 0 1 1 
1 1 1 -2 1 0 1 1 1 1 1 1 1 0 0 1 
0 -3 1 1 1 1 1 0 1 1 1 1 1 -3 1 1 
1 0 1 1 1 1 1 1 0 -4 1 1 1 0 1 1 
1 1 1 1 1 -3 1 0 1 1 1 1 1 0 1 1 
0 -3 1 0 1 1 1 1 1 1 1 0 -1 0 2 -2 
1 0 1 1 1 1 1 1 1 0 0 1 0 -4 1 1 
1 0 1 1 1 1 1 1 1 -3 1 1 1 1 1 0 
1 1 1 1 0 -3 1 0 1 1 1 1 1 0 0 1 
2 -3 1 1 1 1 2984 4288 100 MP stroke
1 1 1 0 1 1 0 -3 1 0 1 1 1 1 1 1 
1 0 -1 0 2 -3 1 1 1 1 1 1 1 0 1 1 
0 -4 1 1 1 0 1 1 1 1 1 1 1 -4 1 0 
1 1 1 1 1 0 1 1 0 -5 1 0 1 1 1 1 
1 1 1 0 -1 0 2 -6 1 1 1 1 1 0 1 1 
1 1 0 -8 1 0 1 1 1 1 1 0 0 1 2 -3 
1 1 1 0 1 1 1 1 1 1 0 -4 1 0 1 1 
1 1 1 1 1 0 0 1 0 -1 1 -3 1 1 1 1 
1 0 1 1 1 1 0 -4 1 1 1 0 1 1 1 1 
1 0 0 1 0 -1 1 -3 1 1 1 1 1 1 1 0 
0 1 0 -1 1 -3 1 1 1 1 1 0 1 1 1 1 
0 -4 1 1 1 0 1 1 1 1 1 1 0 -4 1 1 
1 0 1 1 1 1 2901 4295 100 MP stroke
1 0 0 1 0 -1 1 -3 1 1 1 1 1 1 1 0 
1 1 0 -3 1 0 1 1 1 1 1 0 1 1 0 -3 
1 0 1 1 1 1 1 0 0 1 2 -3 1 1 1 1 
1 0 1 1 1 1 0 -3 1 0 1 1 1 1 1 0 
1 1 0 -3 1 0 1 1 1 1 1 1 1 0 -1 0 
2 -2 1 1 1 0 1 1 1 1 1 0 0 1 0 -1 
1 -2 1 1 1 0 1 1 1 1 0 -3 1 0 1 1 
1 1 1 0 0 1 2 -2 1 0 1 1 1 1 1 1 
1 0 0 -3 1 1 1 1 1 0 1 1 1 1 0 -3 
1 0 1 1 1 0 1 1 1 1 1 0 0 -3 1 0 
1 1 1 1 1 0 1 1 0 -4 1 1 1 0 1 1 
1 1 1 0 0 1 0 -1 1 -4 1 1 1 1 1 0 
1 1 1 1 0 -6 2819 4296 100 MP stroke
1 1 1 0 1 1 1 1 1 1 0 -7 1 0 1 1 
1 1 1 0 1 1 0 1 0 -1 1 -8 1 1 1 1 
1 0 1 1 1 1 0 -4 1 0 1 1 1 1 1 0 
1 1 0 -4 1 1 1 0 1 1 1 1 1 0 0 1 
0 -1 1 -3 1 1 1 1 1 0 1 1 0 -3 1 0 
1 0 1 1 1 1 1 1 1 0 0 -3 1 0 1 1 
1 1 1 0 1 1 0 -3 1 0 1 1 1 1 1 0 
1 1 0 -2 1 0 1 1 1 0 1 1 1 1 0 -2 
1 0 1 1 1 1 1 0 1 1 1 -1 1 1 1 1 
1 0 1 1 1 1 0 -3 1 0 1 1 1 0 1 1 
1 1 0 -3 1 0 1 1 1 1 1 0 1 1 0 -3 
1 1 1 0 1 1 1 1 1 0 0 1 0 -1 1 -2 
1 1 1 0 1 1 2737 4297 100 MP stroke
1 1 1 -3 1 1 1 1 1 0 1 1 1 1 0 -3 
1 1 1 0 1 1 1 1 1 0 0 -2 1 0 1 1 
1 1 1 0 1 1 0 -2 1 0 1 0 1 1 1 1 
1 0 0 1 0 -1 1 -2 1 1 1 1 1 0 0 1 
2 -2 1 1 1 0 1 1 1 1 1 0 0 -3 1 1 
1 1 1 0 1 1 1 1 0 -3 1 0 1 1 1 0 
1 1 1 1 0 -3 1 0 1 0 1 1 1 1 1 0 
0 1 0 -1 1 -3 1 0 1 1 1 1 1 0 -1 0 
2 -4 1 0 1 1 1 1 1 0 1 1 0 -6 1 0 
1 1 1 1 1 0 1 1 0 -8 1 1 1 0 1 1 
1 1 1 0 0 1 0 -1 1 -2 1 0 1 1 1 1 
1 0 0 1 0 -1 1 -2 1 0 1 1 1 1 1 0 
0 1 0 -4 1 1 2657 4304 100 MP stroke
1 0 1 1 1 1 1 0 0 1 0 -1 1 -2 1 0 
1 1 1 0 1 1 0 1 0 -1 1 -2 1 0 1 1 
1 1 1 0 -1 0 2 -2 1 0 1 1 1 0 0 1 
2 -2 1 0 1 1 1 1 1 0 -1 0 2 -2 1 0 
1 1 1 1 1 0 1 1 0 -3 1 1 1 0 1 1 
1 0 1 1 0 -3 1 1 1 0 1 1 1 1 1 0 
0 -2 1 0 1 1 1 0 1 1 1 0 0 1 0 -1 
1 -2 1 1 1 1 1 0 1 1 0 -3 1 1 1 0 
1 1 1 1 1 0 0 -2 1 0 1 1 1 0 1 1 
1 1 0 -3 1 1 1 0 1 1 1 1 1 0 0 -2 
1 0 1 1 1 1 1 0 1 1 0 -2 1 0 1 1 
1 0 1 1 1 1 0 -2 1 0 1 0 1 1 1 0 
1 1 0 -2 1 0 2576 4299 100 MP stroke
1 1 1 1 1 0 1 1 0 -2 1 0 1 0 1 1 
1 1 1 0 0 1 0 -1 1 -2 1 1 1 0 1 1 
1 0 0 1 0 -1 1 -2 1 1 1 0 1 1 1 0 
-1 0 2 -3 1 1 1 1 1 0 1 1 1 -4 1 1 
1 0 1 1 1 1 1 -5 1 0 1 1 1 1 1 0 
1 1 0 -7 1 1 1 1 1 0 1 1 1 0 0 -8 
1 1 1 1 1 0 1 1 1 0 0 -3 1 0 1 1 
1 1 1 0 1 1 0 -3 1 0 1 1 1 0 1 1 
1 -3 1 1 1 0 1 1 1 0 -1 0 2 -2 1 0 
1 1 1 1 1 0 0 1 0 -1 1 -2 1 0 1 1 
1 0 1 1 0 -2 1 0 1 0 1 1 1 1 1 0 
0 -2 1 0 1 1 1 0 1 1 1 1 0 -2 1 0 
1 1 1 0 1 1 2493 4309 100 MP stroke
1 1 1 -1 1 0 1 1 1 1 1 0 1 0 1 1 
1 0 1 1 1 1 0 -3 1 1 1 0 1 1 1 0 
1 1 0 -2 1 0 1 1 1 0 1 1 1 0 0 -2 
1 1 1 0 1 1 1 0 -1 0 2 -1 1 0 1 1 
1 0 1 1 1 -2 1 1 1 1 1 0 1 1 0 -2 
1 0 1 1 1 0 1 1 1 0 0 1 0 -1 1 -1 
1 1 1 0 1 1 1 0 0 1 0 -1 1 -1 1 0 
1 1 1 0 1 1 0 -2 1 1 1 0 1 1 1 0 
1 1 0 -2 1 0 1 1 1 0 1 1 1 1 0 -3 
1 1 1 0 1 1 1 0 1 1 0 -2 1 0 1 1 
1 0 1 1 1 0 0 -3 1 1 1 0 1 1 1 0 
1 1 0 -4 1 1 1 0 1 1 1 0 -1 0 2 -4 
1 1 1 0 1 1 2410 4302 100 MP stroke
1 0 -1 0 2 -5 1 1 1 0 1 1 1 0 0 1 
0 -1 1 -6 1 0 1 1 1 0 1 1 0 -2 1 0 
1 0 1 1 1 0 1 1 0 -2 1 0 1 0 1 1 
1 0 1 1 0 -2 1 0 1 1 1 0 1 1 1 0 
0 -2 1 0 1 1 1 0 1 1 0 -2 1 0 1 0 
1 1 1 0 1 1 0 -2 1 0 1 0 1 1 1 1 
1 0 0 -2 1 0 1 1 1 0 1 1 1 0 0 -2 
1 0 1 1 1 1 1 0 0 -2 1 0 1 1 1 0 
1 1 1 0 0 1 0 -3 1 1 1 0 1 1 1 0 
1 1 0 -2 1 0 1 1 1 0 1 1 1 0 0 -2 
1 1 1 0 1 1 1 0 -1 0 2 -1 1 0 1 1 
1 0 1 1 0 -2 1 0 1 1 1 0 1 1 1 0 
0 1 0 -1 1 -1 2331 4308 100 MP stroke
1 0 1 1 1 1 1 0 0 -2 1 1 1 0 1 1 
1 0 -1 0 2 -1 1 1 1 0 1 1 1 0 1 -1 
1 0 1 1 1 0 1 1 0 -2 1 1 1 0 1 1 
1 0 1 1 0 -2 1 0 1 1 1 0 1 1 1 -2 
1 1 1 0 1 1 1 1 0 -2 1 0 1 0 1 1 
1 0 1 1 0 -2 1 0 1 0 1 1 1 0 1 1 
0 -3 1 0 1 1 1 0 1 1 1 -4 1 1 1 0 
1 1 1 0 0 1 0 -1 1 -4 1 1 1 0 1 1 
1 0 0 -6 1 1 1 0 1 1 1 0 1 1 0 -8 
1 1 1 0 1 1 1 0 1 1 0 -3 1 0 1 1 
1 0 1 1 0 -3 1 1 1 0 1 0 1 1 1 1 
0 -3 1 0 1 1 1 0 1 1 1 -3 1 1 1 1 
1 0 1 0 0 1 2247 4317 100 MP stroke
0 -1 1 -2 1 1 1 0 1 1 1 0 0 -2 1 1 
1 0 1 0 1 1 0 -2 1 0 1 1 1 0 1 1 
1 0 1 -1 1 1 1 0 1 0 -1 0 2 0 1 0 
1 1 1 0 1 1 -1 0 2 0 1 0 1 1 1 0 
1 1 1 0 1 1 1 0 1 1 0 -2 1 0 1 1 
1 0 1 1 1 0 1 -1 1 0 1 1 1 0 -1 0 
2 -1 1 1 1 0 1 1 1 0 1 -1 1 0 1 1 
1 0 1 1 0 -2 1 1 1 0 1 1 1 0 1 -1 
1 0 1 1 1 0 1 1 1 -1 1 0 1 1 1 0 
1 1 0 -2 1 1 1 0 1 1 1 0 0 1 0 -1 
1 -1 1 1 1 0 1 1 1 0 1 -1 1 1 1 0 
1 1 1 -1 1 0 1 0 1 1 1 0 0 1 0 -1 
1 -1 1 1 1 0 2161 4306 100 MP stroke
1 0 1 1 0 -2 1 0 1 1 1 0 1 1 0 -3 
1 0 1 1 1 0 1 1 1 0 0 -3 1 0 1 1 
1 0 1 1 1 -4 1 1 1 0 1 0 1 1 0 -5 
1 0 1 0 1 1 1 0 1 1 0 -7 1 0 1 1 
1 0 1 1 0 -2 1 0 1 1 1 0 1 1 1 0 
0 -2 1 1 1 0 1 0 1 1 0 -2 1 0 1 1 
1 0 1 1 1 0 0 -2 1 1 1 0 1 0 1 1 
0 -2 1 0 1 1 1 0 1 1 1 0 0 -2 1 1 
1 0 1 1 1 0 0 -2 1 1 1 0 1 0 1 1 
1 0 1 -1 1 0 1 1 1 0 1 -1 1 0 1 1 
1 0 -1 0 2 -1 1 0 1 1 1 0 1 1 0 -2 
1 0 1 1 1 0 1 1 1 -2 1 1 1 0 1 1 
1 0 1 -1 1 1 2076 4316 100 MP stroke
1 0 1 0 0 1 0 -1 1 -1 1 1 1 0 1 1 
1 0 1 -1 1 0 1 1 1 0 0 1 0 -1 1 -1 
1 1 1 0 1 1 1 0 1 -1 1 1 1 0 1 1 
1 -1 1 0 1 1 1 0 1 0 -1 0 2 0 1 0 
1 0 1 1 1 -1 1 1 1 0 1 0 1 1 1 -1 
1 0 1 1 1 0 1 -1 1 1 1 0 1 1 1 -1 
1 0 1 0 1 1 1 0 1 -1 1 0 1 1 1 0 
1 -2 1 1 1 0 1 1 1 0 0 -3 1 1 1 0 
1 1 1 0 0 -3 1 0 1 0 1 1 1 0 1 1 
0 -5 1 1 1 0 1 0 1 1 0 -5 1 0 1 0 
1 1 1 0 1 0 0 -7 1 1 1 0 1 1 1 0 
0 -2 1 0 1 1 1 0 1 0 -1 0 2 -1 1 0 
1 0 1 1 1 0 1989 4325 100 MP stroke
0 -2 1 0 1 1 1 0 1 1 0 -2 1 0 1 0 
1 1 1 0 1 -2 1 1 1 0 1 0 1 1 0 -2 
1 0 1 1 1 0 1 0 0 1 0 -1 1 -1 1 0 
1 1 1 0 -1 0 2 -1 1 1 1 0 1 0 1 1 
1 -1 1 0 1 1 1 0 1 0 1 0 1 1 1 0 
1 1 1 0 1 1 1 0 1 0 -1 0 2 2 1 0 
1 0 1 1 1 -1 1 0 1 1 1 0 1 -1 1 0 
1 1 1 0 1 1 0 -2 1 1 1 0 1 1 1 0 
1 -1 1 1 1 0 1 0 -1 0 2 0 1 0 1 0 
1 1 1 0 -1 0 2 0 1 0 1 0 1 1 1 -1 
1 1 1 0 1 0 -1 0 2 0 1 0 1 1 1 0 
1 -1 1 1 1 0 1 1 1 0 1 -1 1 1 1 0 
1 1 1 -1 1 0 1901 4315 100 MP stroke
1 1 1 0 1 -1 1 1 1 0 1 0 1 1 1 -1 
1 0 1 1 1 0 0 -2 1 1 1 0 1 0 1 1 
1 -2 1 0 1 0 1 1 1 0 0 -3 1 1 1 0 
1 0 1 1 0 -4 1 0 1 1 1 0 1 0 0 1 
0 -1 1 -4 1 0 1 0 1 1 1 0 0 -6 1 0 
1 1 1 0 1 0 1 -1 1 1 1 0 1 0 1 -1 
1 1 1 0 1 0 0 1 0 -1 1 -1 1 1 1 0 
1 0 -1 0 2 -1 1 0 1 1 1 0 1 1 0 -2 
1 0 1 1 1 0 1 1 0 -2 1 0 1 1 1 0 
1 1 0 -2 1 0 1 1 1 0 1 1 0 -2 1 1 
1 0 1 0 1 1 1 -1 1 0 1 0 1 1 1 -1 
1 0 1 0 1 1 1 0 1 -1 1 1 1 0 1 0 
1 -1 1 1 1 0 1815 4325 100 MP stroke
1 0 -1 0 2 0 1 0 1 0 1 1 1 -1 1 0 
1 1 1 0 1 -1 1 1 1 0 1 0 -1 0 2 0 
1 0 1 0 1 1 1 0 -1 0 2 0 1 0 1 0 
1 1 1 -1 1 1 1 0 1 0 1 0 1 0 1 0 
1 1 1 -1 1 1 1 0 1 0 -1 0 2 0 1 0 
1 1 1 0 1 0 1 0 1 0 1 1 1 0 1 -1 
1 1 1 0 1 0 -1 0 2 0 1 0 1 1 1 0 
1 -1 1 0 1 1 1 0 1 -1 1 0 1 1 1 0 
0 -2 1 0 1 1 1 0 1 0 -1 0 2 -2 1 1 
1 0 1 0 1 1 0 -3 1 0 1 0 1 1 1 0 
0 -4 1 0 1 0 1 1 1 0 0 -5 1 0 1 1 
1 0 1 0 0 -6 1 0 1 0 1 1 1 0 0 -2 
1 1 1 0 1 0 1728 4334 100 MP stroke
1 0 0 1 0 -1 1 -1 1 0 1 1 1 0 1 -1 
1 0 1 0 1 0 0 1 0 -1 1 -1 1 0 1 1 
1 0 1 -1 1 0 1 0 1 1 0 -2 1 0 1 1 
1 0 1 0 0 1 0 -1 1 -1 1 0 1 1 1 0 
1 -1 1 1 1 0 1 0 1 0 1 0 1 0 1 0 
-1 0 2 0 1 1 1 0 1 0 1 0 1 1 1 0 
1 0 1 1 1 1 1 0 1 0 -1 0 2 2 1 0 
1 1 1 0 1 -1 1 1 1 0 1 0 -1 0 2 0 
1 0 1 0 1 1 1 -1 1 1 1 0 1 0 1 0 
1 0 1 0 1 1 1 0 -1 0 2 0 1 0 1 0 
1 0 1 0 1 1 1 0 1 0 1 0 1 0 1 0 
1 1 -1 0 2 0 1 0 1 0 1 0 1 0 1 1 
1 0 1 0 1 0 1641 4324 100 MP stroke
1 0 1 1 1 0 -1 0 2 0 1 0 1 0 1 1 
1 -1 1 0 1 1 1 0 -1 0 2 0 1 0 1 0 
1 0 -1 0 2 0 1 0 1 0 1 0 1 -1 1 1 
1 0 1 0 0 -2 1 0 1 1 1 0 1 0 0 -2 
1 0 1 0 1 0 1 1 0 -4 1 1 1 0 1 0 
1 0 0 -4 1 0 1 0 1 1 1 0 0 -6 1 0 
1 1 1 0 1 0 1 -1 1 1 1 0 1 0 1 -1 
1 1 1 0 1 0 -1 0 2 0 1 0 1 0 1 -1 
1 1 1 0 1 0 1 -1 1 1 1 0 1 0 -1 0 
2 0 1 0 1 0 1 0 1 0 1 0 1 0 1 0 
1 0 1 0 1 0 1 1 1 -1 1 0 1 0 1 1 
1 -1 1 0 1 1 1 -1 1 0 1 1 1 0 1 -1 
1 1 1 0 1 0 1552 4334 100 MP stroke
1 0 1 0 1 0 1 0 1 0 1 0 1 0 1 1 
1 -1 1 1 1 0 1 0 1 0 1 0 1 0 1 0 
1 0 1 0 1 1 1 0 -1 0 2 0 1 0 1 0 
1 0 1 0 1 0 1 1 1 0 1 0 1 0 1 0 
1 0 1 0 1 1 1 0 1 0 1 0 1 0 1 1 
1 0 1 0 1 0 1 0 1 0 1 1 1 0 1 0 
1 0 1 0 1 0 1 1 -1 0 2 0 1 0 1 0 
1 0 1 0 1 0 1 0 -1 0 2 0 1 0 1 0 
1 0 -1 0 2 0 1 0 1 0 1 0 1 -1 1 0 
1 1 1 0 0 -2 1 0 1 0 1 0 1 1 0 -3 
1 0 1 0 1 1 1 0 0 -4 1 0 1 1 1 0 
1 -5 1 1 1 0 1 0 0 -6 1 0 1 0 1 1 
1 0 1 -1 1 0 1461 4343 100 MP stroke
1 0 1 1 0 -2 1 0 1 1 1 0 1 0 1 -1 
1 0 1 1 0 -2 1 0 1 1 1 0 1 0 1 -1 
1 0 1 0 1 1 1 -1 1 0 1 0 1 0 1 -1 
1 1 1 0 1 -1 1 0 1 0 1 1 1 -1 1 0 
1 0 1 0 -1 0 2 0 1 0 1 0 -1 0 2 0 
1 1 1 0 1 0 1 0 1 0 1 1 1 0 1 1 
1 0 1 0 1 0 0 2 1 0 1 0 1 0 0 2 
1 0 1 1 1 0 1 0 1 0 1 0 1 0 1 0 
1 0 1 0 1 1 1 0 1 0 1 0 1 0 1 0 
1 0 1 0 1 1 1 0 1 0 1 0 1 0 1 0 
1 0 1 1 1 0 1 0 1 0 1 0 1 1 1 0 
1 0 1 0 1 0 1 0 1 1 1 0 1 0 1 0 
1 0 1 1 1 0 1368 4332 100 MP stroke
1 0 1 0 1 0 1 0 1 1 1 0 1 0 1 0 
1 0 1 0 1 0 1 1 1 0 1 -1 1 1 1 0 
1 0 1 -1 1 1 1 0 1 -1 1 0 1 0 1 0 
1 -1 1 0 1 0 1 0 0 -2 1 0 1 0 1 1 
1 0 0 -3 1 0 1 0 1 0 1 -4 1 0 1 1 
1 0 0 -5 1 0 1 0 1 0 1 0 1 0 1 0 
1 0 1 0 1 0 1 0 1 0 1 0 1 0 1 0 
1 0 1 0 1 0 1 0 -1 0 2 0 1 0 1 0 
1 1 1 -1 1 0 1 1 1 -1 1 0 1 1 1 0 
1 -1 1 1 1 0 1 0 1 0 1 0 1 0 1 0 
1 0 1 0 1 0 1 0 1 0 1 0 1 0 1 0 
1 0 1 0 -1 0 2 0 1 0 1 1 1 -1 1 1 
1 0 1 0 1 0 1274 4342 100 MP stroke
1 0 1 0 1 0 1 0 1 0 1 0 1 0 1 1 
1 0 1 0 1 0 1 0 1 0 1 0 1 0 1 0 
1 1 1 0 1 0 1 0 1 0 1 0 1 0 1 0 
1 1 1 0 1 0 1 0 1 0 1 0 1 1 1 0 
1 0 1 0 1 0 1 1 1 0 1 0 1 0 1 0 
1 0 1 1 1 0 1 0 1 0 1 1 1 0 1 0 
1 0 1 0 1 0 1 1 1 0 1 0 1 0 1 0 
1 0 1 1 1 0 1 0 1 0 1 0 1 0 1 0 
1 0 1 0 1 0 -1 0 2 0 1 0 1 0 1 -1 
1 0 1 0 1 0 0 -2 1 1 1 0 1 0 0 -2 
1 0 1 0 1 0 1 0 0 -3 1 0 1 0 1 0 
1 -4 1 0 1 0 1 0 0 -5 1 0 1 0 1 0 
1 0 1 0 1 0 1180 4349 100 MP stroke
1 0 1 -1 1 1 1 0 1 -1 1 0 1 0 1 0 
1 0 1 0 1 0 1 -1 1 0 1 0 1 0 1 0 
1 0 1 0 1 -1 1 0 1 0 1 0 1 0 1 0 
1 0 1 -1 1 0 1 0 -1 0 2 0 1 0 1 0 
1 0 1 0 1 0 1 0 1 0 1 0 1 0 1 0 
1 0 1 0 1 0 1 1 1 0 1 0 1 0 1 1 
1 0 1 0 0 2 1 0 1 0 1 0 1 2 1 0 
1 0 1 1 0 3 1 0 1 0 1 0 1 0 1 0 
1 0 1 0 1 1 1 0 1 0 1 0 1 0 1 0 
1 1 1 0 1 0 1 0 1 0 1 0 1 0 1 1 
1 0 1 0 1 0 1 0 1 0 1 0 1 1 1 0 
1 0 1 0 1 0 1 0 1 1 1 0 1 0 1 0 
1 1 1 0 1 0 1084 4337 100 MP stroke
1 0 1 0 1 0 1 0 1 1 1 0 1 0 1 0 
1 0 1 0 1 0 1 0 1 0 1 0 1 0 1 0 
1 0 1 0 1 0 1 0 1 0 1 -1 1 1 1 0 
1 0 0 -2 1 1 1 0 1 0 0 -2 1 0 1 0 
1 0 1 0 0 -2 1 0 1 0 1 0 0 -3 1 0 
1 0 1 0 1 0 0 -4 1 0 1 0 1 0 0 -5 
1 0 1 0 1 1 1 -7 1 0 1 0 1 0 0 -7 
1 0 1 0 1 0 0 -9 1 0 1 0 1 0 1 0 
0 -11 1 0 1 0 1 0 0 -13 1 0 1 0 1 0 
1 -9 1 0 1 0 1 0 0 -10 1 0 1 0 1 0 
0 -11 1 0 1 0 1 0 0 -12 1 0 1 0 1 0 
1 0 0 -12 1 0 1 0 1 0 0 -12 1 0 1 0 
1 0 0 -13 1 0 1001 4478 100 MP stroke
1 0 1 0 1 -12 1 0 1 0 1 0 0 -11 1 0 
1 0 1 0 0 -10 1 0 1 0 1 0 0 -7 1 0 
1 0 1 0 1 -3 1 0 1 0 1 0 1 1 1 0 
1 1 0 7 1 1 1 0 1 0 0 16 1 0 1 0 
1 0 1 0 0 27 1 0 1 0 1 0 0 39 1 0 
1 0 1 0 0 56 1 0 1 0 1 0 1 74 1 0 
1 0 1 0 0 96 1 0 1 0 1 0 0 122 1 0 
1 0 1 0 0 151 1 0 1 0 1 0 1 183 1 0 
1 0 1 0 0 218 1 0 1 0 1 0 0 253 1 0 
1 0 1 0 0 289 1 0 1 0 1 0 1 0 0 321 
1 0 1 0 1 0 0 345 1 0 1 0 1 0 0 358 
1 0 1 0 1 0 1 356 1 0 1 0 1 0 0 336 
1 0 1 0 1 0 920 1271 100 MP stroke
0 298 1 0 1 0 1 0 0 246 1 0 1 0 1 0 
1 0 1 0 1 0 1 0 1 0 1 0 1 0 1 0 
1 0 1 0 1 0 1 0 1 0 1 0 1 0 899 727 24 MP stroke
/c9 { 1.000000 0.000000 0.000000 sr} bdef
c9
1 0 1 1 1 0 1 -2 1 0 1 1 1 0 1 0 
1 0 1 1 1 0 1 0 0 -2 1 1 1 0 1 0 
1 0 1 1 1 0 1 0 1 0 -1 0 2 -1 1 0 
1 0 1 1 1 0 1 0 1 0 1 1 1 0 0 -2 
1 1 1 0 1 0 1 0 1 1 1 0 1 0 1 0 
1 -1 1 0 1 1 1 0 1 0 1 0 1 1 1 0 
1 0 1 -1 1 1 1 0 1 0 1 0 1 0 1 1 
1 0 1 -1 1 1 1 0 1 0 1 0 1 1 1 0 
1 0 1 0 1 0 1 0 1 0 1 1 1 0 1 0 
1 0 1 1 1 -1 1 0 1 1 1 0 1 0 1 0 
1 1 1 0 1 0 1 0 1 0 1 0 1 1 1 0 
1 0 1 0 1 0 -1 0 2 0 1 0 1 0 1 1 
1 0 1 0 1 0 6160 4253 100 MP stroke
1 1 1 0 0 -2 1 1 1 0 1 0 1 0 1 0 
1 1 1 0 1 0 0 -2 1 0 1 0 1 0 1 0 
1 1 1 0 1 0 1 0 1 0 0 -4 1 0 1 0 
1 0 1 1 1 0 1 0 1 0 1 0 0 1 0 -1 
1 -7 1 0 1 0 1 0 1 1 1 0 1 0 1 0 
1 0 1 -1 1 0 1 0 1 1 1 0 1 0 1 0 
1 0 1 -1 1 0 1 0 1 1 1 0 1 0 1 0 
1 0 0 1 0 -1 1 -1 1 0 1 0 1 1 1 0 
1 0 1 0 1 0 1 1 0 -2 1 0 1 0 1 1 
1 0 1 0 1 0 1 0 1 1 0 -2 1 0 1 0 
1 1 1 0 1 0 1 0 1 0 1 1 0 -2 1 0 
1 0 1 1 1 0 1 0 1 0 1 0 1 1 1 0 
0 -2 1 1 1 0 6072 4262 100 MP stroke
1 0 1 0 1 0 1 0 1 1 1 0 1 -1 1 0 
1 0 1 0 1 0 1 1 1 0 1 0 1 -1 1 0 
1 0 1 0 1 0 1 1 1 0 1 0 1 0 1 -1 
1 0 1 0 1 1 1 0 1 0 1 0 1 0 1 -1 
1 1 1 0 1 0 1 0 1 0 1 0 1 1 1 -1 
1 0 1 0 1 0 1 1 1 0 1 0 1 0 1 0 
-1 0 2 0 1 0 1 0 1 0 1 0 1 0 1 1 
1 0 1 -1 1 0 1 1 1 0 1 0 1 0 1 0 
1 0 -1 0 2 0 1 0 1 1 1 0 1 0 1 0 
1 0 1 0 1 1 -1 0 2 0 1 0 1 0 1 0 
1 0 1 0 1 1 1 0 1 0 1 0 1 0 1 0 
1 0 1 1 1 0 1 0 1 0 1 0 1 0 1 1 
1 0 1 0 1 0 5976 4254 100 MP stroke
1 0 1 0 1 0 1 1 1 0 1 0 1 0 1 0 
1 0 1 0 -1 0 2 0 1 0 1 0 1 1 1 0 
1 0 1 0 1 0 1 -1 1 0 1 0 1 0 1 1 
1 0 1 0 1 0 1 0 0 -3 1 1 1 0 1 0 
1 0 1 0 1 0 1 0 1 1 0 -5 1 0 1 0 
1 0 1 0 1 0 1 0 1 0 1 1 0 -9 1 0 
1 1 1 0 1 0 1 0 1 0 1 0 1 0 1 1 
0 -3 1 1 1 0 1 0 1 0 1 0 1 0 1 0 
1 0 0 1 0 -3 1 1 1 0 1 0 1 0 1 0 
1 0 1 0 1 0 1 -1 1 0 1 0 1 0 1 0 
1 0 1 0 1 1 0 -2 1 0 1 1 1 0 1 0 
1 0 1 0 1 0 1 0 1 0 1 0 1 0 1 1 
1 0 1 0 1 0 5885 4267 100 MP stroke
1 0 1 0 -1 0 2 2 1 0 1 0 1 0 1 0 
1 0 1 0 1 0 0 4 1 0 1 0 1 0 1 1 
1 0 1 0 1 0 1 0 1 -1 1 1 1 0 1 0 
1 0 1 0 1 0 1 0 1 0 1 0 1 0 1 0 
1 0 1 0 1 0 1 0 -1 0 2 0 1 0 1 0 
1 0 1 0 1 1 1 0 1 0 1 -1 1 1 1 0 
1 0 1 0 1 0 1 0 1 0 1 0 1 0 1 0 
1 0 1 1 1 0 1 0 1 0 1 0 1 0 1 0 
1 0 1 0 1 0 1 1 1 0 1 0 1 0 1 0 
1 0 1 0 1 0 1 0 1 1 1 0 1 0 1 0 
1 0 1 1 1 0 1 0 1 0 1 0 1 1 1 0 
1 0 1 0 1 0 1 0 1 0 1 0 1 0 1 1 
1 0 1 0 1 1 5789 4252 100 MP stroke
1 0 1 0 1 0 1 0 1 1 1 0 1 0 1 0 
1 0 1 0 1 0 1 0 1 1 1 0 1 0 1 0 
1 0 1 0 1 0 1 0 1 0 1 0 1 0 1 0 
1 1 1 0 1 0 1 0 0 -2 1 0 1 0 1 0 
1 1 1 0 1 0 1 0 1 0 1 -4 1 0 1 0 
1 0 1 1 1 0 1 0 1 0 1 0 0 -7 1 0 
1 0 1 0 1 0 1 0 1 1 1 0 1 0 1 -1 
1 0 1 0 1 1 1 0 1 0 1 0 1 0 1 -1 
1 0 1 1 1 0 1 0 1 0 1 0 1 0 1 0 
1 0 1 0 1 0 1 0 1 0 1 0 1 0 1 0 
1 0 1 0 1 0 1 0 1 0 1 0 1 0 1 0 
1 0 1 0 1 0 1 0 1 0 1 0 1 0 1 0 
1 0 1 0 1 0 5692 4259 100 MP stroke
1 0 1 0 1 0 1 0 1 0 1 0 1 0 1 0 
1 0 1 0 1 0 1 0 1 0 1 0 1 0 1 0 
1 1 1 0 1 0 1 0 1 0 1 0 1 0 1 0 
1 0 1 0 1 0 1 0 1 0 1 0 1 0 1 0 
1 0 1 0 1 0 1 0 1 1 1 0 1 0 1 0 
1 0 1 0 1 0 1 0 1 0 1 0 1 0 1 0 
1 0 1 0 1 0 1 0 1 1 1 0 1 0 1 0 
1 0 1 0 1 0 1 0 1 1 1 0 1 0 1 0 
1 0 1 0 1 0 1 0 1 1 1 0 1 0 1 0 
1 0 1 0 1 0 1 0 1 2 1 0 1 0 1 0 
1 0 1 0 1 0 1 0 1 1 1 0 1 0 1 0 
1 0 1 0 1 0 1 0 1 1 1 0 1 0 1 0 
1 0 1 0 1 0 5593 4250 100 MP stroke
1 0 1 1 1 0 1 0 1 0 1 0 1 0 1 0 
1 0 1 0 1 0 1 0 1 0 1 0 1 0 1 0 
1 0 1 0 0 -2 1 0 1 0 1 0 1 0 1 0 
1 0 1 0 1 0 0 -4 1 0 1 0 1 0 1 0 
1 0 1 0 1 0 1 0 0 -7 1 0 1 0 1 0 
1 0 1 0 1 0 1 0 1 0 1 -1 1 0 1 0 
1 0 1 0 1 0 1 0 1 0 1 -1 1 0 1 0 
1 0 1 0 1 0 1 0 1 -1 1 0 1 0 1 0 
1 0 1 0 1 0 1 0 1 0 1 0 1 0 1 0 
1 0 1 0 1 0 1 0 1 1 1 0 1 0 1 0 
1 0 1 0 1 0 1 0 0 2 1 0 1 0 1 0 
1 0 1 0 1 0 1 0 1 0 0 5 1 0 1 0 
1 0 1 0 1 0 5499 4257 100 MP stroke
1 0 1 0 1 0 1 0 1 0 1 0 1 0 1 0 
1 0 1 0 1 0 1 1 1 -1 1 0 1 0 1 0 
1 0 1 0 1 0 1 1 1 0 1 0 1 0 1 0 
1 0 1 0 1 0 1 0 1 0 1 0 1 0 1 0 
1 0 1 0 1 1 1 0 1 0 1 0 1 0 1 0 
1 0 1 0 1 1 1 0 1 0 1 0 1 0 1 0 
1 0 1 0 1 1 1 0 1 0 1 0 1 0 1 0 
1 0 1 0 1 1 1 0 1 0 1 0 1 0 1 0 
1 0 1 0 0 2 1 0 1 0 1 0 1 0 1 0 
1 0 1 -1 1 0 0 2 1 0 1 0 1 0 1 0 
1 0 1 0 1 0 1 0 0 2 1 0 1 0 1 0 
1 0 1 -1 1 0 1 0 1 0 0 2 1 0 1 0 
1 0 1 0 1 -1 5404 4247 100 MP stroke
1 0 1 0 1 1 1 0 1 0 1 0 1 0 1 0 
1 0 1 0 1 -1 1 0 1 0 1 0 1 0 1 0 
1 0 1 0 0 -3 1 0 1 0 1 0 1 0 1 0 
1 0 1 0 1 0 0 -1 0 1 1 -6 1 0 1 0 
1 0 1 0 1 0 1 0 1 -1 1 1 1 0 1 0 
1 0 1 0 1 0 1 0 1 0 1 0 1 0 1 0 
1 0 1 0 1 0 1 0 1 0 1 0 1 0 1 0 
1 0 1 0 1 0 1 0 1 1 1 -1 1 0 1 0 
1 0 1 0 1 0 1 0 1 1 1 0 1 0 1 -1 
1 0 1 0 1 0 1 0 1 1 1 0 1 0 1 0 
1 0 1 -1 1 0 1 1 1 0 1 0 1 0 1 0 
1 0 1 0 1 0 0 -1 0 1 1 1 1 -1 1 0 
1 0 1 0 1 0 5310 4255 100 MP stroke
1 0 1 0 1 1 1 0 1 0 1 0 1 0 1 -1 
1 0 1 0 0 2 1 0 1 -1 1 0 1 0 1 0 
1 0 1 0 1 1 1 0 1 0 1 0 1 0 1 0 
1 0 1 0 1 1 1 0 1 0 1 0 1 0 1 0 
1 0 1 -1 0 2 1 0 1 0 1 0 1 0 1 0 
1 0 1 0 1 -1 0 2 1 0 1 0 1 0 1 0 
1 0 1 0 1 0 0 2 1 0 1 0 1 0 1 -1 
1 0 1 0 1 0 1 0 0 2 1 0 1 0 1 0 
1 0 1 -1 1 0 1 0 1 0 0 2 1 0 1 0 
1 0 1 0 1 -1 1 0 1 0 1 0 0 2 1 -1 
1 0 1 0 1 0 1 0 1 0 1 0 1 0 1 0 
1 0 1 0 1 0 1 0 1 -1 1 0 1 -1 1 0 
1 0 1 0 1 0 5218 4248 100 MP stroke
1 0 1 0 1 -1 0 -3 1 0 1 0 1 0 1 0 
1 0 1 0 1 0 -1 0 2 -7 1 0 1 0 1 0 
1 0 1 0 1 0 1 0 0 -1 0 1 1 -1 1 0 
1 0 1 0 1 0 1 0 1 0 1 -1 1 1 1 -1 
1 0 1 0 1 0 1 0 1 0 1 0 1 0 1 0 
1 0 1 -1 1 0 1 0 1 0 1 1 1 0 1 0 
1 -1 1 0 1 0 1 0 1 0 0 2 1 0 1 0 
1 -1 1 0 1 0 1 0 1 0 0 3 1 0 1 0 
1 0 1 0 1 0 1 0 1 -1 1 0 0 6 1 0 
1 0 1 0 1 -1 1 0 1 0 1 0 1 1 1 0 
1 0 1 0 1 0 1 -1 1 0 1 0 0 2 1 0 
1 -1 1 0 1 0 1 0 1 0 1 0 -1 0 2 1 
1 0 1 0 1 0 5128 4252 100 MP stroke
1 -1 1 0 1 0 1 0 0 2 1 0 1 -1 1 0 
1 0 1 0 1 0 1 0 1 -1 0 2 1 0 1 0 
1 0 1 0 1 0 1 -1 1 0 0 2 1 0 1 0 
1 0 1 0 1 0 1 -1 1 0 1 0 0 2 1 0 
1 0 1 0 1 0 1 0 1 -1 1 0 1 3 1 0 
1 -1 1 0 1 0 1 0 1 0 1 -1 0 3 1 0 
1 0 1 0 1 -1 1 0 1 0 1 0 1 0 0 3 
1 -1 1 0 1 0 1 0 1 0 1 -1 1 0 0 3 
1 0 1 0 1 -1 1 0 1 0 1 0 1 0 1 -1 
0 3 1 0 1 0 1 -1 1 0 1 0 1 0 1 0 
-1 0 2 1 1 0 1 0 1 -1 1 0 1 0 1 0 
1 0 1 0 1 0 1 -1 1 0 1 0 1 0 1 0 
1 -1 1 -1 1 0 5038 4246 100 MP stroke
1 -1 1 0 1 0 1 0 1 0 0 -1 0 1 1 -5 
1 0 1 0 1 -1 1 0 1 0 1 0 1 0 1 1 
1 0 1 0 1 -1 1 0 1 0 1 0 1 1 1 0 
1 0 1 0 1 -1 1 0 1 0 1 0 1 1 1 0 
1 0 1 0 1 -1 1 0 1 0 0 2 1 0 1 -1 
1 0 1 0 1 0 1 -1 1 0 1 2 1 0 1 -1 
1 0 1 0 1 0 1 0 1 -1 0 2 1 0 1 0 
1 0 1 -1 1 0 1 0 1 0 0 -1 0 1 1 1 
1 0 1 0 1 0 1 0 1 -1 1 0 1 0 0 2 
1 0 1 -1 1 0 1 0 1 0 1 0 1 -1 0 2 
1 0 1 0 1 0 1 0 1 -1 1 0 1 0 1 0 
0 2 1 0 1 0 1 -1 1 0 1 0 1 0 1 -1 
0 3 1 0 1 -1 4949 4249 100 MP stroke
1 0 1 0 1 0 1 -1 1 0 1 0 0 3 1 -1 
1 0 1 0 1 0 1 -1 1 0 1 0 0 3 1 -1 
1 0 1 0 1 0 1 -1 1 0 1 0 1 3 1 -1 
1 0 1 0 1 0 1 -1 1 0 1 0 0 3 1 0 
1 -1 1 0 1 0 1 0 1 -1 1 0 0 3 1 0 
1 0 1 -1 1 0 1 0 1 0 1 -1 1 0 0 3 
1 -1 1 0 1 0 1 0 1 -1 1 0 1 0 0 2 
1 0 1 0 1 -1 1 0 1 0 1 0 1 -1 1 0 
1 1 1 0 1 0 1 -1 1 0 1 0 1 -1 1 0 
1 0 1 0 1 -1 1 0 1 0 1 0 -1 0 2 -3 
1 0 1 0 1 -1 1 0 1 0 1 0 1 -1 0 -5 
1 0 1 0 1 0 1 -1 1 0 1 0 1 0 -1 0 
2 1 1 -1 1 0 4859 4257 100 MP stroke
1 0 1 0 1 -1 1 0 1 0 1 1 1 0 1 -1 
1 0 1 0 1 -1 1 0 0 2 1 0 1 0 1 -1 
1 0 1 0 1 0 1 -1 0 3 1 0 1 0 1 0 
1 -1 1 0 1 0 1 -1 1 0 0 5 1 -1 1 0 
1 0 1 -1 1 0 1 0 1 0 0 6 1 0 1 0 
1 -1 1 0 1 0 1 -1 1 0 0 2 1 0 1 0 
1 0 1 -1 1 0 1 0 1 0 -1 0 2 2 1 0 
1 -1 1 0 1 0 1 -1 1 0 1 0 0 2 1 0 
1 0 1 0 1 -1 1 0 1 0 1 -1 0 3 1 0 
1 -1 1 0 1 0 1 0 1 -1 1 0 0 3 1 0 
1 -1 1 0 1 0 1 -1 1 0 1 0 1 0 0 3 
1 -1 1 0 1 0 1 -1 1 0 1 0 1 0 0 3 
1 0 1 -1 1 0 4771 4245 100 MP stroke
1 0 1 -1 1 0 1 0 0 3 1 0 1 0 1 -1 
1 0 1 0 1 -1 1 0 1 3 1 0 1 0 1 -1 
1 0 1 0 1 0 1 -1 0 4 1 0 1 -1 1 0 
1 0 1 -1 1 0 1 0 0 3 1 0 1 0 1 -1 
1 0 1 0 1 -1 1 0 0 3 1 0 1 -1 1 0 
1 0 1 -1 1 0 1 0 1 0 0 2 1 0 1 -1 
1 0 1 0 1 -1 1 0 1 0 1 1 1 -1 1 0 
1 0 1 -1 1 0 1 0 1 -1 1 -1 1 0 1 0 
1 -1 1 0 1 0 -1 0 2 -4 1 0 1 -1 1 0 
1 0 1 0 1 -1 1 0 0 2 1 0 1 0 1 -1 
1 0 1 0 1 -1 1 0 0 2 1 0 1 0 1 0 
1 -1 1 0 1 0 1 -1 0 3 1 -1 1 0 1 0 
1 -1 1 0 1 0 4681 4249 100 MP stroke
1 -1 0 3 1 0 1 -1 1 0 1 0 1 -1 1 0 
1 0 0 -1 0 1 1 2 1 0 1 -1 1 0 1 0 
1 -1 1 0 1 2 1 0 1 0 1 -1 1 0 1 0 
1 -1 1 0 0 3 1 -1 1 0 1 0 1 -1 1 0 
1 0 1 -1 0 3 1 0 1 -1 1 0 1 0 1 -1 
1 0 1 0 0 3 1 -1 1 0 1 0 1 -1 1 0 
1 0 1 -1 0 3 1 0 1 0 1 -1 1 0 1 0 
1 -1 1 0 0 3 1 0 1 0 1 -1 1 0 1 -1 
1 0 1 0 0 3 1 0 1 -1 1 0 1 0 1 -1 
1 0 1 0 -1 0 2 3 1 0 1 -1 1 0 1 -1 
1 0 1 0 1 -1 0 4 1 0 1 -1 1 0 1 0 
1 -1 1 0 1 0 0 3 1 0 1 0 1 -1 1 0 
1 -1 1 0 1 0 4594 4242 100 MP stroke
0 3 1 0 1 0 1 -1 1 0 1 0 1 -1 1 0 
0 3 1 0 1 -1 1 0 1 0 1 -1 1 0 1 0 
0 -1 0 1 1 2 1 0 1 -1 1 0 1 0 1 -1 
1 0 0 2 1 0 1 -1 1 0 1 0 1 -1 1 0 
1 -1 1 1 1 -1 1 0 1 0 1 -1 1 0 1 -1 
1 0 1 -1 1 -1 1 0 1 -1 1 0 1 0 1 -1 
0 -4 1 0 1 0 1 -1 1 0 1 0 1 -1 1 0 
0 2 1 -1 1 0 1 0 1 -1 1 0 1 -1 1 0 
0 2 1 0 1 -1 1 0 1 0 1 -1 1 0 1 -1 
0 3 1 -1 1 0 1 0 1 -1 1 0 1 -1 1 0 
0 3 1 -1 1 0 1 0 1 -1 1 0 1 -1 1 0 
0 4 1 0 1 -1 1 0 1 -1 1 0 1 0 1 -1 
0 5 1 0 1 0 4507 4249 100 MP stroke
1 -1 1 0 1 -1 1 0 1 0 0 7 1 -1 1 0 
1 0 1 -1 1 0 1 -1 1 0 0 3 1 0 1 -1 
1 0 1 0 1 -1 1 0 1 -1 0 4 1 -1 1 0 
1 0 1 -1 1 0 1 -1 1 0 0 3 1 0 1 0 
1 -1 1 0 1 -1 1 0 1 0 0 3 1 0 1 -1 
1 0 1 0 1 -1 1 0 1 -1 0 4 1 0 1 -1 
1 0 1 0 1 -1 1 0 1 -1 0 4 1 0 1 -1 
1 0 1 0 1 -1 1 0 1 -1 0 4 1 0 1 0 
1 -1 1 0 1 -1 1 0 1 0 0 4 1 -1 1 0 
1 0 1 -1 1 0 1 -1 1 0 0 4 1 0 1 -1 
1 0 1 -1 1 0 1 0 1 -1 0 4 1 0 1 -1 
1 0 1 -1 1 0 1 0 1 -1 0 4 1 -1 1 0 
1 0 1 -1 1 0 4420 4236 100 MP stroke
1 -1 1 0 0 3 1 -1 1 0 1 0 1 -1 1 0 
1 -1 1 0 0 2 1 -1 1 0 1 -1 1 0 1 -1 
1 0 1 0 1 -1 1 0 1 -1 1 0 1 0 1 -1 
1 0 0 -3 1 0 1 0 1 -1 1 0 1 -1 1 0 
1 -1 0 3 1 0 1 0 1 -1 1 0 1 -1 1 0 
1 -1 0 4 1 -1 1 0 1 -1 1 0 1 -1 1 0 
1 3 1 -1 1 0 1 -1 1 0 1 -1 1 0 0 3 
1 0 1 -1 1 0 1 -1 1 0 1 0 1 -1 0 3 
1 0 1 0 1 -1 1 0 1 -1 1 0 1 -1 0 3 
1 0 1 0 1 -1 1 0 1 -1 1 0 1 -1 0 4 
1 -1 1 0 1 0 1 -1 1 0 1 -1 1 0 0 3 
1 0 1 -1 1 0 1 -1 1 0 1 -1 1 4 1 -1 
1 0 1 -1 1 0 4331 4243 100 MP stroke
1 -1 1 0 0 -1 0 1 1 3 1 0 1 -1 1 0 
1 -1 1 0 1 -1 0 4 1 0 1 -1 1 0 1 -1 
1 0 1 -1 1 0 0 4 1 -1 1 0 1 -1 1 0 
1 -1 1 0 1 0 0 -1 0 1 1 3 1 0 1 -1 
1 0 1 -1 1 0 1 -1 0 4 1 0 1 0 1 -1 
1 0 1 -1 1 0 -1 0 2 4 1 -1 1 0 1 -1 
1 0 1 -1 1 0 0 -1 0 5 1 -1 1 0 1 0 
1 -1 1 0 1 -1 1 0 0 -1 0 1 1 3 1 0 
1 -1 1 0 1 -1 1 0 1 -1 0 4 1 0 1 -1 
1 0 1 -1 1 0 1 0 1 -1 0 3 1 0 1 0 
1 -1 1 0 1 -1 1 0 1 -1 0 3 1 -1 1 0 
1 -1 1 0 1 -1 1 0 1 -1 0 2 1 -1 1 0 
1 -1 1 0 1 -1 4248 4239 100 MP stroke
1 0 1 -1 1 -1 1 0 1 -1 1 0 1 -1 1 0 
0 -3 1 0 1 -1 1 0 1 -1 1 0 1 -1 1 0 
0 -1 0 1 1 2 1 -1 1 0 1 -1 1 0 1 -1 
1 0 0 2 1 0 1 0 1 -1 1 0 1 -1 1 0 
-1 0 2 2 1 0 1 -1 1 0 1 -1 1 0 1 -1 
0 3 1 0 1 0 1 -1 1 0 1 -1 1 0 1 -1 
0 5 1 -1 1 0 1 -1 1 0 1 -1 1 0 1 -1 
0 6 1 0 1 -1 1 0 1 -1 1 -1 1 0 0 7 
1 0 1 0 1 -1 1 0 1 -1 1 0 1 -1 0 4 
1 -1 1 0 1 -1 1 0 1 -1 1 0 1 -1 0 4 
1 0 1 -1 1 0 1 -1 1 0 1 -1 0 4 1 0 
1 -1 1 0 1 -1 1 0 1 -1 1 0 0 4 1 -1 
1 0 1 -1 1 0 4162 4239 100 MP stroke
1 -1 1 0 1 -1 0 5 1 -1 1 0 1 -1 1 0 
1 -1 1 0 -1 0 2 4 1 -1 1 0 1 -1 1 0 
1 -1 1 0 0 -1 0 1 1 4 1 -1 1 0 1 -1 
1 0 1 -1 1 0 0 -1 0 1 1 4 1 -1 1 0 
1 -1 1 0 1 -1 1 0 0 4 1 0 1 -1 1 0 
1 -1 1 0 1 -1 0 4 1 0 1 0 1 -1 1 0 
1 -1 1 0 1 -1 0 4 1 0 1 -1 1 0 1 -1 
1 -1 1 0 1 -1 0 4 1 -1 1 0 1 -1 1 0 
1 -1 1 0 0 -1 0 3 1 -1 1 0 1 -1 1 0 
1 -1 1 0 1 -1 -1 0 2 0 1 0 1 -1 1 0 
1 -1 1 0 0 -1 2 -2 1 0 1 -1 1 0 1 -1 
1 0 -1 0 2 3 1 -1 1 0 1 -1 1 0 1 -1 
1 -1 0 4 1 0 4078 4239 100 MP stroke
1 -1 1 0 1 -1 1 0 0 -1 2 3 1 0 1 -1 
1 0 1 -1 1 -1 1 0 0 3 1 0 1 0 1 -1 
1 -1 1 0 1 -1 1 0 0 4 1 -1 1 0 1 -1 
1 -1 1 0 1 -1 0 4 1 0 1 -1 1 0 1 -1 
1 0 1 -1 1 -1 0 4 1 0 1 -1 1 0 1 -1 
1 0 1 -1 0 4 1 0 1 -1 1 -1 1 0 1 -1 
1 0 1 -1 0 4 1 0 1 -1 1 0 1 -1 1 0 
1 -1 0 4 1 0 1 -1 1 0 1 -1 1 -1 1 0 
1 -1 0 4 1 0 1 -1 1 0 1 -1 1 0 1 -1 
1 4 1 0 1 -1 1 -1 1 0 1 -1 1 0 0 4 
1 0 1 -1 1 0 1 -1 1 -1 1 0 -1 0 2 4 
1 -1 1 0 1 -1 1 0 1 -1 1 0 0 -1 0 1 
1 4 1 -1 1 0 3991 4233 100 MP stroke
1 -1 1 -1 1 0 1 -1 0 5 1 -1 1 0 1 -1 
1 0 1 -1 1 -1 0 5 1 -1 1 0 1 -1 1 0 
1 -1 1 0 1 -1 0 4 1 0 1 -1 1 0 1 -1 
1 -1 1 0 0 -1 0 1 1 3 1 -1 1 0 1 -1 
1 0 1 -1 1 -1 0 3 1 0 1 -1 1 0 1 -1 
1 0 1 -1 1 1 1 0 1 -1 1 0 1 -1 1 -1 
1 0 1 0 1 -1 1 -1 1 0 1 -1 1 0 -1 0 
2 -3 1 0 1 -1 1 -1 1 0 1 -1 1 0 0 -1 
0 1 1 2 1 0 1 -1 1 -1 1 0 1 -1 0 3 
1 0 1 -1 1 0 1 -1 1 0 1 -1 1 -1 0 4 
1 -1 1 0 1 -1 1 0 1 -1 1 -1 0 4 1 0 
1 -1 1 0 1 -1 1 0 1 -1 1 -1 0 5 1 0 
1 -1 1 0 1 -1 3905 4244 100 MP stroke
1 -1 1 0 0 6 1 -1 1 0 1 -1 1 0 1 -1 
1 -1 0 8 1 -1 1 0 1 -1 1 0 1 -1 1 -1 
1 0 0 4 1 -1 1 0 1 -1 1 0 1 -1 1 0 
0 -1 0 1 1 3 1 0 1 -1 1 -1 1 0 1 -1 
1 0 0 4 1 -1 1 0 1 -1 1 0 1 -1 1 -1 
0 5 1 -1 1 0 1 -1 1 0 1 -1 1 -1 0 5 
1 -1 1 0 1 -1 1 0 1 -1 1 -1 1 0 0 4 
1 0 1 -1 1 0 1 -1 1 -1 1 0 0 4 1 0 
1 0 1 -1 1 -1 1 0 1 -1 1 0 0 5 1 -1 
1 -1 1 0 1 -1 1 -1 1 0 0 5 1 -1 1 0 
1 -1 1 -1 1 0 1 -1 0 5 1 0 1 -1 1 -1 
1 0 1 -1 1 0 1 -1 0 5 1 -1 1 -1 1 0 
1 -1 1 0 1 -1 3820 4230 100 MP stroke
0 4 1 0 1 -1 1 0 1 -1 1 -1 1 0 -1 0 
2 3 1 -1 1 0 1 -1 1 -1 1 0 1 -1 0 3 
1 -1 1 0 1 -1 1 -1 1 0 1 -1 1 1 1 -1 
1 0 1 -1 1 -1 1 0 1 -1 1 -1 1 -1 1 0 
1 -1 1 -1 1 0 0 -1 0 1 1 3 1 0 1 -1 
1 -1 1 0 1 -1 0 -1 0 5 1 -1 1 0 1 -1 
1 0 1 -1 1 -1 1 0 0 4 1 -1 1 0 1 -1 
1 -1 1 0 1 -1 0 4 1 0 1 -1 1 -1 1 0 
1 -1 1 -1 0 4 1 0 1 -1 1 0 1 -1 1 -1 
1 0 0 -1 0 1 1 4 1 -1 1 -1 1 0 1 -1 
1 -1 1 0 0 4 1 -1 1 0 1 -1 1 -1 1 0 
1 -1 0 4 1 0 1 -1 1 0 1 -1 1 -1 1 0 
0 -1 0 1 1 4 3737 4232 100 MP stroke
1 -1 1 -1 1 0 1 -1 1 -1 0 4 1 0 1 0 
1 -1 1 -1 1 0 1 -1 1 -1 0 5 1 0 1 -1 
1 -1 1 0 1 -1 1 -1 0 5 1 0 1 -1 1 -1 
1 0 1 -1 1 -1 0 5 1 0 1 -1 1 -1 1 -1 
1 0 1 -1 0 5 1 0 1 -1 1 -1 1 0 1 -1 
1 -1 1 0 0 5 1 -1 1 -1 1 0 1 -1 1 -1 
1 0 0 4 1 0 1 -1 1 0 1 -1 1 -1 1 0 
0 -1 0 1 1 4 1 -1 1 0 1 -1 1 -1 1 0 
0 -1 0 1 1 4 1 -1 1 -1 1 0 1 -1 1 -1 
1 0 0 4 1 -1 1 -1 1 0 1 -1 1 -1 1 0 
0 3 1 0 1 -1 1 -1 1 -1 1 0 1 -1 0 2 
1 0 1 -1 1 -1 1 0 1 -1 1 -1 1 1 1 -1 
1 -1 1 0 1 -1 3652 4234 100 MP stroke
1 -1 1 0 -1 0 2 -2 1 -1 1 0 1 -1 1 -1 
1 0 0 -1 0 1 1 3 1 -1 1 -1 1 -1 1 0 
1 -1 0 3 1 0 1 -1 1 0 1 -1 1 -1 1 0 
0 -1 0 1 1 3 1 -1 1 -1 1 0 1 -1 1 -1 
0 4 1 0 1 -1 1 -1 1 0 1 -1 1 -1 0 4 
1 0 1 0 1 -1 1 -1 1 0 1 -1 0 -1 0 6 
1 -1 1 0 1 -1 1 -1 1 0 0 -1 2 6 1 -1 
1 -1 1 0 1 -1 1 -1 1 0 0 7 1 0 1 -1 
1 -1 1 0 1 -1 1 -1 0 5 1 -1 1 0 1 -1 
1 -1 1 0 1 -1 0 4 1 0 1 -1 1 -1 1 0 
1 -1 1 -1 0 5 1 0 1 -1 1 -1 1 -1 1 0 
1 -1 0 5 1 -1 1 0 1 -1 1 -1 1 -1 1 0 
0 -1 0 1 1 4 3570 4228 100 MP stroke
1 -1 1 0 1 -1 1 -1 1 0 0 -1 0 1 1 4 
1 -1 1 0 1 -1 1 -1 1 0 0 -1 0 1 1 4 
1 -1 1 0 1 -1 1 -1 1 0 0 -1 0 1 1 4 
1 -1 1 0 1 -1 1 -1 1 0 -1 0 2 4 1 0 
1 -1 1 -1 1 -1 1 0 1 -1 0 5 1 0 1 -1 
1 -1 1 -1 1 0 1 -1 0 5 1 -1 1 0 1 -1 
1 -1 1 0 1 -1 0 4 1 0 1 -1 1 -1 1 0 
1 -1 1 -1 0 4 1 0 1 -1 1 -1 1 -1 1 0 
1 -1 0 3 1 -1 1 0 1 -1 1 -1 1 0 1 -1 
0 -1 0 1 1 1 1 -1 1 0 1 -1 1 -1 1 -1 
1 0 1 -1 1 -1 1 0 1 -1 1 -1 0 4 1 0 
1 -1 1 0 1 -1 1 -1 1 -1 0 4 1 0 1 -1 
1 0 1 -1 1 -1 3487 4233 100 MP stroke
1 0 0 -1 0 5 1 -1 1 0 1 -1 1 -1 1 -1 
1 0 0 -1 0 1 1 4 1 -1 1 -1 1 -1 1 0 
1 -1 0 4 1 0 1 -1 1 -1 1 0 1 -1 1 -1 
0 4 1 0 1 -1 1 0 1 -1 1 -1 1 -1 0 5 
1 0 1 -1 1 -1 1 -1 1 0 1 -1 0 4 1 0 
1 -1 1 -1 1 0 1 -1 1 -1 0 5 1 -1 1 0 
1 -1 1 -1 1 -1 1 0 0 -1 0 1 1 4 1 -1 
1 -1 1 0 1 -1 1 -1 0 5 1 0 1 -1 1 -1 
1 -1 1 0 1 -1 0 5 1 -1 1 -1 1 0 1 -1 
1 -1 1 -1 0 6 1 -1 1 -1 1 0 1 -1 1 -1 
1 -1 0 5 1 0 1 -1 1 -1 1 0 1 -1 1 -1 
0 5 1 0 1 -1 1 -1 1 -1 1 0 -1 0 2 4 
1 0 1 -1 1 -1 3405 4224 100 MP stroke
1 -1 1 -1 1 5 1 -1 1 -1 1 0 1 -1 0 -1 
2 4 1 -1 1 0 1 -1 1 -1 1 -1 0 4 1 0 
1 -1 1 0 1 -1 1 -1 1 -1 0 3 1 0 1 0 
1 -1 1 -1 1 -1 1 -1 0 3 1 0 1 -1 1 -1 
1 -1 1 0 1 -1 0 -1 0 1 1 1 1 -1 1 -1 
1 -1 1 -1 1 0 1 -1 1 -1 1 -1 1 0 1 -1 
1 -1 0 4 1 -1 1 -1 1 0 1 -1 1 -1 1 -1 
0 4 1 0 1 -1 1 -1 1 -1 1 -1 1 0 0 4 
1 -1 1 -1 1 0 1 -1 0 -1 2 3 1 0 1 -1 
1 -1 1 -1 1 0 0 -1 0 1 1 3 1 -1 1 0 
1 -1 1 -1 1 -1 0 5 1 0 1 -1 1 -1 1 -1 
1 0 1 -1 0 -1 0 1 1 5 1 -1 1 -1 1 -1 
1 0 1 -1 0 6 3320 4229 100 MP stroke
1 0 1 -1 1 -1 1 -1 1 -1 1 8 1 -1 1 -1 
1 -1 1 -1 1 0 0 -1 0 1 1 4 1 -1 1 -1 
1 0 1 -1 1 -1 0 4 1 0 1 -1 1 0 1 -1 
1 -1 1 -1 0 5 1 0 1 -1 1 -1 1 -1 1 0 
1 -1 0 5 1 -1 1 -1 1 0 1 -1 1 -1 1 -1 
0 5 1 0 1 -1 1 -1 1 -1 1 0 0 -1 0 1 
1 4 1 -1 1 0 1 -1 1 -1 1 -1 0 5 1 0 
1 -1 1 -1 1 0 1 -1 1 -1 0 5 1 0 1 -1 
1 -1 1 -1 1 0 1 -1 0 5 1 -1 1 0 1 -1 
1 -1 1 -1 1 0 0 5 1 -1 1 -1 1 -1 1 0 
1 -1 0 -1 0 1 1 4 1 0 1 -1 1 -1 1 -1 
1 -1 0 5 1 -1 1 0 1 -1 1 -1 1 -1 1 -1 
0 4 1 0 1 -1 3237 4219 100 MP stroke
1 -1 1 -1 1 0 1 -1 0 3 1 0 1 -1 1 -1 
1 -1 1 -1 1 0 0 2 1 -1 1 -1 1 0 1 -1 
0 -1 2 0 1 -1 1 -1 1 0 1 -1 1 -1 0 -1 
0 1 1 4 1 -1 1 -1 1 -1 1 0 1 -1 0 4 
1 0 1 -1 1 -1 1 -1 1 0 -1 0 2 4 1 -1 
1 -1 1 -1 1 -1 1 0 0 -1 0 1 1 4 1 -1 
1 -1 1 -1 1 -1 1 -1 0 5 1 -1 1 0 1 -1 
1 -1 1 -1 1 4 1 -1 1 0 1 -1 1 -1 1 -1 
0 5 1 -1 1 0 1 -1 1 -1 1 -1 1 -1 0 5 
1 -1 1 0 1 -1 1 -1 1 -1 1 5 1 -1 1 -1 
1 -1 1 -1 1 -1 0 5 1 0 1 -1 1 -1 1 -1 
1 -1 1 0 0 5 1 -1 1 -1 1 -1 1 0 1 -1 
0 -1 0 1 1 4 3153 4221 100 MP stroke
1 -1 1 0 1 -1 1 -1 1 -1 0 5 1 0 1 -1 
1 -1 1 -1 1 -1 1 -1 0 6 1 -1 1 -1 1 -1 
1 0 1 -1 0 -1 0 1 1 4 1 -1 1 0 1 -1 
1 -1 1 -1 0 5 1 0 1 -1 1 -1 1 -1 1 0 
1 -1 0 5 1 -1 1 -1 1 0 1 -1 1 -1 0 -1 
0 1 1 4 1 -1 1 0 1 -1 1 -1 1 -1 0 5 
1 -1 1 -1 1 0 1 -1 1 -1 1 -1 0 5 1 -1 
1 -1 1 -1 1 -1 1 -1 0 4 1 0 1 -1 1 -1 
1 -1 1 -1 1 -1 0 3 1 0 1 -1 1 -1 1 -1 
1 -1 1 0 1 1 1 -1 1 -1 1 -1 1 -1 1 0 
1 -1 1 -1 1 -1 1 0 1 -1 0 4 1 -1 1 -1 
1 0 1 -1 1 -1 0 -1 0 1 1 3 1 -1 1 0 
1 -1 1 -1 1 -1 3069 4231 100 MP stroke
0 4 1 0 1 -1 1 -1 1 -1 1 -1 0 -1 0 1 
1 4 1 -1 1 -1 1 -1 1 -1 1 0 0 -1 0 1 
1 4 1 -1 1 -1 1 -1 1 -1 0 -1 0 6 1 -1 
1 0 1 -1 1 -1 1 -1 1 -1 0 6 1 -1 1 -1 
1 0 1 -1 0 -1 2 6 1 -1 1 -1 1 -1 1 -1 
1 -1 0 8 1 -1 1 -1 1 0 1 -1 0 -1 2 4 
1 -1 1 -1 1 0 1 -1 1 -1 0 5 1 -1 1 -1 
1 0 1 -1 0 -1 2 4 1 -1 1 -1 1 0 1 -1 
1 -1 0 5 1 -1 1 0 1 -1 1 -1 0 -1 2 5 
1 -1 1 -1 1 -1 1 -1 1 -1 0 5 1 0 1 -1 
1 -1 1 -1 1 0 -1 0 2 4 1 -1 1 -1 1 0 
1 -1 1 -1 0 5 1 0 1 -1 1 -1 1 -1 0 -1 
2 5 1 -1 1 -1 2984 4216 100 MP stroke
1 -1 1 -1 1 -1 0 5 1 0 1 -1 1 -1 1 -1 
1 0 -1 0 2 4 1 -1 1 -1 1 -1 1 -1 1 0 
0 -1 0 1 1 4 1 -1 1 -1 1 -1 0 -1 2 4 
1 -1 1 -1 1 -1 1 -1 1 -1 0 4 1 -1 1 -1 
1 -1 1 -1 1 0 -1 0 2 2 1 -1 1 -1 1 -1 
1 -1 1 -1 1 1 1 -1 1 -1 1 -1 0 -1 2 4 
1 -1 1 -1 1 0 1 -1 1 -1 0 4 1 0 1 -1 
1 -1 1 -1 1 -1 0 5 1 -1 1 -1 1 0 1 -1 
1 -1 1 -1 0 5 1 -1 1 -1 1 -1 1 -1 1 -1 
0 5 1 0 1 -1 1 -1 1 -1 1 -1 0 -1 0 1 
1 4 1 -1 1 -1 1 -1 1 0 1 -1 0 5 1 -1 
1 -1 1 -1 1 -1 1 -1 0 5 1 0 1 -1 1 -1 
1 -1 1 -1 0 -1 2900 4223 100 MP stroke
0 1 1 4 1 -1 1 -1 1 -1 1 0 1 -1 0 5 
1 -1 1 -1 1 -1 1 -1 1 -1 0 5 1 0 1 -1 
1 -1 1 -1 0 -1 2 5 1 -1 1 -1 1 -1 1 -1 
1 -1 0 5 1 -1 1 0 1 -1 1 -1 1 -1 0 -1 
0 6 1 -1 1 0 1 -1 1 -1 0 -1 2 4 1 -1 
1 0 1 -1 1 -1 1 -1 0 5 1 -1 1 0 1 -1 
1 -1 1 -1 0 -1 0 6 1 -1 1 0 1 -1 1 -1 
0 -1 2 4 1 0 1 -1 1 -1 1 -1 1 -1 0 5 
1 -1 1 -1 1 0 1 -1 1 -1 0 -1 0 1 1 4 
1 -1 1 -1 1 -1 1 0 1 -1 0 4 1 0 1 -1 
1 -1 1 -1 1 -1 0 4 1 0 1 -1 1 -1 1 -1 
1 -1 0 -1 0 1 1 3 1 -1 1 0 1 -1 1 -1 
1 -1 0 3 1 -1 2818 4215 100 MP stroke
1 -1 1 -1 1 -1 1 0 0 -1 0 1 1 1 1 -1 
1 -1 1 -1 1 -1 1 1 1 -1 1 -1 1 -1 1 -1 
1 -1 0 4 1 0 1 -1 1 -1 1 -1 1 -1 0 4 
1 0 1 -1 1 -1 1 -1 1 -1 0 -1 0 1 1 4 
1 -1 1 -1 1 -1 1 -1 0 -1 0 1 1 4 1 -1 
1 -1 1 -1 1 -1 1 -1 0 5 1 -1 1 -1 1 -1 
1 -1 1 -1 0 6 1 -1 1 -1 1 -1 1 -1 1 -1 
0 6 1 -1 1 -1 1 -1 1 -1 1 0 0 -1 0 1 
1 5 1 -1 1 -1 1 -1 1 -1 1 7 1 -1 1 -1 
1 -1 1 -1 1 -1 0 5 1 0 1 -1 1 -1 1 -1 
1 -1 0 5 1 -1 1 -1 1 -1 1 -1 1 0 0 -1 
0 1 1 4 1 -1 1 -1 1 -1 1 -1 0 5 1 0 
1 -1 1 -1 1 -1 2737 4216 100 MP stroke
0 -1 2 5 1 -1 1 -1 1 -1 1 -1 1 -1 0 5 
1 -1 1 0 1 -1 1 -1 1 -1 0 5 1 -1 1 -1 
1 -1 1 0 1 -1 0 -1 0 6 1 -1 1 -1 1 -1 
1 -1 1 -1 0 5 1 0 1 -1 1 -1 1 -1 1 -1 
1 5 1 -1 1 -1 1 -1 1 -1 1 -1 0 6 1 -1 
1 -1 1 -1 1 -1 1 -1 0 5 1 -1 1 -1 1 0 
1 -1 1 -1 0 -1 0 1 1 4 1 -1 1 -1 1 -1 
1 -1 0 -1 0 5 1 -1 1 -1 1 -1 1 0 0 -1 
2 3 1 -1 1 -1 1 -1 1 -1 1 -1 0 3 1 -1 
1 -1 1 -1 1 -1 1 -1 0 2 1 -1 1 -1 1 -1 
1 -1 1 -1 0 5 1 0 1 -1 1 -1 1 -1 1 -1 
0 -1 0 1 1 4 1 -1 1 -1 1 -1 1 -1 0 -1 
0 1 1 4 1 -1 2656 4215 100 MP stroke
1 -1 1 -1 1 -1 0 4 1 0 1 -1 1 -1 1 0 
1 -1 0 -1 0 1 1 4 1 -1 1 -1 1 -1 0 -1 
2 4 1 -1 1 -1 1 -1 0 -1 2 4 1 -1 1 -1 
1 -1 1 -1 1 4 1 0 1 -1 1 -1 1 -1 1 -1 
0 5 1 -1 1 -1 1 -1 1 -1 1 -1 0 5 1 -1 
1 -1 1 -1 1 -1 1 0 0 -1 0 6 1 -1 1 -1 
1 -1 1 -1 1 -1 0 5 1 -1 1 -1 1 -1 1 -1 
1 -1 0 5 1 0 1 -1 1 -1 1 -1 1 -1 0 5 
1 -1 1 -1 1 0 1 -1 1 -1 0 -1 0 6 1 -1 
1 -1 1 -1 1 -1 1 -1 0 5 1 0 1 -1 1 -1 
1 -1 1 -1 0 -1 0 6 1 -1 1 -1 1 -1 1 -1 
1 -1 0 5 1 0 1 -1 1 -1 1 -1 1 -1 0 5 
1 0 1 -1 1 -1 2574 4209 100 MP stroke
1 -1 1 -1 0 -1 0 1 1 4 1 -1 1 -1 1 -1 
1 -1 0 5 1 -1 1 -1 1 -1 1 0 1 -1 0 -1 
0 1 1 4 1 -1 1 -1 1 -1 0 -1 2 3 1 -1 
1 -1 1 -1 1 0 -1 0 2 3 1 -1 1 -1 1 -1 
0 -1 2 2 1 0 1 -1 1 -1 1 -1 1 -1 0 2 
1 0 1 -1 1 -1 1 -1 1 -1 -1 0 2 0 1 0 
1 -1 1 -1 1 -1 0 4 1 -1 1 -1 1 -1 1 -1 
1 -1 0 5 1 -1 1 -1 1 -1 0 -1 2 3 1 0 
1 -1 1 -1 0 -1 2 3 1 -1 1 -1 1 -1 1 -1 
0 4 1 0 1 -1 1 -1 1 -1 1 -1 0 5 1 -1 
1 -1 1 -1 1 -1 1 0 0 -1 0 1 1 4 1 -1 
1 -1 1 -1 1 -1 0 5 1 0 1 -1 1 -1 1 -1 
1 -1 0 6 1 -1 2491 4212 100 MP stroke
1 -1 1 -1 1 -1 1 -1 0 7 1 0 1 -1 1 -1 
1 -1 1 -1 0 5 1 -1 1 -1 1 -1 1 -1 1 -1 
0 5 1 -1 1 -1 1 -1 1 -1 1 -1 0 5 1 0 
1 -1 1 -1 0 -1 2 4 1 -1 1 -1 1 -1 0 -1 
2 5 0 -1 2 -2 1 0 1 -1 0 -1 0 1 1 4 
1 -1 1 -1 1 -1 1 -1 0 -1 0 1 1 5 1 -1 
1 -1 1 -1 1 -1 0 -1 0 1 1 4 1 -1 1 -1 
1 -1 1 -1 0 5 1 0 1 -1 1 -1 1 -1 1 -1 
0 -1 0 6 1 -1 1 -1 1 -1 1 -1 1 -1 0 5 
1 -1 1 -1 1 -1 1 -1 1 -1 0 5 1 0 1 -1 
1 -1 1 -1 1 -1 0 -1 0 5 1 -1 1 -1 1 0 
0 -1 2 -2 0 5 1 -1 1 -1 1 -1 0 -1 2 3 
1 -1 1 -1 1 -1 2410 4207 100 MP stroke
0 -1 2 2 1 -1 1 -1 1 -1 1 -1 0 2 1 0 
1 -1 1 -1 1 -1 1 -1 0 -1 0 1 1 4 1 -1 
1 -1 1 -1 1 -1 0 -1 0 1 1 4 1 -1 1 -1 
1 -1 1 -1 0 -1 0 1 1 4 1 -1 1 -1 1 -1 
1 -1 0 4 1 0 1 -1 1 -1 1 -1 0 -1 0 1 
1 4 1 -1 1 -1 1 -1 1 -1 0 -1 0 5 1 -1 
1 0 1 -1 0 -1 2 -2 0 5 1 0 1 -1 1 -1 
1 -1 1 -1 0 4 1 0 1 -1 1 -1 1 -1 0 -1 
0 1 1 4 1 -1 1 -1 1 -1 1 -1 0 -1 0 1 
1 4 1 -1 1 -1 1 -1 1 -1 0 -1 0 1 1 4 
1 -1 1 -1 1 -1 1 -1 0 5 1 -1 1 -1 1 -1 
0 -1 2 4 1 -1 1 -1 1 -1 1 -1 0 5 1 -1 
1 -1 1 -1 1 -1 2333 4208 100 MP stroke
1 -1 0 5 1 0 1 -1 1 -1 0 -1 2 -2 0 6 
1 -1 1 -1 1 -1 0 -1 2 4 1 -1 1 -1 1 -1 
1 -1 0 5 1 -1 1 -1 1 -1 1 -1 1 -1 0 5 
1 0 1 -1 1 -1 1 -1 1 -1 0 5 1 -1 1 -1 
1 -1 0 -1 2 4 1 -1 1 -1 1 -1 1 -1 0 -1 
0 1 1 4 1 -1 1 -1 1 -1 1 -1 0 4 1 0 
1 -1 1 -1 1 -1 1 -1 0 4 1 -1 1 -1 1 -1 
0 -1 2 3 1 0 0 -1 2 -2 1 0 0 -1 0 1 
1 2 1 -1 1 -1 1 -1 1 -1 0 3 1 -1 1 -1 
1 -1 1 -1 1 -1 0 2 1 -1 1 -1 1 -1 1 -1 
1 -1 0 5 1 -1 1 -1 1 -1 1 -1 0 -1 0 5 
1 -1 1 -1 1 -1 1 -1 1 -1 0 4 1 0 1 -1 
1 -1 0 -1 2 3 2251 4208 100 MP stroke
1 -1 1 -1 1 -1 1 -1 0 4 1 0 1 -1 1 -1 
1 -1 1 -1 0 4 1 -1 1 0 -1 0 2 -2 1 -1 
0 5 1 -1 1 -1 1 -1 1 -1 1 -1 0 5 1 0 
0 -1 2 -2 1 0 -1 0 2 4 1 -1 1 -1 1 -1 
1 -1 0 5 1 0 1 -1 1 -1 1 -1 1 -1 0 6 
1 0 1 -1 1 -1 1 -1 0 -1 0 1 1 4 1 -1 
1 -1 1 -1 1 -1 0 -1 0 1 1 4 1 -1 1 -1 
0 -1 2 4 1 -1 1 -1 1 -1 1 -1 0 -1 0 1 
1 4 1 -1 1 -1 1 -1 1 -1 0 -1 0 6 1 -1 
1 -1 1 -1 1 -1 0 -1 0 1 1 4 1 -1 1 -1 
1 -1 1 -1 0 -1 0 6 1 -1 1 -1 1 -1 1 -1 
1 -1 0 5 1 -1 1 -1 1 -1 1 -1 0 -1 0 6 
1 -1 1 -1 1 -1 2175 4201 100 MP stroke
1 -1 1 -1 0 5 1 -1 1 -1 1 -1 0 -1 2 5 
0 -1 1 -1 1 -1 1 -1 1 -1 0 5 1 -1 1 -1 
1 -1 1 -1 1 -1 0 5 1 -1 1 -1 1 -1 1 -1 
0 -1 0 1 1 4 1 -1 1 -1 1 -1 1 -1 0 -1 
0 5 1 -1 1 -1 1 -1 0 -1 2 3 1 -1 1 -1 
1 -1 1 -1 0 -1 0 4 1 -1 1 -1 1 -1 1 -1 
1 -1 0 2 1 0 1 -1 1 -1 1 -1 0 -1 0 5 
1 -1 1 -1 1 -1 1 -1 1 -1 0 5 1 -1 1 -1 
1 -1 1 -1 0 -1 0 1 1 4 1 -1 0 -1 2 -2 
1 0 0 -1 0 5 1 -1 1 -1 1 -1 1 -1 0 4 
1 0 1 -1 1 -1 1 -1 1 -1 0 5 1 -1 1 -1 
0 -1 2 -2 0 5 1 -1 1 -1 1 -1 1 -1 1 -1 
0 5 1 -1 1 -1 2098 4202 100 MP stroke
1 -1 1 -1 0 -1 0 1 1 4 1 -1 1 -1 0 -1 
2 4 0 -1 1 -1 1 -1 1 -1 1 -1 0 5 1 -1 
1 -1 1 -1 0 -1 2 4 1 -1 1 -1 1 -1 1 -1 
0 4 1 0 1 -1 1 -1 1 -1 0 -1 0 1 1 4 
1 -1 1 -1 0 -1 2 -2 1 5 -1 0 2 -2 1 -1 
1 -1 0 5 1 -1 1 -1 1 -1 1 -1 1 -1 0 5 
1 -1 1 -1 1 -1 1 -1 0 -1 0 1 1 4 1 -1 
1 -1 1 -1 1 -1 0 5 1 -1 1 -1 1 -1 1 -1 
0 -1 0 1 1 4 1 -1 1 -1 1 -1 1 -1 0 5 
1 -1 1 -1 1 -1 1 -1 0 -1 0 1 1 4 1 -1 
1 -1 0 -1 2 3 1 -1 1 -1 1 -1 1 -1 0 5 
1 -1 1 -1 1 -1 0 -1 2 4 0 -1 2 -2 1 -1 
1 -1 0 4 1 0 2019 4195 100 MP stroke
1 -1 1 -1 1 -1 0 -1 0 1 1 3 1 -1 1 -1 
1 -1 1 -1 0 -1 0 4 1 -1 1 -1 1 -1 1 -1 
0 -1 0 4 1 -1 1 -1 1 -1 1 -1 1 -1 0 3 
1 -1 1 -1 1 -1 1 -1 0 -1 0 1 1 3 1 -1 
1 -1 0 -1 2 3 1 -1 1 -1 1 -1 1 -1 0 4 
1 -1 1 -1 1 -1 1 -1 0 4 1 0 1 -1 1 -1 
0 -1 2 3 1 -1 1 -1 1 -1 1 -1 0 4 1 -1 
1 -1 1 -1 1 -1 0 4 1 0 1 -1 1 -1 0 -1 
2 4 0 -1 1 -1 1 -1 1 -1 1 -1 0 5 1 -1 
1 -1 1 -1 1 -1 0 5 1 -1 1 -1 1 -1 1 -1 
0 -1 0 1 1 5 1 -1 1 -1 1 -1 1 -1 0 6 
1 -1 1 -1 1 -1 1 -1 0 -1 0 5 1 -1 1 -1 
1 -1 1 -1 0 4 1942 4195 100 MP stroke
1 0 1 -1 1 -1 1 -1 1 -1 0 5 1 -1 1 -1 
0 -1 2 -2 0 5 1 -1 1 -1 1 -1 1 -1 0 4 
1 0 1 -1 1 -1 1 -1 1 -1 0 5 1 -1 1 -1 
1 -1 1 -1 1 4 -1 -5 0 5 2 -2 1 0 -1 0 
2 -2 0 5 1 -1 1 -1 1 -1 0 -1 2 4 1 -1 
1 -1 1 -1 1 -1 0 5 1 -1 1 -1 1 -1 1 -1 
1 4 -1 -5 0 5 2 -2 1 -1 1 -1 0 -1 1 5 
1 -1 1 -1 1 -1 1 -1 0 4 1 0 1 -1 0 -1 
2 -2 0 5 1 -1 1 -1 1 -1 0 -1 2 4 0 -1 
1 -1 1 -1 1 -1 1 -1 0 4 1 -1 1 -1 1 -1 
1 -1 0 4 1 -1 1 -1 1 -1 1 -1 0 -1 0 4 
1 -1 1 -1 1 -1 1 -1 1 -1 0 3 1 -1 1 -1 
1 -1 1 -1 1 4 1863 4194 100 MP stroke
-1 0 2 -2 1 -1 1 -1 0 4 1 0 1 -1 1 -1 
1 -1 0 -1 0 1 1 3 1 -1 1 -1 0 -1 2 4 
0 -1 1 -1 1 0 -1 0 2 -2 1 -1 0 5 1 -1 
1 -1 1 -1 1 -1 0 -1 0 5 1 -1 1 -1 1 -1 
1 -1 0 4 1 0 0 -1 2 -2 1 -1 0 4 1 0 
1 -1 1 -1 1 -1 0 -1 0 5 1 -1 1 -1 1 -1 
0 -1 2 4 1 -1 1 -1 1 -1 1 -1 0 4 1 -1 
1 -1 1 -1 1 -1 0 4 1 0 1 -1 0 -1 2 -2 
0 5 1 -1 1 -1 1 -1 1 -1 0 -1 0 1 1 4 
0 -1 2 -2 1 -1 0 4 1 0 1 -1 1 -1 0 -1 
2 4 0 -1 1 -1 1 0 -1 0 2 -2 1 -1 0 5 
1 -1 1 -1 1 -1 1 -1 0 4 1 -1 1 0 -1 0 
2 -2 1 -1 0 5 1789 4189 100 MP stroke
1 -1 1 -1 1 -1 1 -1 0 -1 0 1 1 4 0 -1 
2 -2 1 -1 0 4 1 0 1 -1 1 -1 0 -1 2 4 
1 -1 1 -1 0 -1 2 -2 0 5 1 -1 1 -1 1 -1 
1 -1 0 4 1 0 0 -1 2 -2 1 -1 0 5 1 -1 
1 -1 1 -1 1 -1 0 -1 0 5 1 -1 1 -1 1 -1 
1 -1 1 4 -1 -5 0 5 2 -2 1 -1 1 -1 0 -1 
1 5 0 -1 1 -1 1 -1 1 -1 1 -1 0 4 1 -1 
1 -1 1 -1 1 -1 0 4 1 -1 1 -1 0 -1 2 -2 
0 3 1 0 1 -1 1 -1 1 -1 1 2 -1 -3 0 3 
2 -2 1 -1 1 -1 1 4 -1 0 2 -2 1 -1 1 -1 
1 4 -1 0 2 -2 1 -1 1 -1 1 4 -1 0 2 -2 
1 -1 1 -1 1 4 -1 -5 0 5 2 -2 1 -1 1 -1 
1 4 -1 -5 0 5 1715 4191 100 MP stroke
2 -2 1 -1 1 -1 0 -1 0 1 1 4 0 -1 2 -2 
1 -1 0 4 1 0 1 -1 0 -1 2 -2 1 4 1 -1 
1 -1 0 -1 2 3 1 -1 1 -1 0 -1 2 4 1 -1 
1 -1 0 -1 2 4 0 -1 1 -1 1 -1 0 -1 2 4 
1 -1 1 -1 0 -1 2 5 1 -1 0 -1 2 -2 0 -1 
1 5 1 -1 1 -1 0 -1 2 3 1 -1 1 -1 0 -1 
2 4 0 -1 2 -2 1 -1 1 -1 0 5 1 -1 1 -1 
1 -1 1 -1 0 4 1 -1 1 -1 1 -1 1 -1 0 5 
0 -1 2 -2 1 -1 1 -1 0 5 1 -1 1 -1 1 -1 
1 -1 0 4 1 -1 1 -1 1 -1 1 -1 0 5 1 -1 
0 -1 2 -2 1 -1 0 5 1 -1 1 -1 1 -1 1 -1 
0 4 1 -1 1 -1 1 -1 1 -1 0 5 1 -1 0 -1 
2 -2 1 -1 0 5 1630 4183 100 MP stroke
1 -1 1 -1 1 -1 1 -1 0 4 1 -1 1 -1 1 -1 
1 -1 0 4 1 -1 1 -1 1 -1 1 -1 0 4 1 -1 
1 -1 1 -1 1 -1 0 4 1 -1 1 -1 1 -1 1 -1 
0 3 1 0 0 -1 2 -2 1 -1 0 4 1 -1 1 -1 
1 -1 1 -1 0 -1 0 4 1 -1 1 -1 1 -1 1 -1 
0 -1 0 5 1 -1 1 -1 1 -1 1 -1 0 -1 0 5 
1 -1 1 -1 1 -1 1 -1 0 4 1 -1 1 -1 0 -1 
2 3 1 -1 1 -1 1 -1 0 -1 0 1 1 3 1 -1 
1 -1 1 -1 0 -1 0 1 1 3 1 -1 1 -1 1 -1 
0 -1 0 5 1 -1 1 -1 1 -1 1 -1 0 4 1 -1 
1 -1 1 -1 1 -1 0 4 1 -1 1 -1 1 -1 1 -1 
0 4 1 -1 1 -1 0 -1 2 3 1 -1 1 -1 1 -1 
0 -1 0 1 1 4 1555 4183 100 MP stroke
0 -1 2 -2 1 -1 0 4 1 0 0 -1 2 -2 1 -1 
0 4 1 0 1 -1 1 -1 1 -1 0 -1 0 1 1 3 
1 -1 1 -1 1 -1 0 -1 0 5 1 -1 1 -1 1 -1 
1 -1 0 4 1 -1 1 -1 1 -1 1 -1 0 4 1 -1 
1 -1 0 -1 2 3 1 -1 1 -1 1 -1 1 4 -1 -5 
0 5 2 -2 1 -1 1 -1 0 4 1 0 1 -1 0 -1 
2 -2 0 4 1 0 1 -1 1 -1 1 -1 0 -1 0 5 
1 -1 1 -1 1 -1 1 -1 0 4 1 -1 1 -1 1 -1 
1 -1 0 4 1 -1 1 -1 1 -1 1 -1 0 5 0 -1 
2 -2 0 -1 2 4 0 -1 2 -2 1 -1 0 4 1 0 
0 -1 2 -2 1 -1 0 4 1 0 0 -1 2 -2 1 -1 
1 4 -1 0 2 -2 1 -1 1 -1 0 4 1 -1 1 -1 
1 -1 1 -1 0 4 1478 4179 100 MP stroke
1 -1 1 -1 1 -1 1 -1 0 3 1 -1 1 -1 0 -1 
2 3 0 -1 1 -1 1 -1 1 -1 0 3 1 -1 1 -1 
1 -1 1 -1 0 -1 0 5 1 -1 1 -1 1 -1 1 -1 
0 4 1 -1 1 -1 1 -1 1 -1 0 4 1 -1 0 -1 
2 -2 0 4 1 0 0 -1 2 -2 1 -1 0 4 1 -1 
1 -1 1 -1 1 -1 0 4 1 -1 1 -1 1 -1 1 -1 
0 4 1 -1 1 -1 1 -1 0 -1 0 1 1 3 0 -1 
2 -2 1 -1 1 4 -1 0 2 -2 1 -1 1 -1 1 4 
-1 0 2 -2 0 -1 2 4 0 -1 1 -1 1 -1 1 -1 
0 4 1 0 0 -1 2 -2 1 -1 0 5 1 -1 1 -1 
1 -1 1 -1 0 4 1 -1 1 -1 1 -1 0 -1 0 1 
1 4 1 -1 1 -1 1 -1 0 -1 0 1 1 3 1 -1 
1 -1 1 -1 0 -1 1403 4182 100 MP stroke
0 5 1 -1 1 -1 0 -1 2 3 1 -1 1 -1 1 -1 
0 -1 0 1 1 3 1 -1 0 -1 2 -2 0 4 1 0 
1 -1 0 -1 2 -2 0 5 1 -1 0 -1 2 -2 0 4 
1 0 1 -1 0 -1 2 -2 0 4 1 0 1 -1 0 -1 
2 -2 0 4 1 0 0 -1 2 -2 0 -1 1 5 1 -1 
0 -1 2 -2 0 4 1 0 1 -1 0 -1 2 -2 0 4 
1 0 0 -1 2 -2 1 -1 0 5 1 -1 0 -1 2 -2 
0 4 1 0 0 -1 2 -2 1 -1 0 4 1 -1 1 -1 
1 -1 1 -1 0 4 1 -1 1 -1 0 -1 2 3 1 -1 
1 -1 1 -1 0 -1 0 1 1 3 1 -1 1 -1 1 -1 
1 3 -1 -4 0 4 2 -2 1 -1 1 -1 0 4 1 -1 
1 -1 0 -1 2 2 1 -1 1 -1 1 -1 0 -1 0 4 
1 -1 1 -1 1 -1 1326 4178 100 MP stroke
1 -1 0 4 1 -1 1 -1 0 -1 2 3 1 -1 1 -1 
1 -1 1 3 -1 -4 0 4 2 -2 1 -1 1 -1 0 4 
1 -1 1 -1 1 -1 0 -1 0 1 1 3 1 -1 1 -1 
1 -1 0 4 1 -1 0 -1 2 -2 1 4 -1 0 2 -2 
1 -1 1 -1 0 4 1 -1 1 -1 0 -1 2 3 1 -1 
1 -1 1 -1 0 -1 0 1 1 3 1 -1 1 -1 1 -1 
0 4 0 -1 2 -2 1 -1 0 4 1 -1 1 -1 1 -1 
1 -1 0 4 1 -1 1 -1 1 -1 0 -1 0 1 1 3 
1 -1 0 -1 2 -2 0 4 1 0 0 -1 2 -2 1 4 
0 -1 1 -1 1 -1 1 -1 0 4 1 -1 1 -1 1 -1 
1 -1 0 4 1 -1 1 -1 1 -1 0 -1 0 1 1 3 
1 -1 0 -1 2 -2 1 4 -1 0 2 -2 1 -1 0 4 
1 -1 1 -1 1 -1 1251 4174 100 MP stroke
1 -1 0 4 1 -1 1 -1 0 -1 2 3 1 -1 1 -1 
1 -1 0 -1 0 1 1 3 0 -1 2 -2 1 -1 0 5 
0 -1 2 -2 1 -1 0 4 1 -1 1 -1 1 -1 1 -1 
0 4 1 -1 1 -1 1 -1 0 -1 0 1 1 3 1 -1 
1 -1 1 -1 0 -1 0 5 1 -1 0 -1 2 -2 1 4 
0 -1 2 -2 1 -1 0 4 1 -1 1 -1 0 -1 2 3 
1 -1 1 -1 1 -1 0 -1 0 1 1 3 1 -1 0 -1 
2 -2 1 4 -1 0 2 -2 1 -1 0 4 1 -1 1 -1 
1 -1 1 -1 0 4 1 -1 1 -1 1 -1 0 -1 0 1 
1 2 1 -1 1 -1 1 -1 0 3 1 0 0 -1 2 -2 
0 -1 1 4 1 -1 1 -1 1 -1 0 -1 0 1 1 2 
1 -1 1 -1 1 -1 1 3 -1 0 2 -2 1 -1 0 4 
1 -1 1 -1 0 -1 1177 4172 100 MP stroke
2 3 0 -1 2 -2 1 -1 0 4 1 -1 1 -1 1 -1 
0 -1 0 1 1 3 1 -1 0 -1 2 -2 0 4 1 -1 
1 -1 1 -1 0 -1 0 1 1 3 1 -1 0 -1 2 -2 
0 4 1 -1 1 -1 1 -1 0 3 1 0 1 -1 0 -1 
2 2 1 -1 1 -1 1 -1 0 4 1 -1 1 -1 1 -1 
1 3 -1 -4 0 4 2 -2 1 -1 1 -1 0 4 1 -1 
1 -1 1 -1 0 -1 0 1 1 3 1 -1 1 -1 1 -1 
0 4 0 -1 2 -2 1 -1 0 4 1 -1 1 -1 0 -1 
2 3 1 -1 1 -1 1 -1 0 4 1 -1 1 -1 1 -1 
0 -1 0 1 1 3 1 -1 0 -1 2 -2 0 4 1 -1 
1 -1 1 -1 0 4 1 -1 1 -1 0 -1 2 3 1 -1 
0 -1 2 -2 0 4 1 -1 1 -1 1 -1 0 -1 0 1 
1 3 1 -1 1 -1 1101 4167 100 MP stroke
1 -1 1 3 -1 -4 0 4 2 -2 1 -1 0 3 1 0 
1 -1 1 -1 1 -1 0 4 1 -1 0 -1 2 -2 0 4 
1 -1 1 -1 0 -1 2 3 1 -1 1 -1 1 -1 0 -1 
0 1 1 3 0 -1 2 -2 0 3 1 0 1 -1 1 -1 
1 -1 0 4 1 -1 1 -1 1 -1 1 3 -1 -4 0 4 
2 -2 1 -1 1 -1 0 4 1 -1 1 -1 1 -1 0 -1 
0 1 1 3 1 -1 0 -1 2 2 1 -1 1 -1 1 -1 
0 4 1 -1 1 -1 1 -1 1 3 -1 -4 0 4 2 -2 
1 -1 1 -1 0 4 1 -1 1 -1 1 -1 1 3 -1 -4 
0 4 2 -2 1 -1 1 -1 0 4 1 -1 1 -1 1 -1 
0 -1 0 4 1 -1 1 -1 0 -1 2 3 1 -1 0 -1 
2 -2 0 4 1 -1 1 -1 1 -1 0 -1 0 4 1 -1 
1 -1 1 -1 1 -1 1028 4166 100 MP stroke
1 3 -1 0 2 -2 1 -1 0 3 1 0 1 -1 0 -2 
2 3 1 -1 0 -1 2 -2 0 4 1 -1 1 -1 1 -1 
0 -1 0 4 1 -1 1 -1 1 -1 0 -1 0 4 1 -1 
1 -1 1 -1 1 -1 0 3 1 -1 1 -1 1 -1 1 3 
-1 0 2 -2 1 -1 0 3 1 0 0 -1 2 -2 1 3 
1 -1 1 -1 1 -1 0 3 1 -1 1 -1 1 -1 0 -1 
0 4 1 -1 1 -1 1 -1 0 -1 0 1 1 3 0 -1 
2 -2 0 -1 1 4 1 -1 1 -1 1 -1 0 -1 0 4 
1 -1 1 -1 1 -1 0 4 1 -1 1 -1 1 -1 0 -1 
0 1 1 3 1 -1 1 -1 1 -1 0 4 1 -1 1 -1 
1 -1 0 -1 0 5 1 -1 1 -1 1 -1 0 -1 0 1 
1 4 1 -1 0 -1 2 4 1 -1 1 -1 1 -1 1 5 
-1 0 2 -2 1 -1 956 4159 100 MP stroke
0 6 1 0 1 -1 1 -1 0 -1 0 1 1 6 0 -1 
2 -2 0 -1 1 8 1 -1 1 -1 1 -1 0 8 1 -1 
1 -1 1 -1 0 9 1 -1 1 -1 1 -1 0 -1 0 1 
1 9 1 -1 1 -1 1 -1 0 10 1 -1 1 -1 1 -1 
0 -1 0 11 1 -1 1 -1 1 -1 0 10 1 0 0 -1 
2 -2 1 10 1 -1 1 -1 1 -1 0 -1 0 10 1 -1 
1 -1 1 -1 0 -1 0 1 1 7 0 -1 2 -2 0 6 
1 0 1 -1 1 -1 1 -1 0 -1 2 -2 1 -1 1 -1 
1 -1 1 -1 1 -1 0 -1 2 -2 1 -1 1 -1 1 -1 
1 -1 0 -1 900 4106 75 MP stroke
/c10 { 0.000000 1.000000 0.000000 sr} bdef
c10
1 0 1 0 1 0 1 0 1 0 1 0 1 0 1 0 
1 0 1 0 1 0 1 0 1 0 1 0 1 0 1 0 
1 0 1 0 1 0 1 0 1 0 1 0 1 0 1 0 
1 0 1 0 1 0 1 0 1 0 1 0 1 0 1 0 
1 0 1 0 1 0 1 0 1 0 1 0 1 0 1 0 
1 0 1 0 1 0 1 0 1 0 1 0 1 0 1 0 
1 0 1 0 1 0 1 0 1 0 1 0 1 0 1 0 
1 0 1 0 1 0 1 0 1 0 1 0 1 0 1 0 
1 0 1 0 1 0 1 0 1 0 1 0 1 0 1 0 
1 0 1 0 1 0 1 0 1 0 1 0 1 0 1 0 
1 0 1 0 1 0 1 0 1 0 1 0 1 0 1 0 
1 0 1 0 1 0 1 0 1 0 1 0 1 0 1 0 
1 0 1 0 1 0 6156 4192 100 MP stroke
1 0 1 0 1 0 1 0 1 0 1 0 1 0 1 0 
1 0 1 0 1 0 1 0 1 0 1 0 1 0 1 0 
1 0 1 0 1 0 1 0 1 0 1 0 1 0 1 0 
1 0 1 0 1 0 1 0 1 0 1 0 1 0 1 0 
1 0 1 0 1 0 1 0 1 0 1 0 1 0 1 0 
1 0 1 0 1 0 1 0 1 0 1 0 1 0 1 0 
1 0 1 0 1 0 1 0 1 0 1 0 1 0 1 0 
1 0 1 0 1 0 1 0 1 0 1 0 1 0 1 0 
1 0 1 0 1 0 1 0 1 0 1 0 1 0 1 0 
1 0 1 0 1 0 1 0 1 0 1 0 1 0 1 0 
1 0 1 0 1 0 1 0 1 0 1 0 1 0 1 0 
1 0 1 0 1 0 1 0 1 0 1 0 1 0 1 0 
1 0 1 0 1 0 6057 4192 100 MP stroke
1 0 1 0 1 0 1 0 1 0 1 0 1 0 1 0 
1 0 1 0 1 0 1 0 1 0 1 0 1 0 1 0 
1 0 1 0 1 0 1 0 1 0 1 0 1 0 1 0 
1 0 1 0 1 0 1 0 1 0 1 0 1 0 1 0 
1 0 1 0 1 0 1 0 1 0 1 0 1 0 1 0 
1 0 1 0 1 0 1 0 1 0 1 0 1 0 1 0 
1 0 1 0 1 0 1 0 1 0 1 0 1 0 1 0 
1 0 1 0 1 0 1 0 1 0 1 0 1 0 1 0 
1 0 1 0 1 0 1 0 1 0 1 0 1 0 1 0 
1 0 1 0 1 0 1 0 1 0 1 0 1 0 1 0 
1 0 1 0 1 0 1 0 1 0 1 0 1 0 1 0 
1 0 1 0 1 0 1 0 1 0 1 0 1 0 1 0 
1 0 1 0 1 0 5958 4192 100 MP stroke
1 0 1 0 1 0 1 0 1 0 1 0 1 0 1 0 
1 0 1 0 1 0 1 0 1 0 1 0 1 0 1 0 
1 0 1 0 1 0 1 0 1 0 1 0 1 0 1 0 
1 0 1 -1 1 0 1 0 1 0 1 0 1 0 1 0 
1 0 1 0 1 0 1 0 1 0 1 0 1 0 1 0 
1 0 1 0 1 0 1 0 1 0 1 0 1 0 1 0 
1 0 1 0 1 0 1 0 1 0 1 0 1 0 1 0 
1 0 1 0 1 0 1 0 1 0 1 0 1 0 1 0 
1 0 1 0 1 0 1 0 1 0 1 0 1 0 1 0 
1 0 1 0 1 0 1 0 1 0 1 0 1 0 1 0 
1 0 1 0 1 0 1 1 1 0 1 0 1 0 1 0 
1 0 1 0 1 0 1 0 1 0 1 0 1 0 1 0 
1 0 1 0 1 0 5859 4192 100 MP stroke
1 0 1 0 1 0 1 0 1 0 1 0 1 0 1 0 
1 0 1 0 1 0 1 0 1 0 1 0 1 0 1 0 
1 0 1 0 1 0 1 0 1 0 1 0 1 0 1 0 
1 0 1 0 1 0 1 0 1 0 1 0 1 0 1 0 
1 0 1 0 1 0 1 0 1 0 1 0 1 0 1 0 
1 0 1 0 1 0 1 0 1 0 1 0 1 0 1 0 
1 0 1 0 1 0 1 0 1 0 1 0 1 0 1 0 
1 0 1 0 1 0 1 0 1 0 1 0 1 0 1 0 
1 0 1 0 1 0 1 0 1 0 1 0 1 0 1 0 
1 0 1 0 1 0 1 0 1 0 1 0 1 0 1 0 
1 0 1 0 1 0 1 0 1 0 1 0 1 0 1 0 
1 0 1 0 1 0 1 0 1 0 1 0 1 0 1 0 
1 0 1 0 1 0 5760 4192 100 MP stroke
1 0 1 0 1 0 1 0 1 0 1 0 1 0 1 0 
1 0 1 0 1 0 1 0 1 0 1 0 1 0 1 0 
1 0 1 0 1 0 1 0 1 0 1 0 1 0 1 0 
1 0 1 0 1 0 1 0 1 0 1 0 1 0 1 0 
1 0 1 0 1 0 1 0 1 0 1 0 1 0 1 0 
1 0 1 0 1 0 1 0 1 0 1 0 1 0 1 0 
1 0 1 0 1 0 1 0 1 0 1 0 1 0 1 0 
1 0 1 0 1 0 1 0 1 0 1 0 1 0 1 0 
1 0 1 0 1 0 1 0 1 0 1 0 1 0 1 0 
1 0 1 0 1 0 1 0 1 0 1 0 1 0 1 0 
1 0 1 0 1 0 1 0 1 0 1 0 1 0 1 0 
1 0 1 0 1 0 1 0 1 0 1 0 1 0 1 0 
1 0 1 0 1 0 5661 4192 100 MP stroke
1 0 1 0 1 0 1 0 1 0 1 0 1 0 1 0 
1 0 1 0 1 0 1 0 1 0 1 0 1 0 1 0 
1 0 1 0 1 0 1 0 1 0 1 0 1 0 1 0 
1 0 1 0 1 0 1 0 1 0 1 0 1 0 1 0 
1 0 1 0 1 0 1 0 1 0 1 0 1 0 1 0 
1 0 1 0 1 0 1 0 1 0 1 0 1 0 1 0 
1 0 1 0 1 0 1 0 1 0 1 0 1 0 1 0 
1 0 1 0 1 0 1 0 1 0 1 0 1 0 1 0 
1 0 1 0 1 0 1 0 1 0 1 0 1 0 1 0 
1 0 1 0 1 0 1 0 1 0 1 0 1 0 1 0 
1 0 1 0 1 0 1 0 1 0 1 0 1 0 1 0 
1 0 1 0 1 0 1 0 1 0 1 0 1 -1 1 0 
1 0 1 0 1 0 5562 4193 100 MP stroke
1 0 1 0 1 0 1 0 1 0 1 0 1 0 1 0 
1 0 1 0 1 0 1 0 1 0 1 0 1 0 1 0 
1 0 1 0 1 0 1 0 1 0 1 0 1 0 1 0 
1 0 1 0 1 -1 1 0 1 0 1 0 1 0 1 0 
1 0 1 0 1 0 1 0 1 0 1 0 1 0 1 0 
1 0 1 0 1 0 1 0 1 0 1 0 1 0 1 0 
1 0 1 0 1 1 1 0 1 0 1 0 1 0 1 0 
1 0 1 0 1 1 1 0 1 0 1 0 1 0 1 0 
1 0 1 0 1 0 1 0 1 0 1 0 1 0 1 0 
1 0 1 0 1 0 1 0 1 0 1 0 1 0 1 0 
1 0 1 0 1 0 1 0 1 0 1 0 1 0 1 0 
1 0 1 0 1 0 1 0 1 0 1 0 1 0 1 0 
1 0 1 0 1 0 5463 4192 100 MP stroke
1 0 1 0 1 0 1 0 1 0 1 0 1 0 1 0 
1 0 1 0 1 0 1 0 1 0 1 0 1 0 1 0 
1 0 1 0 1 0 1 0 1 0 1 0 1 0 1 0 
1 0 1 0 1 0 1 0 1 0 1 0 1 0 1 0 
1 0 1 0 1 0 1 0 1 0 1 0 1 0 1 0 
1 0 1 0 1 0 1 0 1 0 1 0 1 0 1 0 
1 0 1 0 1 0 1 0 1 0 1 0 1 0 1 0 
1 0 1 0 1 0 1 0 1 0 1 0 1 0 1 0 
1 0 1 0 1 0 1 0 1 0 1 0 1 0 1 0 
1 0 1 0 1 0 1 0 1 0 1 0 1 0 1 0 
1 0 1 0 1 0 1 0 1 0 1 0 1 0 1 0 
1 0 1 0 1 0 1 0 1 0 1 0 1 0 1 0 
1 0 1 0 1 0 5364 4192 100 MP stroke
1 0 1 0 1 0 1 0 1 0 1 0 1 0 1 0 
1 0 1 0 1 0 1 0 1 0 1 0 1 0 1 0 
1 0 1 0 1 0 1 0 1 0 1 0 1 0 1 0 
1 0 1 0 1 0 1 0 1 0 1 0 1 0 1 0 
1 0 1 0 1 0 1 0 1 0 1 0 1 0 1 0 
1 0 1 0 1 0 1 0 1 0 1 0 1 0 1 0 
1 0 1 0 1 0 1 0 1 0 1 0 1 0 1 0 
1 0 1 0 1 0 1 0 1 0 1 0 1 0 1 0 
1 0 1 0 1 0 1 0 1 0 1 0 1 0 1 0 
1 0 1 0 1 0 1 0 1 0 1 0 1 0 1 0 
1 0 1 0 1 0 1 0 1 0 1 0 1 0 1 0 
1 0 1 0 1 0 1 0 1 0 1 0 1 0 1 0 
1 0 1 0 1 0 5265 4192 100 MP stroke
1 0 1 0 1 0 1 0 1 0 1 0 1 0 1 0 
1 0 1 0 1 0 1 0 1 0 1 0 1 0 1 0 
1 0 1 0 1 0 1 0 1 0 1 0 1 0 1 0 
1 0 1 0 1 0 1 0 1 0 1 0 1 0 1 0 
1 0 1 0 1 0 1 0 1 0 1 0 1 0 1 0 
1 0 1 0 1 -1 1 0 1 0 1 0 1 0 1 0 
1 0 1 0 1 0 1 0 1 0 1 0 1 0 1 0 
1 0 1 0 1 0 1 0 1 0 1 0 1 0 1 0 
1 0 1 0 1 0 1 0 1 0 1 0 1 0 1 0 
1 0 1 -1 1 0 1 0 1 0 1 0 1 0 1 0 
1 0 1 0 1 0 1 0 1 0 1 0 1 0 1 0 
1 0 1 0 1 0 1 0 1 0 1 0 1 0 1 0 
1 0 1 0 1 0 5166 4194 100 MP stroke
1 0 1 0 1 0 1 0 1 1 1 0 1 0 1 0 
1 0 1 0 1 0 1 0 1 1 1 0 1 0 1 0 
1 0 1 0 1 0 1 0 1 0 1 0 1 0 1 0 
1 0 1 0 1 0 1 0 1 0 1 0 1 0 1 0 
1 0 1 0 1 0 1 0 1 0 1 0 1 0 1 0 
1 0 1 0 1 0 1 0 1 0 1 0 1 0 1 0 
1 0 1 0 1 0 1 0 1 0 1 0 1 0 1 0 
1 0 1 0 1 0 1 0 1 0 1 0 1 0 1 0 
1 0 1 0 1 0 1 0 1 0 1 0 1 0 1 0 
1 0 1 0 1 0 1 0 1 0 1 0 1 0 1 0 
1 0 1 0 1 0 1 0 1 0 1 0 1 0 1 0 
1 0 1 0 1 0 1 0 1 0 1 0 1 0 1 0 
1 0 1 0 1 0 5067 4192 100 MP stroke
1 0 1 0 1 0 1 0 1 0 1 0 1 0 1 0 
1 0 1 0 1 0 1 0 1 0 1 0 1 0 1 0 
1 0 1 0 1 0 1 0 1 0 1 0 1 0 1 0 
1 0 1 0 1 0 1 0 1 0 1 0 1 0 1 0 
1 0 1 0 1 0 1 0 1 0 1 0 1 0 1 0 
1 0 1 0 1 0 1 0 1 0 1 0 1 0 1 0 
1 0 1 0 1 0 1 0 1 0 1 0 1 0 1 0 
1 0 1 0 1 0 1 0 1 0 1 0 1 0 1 0 
1 0 1 0 1 0 1 0 1 0 1 0 1 0 1 0 
1 0 1 0 1 0 1 0 1 0 1 0 1 0 1 0 
1 0 1 0 1 0 1 0 1 0 1 0 1 0 1 0 
1 0 1 0 1 0 1 0 1 0 1 0 1 0 1 0 
1 0 1 0 1 0 4968 4192 100 MP stroke
1 0 1 0 1 0 1 0 1 0 1 0 1 0 1 0 
1 0 1 0 1 0 1 0 1 0 1 0 1 0 1 0 
1 0 1 0 1 0 1 0 1 0 1 0 1 0 1 0 
1 0 1 0 1 0 1 0 1 0 1 0 1 0 1 0 
1 0 1 0 1 0 1 0 1 0 1 0 1 0 1 0 
1 0 1 0 1 0 1 0 1 0 1 0 1 0 1 0 
1 0 1 0 1 0 1 0 1 0 1 0 1 0 1 0 
1 0 1 0 1 0 1 0 1 0 1 0 1 0 1 0 
1 0 1 0 1 0 1 0 1 0 1 0 1 0 1 0 
1 0 1 0 1 0 1 0 1 0 1 -1 1 0 1 0 
1 0 1 0 1 0 1 0 1 0 1 0 1 0 1 0 
1 0 1 0 1 0 1 0 1 0 1 0 1 0 1 0 
1 0 1 0 1 0 4869 4193 100 MP stroke
1 -1 1 0 1 0 1 0 1 0 1 0 1 0 1 0 
1 0 1 0 1 0 1 0 1 0 1 0 1 0 1 0 
1 0 1 0 1 0 1 0 1 0 1 0 1 0 1 0 
1 0 1 0 1 0 1 0 1 0 1 0 1 0 1 0 
1 0 1 0 1 0 1 0 1 0 1 1 1 0 1 0 
1 0 1 0 1 0 1 0 1 1 1 0 1 0 1 0 
1 0 1 0 1 0 1 0 1 0 1 0 1 0 1 0 
1 0 1 0 1 0 1 0 1 0 1 0 1 0 1 0 
1 0 1 0 1 0 1 0 1 0 1 0 1 0 1 0 
1 0 1 0 1 0 1 0 1 0 1 0 1 0 1 0 
1 0 1 0 1 0 1 0 1 0 1 0 1 0 1 0 
1 0 1 0 1 0 1 0 1 0 1 0 1 0 1 0 
1 0 1 0 1 0 4770 4192 100 MP stroke
1 0 1 0 1 0 1 0 1 0 1 0 1 0 1 0 
1 0 1 0 1 0 1 0 1 0 1 0 1 0 1 0 
1 0 1 0 1 0 1 0 1 0 1 0 1 0 1 0 
1 0 1 0 1 0 1 0 1 0 1 0 1 0 1 0 
1 0 1 0 1 0 1 0 1 0 1 0 1 0 1 0 
1 0 1 0 1 0 1 0 1 0 1 0 1 0 1 0 
1 0 1 0 1 0 1 0 1 0 1 0 1 0 1 0 
1 0 1 0 1 0 1 0 1 0 1 0 1 0 1 0 
1 0 1 0 1 0 1 0 1 0 1 0 1 0 1 0 
1 0 1 0 1 0 1 0 1 0 1 0 1 0 1 0 
1 0 1 0 1 0 1 0 1 0 1 0 1 0 1 0 
1 0 1 0 1 0 1 0 1 0 1 0 1 0 1 0 
1 0 1 0 1 0 4671 4192 100 MP stroke
1 0 1 0 1 0 1 0 1 0 1 0 1 0 1 0 
1 0 1 0 1 0 1 0 1 0 1 0 1 0 1 0 
1 0 1 0 1 0 1 0 1 0 1 0 1 0 1 0 
1 0 1 0 1 0 1 0 1 0 1 0 1 0 1 0 
1 0 1 0 1 0 1 0 1 0 1 0 1 0 1 0 
1 0 1 0 1 0 1 0 1 0 1 0 1 0 1 0 
1 0 1 0 1 0 1 0 1 0 1 0 1 0 1 0 
1 0 1 0 1 0 1 0 1 0 1 0 1 0 1 0 
1 0 1 0 1 0 1 0 1 0 1 0 1 0 1 0 
1 0 1 0 1 0 1 0 1 0 1 0 1 0 1 0 
1 0 1 0 1 0 1 0 1 0 1 0 1 0 1 0 
1 0 1 0 1 0 1 0 1 0 1 0 1 0 1 0 
1 0 1 0 1 -1 4572 4193 100 MP stroke
1 0 1 0 1 0 1 0 1 0 1 0 1 0 1 0 
1 0 1 0 1 0 1 0 1 0 1 0 1 0 1 0 
1 0 1 0 1 0 1 0 1 0 1 -1 1 0 1 0 
1 0 1 0 1 0 1 0 1 0 1 0 1 0 1 0 
1 0 1 0 1 0 1 0 1 0 1 0 1 0 1 0 
1 0 1 0 1 -1 1 0 1 0 1 0 1 0 1 0 
1 0 1 0 1 0 1 0 1 0 1 0 1 0 1 0 
1 1 1 0 1 0 1 0 1 0 1 0 1 0 1 0 
1 0 1 0 1 0 1 0 1 0 1 0 0 2 1 0 
1 0 1 0 1 0 1 0 1 0 1 0 1 0 1 0 
1 0 1 0 1 0 1 0 1 0 1 0 1 0 1 0 
1 0 1 0 1 0 1 0 1 0 1 0 1 0 1 0 
1 0 1 0 1 0 4474 4192 100 MP stroke
1 0 1 0 1 0 1 0 1 0 1 0 1 0 1 0 
1 0 1 0 1 0 1 0 1 0 1 0 1 0 1 0 
1 0 1 0 1 0 1 0 1 0 1 0 1 0 1 0 
1 0 1 0 1 0 1 0 1 0 1 0 1 0 1 0 
1 0 1 0 1 0 1 0 1 0 1 0 1 0 1 0 
1 0 1 0 1 0 1 0 1 0 1 0 1 0 1 0 
1 0 1 0 1 0 1 0 1 0 1 0 1 0 1 0 
1 0 1 0 1 0 1 0 1 0 1 0 1 0 1 0 
1 0 1 0 1 0 1 0 1 0 1 0 1 0 1 0 
1 0 1 0 1 0 1 0 1 0 1 0 1 0 1 0 
1 0 1 0 1 0 1 0 1 0 1 0 1 0 1 0 
1 0 1 0 1 0 1 0 1 0 1 0 1 0 1 0 
1 0 1 0 1 0 4375 4192 100 MP stroke
1 0 1 0 1 0 1 0 1 0 1 0 1 0 1 0 
1 0 1 0 1 0 1 0 1 0 1 0 1 0 1 0 
1 0 1 0 1 0 1 0 1 0 1 0 1 0 1 0 
1 0 1 0 1 0 1 0 1 0 1 0 1 0 1 0 
1 0 1 0 1 0 1 0 1 0 1 0 1 0 1 0 
1 0 1 0 1 0 1 0 1 0 1 0 1 0 1 0 
1 0 1 0 1 0 1 0 1 0 1 0 1 0 1 0 
1 0 1 0 1 0 1 0 1 0 1 0 1 0 1 0 
1 0 1 0 1 0 1 0 1 0 1 0 1 0 1 0 
1 0 1 0 1 0 1 0 1 0 1 0 1 0 1 0 
1 0 1 0 1 0 1 0 1 0 1 0 1 0 1 0 
1 0 1 0 1 0 1 0 1 0 1 0 1 0 1 0 
1 0 1 0 1 0 4276 4192 100 MP stroke
1 0 1 0 1 0 1 0 1 0 1 0 1 0 1 0 
1 0 1 -1 1 0 1 0 1 0 1 0 1 0 1 0 
1 0 1 0 1 0 1 0 1 0 1 0 1 0 1 0 
1 0 1 0 1 0 1 0 1 0 1 -1 1 0 1 0 
1 0 1 0 1 0 1 0 1 0 1 0 1 0 1 0 
1 0 1 0 1 0 1 0 1 0 1 0 1 0 1 0 
1 0 1 0 1 -1 1 0 1 0 1 0 1 0 1 0 
1 0 1 0 1 0 1 0 1 0 1 0 1 0 1 0 
1 0 1 0 1 0 1 0 1 0 1 0 1 1 1 0 
1 0 1 0 1 0 1 0 1 0 1 0 1 0 1 0 
1 0 1 0 1 0 0 2 1 0 1 0 1 0 1 0 
1 0 1 0 1 0 1 0 1 0 1 0 1 0 1 0 
1 0 1 0 1 0 4178 4192 100 MP stroke
1 0 1 0 1 0 1 0 1 0 1 0 1 0 1 0 
1 0 1 0 1 0 1 0 1 0 1 0 1 0 1 0 
1 0 1 0 1 0 1 0 1 0 1 0 1 0 1 0 
1 0 1 0 1 0 1 0 1 0 1 0 1 0 1 0 
1 0 1 0 1 0 1 0 1 0 1 0 1 0 1 0 
1 0 1 0 1 0 1 0 1 0 1 0 1 0 1 0 
1 0 1 0 1 0 1 0 1 0 1 0 1 0 1 0 
1 0 1 0 1 0 1 0 1 0 1 0 1 0 1 0 
1 0 1 0 1 0 1 0 1 0 1 0 1 0 1 0 
1 0 1 0 1 0 1 0 1 0 1 0 1 0 1 0 
1 0 1 0 1 0 1 0 1 0 1 0 1 0 1 0 
1 0 1 0 1 0 1 0 1 0 1 0 1 0 1 0 
1 0 1 0 1 0 4079 4192 100 MP stroke
1 0 1 0 1 0 1 0 1 0 1 0 1 0 1 0 
1 0 1 0 1 0 1 0 1 0 1 0 1 0 1 0 
1 0 1 0 1 0 1 0 1 0 1 0 1 0 1 0 
1 0 1 0 1 0 1 0 1 0 1 0 1 0 1 0 
1 0 1 0 1 0 1 0 1 0 1 0 1 0 1 0 
1 0 1 0 1 0 1 0 1 0 1 0 1 0 1 0 
1 0 1 0 1 0 1 0 1 0 1 0 1 0 1 0 
1 0 1 0 1 0 1 0 1 0 1 0 1 0 1 0 
1 0 1 0 1 0 1 0 1 0 1 0 1 0 1 0 
1 0 1 0 1 0 1 0 1 0 1 0 1 0 1 0 
1 0 1 0 1 0 1 0 1 0 1 0 1 0 1 0 
1 0 1 0 1 0 1 0 1 0 1 0 1 0 1 0 
1 0 1 0 1 0 3980 4192 100 MP stroke
1 0 1 0 1 0 1 0 1 0 1 0 1 -1 1 0 
1 0 1 0 1 0 1 0 1 0 1 0 1 0 1 0 
1 0 1 0 1 0 1 0 1 0 1 0 1 0 1 0 
1 0 1 0 1 0 1 0 1 0 1 0 1 0 1 0 
1 -1 1 0 1 0 1 0 1 0 1 0 1 0 1 0 
1 0 1 0 1 0 1 0 1 0 1 -1 1 0 1 0 
1 0 1 0 1 0 1 0 1 0 1 0 1 0 1 0 
1 0 1 0 1 0 1 0 1 0 1 0 1 0 1 0 
1 0 1 0 1 0 1 0 1 0 1 0 1 0 1 0 
1 0 1 0 1 0 1 0 1 0 1 1 1 0 1 0 
1 0 1 0 1 0 0 2 1 0 1 0 1 0 1 0 
1 0 1 0 1 0 1 0 1 0 1 0 1 0 1 0 
1 0 1 0 1 0 3882 4192 100 MP stroke
1 0 1 0 1 0 1 0 1 0 1 0 1 0 1 0 
1 0 1 0 1 0 1 0 1 0 1 0 1 0 1 0 
1 0 1 0 1 0 1 0 1 0 1 0 1 0 1 0 
1 0 1 0 1 0 1 0 1 0 1 0 1 0 1 0 
1 0 1 0 1 0 1 0 1 0 1 0 1 0 1 0 
1 0 1 0 1 0 1 0 1 0 1 0 1 0 1 0 
1 0 1 0 1 0 1 0 1 0 1 0 1 0 1 0 
1 0 1 0 1 0 1 0 1 0 1 0 1 0 1 0 
1 0 1 0 1 0 1 0 1 0 1 0 1 0 1 0 
1 0 1 0 1 0 1 0 1 0 1 0 1 0 1 0 
1 0 1 0 1 0 1 0 1 0 1 0 1 0 1 0 
1 0 1 0 1 0 1 0 1 0 1 0 1 0 1 0 
1 0 1 0 1 0 3783 4192 100 MP stroke
1 0 1 0 1 0 1 0 1 0 1 0 1 0 1 0 
1 0 1 0 1 0 1 0 1 0 1 0 1 0 1 0 
1 0 1 0 1 0 1 0 1 0 1 0 1 0 1 0 
1 0 1 0 1 0 1 0 1 0 1 0 1 0 1 0 
1 0 1 0 1 0 1 0 1 0 1 0 1 0 1 0 
1 0 1 0 1 0 1 0 1 0 1 0 1 0 1 0 
1 0 1 0 1 0 1 0 1 0 1 0 1 0 1 0 
1 0 1 0 1 0 1 0 1 0 1 0 1 0 1 0 
1 0 1 0 1 0 1 0 1 0 1 0 1 0 1 0 
1 0 1 0 1 0 1 0 1 0 1 0 1 0 1 0 
1 0 1 0 1 0 1 0 1 0 1 0 1 0 1 0 
1 0 1 0 1 0 1 0 1 0 1 0 1 0 1 -1 
1 0 1 0 1 0 3684 4193 100 MP stroke
1 0 1 0 1 0 1 0 1 0 1 0 1 0 1 0 
1 0 1 0 1 0 1 0 1 0 1 0 1 0 1 0 
1 0 1 0 1 0 1 0 1 0 1 0 1 0 1 0 
1 0 1 0 1 0 1 -1 1 0 1 0 1 0 1 0 
1 0 1 0 1 0 1 0 1 0 1 0 1 0 1 0 
1 -1 1 0 1 0 1 0 1 0 1 0 1 0 1 0 
1 0 1 0 1 0 1 0 1 0 1 0 1 0 1 0 
1 0 1 0 1 0 1 0 1 0 1 0 1 0 1 0 
1 0 1 0 1 0 1 0 1 0 1 0 1 0 1 0 
1 0 1 0 1 0 1 0 1 1 1 0 1 0 1 0 
1 0 1 0 1 0 0 2 1 0 1 0 1 0 1 0 
1 0 1 0 1 0 1 0 1 0 1 0 1 0 1 0 
1 0 1 0 1 0 3586 4192 100 MP stroke
1 0 1 0 1 0 1 0 1 0 1 0 1 0 1 0 
1 0 1 0 1 0 1 0 1 0 1 0 1 0 1 0 
1 0 1 0 1 0 1 0 1 0 1 0 1 0 1 0 
1 0 1 0 1 0 1 0 1 0 1 0 1 0 1 0 
1 0 1 0 1 0 1 0 1 0 1 0 1 0 1 0 
1 0 1 0 1 0 1 0 1 0 1 0 1 0 1 0 
1 0 1 0 1 0 1 0 1 0 1 0 1 0 1 0 
1 0 1 0 1 0 1 0 1 0 1 0 1 0 1 0 
1 0 1 0 1 0 1 0 1 0 1 0 1 0 1 0 
1 0 1 0 1 0 1 0 1 0 1 0 1 0 1 0 
1 0 1 0 1 0 1 0 1 0 1 0 1 0 1 0 
1 0 1 0 1 0 1 0 1 0 1 0 1 0 1 0 
1 0 1 0 1 0 3487 4192 100 MP stroke
1 0 1 0 1 0 1 0 1 0 1 0 1 0 1 0 
1 0 1 0 1 0 1 0 1 0 1 0 1 0 1 0 
1 0 1 0 1 0 1 0 1 0 1 0 1 0 1 0 
1 0 1 0 1 0 1 0 1 0 1 0 1 0 1 0 
1 0 1 0 1 0 1 0 1 0 1 0 1 0 1 0 
1 0 1 0 1 0 1 0 1 0 1 0 1 0 1 0 
1 0 1 0 1 0 1 0 1 0 1 0 1 0 1 0 
1 0 1 0 1 0 1 0 1 0 1 0 1 0 1 0 
1 0 1 0 1 0 1 0 1 0 1 0 1 0 1 0 
1 0 1 0 1 0 1 0 1 0 1 0 1 0 1 0 
1 0 1 0 1 0 1 0 1 -1 1 0 1 0 1 0 
1 0 1 0 1 0 1 0 1 0 1 0 1 0 1 0 
1 0 1 0 1 0 3388 4193 100 MP stroke
1 0 1 0 1 0 1 0 1 0 1 0 1 0 1 0 
1 0 1 0 1 0 1 0 1 0 1 0 1 0 1 -1 
1 0 1 0 1 0 1 0 1 0 1 0 1 0 1 0 
1 0 1 0 1 0 1 -1 1 0 1 0 1 0 1 0 
1 0 1 0 1 0 1 0 1 0 1 0 1 0 1 0 
1 0 1 0 1 0 1 0 1 -1 1 0 1 0 1 0 
1 0 1 0 1 0 1 0 1 0 1 0 1 0 1 0 
1 0 1 0 1 0 1 0 1 0 1 0 1 1 1 0 
1 0 1 0 1 0 1 0 1 1 1 0 1 0 1 0 
1 0 1 2 1 0 1 0 1 0 1 0 1 0 1 0 
1 0 1 0 1 0 1 0 1 0 1 0 1 0 1 0 
1 0 1 0 1 0 1 0 1 0 1 0 1 0 1 0 
1 0 1 0 1 0 3289 4192 100 MP stroke
1 0 1 0 1 0 1 0 1 0 1 0 1 0 1 0 
1 0 1 0 1 0 1 0 1 0 1 0 1 0 1 0 
1 0 1 0 1 0 1 0 1 0 1 0 1 0 1 0 
1 0 1 0 1 0 1 0 1 0 1 0 1 0 1 0 
1 0 1 0 1 0 1 0 1 0 1 0 1 0 1 0 
1 0 1 0 1 0 1 0 1 0 1 0 1 0 1 0 
1 0 1 0 1 0 1 0 1 0 1 0 1 0 1 0 
1 0 1 0 1 0 1 0 1 0 1 0 1 0 1 0 
1 0 1 0 1 0 1 0 1 0 1 0 1 0 1 0 
1 0 1 0 1 0 1 0 1 0 1 0 1 0 1 0 
1 0 1 0 1 0 1 0 1 0 1 0 1 0 1 0 
1 0 1 0 1 0 1 0 1 0 1 0 1 0 1 0 
1 0 1 0 1 0 3190 4192 100 MP stroke
1 0 1 0 1 0 1 0 1 0 1 0 1 0 1 0 
1 0 1 0 1 0 1 0 1 0 1 0 1 0 1 0 
1 0 1 0 1 0 1 0 1 0 1 0 1 0 1 0 
1 0 1 0 1 0 1 0 1 0 1 0 1 0 1 0 
1 0 1 0 1 0 1 0 1 0 1 0 1 0 1 0 
1 0 1 0 1 0 1 0 1 0 1 0 1 0 1 0 
1 0 1 0 1 0 1 0 1 0 1 0 1 0 1 0 
1 0 1 0 1 0 1 0 1 0 1 0 1 0 1 0 
1 0 1 -1 1 0 1 0 1 0 1 0 1 0 1 0 
1 0 1 0 1 0 1 0 1 0 1 0 1 0 1 0 
1 0 1 0 1 0 1 0 1 0 1 0 1 0 1 0 
1 0 1 0 1 0 1 0 1 0 1 -1 1 0 1 0 
1 0 1 0 1 0 3091 4194 100 MP stroke
1 0 1 0 1 0 1 0 1 0 1 -1 1 0 1 0 
1 0 1 0 1 0 1 0 1 0 1 0 1 0 1 0 
1 0 1 0 1 0 1 0 1 0 1 0 1 -1 1 0 
1 0 1 0 1 0 1 0 1 0 1 0 1 0 1 0 
1 0 1 0 1 0 1 0 1 0 1 0 1 0 1 0 
1 0 1 0 1 0 1 0 1 1 1 0 1 0 1 0 
1 0 1 1 1 0 1 0 1 0 1 0 1 0 0 2 
1 0 1 0 1 0 1 0 1 0 1 0 1 0 1 0 
1 0 1 0 1 0 1 0 1 0 1 0 1 0 1 0 
1 0 1 0 1 0 1 0 1 0 1 0 1 0 1 0 
1 0 1 0 1 0 1 0 1 0 1 0 1 0 1 0 
1 0 1 0 1 0 1 0 1 0 1 0 1 0 1 0 
1 0 1 0 1 0 2993 4192 100 MP stroke
1 0 1 0 1 0 1 0 1 0 1 0 1 0 1 0 
1 0 1 0 1 0 1 0 1 0 1 0 1 0 1 0 
1 0 1 0 1 0 1 0 1 0 1 0 1 0 1 0 
1 0 1 0 1 0 1 0 1 0 1 0 1 0 1 0 
1 0 1 0 1 0 1 0 1 0 1 0 1 0 1 0 
1 0 1 0 1 0 1 0 1 0 1 0 1 0 1 0 
1 0 1 0 1 0 1 0 1 0 1 0 1 0 1 0 
1 0 1 0 1 0 1 0 1 0 1 0 1 0 1 0 
1 0 1 0 1 0 1 0 1 0 1 0 1 0 1 0 
1 0 1 0 1 0 1 0 1 0 1 0 1 0 1 0 
1 0 1 0 1 0 1 0 1 0 1 0 1 0 1 0 
1 0 1 0 1 0 1 0 1 0 1 0 1 0 1 0 
1 0 1 0 1 0 2894 4192 100 MP stroke
1 0 1 0 1 0 1 0 1 0 1 0 1 0 1 0 
1 0 1 0 1 0 1 0 1 0 1 0 1 0 1 0 
1 0 1 0 1 0 1 0 1 0 1 0 1 0 1 0 
1 0 1 0 1 0 1 0 1 0 1 0 1 0 1 0 
1 0 1 0 1 0 1 0 1 0 1 -1 1 0 1 0 
1 0 1 0 1 0 1 0 1 0 1 0 1 0 1 0 
1 0 1 0 1 0 1 0 1 0 1 0 1 0 1 0 
1 0 1 0 1 0 1 0 1 0 1 0 1 0 1 0 
1 0 1 0 1 0 1 0 1 0 1 -1 1 0 1 0 
1 0 1 0 1 0 1 0 1 0 1 0 1 0 1 0 
1 0 1 0 1 0 1 0 1 0 1 -1 1 0 1 0 
1 0 1 0 1 0 1 0 1 0 1 0 1 0 1 0 
1 -1 1 0 1 0 2795 4196 100 MP stroke
1 0 1 0 1 0 1 0 1 0 1 0 1 0 1 0 
1 0 1 0 1 0 1 0 1 0 1 0 1 0 1 0 
1 0 1 0 1 0 1 0 1 0 1 0 1 0 1 1 
1 0 1 0 1 0 1 0 1 1 1 0 1 0 1 0 
1 0 1 1 1 0 1 0 1 0 1 0 1 0 1 0 
1 0 1 0 1 0 1 0 1 0 1 0 1 0 1 0 
1 0 1 0 1 0 1 0 1 0 1 0 1 0 1 0 
1 0 1 0 1 0 1 1 1 0 1 0 1 0 1 0 
1 0 1 0 1 0 1 0 1 0 1 0 1 0 1 0 
1 0 1 0 1 0 1 0 1 0 1 0 1 0 1 0 
1 0 1 0 1 0 1 0 1 0 1 0 1 0 1 0 
1 0 1 0 1 0 1 0 1 0 1 0 1 0 1 0 
1 0 1 0 1 0 2696 4192 100 MP stroke
1 0 1 0 1 0 1 0 1 0 1 0 1 0 1 0 
1 0 1 0 1 0 1 0 1 0 1 0 1 0 1 0 
1 0 1 0 1 0 1 0 1 0 1 0 1 0 1 -1 
1 0 1 0 1 0 1 0 1 0 1 0 1 0 1 0 
1 0 1 0 1 0 1 0 1 0 1 0 1 0 1 0 
1 0 1 0 1 0 1 0 1 0 1 0 1 0 1 0 
1 0 1 0 1 0 1 0 1 0 1 0 1 0 1 0 
1 0 1 0 1 1 1 0 1 0 1 0 1 0 1 0 
1 0 1 0 1 0 1 0 1 0 1 0 1 0 1 0 
1 0 1 0 1 0 1 0 1 0 1 0 1 0 1 0 
1 0 1 0 1 0 1 0 1 0 1 0 1 0 1 0 
1 0 1 0 1 0 1 0 1 0 1 0 1 0 1 0 
1 0 1 0 1 0 2597 4192 100 MP stroke
1 0 1 0 1 0 1 0 1 0 1 0 1 0 1 0 
1 0 1 0 1 -1 1 0 1 0 1 0 1 0 1 0 
1 0 1 0 1 0 1 0 1 0 1 0 1 0 1 0 
1 0 1 0 1 0 1 0 1 0 1 0 1 0 1 0 
1 0 1 0 1 0 1 0 1 0 1 0 1 0 1 0 
1 0 1 0 1 0 1 0 1 0 1 -1 1 0 1 0 
1 0 1 0 1 0 1 0 1 0 1 0 1 0 1 0 
1 0 1 0 1 0 1 0 1 0 1 -1 1 0 1 0 
1 0 1 0 1 0 1 0 1 0 1 0 1 0 1 -1 
1 0 1 0 1 0 1 0 1 0 1 0 1 0 1 0 
1 0 1 0 1 0 1 0 1 0 1 -1 1 0 1 0 
1 0 1 0 1 0 1 0 1 0 1 0 1 0 1 1 
1 0 1 0 1 0 2498 4196 100 MP stroke
1 0 1 0 1 0 1 0 1 0 1 0 0 2 1 0 
1 0 1 0 1 0 1 0 1 1 1 0 1 0 1 0 
1 0 1 0 1 0 1 0 1 0 1 0 1 0 1 0 
1 0 1 0 1 0 1 0 1 0 1 0 1 0 1 0 
1 0 1 0 1 0 1 0 1 0 1 0 1 0 1 0 
1 0 1 0 1 0 1 0 1 0 1 0 1 1 1 0 
1 0 1 0 1 0 1 0 1 0 1 0 1 0 1 0 
1 0 1 0 1 0 1 0 1 0 1 0 1 0 1 0 
1 0 1 0 1 0 1 0 1 0 1 0 1 0 1 0 
1 0 1 0 1 0 1 0 1 0 1 0 1 0 1 0 
1 0 1 0 1 0 1 0 1 0 1 0 1 0 1 0 
1 0 1 0 1 -1 1 0 1 0 1 0 1 0 1 0 
1 0 1 0 1 0 2400 4193 100 MP stroke
1 0 1 0 1 0 1 0 1 0 1 0 1 0 1 0 
1 0 1 0 1 0 1 0 1 0 1 0 1 0 1 0 
1 0 1 0 1 0 1 0 1 0 1 0 1 0 1 0 
1 0 1 0 1 0 1 0 1 0 1 0 1 0 1 0 
1 0 1 0 1 0 1 0 1 0 1 0 1 0 1 1 
1 0 1 0 1 0 1 0 1 0 1 0 1 0 1 0 
1 0 1 0 1 0 1 0 1 0 1 0 1 0 1 0 
1 0 1 0 1 0 1 0 1 0 1 0 1 0 1 0 
1 0 1 0 1 0 1 0 1 0 1 0 1 0 1 0 
1 0 1 0 1 0 1 0 1 0 1 -1 1 0 1 0 
1 0 1 0 1 0 1 0 1 0 1 0 1 0 1 0 
1 0 1 0 1 0 1 0 1 0 1 0 1 0 1 0 
1 0 1 0 1 0 2301 4193 100 MP stroke
1 0 1 0 1 0 1 0 1 0 1 0 1 0 1 0 
1 0 1 0 1 0 1 0 1 0 1 0 1 0 1 0 
1 -1 1 0 1 0 1 0 1 0 1 0 1 0 1 0 
1 0 1 0 1 0 1 0 1 0 1 0 1 0 1 -1 
1 0 1 0 1 0 1 0 1 0 1 0 1 0 1 0 
1 -1 1 0 1 0 1 0 1 0 1 0 1 0 1 0 
1 0 1 0 1 0 1 0 1 0 1 0 1 -1 1 0 
1 0 1 0 1 0 1 0 1 0 1 0 1 0 1 0 
1 0 1 0 1 0 1 0 1 1 1 0 1 0 1 0 
1 0 1 0 1 0 1 0 1 0 0 2 1 0 1 0 
1 0 1 0 1 0 1 1 1 0 1 0 1 0 1 0 
1 0 1 0 1 0 1 0 1 0 1 0 1 0 1 0 
1 0 1 0 1 0 2203 4193 100 MP stroke
1 0 1 0 1 0 1 0 1 0 1 0 1 0 1 0 
1 0 1 0 1 0 1 0 1 0 1 0 1 0 1 0 
1 1 1 0 1 0 1 0 1 0 1 0 1 0 1 0 
1 0 1 0 1 0 1 0 1 0 1 0 1 0 1 0 
1 0 1 0 1 0 1 0 1 0 1 0 1 0 1 0 
1 0 1 0 1 0 1 0 1 0 1 0 1 0 1 0 
1 0 1 0 1 0 1 0 1 0 1 0 1 0 1 0 
1 0 1 0 1 0 1 0 1 0 1 0 1 -1 1 0 
1 0 1 0 1 0 1 0 1 0 1 0 1 0 1 0 
1 0 1 0 1 0 1 0 1 0 1 0 1 0 1 0 
1 0 1 0 1 0 1 0 1 0 1 0 1 0 1 0 
1 0 1 0 1 0 1 0 1 0 1 0 1 0 1 0 
1 0 1 0 1 0 2104 4193 100 MP stroke
1 0 1 0 1 0 1 0 1 1 1 0 1 0 1 0 
1 0 1 0 1 0 1 0 1 0 1 0 1 0 1 0 
1 0 1 0 1 0 1 0 1 0 1 0 1 0 1 0 
1 0 1 0 1 0 1 0 1 0 1 0 1 0 1 0 
1 0 1 0 1 0 1 0 1 0 1 0 1 0 1 0 
1 0 1 0 1 0 1 0 1 0 1 0 1 0 1 0 
1 0 1 0 1 0 1 0 1 0 1 0 1 0 1 0 
1 0 1 -1 1 0 1 0 1 0 1 0 1 0 1 0 
1 0 1 0 1 0 1 0 1 0 1 0 1 0 1 0 
1 0 1 0 1 0 1 0 1 0 1 0 1 0 1 0 
1 0 1 0 1 0 1 0 1 0 1 0 1 0 1 0 
1 -1 1 0 1 0 1 0 1 0 1 0 1 0 1 0 
1 0 1 0 1 0 2005 4194 100 MP stroke
1 0 1 0 1 0 1 -1 1 0 1 0 1 0 1 0 
1 0 1 0 1 0 1 -1 1 0 1 0 1 0 1 0 
1 0 1 0 1 0 1 0 1 0 1 0 1 0 1 0 
1 -1 1 0 1 0 1 0 1 0 1 0 1 0 1 0 
1 0 1 0 1 0 1 0 1 0 1 0 1 0 1 0 
1 0 1 0 1 0 1 0 1 0 1 0 1 1 1 0 
1 0 1 0 0 2 1 0 1 0 1 0 1 0 1 0 
0 2 1 0 1 0 1 0 1 0 1 0 1 0 1 0 
1 0 1 0 1 0 1 0 1 0 1 0 1 0 1 0 
1 0 1 0 1 0 1 0 1 0 1 0 1 0 1 0 
1 0 1 0 1 0 1 0 1 0 1 0 1 0 1 0 
1 0 1 0 1 0 1 0 1 0 1 0 1 0 1 0 
1 0 1 0 1 0 1908 4192 100 MP stroke
1 0 1 0 1 0 1 0 1 0 1 0 1 0 1 0 
1 0 1 0 1 0 1 0 1 0 1 0 1 0 1 0 
1 0 1 0 1 0 1 0 1 0 1 0 1 0 1 0 
1 0 1 0 1 0 1 0 1 0 1 0 1 0 1 0 
1 0 1 0 1 0 1 0 1 0 1 0 1 0 1 0 
1 0 1 0 1 0 1 0 1 0 1 0 1 0 1 0 
1 0 1 0 1 0 1 0 1 0 1 0 1 0 1 0 
1 0 1 0 1 0 1 0 1 0 1 0 1 0 1 0 
1 0 1 0 1 0 1 0 1 0 1 0 1 0 1 0 
1 0 1 0 1 0 1 0 1 0 1 0 1 0 1 0 
1 0 1 0 1 0 1 0 1 0 1 0 1 0 1 0 
1 0 1 0 1 0 1 0 1 0 1 0 1 0 1 0 
1 0 1 0 1 0 1809 4192 100 MP stroke
1 0 1 0 1 0 1 0 1 0 1 0 1 0 1 0 
1 0 1 0 1 0 1 0 1 0 1 0 1 0 1 0 
1 0 1 0 1 0 1 0 1 0 1 0 1 0 1 0 
1 0 1 0 1 0 1 0 1 0 1 0 1 0 1 0 
1 0 1 0 1 0 1 0 1 0 1 0 1 0 1 0 
1 0 1 -1 1 0 1 0 1 0 1 0 1 0 1 0 
1 0 1 0 1 0 1 0 1 0 1 0 1 0 1 0 
1 0 1 0 1 0 1 0 1 0 1 0 1 -1 1 0 
1 0 1 0 1 0 1 0 1 0 1 0 1 0 1 0 
1 0 1 0 1 -1 1 0 1 0 1 0 1 0 1 0 
1 0 1 0 1 -1 1 0 1 0 1 0 1 0 1 0 
1 0 1 0 1 0 1 0 1 0 1 0 1 -1 1 0 
1 0 1 0 1 0 1710 4197 100 MP stroke
1 0 1 0 1 0 1 0 1 0 1 0 1 0 1 0 
1 0 1 0 1 0 1 0 1 0 1 0 1 0 1 0 
1 0 1 0 1 0 1 1 1 0 1 0 1 0 1 2 
1 0 1 0 1 0 1 2 1 0 1 0 1 0 1 0 
1 0 1 0 1 0 1 0 1 0 1 0 1 0 1 0 
1 0 1 0 1 0 1 0 1 0 1 0 1 0 1 0 
1 0 1 0 1 0 1 0 1 0 1 0 1 0 1 0 
1 0 1 0 1 0 1 0 1 0 1 0 1 0 1 0 
1 0 1 0 1 0 1 0 1 0 1 0 1 0 1 0 
1 0 1 0 1 0 1 0 1 0 1 0 1 0 1 0 
1 0 1 0 1 0 1 0 1 0 1 0 1 0 1 0 
1 0 1 0 1 0 1 0 1 0 1 0 1 0 1 0 
1 0 1 0 1 0 1611 4192 100 MP stroke
1 0 1 0 1 0 1 0 1 0 1 0 1 0 1 0 
1 0 1 0 1 0 1 0 1 0 1 0 1 0 1 0 
1 0 1 0 1 0 1 0 1 0 1 0 1 0 1 0 
1 0 1 0 1 0 1 0 1 0 1 0 1 0 1 0 
1 0 1 0 1 0 1 0 1 0 1 0 1 0 1 0 
1 0 1 0 1 0 1 0 1 0 1 0 1 0 1 0 
1 0 1 0 1 0 1 0 1 0 1 0 1 0 1 0 
1 0 1 0 1 0 1 0 1 0 1 0 1 0 1 0 
1 0 1 0 1 0 1 0 1 0 1 0 1 0 1 0 
1 0 1 0 1 0 1 0 1 0 1 0 1 0 1 0 
1 0 1 0 1 0 1 0 1 0 1 0 1 0 1 0 
1 0 1 0 1 0 1 0 1 0 1 0 1 0 1 0 
1 0 1 0 1 0 1512 4192 100 MP stroke
1 0 1 0 1 0 1 0 1 0 1 0 1 0 1 0 
1 0 1 0 1 0 1 0 1 0 1 0 1 0 1 0 
1 0 1 0 1 0 1 0 1 0 1 0 1 -1 1 0 
1 0 1 0 1 0 1 0 1 0 1 0 1 0 1 0 
1 0 1 0 1 0 1 0 1 0 1 0 1 -1 1 0 
1 0 1 0 1 0 1 0 1 0 1 0 1 0 1 0 
1 0 1 -1 1 0 1 0 1 0 1 0 1 0 1 0 
1 0 1 -1 1 0 1 0 1 0 1 0 1 0 1 0 
1 -1 1 0 1 0 1 0 1 0 1 0 1 0 1 0 
1 -1 1 0 1 0 1 0 1 0 1 0 1 0 1 0 
1 0 1 0 1 0 1 0 1 0 1 0 1 0 1 0 
1 0 1 0 1 1 1 0 1 0 1 0 1 1 1 0 
1 0 1 0 1 1 1413 4195 100 MP stroke
1 0 1 0 0 3 1 0 1 0 1 0 1 0 1 0 
1 0 1 0 1 0 1 0 1 0 1 0 1 0 1 0 
1 0 1 0 1 0 1 0 1 0 1 0 1 0 1 0 
1 0 1 0 1 0 1 0 1 0 1 0 1 0 1 0 
1 0 1 0 1 0 1 0 1 0 1 0 1 0 1 0 
1 -1 1 0 1 0 1 0 1 0 1 0 1 0 1 0 
1 0 1 0 1 0 1 0 1 0 1 0 1 0 1 0 
1 0 1 0 1 0 1 0 1 0 1 0 1 0 1 0 
1 0 1 0 1 0 1 0 1 0 1 0 1 0 1 0 
1 0 1 0 1 0 1 0 1 0 1 0 1 0 1 0 
1 0 1 0 1 0 1 0 1 0 1 0 1 0 1 0 
1 0 1 0 1 0 1 0 1 0 1 0 1 0 1 0 
1 0 1 0 1 0 1315 4193 100 MP stroke
1 0 1 0 1 0 1 0 1 0 1 0 1 0 1 0 
1 0 1 0 1 0 1 0 1 0 1 0 1 0 1 -1 
1 0 1 0 1 0 1 0 1 0 1 0 1 0 1 0 
1 0 1 0 1 0 1 0 1 0 1 0 1 0 1 0 
1 0 1 0 1 0 1 0 1 0 1 0 1 0 1 0 
1 0 1 0 1 0 1 0 1 0 1 0 1 0 1 0 
1 0 1 0 1 0 1 0 1 0 1 0 1 0 1 0 
1 0 1 0 1 -1 1 0 1 0 1 0 1 0 1 0 
1 0 1 0 1 0 1 0 1 0 1 0 1 0 1 0 
1 0 1 0 1 0 1 0 1 0 1 0 1 0 1 0 
1 0 1 0 1 0 1 0 1 0 1 0 1 -1 1 0 
1 0 1 0 1 0 1 0 1 0 1 0 1 0 1 0 
1 0 1 0 1 0 1216 4196 100 MP stroke
1 0 1 0 1 0 1 0 1 0 1 -1 1 0 1 0 
1 0 1 0 1 0 1 0 1 0 1 0 1 0 1 0 
1 -1 1 0 1 0 1 0 1 0 1 0 1 0 1 -1 
1 0 1 0 1 0 1 0 1 0 1 0 1 -1 1 0 
1 0 1 0 1 0 1 0 1 0 1 -1 1 0 1 0 
1 0 1 0 1 0 1 0 1 -1 1 0 1 0 1 0 
1 0 1 0 1 0 1 -1 1 0 1 0 1 -1 1 0 
1 0 1 0 1 0 1 0 1 0 1 -1 1 0 1 0 
1 0 1 0 1 0 1 0 1 -1 1 0 1 0 1 0 
1 0 1 0 1 0 1 0 1 0 1 0 1 0 1 0 
1 0 1 0 1 0 1 0 1 0 1 1 1 0 1 0 
1 1 1 0 1 0 1 0 0 2 1 0 1 0 1 0 
1 0 1 0 1 0 1118 4202 100 MP stroke
1 0 1 0 1 0 1 0 1 -1 1 0 1 0 1 0 
1 0 1 0 1 0 1 0 1 0 1 0 1 0 1 0 
1 0 1 0 1 -1 1 0 1 0 1 0 1 0 1 0 
1 0 1 0 1 0 1 0 1 0 1 0 1 0 1 -1 
1 0 1 0 1 0 1 0 1 0 1 0 1 0 1 0 
1 0 1 0 1 0 1 0 1 0 1 0 1 0 1 0 
1 0 1 -1 1 0 1 0 1 0 1 0 1 0 1 0 
1 0 1 0 1 0 1 0 1 0 1 0 1 -1 1 0 
1 0 1 0 1 0 1 0 1 0 1 0 1 0 1 0 
1 0 1 0 1 0 1 0 1 -1 1 0 1 0 1 0 
1 0 1 0 1 0 1 0 1 0 1 0 1 0 1 0 
1 0 1 0 1 -1 1 0 1 0 1 0 1 0 1 0 
1 0 1 0 1 0 1019 4209 100 MP stroke
1 0 1 -1 1 0 1 0 1 0 1 0 1 0 1 0 
1 0 1 0 1 0 1 0 1 0 1 0 1 -1 1 0 
1 0 1 0 1 0 1 0 1 0 1 0 1 0 1 0 
1 0 1 0 1 0 1 -1 1 0 1 0 1 0 1 0 
1 0 1 0 1 0 1 0 1 0 1 0 1 0 1 0 
1 1 1 0 1 0 1 0 1 0 1 0 1 0 1 0 
1 0 1 0 1 1 1 0 1 0 1 1 1 0 1 0 
1 1 1 0 1 0 1 0 0 2 1 0 1 0 1 0 
0 2 1 0 1 0 1 0 0 3 1 0 1 0 1 0 
1 3 1 0 1 0 1 0 0 3 1 0 1 0 1 0 
0 5 1 0 1 0 1 0 0 4 1 0 1 0 1 0 
1 0 0 5 1 0 1 0 1 0 0 6 1 0 1 0 
1 0 0 6 1 0 929 4169 100 MP stroke
1 0 1 0 1 6 1 0 1 0 1 0 0 5 1 0 
1 0 1 0 0 5 1 0 1 0 1 0 0 3 1 0 
1 0 1 0 1 0 1 0 1 0 1 0 1 0 1 0 
1 0 1 0 1 0 1 0 1 0 1 0 1 0 1 0 
1 0 899 4150 34 MP stroke
gr

c10
0 sg
3316 4903 mt 
(Tempo [s]) s
 546 3449 mt  -90 rotate
(M\363dulo do Erro da Velocidade [m/s]) s
90 rotate
2705  294 mt 
(Erro na estimativa da Velocidade) s
 870 4670 mt 
( ) s
6227  443 mt 
( ) s
1 sg
0 520 648 0 0 -520 5303 1146 4 MP
PP
-648 0 0 520 648 0 0 -520 5303 1146 5 MP stroke
4 w
DO
SO
6 w
0 sg
5303 1146 mt 5951 1146 L
5303  626 mt 5951  626 L
5303 1146 mt 5303  626 L
5951 1146 mt 5951  626 L
5303 1146 mt 5951 1146 L
5303 1146 mt 5303  626 L
5303 1146 mt 5951 1146 L
5303  626 mt 5951  626 L
5303 1146 mt 5303  626 L
5951 1146 mt 5951  626 L
5772  769 mt 
(vx) s
gs 5303 626 649 521 MR c np
c8
360 0 5375 726 2 MP stroke
gr

c8
0 sg
5772  929 mt 
(vy) s
gs 5303 626 649 521 MR c np
c9
360 0 5375 886 2 MP stroke
gr

c9
0 sg
5772 1088 mt 
(vz) s
gs 5303 626 649 521 MR c np
c10
360 0 5375 1045 2 MP stroke
gr

c10

end %%Color Dict

eplot
%%EndObject

epage
end

showpage

%%Trailer
%%EOF
