%!PS-Adobe-2.0 EPSF-1.2
%%Creator: MATLAB, The Mathworks, Inc. Version 7.9.0.529 (R2009b). Operating System: Darwin 10.8.0 Darwin Kernel Version 10.8.0: Tue Jun  7 16:33:36 PDT 2011; root:xnu-1504.15.3~1/RELEASE_I386 i386.
%%Title: ./vD_position_error.eps
%%CreationDate: 10/23/2011  06:06:20
%%DocumentNeededFonts: Helvetica
%%DocumentProcessColors: Cyan Magenta Yellow Black
%%Extensions: CMYK
%%Pages: 1
%%BoundingBox:    52   199   551   602
%%EndComments

%%BeginProlog
% MathWorks dictionary
/MathWorks 160 dict begin
% definition operators
/bdef {bind def} bind def
/ldef {load def} bind def
/xdef {exch def} bdef
/xstore {exch store} bdef
% operator abbreviations
/c  /clip ldef
/cc /concat ldef
/cp /closepath ldef
/gr /grestore ldef
/gs /gsave ldef
/mt /moveto ldef
/np /newpath ldef
/cm /currentmatrix ldef
/sm /setmatrix ldef
/rm /rmoveto ldef
/rl /rlineto ldef
/s {show newpath} bdef
/sc {setcmykcolor} bdef
/sr /setrgbcolor ldef
/sg /setgray ldef
/w /setlinewidth ldef
/j /setlinejoin ldef
/cap /setlinecap ldef
/rc {rectclip} bdef
/rf {rectfill} bdef
% page state control
/pgsv () def
/bpage {/pgsv save def} bdef
/epage {pgsv restore} bdef
/bplot /gsave ldef
/eplot {stroke grestore} bdef
% orientation switch
/portraitMode 0 def /landscapeMode 1 def /rotateMode 2 def
% coordinate system mappings
/dpi2point 0 def
% font control
/FontSize 0 def
/FMS {/FontSize xstore findfont [FontSize 0 0 FontSize neg 0 0]
  makefont setfont} bdef
/reencode {exch dup where {pop load} {pop StandardEncoding} ifelse
  exch dup 3 1 roll findfont dup length dict begin
  { 1 index /FID ne {def}{pop pop} ifelse } forall
  /Encoding exch def currentdict end definefont pop} bdef
/isroman {findfont /CharStrings get /Agrave known} bdef
/FMSR {3 1 roll 1 index dup isroman {reencode} {pop pop} ifelse
  exch FMS} bdef
/csm {1 dpi2point div -1 dpi2point div scale neg translate
 dup landscapeMode eq {pop -90 rotate}
  {rotateMode eq {90 rotate} if} ifelse} bdef
% line types: solid, dotted, dashed, dotdash
/SO { [] 0 setdash } bdef
/DO { [.5 dpi2point mul 4 dpi2point mul] 0 setdash } bdef
/DA { [6 dpi2point mul] 0 setdash } bdef
/DD { [.5 dpi2point mul 4 dpi2point mul 6 dpi2point mul 4
  dpi2point mul] 0 setdash } bdef
% macros for lines and objects
/L {lineto stroke} bdef
/MP {3 1 roll moveto 1 sub {rlineto} repeat} bdef
/AP {{rlineto} repeat} bdef
/PDlw -1 def
/W {/PDlw currentlinewidth def setlinewidth} def
/PP {closepath eofill} bdef
/DP {closepath stroke} bdef
/MR {4 -2 roll moveto dup  0 exch rlineto exch 0 rlineto
  neg 0 exch rlineto closepath} bdef
/FR {MR stroke} bdef
/PR {MR fill} bdef
/L1i {{currentfile picstr readhexstring pop} image} bdef
/tMatrix matrix def
/MakeOval {newpath tMatrix currentmatrix pop translate scale
0 0 1 0 360 arc tMatrix setmatrix} bdef
/FO {MakeOval stroke} bdef
/PO {MakeOval fill} bdef
/PD {currentlinewidth 2 div 0 360 arc fill
   PDlw -1 eq not {PDlw w /PDlw -1 def} if} def
/FA {newpath tMatrix currentmatrix pop translate scale
  0 0 1 5 -2 roll arc tMatrix setmatrix stroke} bdef
/PA {newpath tMatrix currentmatrix pop	translate 0 0 moveto scale
  0 0 1 5 -2 roll arc closepath tMatrix setmatrix fill} bdef
/FAn {newpath tMatrix currentmatrix pop translate scale
  0 0 1 5 -2 roll arcn tMatrix setmatrix stroke} bdef
/PAn {newpath tMatrix currentmatrix pop translate 0 0 moveto scale
  0 0 1 5 -2 roll arcn closepath tMatrix setmatrix fill} bdef
/vradius 0 def /hradius 0 def /lry 0 def
/lrx 0 def /uly 0 def /ulx 0 def /rad 0 def
/MRR {/vradius xdef /hradius xdef /lry xdef /lrx xdef /uly xdef
  /ulx xdef newpath tMatrix currentmatrix pop ulx hradius add uly
  vradius add translate hradius vradius scale 0 0 1 180 270 arc 
  tMatrix setmatrix lrx hradius sub uly vradius add translate
  hradius vradius scale 0 0 1 270 360 arc tMatrix setmatrix
  lrx hradius sub lry vradius sub translate hradius vradius scale
  0 0 1 0 90 arc tMatrix setmatrix ulx hradius add lry vradius sub
  translate hradius vradius scale 0 0 1 90 180 arc tMatrix setmatrix
  closepath} bdef
/FRR {MRR stroke } bdef
/PRR {MRR fill } bdef
/MlrRR {/lry xdef /lrx xdef /uly xdef /ulx xdef /rad lry uly sub 2 div def
  newpath tMatrix currentmatrix pop ulx rad add uly rad add translate
  rad rad scale 0 0 1 90 270 arc tMatrix setmatrix lrx rad sub lry rad
  sub translate rad rad scale 0 0 1 270 90 arc tMatrix setmatrix
  closepath} bdef
/FlrRR {MlrRR stroke } bdef
/PlrRR {MlrRR fill } bdef
/MtbRR {/lry xdef /lrx xdef /uly xdef /ulx xdef /rad lrx ulx sub 2 div def
  newpath tMatrix currentmatrix pop ulx rad add uly rad add translate
  rad rad scale 0 0 1 180 360 arc tMatrix setmatrix lrx rad sub lry rad
  sub translate rad rad scale 0 0 1 0 180 arc tMatrix setmatrix
  closepath} bdef
/FtbRR {MtbRR stroke } bdef
/PtbRR {MtbRR fill } bdef
/stri 6 array def /dtri 6 array def
/smat 6 array def /dmat 6 array def
/tmat1 6 array def /tmat2 6 array def /dif 3 array def
/asub {/ind2 exch def /ind1 exch def dup dup
  ind1 get exch ind2 get sub exch } bdef
/tri_to_matrix {
  2 0 asub 3 1 asub 4 0 asub 5 1 asub
  dup 0 get exch 1 get 7 -1 roll astore } bdef
/compute_transform {
  dmat dtri tri_to_matrix tmat1 invertmatrix 
  smat stri tri_to_matrix tmat2 concatmatrix } bdef
/ds {stri astore pop} bdef
/dt {dtri astore pop} bdef
/db {2 copy /cols xdef /rows xdef mul dup 3 mul string
  currentfile exch readhexstring pop
  dup 0 3 index getinterval /rbmap xdef
  dup 2 index dup getinterval /gbmap xdef
  1 index dup 2 mul exch getinterval /bbmap xdef pop pop}bdef
/it {gs np dtri aload pop moveto lineto lineto cp c
  cols rows 8 compute_transform 
  rbmap gbmap bbmap true 3 colorimage gr}bdef
/il {newpath moveto lineto stroke}bdef
currentdict end def
%%EndProlog

%%BeginSetup
MathWorks begin

0 cap

end
%%EndSetup

%%Page: 1 1
%%BeginPageSetup
%%PageBoundingBox:    52   199   551   602
MathWorks begin
bpage
%%EndPageSetup

%%BeginObject: obj1
bplot

/dpi2point 12 def
portraitMode 0216 7344 csm

  410   110  5994  4845 MR c np
86 dict begin %Colortable dictionary
/c0 { 0.000000 0.000000 0.000000 sr} bdef
/c1 { 1.000000 1.000000 1.000000 sr} bdef
/c2 { 0.900000 0.000000 0.000000 sr} bdef
/c3 { 0.000000 0.820000 0.000000 sr} bdef
/c4 { 0.000000 0.000000 0.800000 sr} bdef
/c5 { 0.910000 0.820000 0.320000 sr} bdef
/c6 { 1.000000 0.260000 0.820000 sr} bdef
/c7 { 0.000000 0.820000 0.820000 sr} bdef
c0
1 j
1 sg
   0    0 6913 5186 PR
6 w
0 4226 5356 0 0 -4226 899 4615 4 MP
PP
-5356 0 0 4226 5356 0 0 -4226 899 4615 5 MP stroke
4 w
DO
0 sg
 899 4615 mt  899  389 L
 899  389 mt  899  389 L
2684 4615 mt 2684  389 L
2684  389 mt 2684  389 L
4469 4615 mt 4469  389 L
4469  389 mt 4469  389 L
6255 4615 mt 6255  389 L
6255  389 mt 6255  389 L
 899 4615 mt 6255 4615 L
6255 4615 mt 6255 4615 L
 899 3769 mt 6255 3769 L
6255 3769 mt 6255 3769 L
 899 2924 mt 6255 2924 L
6255 2924 mt 6255 2924 L
 899 2079 mt 6255 2079 L
6255 2079 mt 6255 2079 L
 899 1234 mt 6255 1234 L
6255 1234 mt 6255 1234 L
 899  389 mt 6255  389 L
6255  389 mt 6255  389 L
SO
6 w
 899 4615 mt 6255 4615 L
 899  389 mt 6255  389 L
 899 4615 mt  899  389 L
6255 4615 mt 6255  389 L
 899 4615 mt 6255 4615 L
 899 4615 mt  899  389 L
 899 4615 mt  899 4561 L
 899  389 mt  899  442 L
%%IncludeResource: font Helvetica
/Helvetica /ISOLatin1Encoding 120 FMSR

 866 4760 mt 
(0) s
2684 4615 mt 2684 4561 L
2684  389 mt 2684  442 L
2618 4760 mt 
(50) s
4469 4615 mt 4469 4561 L
4469  389 mt 4469  442 L
4369 4760 mt 
(100) s
6255 4615 mt 6255 4561 L
6255  389 mt 6255  442 L
6155 4760 mt 
(150) s
 899 4615 mt  952 4615 L
6255 4615 mt 6201 4615 L
 728 4659 mt 
(-1) s
 899 3769 mt  952 3769 L
6255 3769 mt 6201 3769 L
 628 3813 mt 
(-0.5) s
 899 2924 mt  952 2924 L
6255 2924 mt 6201 2924 L
 798 2968 mt 
(0) s
 899 2079 mt  952 2079 L
6255 2079 mt 6201 2079 L
 698 2123 mt 
(0.5) s
 899 1234 mt  952 1234 L
6255 1234 mt 6201 1234 L
 798 1278 mt 
(1) s
 899  389 mt  952  389 L
6255  389 mt 6201  389 L
 698  433 mt 
(1.5) s
 899 4615 mt 6255 4615 L
 899  389 mt 6255  389 L
 899 4615 mt  899  389 L
6255 4615 mt 6255  389 L
gs 899 389 5357 4227 MR c np
/c8 { 0.000000 0.000000 1.000000 sr} bdef
c8
1 1 1 0 -1 0 2 2 1 -13 1 1 1 1 1 1 
1 1 1 1 1 1 1 1 1 1 1 1 1 1 0 1 
2 2 1 0 -1 0 2 -13 0 1 1 1 1 1 1 1 
1 1 1 1 1 1 1 1 1 1 1 1 1 1 1 1 
1 1 0 1 2 -13 1 1 1 1 1 1 1 1 1 1 
1 1 0 1 2 2 1 1 1 0 0 1 2 2 1 1 
0 -14 1 0 1 1 1 1 0 1 2 2 1 1 1 0 
-1 0 2 2 1 1 1 1 1 1 1 1 1 1 1 1 
0 -14 1 0 1 1 1 1 1 1 0 1 2 2 1 1 
1 0 0 1 2 2 1 1 1 1 1 0 -1 0 2 2 
0 -15 1 1 1 1 1 1 1 1 1 1 1 1 1 1 
1 1 1 1 1 1 1 1 1 1 1 1 1 1 0 -15 
1 0 1 1 0 1 6166 2633 100 MP stroke
2 2 1 0 0 1 2 2 1 1 1 1 1 1 1 1 
1 1 1 1 1 1 0 -17 1 1 1 1 1 1 0 1 
2 2 1 0 0 1 2 2 1 1 1 1 1 1 1 1 
1 1 1 1 0 -18 1 1 1 1 1 1 1 1 0 1 
2 2 1 1 1 1 1 1 1 1 1 1 1 1 0 1 
2 2 0 -15 1 1 1 1 1 1 0 1 2 2 1 1 
1 1 1 1 1 1 1 1 0 1 2 2 1 0 -1 0 
2 -13 0 1 2 2 1 1 1 1 1 1 1 1 1 1 
1 1 1 1 0 1 2 2 1 1 1 1 0 -14 1 0 
0 1 2 2 1 1 1 1 1 1 1 1 0 1 2 2 
1 1 1 1 1 1 0 1 2 -13 1 1 1 1 1 1 
1 1 0 1 2 2 1 0 -1 0 2 2 1 1 1 1 
1 1 1 1 1 1 6072 2623 100 MP stroke
0 1 0 -15 1 1 1 1 1 1 1 1 0 1 2 2 
1 1 1 1 1 1 1 1 1 1 0 1 2 2 1 0 
0 -14 1 1 1 1 0 1 2 2 1 1 1 1 1 1 
1 1 1 1 1 1 0 1 2 2 1 1 0 -14 1 0 
1 1 0 1 2 2 1 1 1 1 1 1 1 1 0 1 
2 2 1 1 1 1 1 1 1 1 0 -14 1 1 1 1 
1 1 1 1 1 1 0 1 2 2 1 0 -1 0 2 2 
1 1 1 1 1 1 0 1 2 -13 1 1 1 1 1 1 
1 1 0 1 2 2 1 1 1 1 1 1 1 1 1 1 
0 1 2 2 0 -14 1 0 0 1 2 2 1 1 1 1 
1 1 1 1 1 1 0 1 2 2 1 0 -1 0 2 2 
1 1 0 1 1 -14 1 1 1 1 1 1 1 1 1 1 
1 1 1 1 0 1 5983 2623 100 MP stroke
2 2 1 1 1 1 1 1 1 1 0 -13 1 0 1 1 
1 1 1 1 0 1 2 2 1 1 1 1 1 1 1 1 
1 1 0 1 2 2 1 0 1 -13 -1 0 2 2 1 1 
1 1 1 1 1 1 1 1 1 1 1 1 1 1 0 1 
2 2 1 1 0 -14 1 1 1 1 1 1 1 1 1 1 
1 1 1 1 0 1 2 2 1 1 1 1 1 1 1 1 
1 1 0 -14 1 1 1 1 1 1 1 1 0 1 2 2 
1 1 1 1 1 1 1 1 1 1 1 1 0 1 2 -13 
1 1 0 1 2 2 1 1 1 1 1 1 1 1 1 1 
1 1 1 1 1 1 1 1 1 1 0 -13 1 1 1 0 
0 1 2 2 1 1 1 1 1 1 1 1 1 1 1 1 
1 1 1 1 0 1 2 -13 1 1 1 1 1 1 0 1 
2 2 1 1 1 1 5888 2618 100 MP stroke
1 1 1 1 1 1 1 1 1 1 1 1 0 -14 1 1 
1 1 1 1 1 1 1 1 1 1 1 1 1 1 1 1 
1 1 1 1 0 1 2 2 1 -14 1 1 1 1 1 1 
1 1 1 1 1 1 1 1 1 1 0 1 2 2 1 0 
0 1 2 2 1 -15 -1 0 2 2 1 0 0 1 2 2 
1 1 1 1 1 1 1 1 1 1 1 1 1 1 1 1 
1 1 0 -16 1 1 0 1 2 2 1 0 -1 0 2 2 
1 1 1 1 1 1 1 1 1 1 1 1 1 1 0 1 
2 -16 1 1 0 1 2 2 1 1 1 1 1 1 1 1 
1 1 1 1 1 1 0 1 2 2 1 1 0 -18 1 1 
1 0 -1 0 2 2 1 1 1 1 1 1 1 1 0 1 
2 2 1 1 1 1 1 1 0 1 2 -13 1 1 1 1 
1 1 0 1 2 2 5795 2627 100 MP stroke
1 1 1 1 1 1 0 1 2 2 1 1 1 1 1 1 
0 -15 0 1 2 2 1 1 1 1 1 1 1 1 0 1 
2 2 1 1 1 1 1 1 0 1 2 2 0 -15 1 1 
1 1 1 1 0 1 2 2 1 1 1 1 1 1 0 1 
2 2 1 1 1 1 1 1 1 -14 -1 0 2 2 1 1 
1 1 1 1 1 1 0 1 2 2 1 1 1 1 1 1 
0 1 2 2 1 -14 1 1 1 1 0 1 2 2 1 1 
1 1 1 1 0 1 2 2 1 0 -1 0 2 2 1 1 
0 1 1 -15 0 1 1 1 1 1 1 1 1 1 0 1 
2 2 1 0 -1 0 2 2 1 1 1 1 1 1 1 1 
1 1 0 -14 1 1 0 1 2 2 1 0 -1 0 2 2 
1 1 1 1 1 1 0 1 2 2 1 1 1 1 1 1 
1 -14 -1 0 2 2 5706 2626 100 MP stroke
1 1 1 1 1 1 0 1 2 2 1 1 1 1 1 1 
1 1 0 1 2 2 1 -14 -1 0 2 2 1 0 -1 0 
2 2 1 1 1 1 1 1 1 1 0 1 2 2 1 1 
1 1 0 1 2 -13 1 1 1 1 1 1 0 1 2 2 
1 1 1 1 1 1 1 1 0 1 2 2 1 1 0 1 
1 -14 1 0 -1 0 2 2 1 1 1 1 1 1 1 1 
0 1 2 2 1 1 1 1 1 1 1 1 1 1 0 -14 
0 1 2 2 1 0 -1 0 2 2 1 1 1 1 1 1 
1 1 0 1 2 2 1 1 1 1 1 1 0 -14 1 1 
1 1 0 1 2 2 1 0 -1 0 2 2 1 1 1 1 
1 1 1 1 0 1 2 2 1 1 0 -14 1 1 1 1 
1 1 1 1 1 1 1 1 1 1 0 1 2 2 1 1 
1 1 1 1 0 1 5617 2609 100 MP stroke
2 -13 0 1 2 2 1 0 -1 0 2 2 1 1 1 1 
1 1 1 1 0 1 2 2 1 1 1 1 1 1 0 -14 
1 1 1 1 1 1 1 1 1 1 0 1 2 2 1 1 
1 1 1 1 1 1 1 1 1 1 0 -13 1 0 0 1 
2 2 1 1 1 1 1 1 1 1 1 1 1 1 0 1 
2 2 1 1 1 1 0 -14 1 1 1 1 1 1 1 1 
1 1 1 1 0 1 2 2 1 1 1 1 1 1 1 1 
1 1 0 -13 1 0 1 1 1 1 1 1 1 1 1 1 
1 1 0 1 2 2 1 1 1 1 1 1 0 1 2 -13 
1 1 1 1 1 1 1 1 1 1 1 1 1 1 1 1 
0 1 2 2 1 1 1 1 1 1 0 -15 1 1 1 1 
1 1 1 1 1 1 0 1 2 2 1 1 1 1 1 1 
1 1 1 1 1 1 5523 2606 100 MP stroke
0 -15 1 1 1 1 1 1 1 1 1 1 1 1 1 1 
0 1 2 2 1 1 1 1 1 1 1 1 0 -16 1 1 
1 1 1 1 1 1 0 1 2 2 1 1 1 1 1 1 
1 1 1 1 1 1 0 1 2 -16 1 1 0 1 2 2 
1 1 1 1 1 1 1 1 0 1 2 2 1 1 1 1 
0 1 2 -18 0 1 1 1 1 1 1 1 0 1 2 2 
1 1 1 1 1 1 0 1 2 2 1 1 1 1 1 1 
1 -14 -1 0 2 2 1 1 1 1 0 1 2 2 1 1 
1 1 1 1 1 1 0 1 2 2 0 1 1 -15 1 1 
0 1 2 2 1 1 1 1 1 1 0 1 2 2 1 1 
1 1 1 1 0 1 2 -13 0 1 2 2 1 0 -1 0 
2 2 1 1 0 1 2 2 1 0 -1 0 2 2 1 1 
0 1 2 2 1 -14 5431 2625 100 MP stroke
1 1 0 1 2 2 1 1 1 1 1 1 0 1 2 2 
1 1 1 1 1 1 1 1 0 1 0 -15 1 1 1 1 
1 1 0 1 2 2 1 1 1 1 1 1 0 1 2 2 
1 1 1 1 1 1 1 -14 -1 0 2 2 1 1 1 1 
0 1 2 2 1 1 1 1 1 1 0 1 2 2 1 1 
1 1 0 -14 1 1 1 1 1 1 1 1 0 1 2 2 
1 1 1 1 1 1 0 1 2 2 1 1 1 1 1 -14 
-1 0 2 2 1 1 1 1 1 1 0 1 2 2 1 1 
1 1 1 1 0 1 2 2 0 1 1 -15 0 1 2 2 
1 1 1 1 1 1 0 1 2 2 1 1 1 1 1 1 
1 1 0 1 2 -13 0 1 2 2 1 1 1 1 1 1 
0 1 2 2 1 1 1 1 1 1 0 1 2 2 1 -14 
0 1 2 2 1 1 5338 2616 100 MP stroke
1 1 1 1 0 1 2 2 1 1 1 1 1 1 1 1 
1 1 0 1 1 -14 -1 0 2 2 1 0 -1 0 2 2 
1 1 0 1 2 2 1 0 -1 0 2 2 1 1 1 1 
1 1 1 1 0 1 0 -1 1 -13 0 1 2 2 1 1 
1 1 1 1 0 1 2 2 1 1 1 1 1 1 1 1 
1 1 0 -13 1 0 0 1 2 2 1 1 1 1 1 1 
1 1 0 1 2 2 1 1 1 1 1 1 1 1 0 -14 
0 1 2 2 1 1 1 1 1 1 1 1 0 1 2 2 
1 0 -1 0 2 2 1 1 0 1 2 -13 1 1 0 1 
2 2 1 1 1 1 1 1 1 1 0 1 2 2 1 1 
1 1 1 1 0 1 1 -14 1 1 1 1 1 1 0 1 
2 2 1 1 1 1 1 1 1 1 0 1 2 2 1 1 
1 -14 0 1 1 1 5250 2613 100 MP stroke
1 1 1 1 1 1 1 1 1 1 0 1 2 2 1 1 
1 1 1 1 1 1 0 -13 1 0 1 1 1 1 1 1 
0 1 2 2 1 1 1 1 1 1 1 1 1 1 0 1 
2 2 0 -15 1 1 1 1 1 1 0 1 2 2 1 1 
1 1 1 1 1 1 1 1 1 1 0 1 2 2 0 -15 
1 1 1 1 1 1 1 1 1 1 0 1 2 2 1 0 
-1 0 2 2 1 1 1 1 1 1 1 1 0 -15 1 1 
1 1 1 1 1 1 1 1 0 1 2 2 1 1 1 1 
1 1 1 1 0 1 2 -15 1 1 1 1 0 1 2 2 
1 1 1 1 1 1 1 1 0 1 2 2 1 1 1 1 
1 -17 0 1 1 1 1 1 1 1 1 1 0 1 2 2 
1 1 1 1 1 1 0 1 2 2 1 1 0 -18 1 0 
0 1 2 2 1 1 5158 2620 100 MP stroke
0 1 2 2 1 0 -1 0 2 2 1 1 0 1 2 2 
1 1 1 1 1 -14 -1 0 2 2 1 1 1 1 0 1 
2 2 1 1 1 1 1 1 0 1 2 2 0 1 2 -13 
1 0 -1 0 2 2 1 1 0 1 2 2 1 1 1 1 
0 1 2 2 1 1 1 1 1 1 0 1 0 -15 1 1 
1 1 1 1 0 1 2 2 1 1 0 1 2 2 1 0 
-1 0 2 2 1 1 0 1 2 -13 1 1 1 1 0 1 
2 2 1 1 1 1 0 1 2 2 1 1 1 1 1 1 
1 1 0 1 0 -15 1 1 0 1 2 2 1 1 1 1 
0 1 2 2 1 1 1 1 1 1 0 1 2 2 0 1 
1 -15 1 1 0 1 2 2 1 1 1 1 0 1 2 2 
1 1 0 1 2 2 1 0 -1 0 2 2 1 -14 -1 0 
2 2 1 1 1 1 5070 2615 100 MP stroke
0 1 2 2 1 1 1 1 1 1 0 1 2 2 0 1 
2 -13 1 0 -1 0 2 2 1 1 0 1 2 2 1 1 
1 1 0 1 2 2 1 1 1 1 1 1 0 1 0 -15 
1 1 1 1 1 1 0 1 2 2 1 1 0 1 2 2 
1 1 1 1 1 1 0 1 2 -13 1 1 0 1 2 2 
1 1 1 1 0 1 2 2 1 1 1 1 1 1 0 1 
2 2 1 -14 -1 0 2 2 1 1 1 1 0 1 2 2 
1 1 1 1 1 1 0 1 2 2 1 1 0 1 1 -14 
1 1 1 1 0 1 2 2 1 1 1 1 1 1 0 1 
2 2 1 1 1 1 1 1 0 1 0 -1 1 -13 0 1 
2 2 1 0 -1 0 2 2 1 1 0 1 2 2 1 1 
1 1 1 1 0 1 2 -13 0 1 2 2 1 1 1 1 
1 1 0 1 2 2 4979 2605 100 MP stroke
1 1 1 1 1 1 0 1 2 2 0 -14 1 1 1 1 
1 1 1 1 0 1 2 2 1 1 1 1 1 1 0 1 
2 2 1 1 0 1 1 -14 1 1 1 1 0 1 2 2 
1 1 1 1 1 1 0 1 2 2 1 1 1 1 1 1 
0 -13 1 0 0 1 2 2 1 0 -1 0 2 2 1 1 
0 1 2 2 1 0 -1 0 2 2 1 1 0 1 2 -13 
1 1 0 1 2 2 1 1 1 1 1 1 1 1 0 1 
2 2 1 1 1 1 1 1 0 -13 1 0 0 1 2 2 
1 0 -1 0 2 2 1 1 1 1 0 1 2 2 1 0 
-1 0 2 2 0 1 2 -13 1 1 1 1 1 1 0 1 
2 2 1 1 1 1 1 1 1 1 0 1 2 2 1 0 
0 1 0 -15 1 1 1 1 0 1 2 2 1 1 1 1 
1 1 1 1 1 1 4890 2601 100 MP stroke
0 1 2 2 1 1 0 1 1 -15 1 1 1 1 1 1 
0 1 2 2 1 1 1 1 1 1 0 1 2 2 1 1 
1 1 0 -15 1 0 0 1 2 2 1 1 1 1 1 1 
0 1 2 2 1 1 1 1 1 1 0 1 2 -15 1 1 
1 1 0 1 2 2 1 1 1 1 1 1 0 1 2 2 
1 1 1 1 1 1 0 -17 1 1 1 1 0 1 2 2 
1 0 -1 0 2 2 1 1 0 1 2 2 1 1 1 1 
0 1 2 -17 1 1 1 1 0 1 2 2 1 1 1 1 
0 1 2 2 1 1 0 1 2 2 1 1 0 -14 1 0 
0 1 2 2 1 1 1 1 0 1 2 2 0 1 2 2 
1 0 -1 0 2 2 1 1 0 1 0 -15 1 1 1 1 
1 1 0 1 2 2 1 1 1 1 0 1 2 2 1 1 
0 1 2 2 1 -14 4799 2618 100 MP stroke
1 1 0 1 2 2 1 1 0 1 2 2 1 1 0 1 
2 2 1 1 1 1 0 1 1 -15 0 1 1 1 1 1 
1 1 0 1 2 2 1 1 1 1 0 1 2 2 1 1 
0 1 2 -13 1 1 0 1 2 2 1 1 1 1 0 1 
2 2 1 1 0 1 2 2 1 1 1 1 1 -14 -1 0 
2 2 1 1 0 1 2 2 1 1 0 1 2 2 1 1 
1 1 0 1 2 2 0 -15 1 1 1 1 0 1 2 2 
0 1 2 2 1 0 -1 0 2 2 0 1 2 2 1 1 
1 1 1 -14 -1 0 2 2 1 1 1 1 0 1 2 2 
1 1 0 1 2 2 1 1 1 1 1 1 0 1 0 -1 
1 -13 1 1 0 1 2 2 1 1 0 1 2 2 1 1 
1 1 0 1 2 2 0 1 2 -14 0 1 1 1 1 1 
0 1 2 2 1 1 4709 2607 100 MP stroke
1 1 0 1 2 2 1 1 1 1 0 1 2 -13 0 1 
2 2 1 1 1 1 0 1 2 2 1 1 1 1 0 1 
2 2 0 1 2 -13 1 1 1 1 0 1 2 2 1 1 
1 1 0 1 2 2 1 1 1 1 0 1 2 2 1 -14 
-1 0 2 2 1 1 1 1 0 1 2 2 1 1 1 1 
0 1 2 2 1 1 1 1 0 -14 1 1 1 1 0 1 
2 2 0 1 2 2 1 0 -1 0 2 2 1 1 0 1 
2 2 1 1 0 -14 1 1 1 1 0 1 2 2 1 0 
-1 0 2 2 1 1 0 1 2 2 1 1 1 1 1 1 
0 1 1 -14 -1 0 2 2 1 1 1 1 0 1 2 2 
1 1 1 1 1 1 0 1 2 2 1 1 1 -13 1 1 
0 1 2 2 1 1 1 1 1 1 0 1 2 2 1 1 
1 1 0 1 2 -13 4617 2608 100 MP stroke
0 1 2 2 1 1 1 1 0 1 2 2 1 1 1 1 
1 1 0 1 2 2 0 1 1 -14 1 1 1 1 1 1 
0 1 2 2 1 1 1 1 1 1 0 1 2 2 1 1 
1 1 0 -14 1 1 1 1 1 1 0 1 2 2 1 1 
1 1 1 1 0 1 2 2 1 1 1 1 0 -14 1 1 
1 1 1 1 0 1 2 2 1 1 1 1 1 1 0 1 
2 2 1 1 1 1 0 -14 1 0 0 1 2 2 1 1 
1 1 1 1 0 1 2 2 1 1 1 1 1 1 1 1 
0 1 1 -15 -1 0 2 2 1 1 1 1 1 1 0 1 
2 2 1 1 1 1 1 1 0 1 2 2 0 -15 1 0 
1 1 0 1 2 2 1 1 1 1 1 1 0 1 2 2 
1 1 1 1 0 1 2 -15 1 1 0 1 2 2 1 1 
1 1 0 1 2 2 4525 2602 100 MP stroke
1 1 1 1 1 1 0 1 2 -16 1 1 0 1 2 2 
1 1 0 1 2 2 1 1 1 1 0 1 2 2 1 1 
1 1 0 -19 0 1 2 2 0 1 2 2 1 1 1 1 
0 1 2 2 1 1 1 1 0 1 2 2 0 -15 0 1 
2 2 1 1 0 1 2 2 1 1 1 1 0 1 2 2 
0 1 2 2 1 -14 1 1 0 1 2 2 0 1 2 2 
1 0 -1 0 2 2 0 1 2 2 1 1 0 1 2 -14 
0 1 1 1 0 1 2 2 1 1 0 1 2 2 1 1 
1 1 0 1 2 2 1 1 0 1 0 -15 1 1 1 1 
1 1 0 1 2 2 0 1 2 2 1 0 -1 0 2 2 
0 1 2 2 1 1 1 -14 -1 0 2 2 1 1 0 1 
2 2 1 1 0 1 2 2 1 1 1 1 0 1 2 2 
0 -15 0 1 2 2 4435 2611 100 MP stroke
1 1 1 1 0 1 2 2 0 1 2 2 1 1 1 1 
0 1 2 -13 1 1 0 1 2 2 1 1 0 1 2 2 
1 1 0 1 2 2 1 1 0 1 2 -14 0 1 1 1 
0 1 2 2 1 1 1 1 0 1 2 2 0 1 2 2 
1 1 1 1 0 -14 1 1 1 1 1 1 0 1 2 2 
0 1 2 2 1 1 1 1 0 1 2 2 1 1 0 -14 
1 1 1 1 0 1 2 2 1 1 1 1 0 1 2 2 
1 1 0 1 2 2 1 1 1 -14 -1 0 2 2 0 1 
2 2 1 1 1 1 0 1 2 2 1 1 0 1 2 2 
1 -14 0 1 1 1 1 1 1 1 0 1 2 2 0 1 
2 2 1 0 -1 0 2 2 0 1 2 2 0 -14 1 0 
0 1 2 2 0 1 2 2 1 1 1 1 0 1 2 2 
1 1 1 1 1 1 4343 2595 100 MP stroke
0 1 1 -14 -1 0 2 2 1 1 1 1 0 1 2 2 
1 1 0 1 2 2 1 1 1 1 1 1 0 -14 0 1 
2 2 1 1 1 1 0 1 2 2 1 1 1 1 0 1 
2 2 0 1 2 -13 1 1 0 1 2 2 0 1 2 2 
1 0 -1 0 2 2 0 1 2 2 1 1 1 1 0 1 
1 -14 0 1 2 2 1 1 1 1 1 1 0 1 2 2 
1 1 1 1 0 1 2 2 0 -14 1 1 1 1 1 1 
0 1 2 2 1 1 1 1 0 1 2 2 1 1 0 1 
2 2 1 -14 -1 0 2 2 1 1 0 1 2 2 1 0 
-1 0 2 2 1 1 0 1 2 2 1 1 1 1 0 -14 
1 1 0 1 2 2 1 0 -1 0 2 2 1 1 0 1 
2 2 1 1 1 1 0 1 2 -13 1 1 0 1 2 2 
1 1 1 1 1 1 4254 2598 100 MP stroke
0 1 2 2 1 1 0 1 2 2 1 -14 1 1 0 1 
2 2 1 1 1 1 1 1 0 1 2 2 1 1 1 1 
1 1 0 1 1 -15 -1 0 2 2 1 1 1 1 1 1 
0 1 2 2 1 1 1 1 0 1 2 2 1 1 0 -16 
0 1 2 2 1 1 1 1 0 1 2 2 1 1 1 1 
1 1 0 1 2 2 0 1 1 -17 0 1 2 2 1 1 
0 1 2 2 1 1 1 1 0 1 2 2 1 1 0 1 
2 -16 1 1 0 1 2 2 1 1 0 1 2 2 1 1 
1 1 0 1 2 2 1 1 1 -18 -1 0 2 2 1 1 
0 1 2 2 0 1 2 2 1 1 0 1 2 2 1 1 
1 1 1 -14 -1 0 2 2 0 1 2 2 1 1 0 1 
2 2 0 1 2 2 1 1 1 1 0 1 1 -15 0 1 
1 1 0 1 2 2 4163 2610 100 MP stroke
1 1 0 1 2 2 0 1 2 2 1 1 1 1 1 1 
0 -14 1 1 1 1 0 1 2 2 0 1 2 2 1 1 
0 1 2 2 1 1 1 1 0 1 0 -15 1 1 1 1 
0 1 2 2 0 1 2 2 1 1 0 1 2 2 1 1 
1 1 1 1 0 -14 1 1 0 1 2 2 1 1 0 1 
2 2 0 1 2 2 1 1 1 1 1 1 0 1 0 -1 
1 -13 0 1 2 2 1 1 0 1 2 2 0 1 2 2 
1 1 0 1 2 2 0 1 1 -15 0 1 1 1 1 1 
1 1 0 1 2 2 1 1 0 1 2 2 0 1 2 2 
1 1 1 -14 -1 0 2 2 0 1 2 2 1 1 1 1 
0 1 2 2 0 1 2 2 1 1 0 1 1 -15 0 1 
1 1 0 1 2 2 1 1 0 1 2 2 1 1 1 1 
0 1 2 2 1 1 4075 2596 100 MP stroke
0 -14 1 1 1 1 0 1 2 2 0 1 2 2 1 1 
1 1 0 1 2 2 1 1 0 1 0 -1 1 -13 1 1 
0 1 2 2 0 1 2 2 1 1 0 1 2 2 1 1 
1 1 1 1 0 -14 0 1 2 2 0 1 2 2 1 0 
-1 0 2 2 0 1 2 2 1 1 0 1 2 2 1 -14 
-1 0 2 2 1 1 0 1 2 2 0 1 2 2 1 1 
1 1 0 1 2 2 0 1 1 -14 1 1 1 1 0 1 
2 2 0 1 2 2 1 1 1 1 0 1 2 2 1 1 
0 -14 1 1 0 1 2 2 1 1 1 1 0 1 2 2 
0 1 2 2 1 1 0 1 2 -13 0 1 2 2 1 1 
0 1 2 2 1 1 0 1 2 2 1 1 0 1 2 2 
0 -14 1 1 1 1 1 1 0 1 2 2 0 1 2 2 
1 0 -1 0 2 2 3986 2594 100 MP stroke
0 1 2 2 0 -14 1 1 1 1 1 1 0 1 2 2 
1 1 1 1 0 1 2 2 0 1 2 2 1 1 0 -14 
1 1 1 1 0 1 2 2 1 1 1 1 0 1 2 2 
1 1 1 1 1 1 0 1 1 -14 -1 0 2 2 1 1 
0 1 2 2 1 1 0 1 2 2 1 1 1 1 0 1 
2 -13 0 1 1 1 1 0 -1 0 2 2 0 1 2 2 
1 1 1 1 0 1 2 2 1 1 1 1 0 -14 1 1 
1 1 0 1 2 2 1 1 1 1 0 1 2 2 1 1 
1 1 0 1 2 -13 1 1 0 1 2 2 1 1 1 1 
0 1 2 2 1 1 1 1 0 1 2 2 0 -15 1 1 
1 1 1 1 0 1 2 2 1 1 0 1 2 2 1 1 
1 1 1 1 0 1 0 -16 1 1 1 1 1 1 0 1 
2 2 0 1 2 2 3897 2598 100 MP stroke
1 0 -1 0 2 2 0 1 2 2 1 -16 0 1 2 2 
1 1 0 1 2 2 1 1 1 1 0 1 2 2 1 1 
1 1 0 1 0 -18 1 1 0 1 2 2 1 1 0 1 
2 2 1 1 0 1 2 2 1 1 0 1 2 -17 0 1 
2 2 1 1 0 1 2 2 0 1 2 2 1 1 0 1 
2 2 1 1 0 -14 1 1 1 1 0 1 2 2 0 1 
2 2 1 1 0 1 2 2 0 1 2 2 0 -15 1 1 
0 1 2 2 0 1 2 2 1 1 0 1 2 2 0 1 
2 2 1 1 1 -14 -1 0 2 2 0 1 2 2 1 1 
0 1 2 2 0 1 2 2 1 1 1 1 0 -14 1 1 
0 1 2 2 1 1 0 1 2 2 0 1 2 2 1 1 
1 1 1 1 0 1 0 -15 1 1 0 1 1 1 1 1 
0 1 2 2 0 1 3809 2605 100 MP stroke
2 2 1 1 1 1 0 1 2 2 0 -14 1 1 1 1 
0 1 2 2 0 1 2 2 1 1 1 1 0 1 2 2 
0 1 2 -13 0 1 2 2 0 1 2 2 1 1 0 1 
2 2 0 1 2 2 1 0 -1 0 2 -13 0 1 1 1 
0 1 2 2 1 1 0 1 2 2 0 1 2 2 1 1 
0 1 2 -13 0 1 2 2 1 1 0 1 2 2 0 1 
2 2 1 1 0 1 2 2 0 1 1 -15 0 1 1 1 
1 1 0 1 2 2 0 1 2 2 1 1 0 1 2 2 
0 1 2 -13 1 1 0 1 2 2 0 1 2 2 1 1 
0 1 2 2 0 1 2 2 1 1 0 -15 0 1 2 2 
0 1 2 2 1 1 0 1 2 2 0 1 2 2 1 1 
1 1 0 -14 0 1 2 2 1 1 1 1 0 1 2 2 
0 1 2 2 1 1 3716 2596 100 MP stroke
0 1 2 2 0 -14 1 1 1 1 0 1 2 2 0 1 
2 2 1 1 1 1 0 1 2 2 1 1 0 -14 1 1 
0 1 2 2 0 1 2 2 1 1 0 1 2 2 0 1 
2 2 1 1 1 -14 -1 0 2 2 0 1 2 2 1 1 
0 1 2 2 0 1 2 2 1 1 1 1 0 1 1 -14 
-1 0 2 2 1 1 1 1 0 1 2 2 0 1 2 2 
1 1 0 1 2 2 0 -14 1 1 0 1 2 2 1 1 
1 1 0 1 2 2 1 1 0 1 2 2 1 1 0 1 
1 -14 -1 0 2 2 1 1 1 1 0 1 2 2 1 1 
0 1 2 2 0 1 2 2 0 -14 1 1 1 1 1 1 
0 1 2 2 1 1 0 1 2 2 1 1 0 1 2 2 
1 -14 0 1 1 1 0 1 2 2 1 1 1 1 0 1 
2 2 0 1 2 2 3627 2591 100 MP stroke
1 1 0 1 1 -15 0 1 1 1 0 1 2 2 1 1 
1 1 0 1 2 2 1 1 0 1 2 2 0 1 1 -15 
0 1 1 1 1 1 1 1 0 1 2 2 0 1 2 2 
1 1 1 1 0 1 2 -13 1 1 1 1 0 1 2 2 
0 1 2 2 1 1 1 1 0 1 2 2 0 1 1 -15 
1 1 0 1 2 2 1 1 1 1 0 1 2 2 1 1 
0 1 2 2 1 1 0 -16 0 1 2 2 1 1 0 1 
2 2 1 1 0 1 2 2 0 1 2 2 1 0 0 -16 
0 1 2 2 1 1 1 1 0 1 2 2 0 1 2 2 
1 1 0 1 2 2 0 -18 0 1 2 2 1 1 0 1 
2 2 0 1 2 2 1 1 0 1 2 2 1 1 0 -18 
1 1 1 1 0 1 2 2 0 1 2 2 1 1 0 1 
2 2 0 1 2 2 3537 2600 100 MP stroke
0 -15 0 1 2 2 0 1 2 2 0 1 2 2 1 1 
0 1 2 2 0 1 2 -13 1 1 1 1 0 2 2 2 
1 1 0 1 2 2 0 1 2 2 0 1 2 -14 0 1 
1 1 0 1 2 2 0 1 1 1 1 1 0 1 2 2 
0 1 2 2 1 1 1 -14 -1 0 2 2 0 1 2 2 
1 1 0 1 1 1 0 1 2 2 1 1 0 1 2 2 
0 -15 0 1 2 2 1 1 0 1 2 2 1 1 0 2 
2 2 1 1 0 1 2 -13 0 1 2 2 1 1 0 1 
2 2 0 1 2 2 0 1 2 2 1 1 0 1 0 -15 
1 1 1 1 0 1 2 2 0 1 2 2 1 1 0 1 
2 2 0 1 1 1 1 1 0 -14 1 1 1 1 0 1 
2 2 0 1 2 2 1 1 0 1 2 2 0 1 1 1 
0 1 1 -15 0 1 3451 2610 100 MP stroke
2 2 0 1 2 2 1 1 0 1 2 2 0 1 2 2 
0 1 1 1 1 -14 0 1 2 2 0 1 2 2 1 1 
0 1 2 2 0 1 2 2 1 1 0 1 0 -15 1 1 
0 1 2 2 1 1 0 1 2 2 0 1 2 2 0 1 
1 1 1 1 1 1 0 -14 1 1 0 1 2 2 1 1 
0 1 2 2 0 1 1 1 1 1 0 1 2 2 0 1 
1 -15 0 1 1 1 1 1 1 1 0 2 2 2 0 1 
2 2 1 1 0 1 2 2 0 -14 1 1 1 1 0 1 
2 2 0 1 2 2 1 1 0 1 2 2 0 1 2 2 
0 -14 1 1 1 1 0 1 2 2 0 1 2 2 1 1 
0 1 2 2 0 1 2 -13 0 1 2 2 0 1 2 2 
1 1 0 1 2 2 0 1 2 2 0 1 2 -13 0 1 
2 2 0 1 2 2 3361 2600 100 MP stroke
1 1 0 1 2 2 0 1 2 2 1 1 0 -14 1 1 
0 1 2 2 1 1 0 1 2 2 0 1 2 2 1 1 
0 1 2 2 0 -14 1 1 0 1 2 2 1 1 0 1 
2 2 0 1 2 2 1 1 0 1 2 -13 0 1 1 1 
1 1 0 1 2 2 0 1 2 2 1 1 0 1 2 2 
1 1 0 1 1 -14 -1 0 2 2 1 1 0 1 2 2 
0 1 2 2 1 0 -1 0 2 2 0 1 2 2 0 -14 
1 1 1 1 0 1 2 2 0 1 2 2 1 1 0 1 
2 2 0 1 2 -13 1 1 0 1 2 2 0 1 2 2 
1 1 0 1 2 2 1 1 0 1 2 -13 0 1 2 2 
1 1 1 1 0 1 2 2 0 1 2 2 1 1 1 1 
0 1 1 -15 -1 0 2 2 0 1 2 2 1 1 0 1 
2 2 0 1 2 2 3271 2593 100 MP stroke
1 1 1 1 0 -15 1 1 0 1 2 2 1 1 0 1 
2 2 0 1 2 2 1 1 0 1 2 -15 0 1 1 1 
1 1 0 1 2 2 0 1 2 2 1 1 0 1 2 2 
1 1 0 1 0 -17 1 1 1 1 0 1 2 2 0 1 
2 2 0 1 2 2 1 1 0 1 2 2 0 -18 0 1 
2 2 1 1 0 1 2 2 0 1 2 2 0 1 2 2 
0 1 2 -17 1 1 0 1 2 2 0 1 2 2 0 1 
1 1 1 1 0 1 2 2 1 1 0 1 0 -15 1 1 
0 1 2 2 0 1 2 2 0 1 2 2 0 1 2 2 
0 1 2 -13 1 1 0 1 1 1 0 1 2 2 1 1 
0 1 2 2 0 1 1 1 0 1 2 2 0 -15 1 1 
0 1 2 2 0 1 1 1 1 1 0 1 2 2 1 1 
0 2 2 2 1 -14 3184 2614 100 MP stroke
0 1 2 2 0 1 2 2 0 1 2 2 0 1 2 2 
0 1 2 2 0 -15 0 1 2 2 0 1 2 2 1 1 
0 1 1 1 0 1 2 2 1 1 1 1 0 1 1 -14 
-1 0 2 2 0 1 2 2 1 1 0 1 1 1 0 1 
2 2 1 1 0 1 2 -13 0 1 1 1 0 1 2 2 
1 1 0 1 2 2 0 1 1 1 1 1 0 1 2 2 
0 -15 0 1 1 1 0 1 2 2 1 1 0 1 2 2 
0 1 1 1 1 1 0 1 2 2 1 -14 -1 0 2 2 
0 1 1 1 1 1 0 1 2 2 0 1 2 2 0 1 
2 2 0 1 1 -15 0 1 1 1 0 1 1 1 1 1 
0 1 2 2 0 1 2 2 1 1 0 1 1 1 1 1 
0 -14 1 1 0 1 1 1 1 1 0 1 2 2 0 1 
2 2 1 1 0 1 3104 2599 100 MP stroke
1 1 1 1 0 1 0 -15 1 1 0 1 1 1 1 1 
0 1 2 2 0 1 2 2 1 1 0 1 1 1 0 1 
2 -13 0 1 1 1 1 1 0 1 2 2 0 1 2 2 
1 1 1 1 0 2 2 2 0 -15 0 1 1 1 1 1 
0 1 2 2 0 1 2 2 1 1 1 1 0 2 2 2 
0 -14 1 1 1 1 0 1 2 2 0 1 2 2 1 1 
1 1 0 2 2 2 0 1 1 -14 1 1 0 1 2 2 
0 1 2 2 1 1 1 1 0 2 2 2 1 1 0 -14 
1 1 0 1 2 2 0 1 2 2 1 1 0 1 1 1 
0 1 2 2 0 1 2 -13 0 1 2 2 0 1 2 2 
1 1 1 1 0 2 2 2 1 1 1 1 0 -14 0 1 
2 2 0 1 2 2 1 1 0 1 2 2 0 1 1 1 
1 1 1 1 0 1 3019 2592 100 MP stroke
1 -14 -1 0 2 2 0 1 2 2 1 1 0 1 2 2 
0 1 2 2 1 1 0 1 1 -14 0 1 1 1 0 1 
2 2 1 1 0 1 2 2 0 1 2 2 1 1 1 1 
0 -14 0 1 2 2 1 1 0 1 2 2 0 1 2 2 
1 1 0 1 2 2 0 -14 1 1 0 1 2 2 1 1 
0 1 2 2 0 1 2 2 1 1 0 1 2 -13 0 1 
1 1 1 1 0 1 2 2 0 1 2 2 1 1 0 1 
2 2 1 1 0 -14 0 1 2 2 1 1 1 1 0 1 
2 2 1 1 0 1 2 2 1 1 0 1 0 -15 1 1 
1 1 0 1 2 2 0 1 2 2 1 1 0 1 2 2 
0 1 2 -14 0 1 1 1 1 1 0 1 2 2 0 1 
2 2 1 1 0 1 2 2 1 1 0 -15 1 1 1 1 
0 1 2 2 0 1 2932 2603 100 MP stroke
2 2 1 1 0 1 2 2 1 1 0 1 0 -17 1 1 
1 1 0 1 2 2 0 1 1 1 1 1 0 1 2 2 
0 1 2 2 0 1 1 -18 0 1 1 1 0 1 2 2 
0 1 2 2 1 1 1 1 0 2 2 2 1 1 0 -18 
1 1 1 1 0 1 1 1 0 1 2 2 0 1 1 1 
1 1 0 1 2 2 0 1 1 1 0 -14 1 0 0 1 
2 2 0 1 1 1 0 1 2 2 1 1 0 1 1 1 
0 1 2 2 0 -14 1 1 1 1 0 1 2 2 0 1 
1 1 1 1 0 1 2 2 0 1 1 1 1 1 0 1 
0 -15 1 1 0 1 2 2 0 1 2 2 0 1 1 1 
1 1 0 1 2 2 0 1 1 1 0 -14 1 0 1 1 
0 2 2 2 0 1 2 2 0 1 2 2 0 1 2 2 
0 1 0 -15 1 1 2854 2615 100 MP stroke
1 1 1 1 0 2 2 2 1 1 1 1 0 2 2 2 
1 1 0 1 0 -1 1 -13 0 1 2 2 1 1 0 2 
2 2 1 1 1 1 0 2 2 2 1 -14 -1 0 2 2 
0 1 2 2 0 1 1 1 1 1 0 1 2 2 0 1 
1 1 1 1 0 1 0 -15 1 1 1 1 0 1 1 1 
0 1 2 2 0 1 1 1 1 1 0 1 2 2 0 1 
1 1 0 -14 1 0 1 1 0 2 2 2 0 1 2 2 
0 1 2 2 0 1 2 2 0 -14 1 1 1 1 1 1 
0 2 2 2 1 1 1 1 0 2 2 2 1 1 0 1 
0 -1 1 -13 0 1 2 2 0 1 1 1 0 1 2 2 
1 1 0 1 1 1 0 1 2 2 0 -14 1 1 1 1 
1 1 0 2 2 2 1 1 0 1 2 2 0 1 1 1 
1 1 0 1 0 -1 2775 2599 100 MP stroke
1 -13 0 1 2 2 0 1 1 1 0 1 2 2 1 1 
1 1 0 2 2 2 0 -14 1 1 1 1 0 1 2 2 
0 1 1 1 1 1 0 1 2 2 0 1 1 1 1 1 
0 1 0 -1 1 -13 0 1 2 2 0 1 1 1 0 1 
2 2 1 1 1 1 0 2 2 2 0 -14 1 1 1 1 
0 1 2 2 0 1 1 1 1 1 0 1 2 2 0 1 
1 1 1 1 0 1 0 -1 1 -13 0 1 2 2 0 1 
1 1 0 1 2 2 1 1 0 1 2 2 0 1 1 1 
0 -14 1 1 1 1 0 1 2 2 0 1 1 1 1 1 
0 1 2 2 0 1 2 2 0 1 0 -1 1 -13 0 1 
2 2 1 1 0 2 2 2 1 1 0 1 2 2 1 1 
0 1 0 -14 1 1 1 1 0 1 2 2 0 1 2 2 
0 1 2 2 0 1 2697 2597 100 MP stroke
2 2 0 -13 1 0 0 1 2 2 0 1 2 2 1 1 
1 1 0 2 2 2 1 1 0 1 0 -1 1 -13 0 1 
2 2 0 1 1 1 0 1 2 2 1 1 0 1 2 2 
1 1 0 1 0 -14 1 1 1 1 0 1 2 2 0 1 
2 2 1 1 0 1 2 2 0 1 1 1 0 -14 1 1 
1 1 0 1 2 2 0 1 2 2 1 1 0 1 2 2 
1 1 0 1 0 -1 1 -13 1 1 0 2 2 2 0 1 
2 2 1 1 0 1 2 2 1 1 0 1 0 -15 1 1 
0 1 2 2 0 1 2 2 1 1 0 1 2 2 0 1 
2 2 0 -14 1 0 0 1 2 2 0 1 2 2 1 1 
0 1 2 2 0 1 1 1 1 1 0 1 0 -1 1 -14 
0 1 2 2 0 1 2 2 1 1 0 1 2 2 0 1 
2 2 0 -15 1 0 2614 2612 100 MP stroke
0 1 2 2 0 1 1 1 0 1 2 2 1 1 0 1 
2 2 1 1 0 1 0 -1 1 -15 0 1 2 2 0 1 
2 2 0 1 1 1 1 1 0 1 2 2 1 1 0 1 
0 -1 1 -16 0 1 2 2 0 1 1 1 0 1 2 2 
1 1 0 1 1 1 0 1 2 2 0 -18 1 1 1 1 
1 1 0 2 2 2 0 1 1 1 1 1 1 1 0 2 
2 2 0 -14 1 1 1 1 0 1 2 2 0 1 1 1 
0 1 2 2 0 1 2 2 0 1 1 1 0 -15 0 1 
2 2 0 1 2 2 0 1 1 1 0 1 2 2 0 1 
2 2 0 1 1 -14 0 1 2 2 0 1 2 2 0 1 
1 1 0 1 2 2 1 1 0 1 1 1 0 -14 1 0 
0 2 2 2 1 1 0 1 1 1 1 1 0 2 2 2 
1 1 0 1 1 1 2536 2604 100 MP stroke
0 -15 1 1 0 2 2 2 1 1 0 1 1 1 0 1 
2 2 0 1 1 1 1 1 0 1 1 -14 0 1 2 2 
0 1 1 1 1 1 0 1 1 1 0 1 2 2 0 1 
1 1 1 1 0 -14 1 1 0 1 2 2 0 1 1 1 
1 1 1 1 0 2 2 2 0 1 2 2 0 -15 1 1 
0 2 2 2 0 1 1 1 1 1 0 1 2 2 0 1 
1 1 0 1 2 -13 1 1 0 2 2 2 0 1 2 2 
0 1 2 2 0 1 1 1 1 1 0 -14 1 1 0 1 
2 2 0 1 1 1 0 1 2 2 0 1 2 2 0 1 
1 1 0 1 1 -15 0 1 1 1 0 1 2 2 0 1 
1 1 1 1 1 1 0 2 2 2 0 1 1 1 1 -14 
-1 0 2 2 0 1 2 2 0 1 1 1 1 1 1 1 
0 2 2 2 1 1 2459 2602 100 MP stroke
0 -14 0 1 2 2 0 1 2 2 0 1 1 1 1 1 
1 1 0 2 2 2 0 1 1 -14 0 1 2 2 0 1 
2 2 0 1 1 1 1 1 0 1 2 2 0 1 1 1 
0 -14 1 1 0 1 2 2 0 1 2 2 0 1 1 1 
1 1 0 1 2 2 0 1 1 1 0 -14 1 1 0 1 
2 2 0 1 2 2 0 1 1 1 1 1 0 1 2 2 
0 1 1 -14 0 1 1 1 0 1 2 2 0 1 2 2 
0 1 1 1 1 1 0 1 2 2 0 1 1 -14 -1 0 
2 2 0 1 1 1 1 1 0 1 2 2 0 1 1 1 
1 1 0 1 2 2 0 -14 0 1 2 2 0 1 1 1 
1 1 0 1 2 2 0 1 1 1 1 1 0 1 2 -12 
0 1 2 2 0 1 1 1 1 1 0 1 2 2 0 1 
1 1 1 1 1 1 2382 2599 100 MP stroke
0 1 0 -14 1 1 0 1 2 2 0 1 2 2 0 1 
2 2 0 1 2 2 1 1 0 -14 1 1 0 2 2 2 
1 1 1 1 0 2 2 2 0 1 2 2 1 -13 0 1 
2 2 0 1 1 1 1 1 0 1 2 2 0 1 1 1 
0 1 2 2 0 -14 1 1 0 1 2 2 0 1 2 2 
1 1 0 1 1 1 0 1 2 2 0 1 1 -14 0 1 
2 2 0 1 2 2 0 1 1 1 1 1 0 1 2 2 
1 1 0 1 0 -14 1 1 1 1 0 1 2 2 0 1 
2 2 0 1 2 2 0 1 2 2 0 -14 1 1 1 1 
1 1 0 2 2 2 1 1 0 1 2 2 1 1 0 2 
1 -15 0 1 1 1 1 1 0 1 1 1 0 1 2 2 
1 1 0 1 2 2 1 1 0 1 0 -15 1 1 0 1 
1 1 1 1 0 1 2302 2608 100 MP stroke
2 2 0 1 2 2 0 1 2 2 1 1 0 -15 0 1 
2 2 1 1 0 1 1 1 0 1 2 2 1 1 0 1 
2 2 0 1 1 -16 0 2 2 2 1 1 0 1 2 2 
0 1 1 1 1 1 0 1 2 2 0 -16 1 1 0 1 
2 2 0 1 2 2 1 1 0 2 2 2 1 1 1 1 
0 -17 1 1 0 2 2 2 1 1 0 1 1 1 0 1 
2 2 0 1 1 1 1 1 0 1 1 -18 1 1 0 2 
2 2 0 1 2 2 0 1 1 1 0 1 2 2 1 1 
0 1 1 -14 -1 0 2 2 0 1 1 1 0 1 2 2 
1 1 0 2 2 2 0 1 1 1 1 -14 -1 0 2 2 
1 1 0 2 2 2 0 1 1 1 1 1 0 1 1 1 
0 1 2 -13 0 1 1 1 0 1 2 2 0 1 1 1 
0 1 2 2 0 1 2222 2612 100 MP stroke
2 2 0 1 1 1 0 -15 0 1 1 1 0 1 2 2 
0 1 2 2 0 1 1 1 0 1 1 1 1 1 1 1 
0 1 0 -1 1 -13 0 2 2 2 1 1 0 1 1 1 
1 1 0 2 2 2 0 1 2 -13 0 1 1 1 0 1 
1 1 1 1 1 1 0 2 2 2 0 1 1 1 0 1 
2 2 0 -15 0 1 1 1 0 1 2 2 0 1 1 1 
1 1 0 1 1 1 1 1 0 2 2 2 1 -14 -1 0 
2 2 0 1 1 1 0 1 1 1 1 1 1 1 0 2 
2 2 0 1 1 1 0 -14 1 1 1 1 0 1 1 1 
0 1 2 2 0 1 1 1 1 1 0 1 1 1 1 1 
0 2 1 -15 0 1 1 1 0 1 2 2 0 1 1 1 
0 1 1 1 1 1 1 1 0 2 2 2 0 -14 1 1 
0 1 1 1 1 1 2151 2616 100 MP stroke
0 1 1 1 0 1 2 2 0 1 1 1 1 1 0 1 
1 1 0 -14 1 1 0 1 2 2 0 1 2 2 0 1 
1 1 0 1 1 1 1 1 1 1 0 2 1 -15 0 2 
2 2 0 1 1 1 1 1 0 1 1 1 0 1 2 2 
0 1 1 1 1 1 0 -14 1 1 0 1 1 1 0 1 
2 2 1 1 0 2 2 2 0 1 1 1 1 1 0 -14 
1 1 0 1 1 1 0 1 2 2 0 1 1 1 1 1 
0 1 1 1 0 1 2 2 0 1 0 -1 1 -13 1 1 
0 2 2 2 0 1 1 1 1 1 1 1 0 2 2 2 
0 1 1 -14 0 1 1 1 1 1 0 1 1 1 1 1 
0 2 2 2 1 1 0 1 1 1 1 1 0 -13 1 1 
0 1 2 2 0 1 2 2 0 1 1 1 0 1 2 2 
1 1 0 1 0 -14 2080 2617 100 MP stroke
1 1 0 1 2 2 0 1 2 2 0 1 1 1 0 1 
2 2 1 1 0 1 1 -14 0 2 2 2 0 1 1 1 
1 1 0 1 2 2 0 1 1 1 0 1 2 2 0 -14 
1 1 0 1 1 1 0 1 2 2 0 1 2 2 0 1 
1 1 0 1 2 2 0 -14 1 1 1 1 0 2 2 2 
0 1 2 2 0 1 2 2 0 1 1 1 0 -13 1 0 
0 1 2 2 0 1 1 1 0 1 2 2 1 1 0 1 
1 1 0 1 2 -12 0 1 2 2 0 1 2 2 0 1 
1 1 1 1 0 1 2 2 0 1 1 1 0 -14 1 1 
0 1 1 1 1 1 1 1 0 2 2 2 0 1 2 2 
1 1 0 1 0 -14 1 1 0 1 2 2 1 1 0 1 
1 1 0 1 2 2 0 1 1 1 1 1 0 1 1 -14 
1 1 0 2 2 2 2002 2610 100 MP stroke
1 1 1 1 0 2 2 2 0 1 2 2 0 -15 0 1 
1 1 0 1 2 2 0 1 1 1 1 1 0 1 2 2 
0 1 1 1 1 1 0 -14 1 0 0 2 2 2 0 1 
2 2 0 1 2 2 0 1 2 2 0 1 0 -15 1 1 
1 1 0 1 2 2 0 1 1 1 1 1 0 1 2 2 
0 1 1 1 0 1 1 -15 1 1 1 1 0 2 2 2 
0 1 2 2 0 1 2 2 1 1 0 -15 1 1 0 1 
1 1 1 1 1 1 0 2 2 2 0 1 1 1 1 1 
1 1 0 1 1 -16 -1 0 2 2 0 1 1 1 1 1 
1 1 0 2 2 2 0 1 1 1 1 1 0 1 1 -17 
0 1 1 1 0 1 2 2 0 1 2 2 0 1 1 1 
0 1 2 2 1 1 0 -18 1 1 0 2 2 2 0 1 
1 1 1 1 0 1 1926 2620 100 MP stroke
1 1 0 1 1 1 0 1 2 2 0 -14 1 1 1 1 
0 2 2 2 0 1 1 1 1 1 0 1 1 1 0 1 
1 1 0 1 1 1 0 -15 0 1 1 1 1 1 0 1 
1 1 1 1 0 2 2 2 0 1 2 2 0 1 1 1 
0 -14 1 1 0 1 1 1 0 1 2 2 1 1 0 2 
2 2 0 1 1 1 1 1 0 -14 1 1 0 1 1 1 
0 1 1 1 0 1 2 2 1 1 0 2 2 2 0 1 
1 -14 0 1 2 2 0 1 1 1 0 1 1 1 0 1 
2 2 1 1 0 2 2 -13 0 1 1 1 1 1 0 2 
2 2 0 1 1 1 0 1 1 1 1 1 0 1 1 1 
0 1 1 -14 0 1 2 2 1 1 0 2 2 2 0 1 
1 1 0 1 1 1 1 1 0 1 1 -14 0 1 1 1 
0 1 2 2 1 1 1855 2620 100 MP stroke
0 2 2 2 0 1 1 1 0 1 1 1 1 -14 0 1 
1 1 0 1 1 1 0 1 2 2 1 1 0 2 2 2 
0 1 1 1 0 -14 1 1 0 1 2 2 0 1 1 1 
0 1 1 1 0 1 2 2 0 1 2 2 0 1 1 -14 
-1 0 2 2 0 1 2 2 0 1 1 1 0 1 1 1 
0 1 2 2 1 1 0 1 0 -14 1 1 0 1 2 2 
1 1 0 2 2 2 0 1 1 1 0 1 1 1 1 1 
0 -14 1 1 0 1 1 1 0 1 2 2 1 1 0 2 
2 2 0 1 1 1 0 1 1 1 1 -14 -1 0 2 2 
0 1 1 1 0 1 1 1 0 1 2 2 0 1 2 2 
0 1 1 1 0 -14 1 1 0 1 2 2 0 1 1 1 
0 1 1 1 0 1 2 2 0 1 2 2 0 -14 0 1 
2 2 1 1 0 2 1785 2618 100 MP stroke
2 2 0 1 1 1 0 1 1 1 1 1 1 1 0 -13 
1 1 0 1 1 1 0 1 2 2 0 1 2 2 0 1 
1 1 0 1 1 1 1 1 0 -14 0 1 2 2 0 1 
1 1 0 1 2 2 1 1 0 2 2 2 0 1 1 -14 
1 1 0 2 2 2 0 1 1 1 0 1 1 1 1 1 
0 1 1 1 0 1 2 -12 0 1 2 2 1 1 0 2 
2 2 0 1 1 1 1 1 0 1 1 1 0 1 1 -14 
0 1 1 1 0 1 1 1 1 1 1 1 0 2 2 2 
0 1 1 1 1 1 0 1 1 -14 0 2 2 2 0 1 
1 1 1 1 0 1 1 1 1 1 0 2 2 2 1 -13 
0 1 1 1 0 1 2 2 0 1 1 1 1 1 0 1 
1 1 0 1 2 2 0 1 0 -14 1 1 1 1 0 1 
1 1 0 1 2 2 1712 2614 100 MP stroke
0 1 1 1 1 1 0 1 1 1 1 1 0 1 0 -14 
1 1 0 1 1 1 1 1 0 1 1 1 0 1 2 2 
0 1 1 1 1 1 0 1 1 1 1 -13 -1 0 2 2 
0 1 1 1 1 1 0 1 1 1 0 1 2 2 0 1 
1 1 1 1 0 -13 1 0 0 2 2 2 0 1 1 1 
1 1 1 1 0 2 2 2 0 1 1 1 0 -14 1 0 
0 2 2 2 0 1 1 1 1 1 1 1 0 2 2 2 
0 1 1 1 0 -14 1 1 0 1 2 2 1 1 0 2 
2 2 1 1 0 1 1 1 1 1 0 -13 1 1 0 1 
2 2 0 1 2 2 0 1 1 1 1 1 0 1 2 2 
0 -14 0 1 2 2 0 1 1 1 1 1 1 1 0 2 
2 2 0 1 1 1 1 1 0 -15 0 1 1 1 0 1 
2 2 0 1 1 1 1641 2615 100 MP stroke
1 1 1 1 0 2 2 2 0 1 1 -15 0 1 1 1 
0 1 2 2 0 1 1 1 0 1 2 2 0 1 2 2 
0 1 1 -15 0 1 1 1 1 1 0 1 1 1 1 1 
0 2 2 2 1 1 0 1 1 1 0 1 1 -16 0 1 
1 1 0 1 1 1 1 1 0 1 1 1 1 1 0 2 
2 2 1 1 0 1 1 -16 0 1 1 1 0 1 1 1 
1 1 1 1 0 2 2 2 0 1 1 1 0 1 2 -16 
0 1 1 1 0 1 1 1 0 1 1 1 0 1 2 2 
1 1 0 2 2 2 0 1 1 -18 -1 0 2 2 1 1 
0 2 2 2 0 1 1 1 0 1 2 2 0 1 1 1 
0 1 0 -15 1 1 0 1 1 1 0 1 2 2 0 1 
1 1 0 1 1 1 0 1 1 1 1 1 0 1 1 1 
0 -14 1 1 0 1 1573 2631 100 MP stroke
1 1 0 1 1 1 1 1 0 1 1 1 0 1 1 1 
0 1 2 2 0 1 1 -14 -1 0 2 2 0 1 1 1 
1 1 0 2 2 2 1 1 0 2 2 2 0 -14 0 1 
2 2 1 1 0 2 2 2 0 1 1 1 0 1 1 1 
1 1 0 1 1 -14 0 1 1 1 0 1 1 1 0 1 
1 1 1 1 0 1 1 1 0 1 1 1 0 1 1 1 
1 1 0 -14 1 1 0 1 1 1 0 1 1 1 0 1 
1 1 0 1 2 2 0 1 1 1 1 1 0 2 1 -14 
0 1 2 2 0 1 1 1 1 1 0 2 2 2 0 1 
2 2 0 1 0 -1 1 -13 0 2 2 2 1 1 0 2 
2 2 0 1 1 1 0 1 1 1 1 1 0 -14 0 1 
2 2 0 1 1 1 0 1 1 1 1 1 0 1 1 1 
0 1 1 1 0 1 1507 2619 100 MP stroke
1 1 0 -14 1 1 1 1 0 1 1 1 0 1 1 1 
0 1 1 1 0 1 2 2 0 1 2 2 0 -14 0 1 
1 1 0 1 2 2 0 1 2 2 0 2 2 2 0 1 
2 -13 0 1 1 1 0 2 2 2 0 1 2 2 0 1 
1 1 0 1 1 1 0 1 1 1 0 -14 1 0 0 2 
2 2 0 1 1 1 0 1 1 1 1 1 0 1 1 1 
0 1 1 1 0 1 1 -14 0 1 1 1 1 1 0 1 
1 1 0 1 1 1 1 1 0 2 2 2 1 1 0 1 
0 -14 1 1 1 1 0 2 2 2 1 1 0 2 2 2 
0 1 1 1 1 1 0 -14 1 1 0 2 2 2 0 1 
1 1 0 1 2 2 0 1 1 1 0 1 1 1 0 -14 
1 1 0 1 2 2 0 1 1 1 0 1 1 1 0 1 
1 1 1 1 0 1 1439 2619 100 MP stroke
1 1 1 1 0 -14 0 1 1 1 0 1 1 1 1 1 
0 1 1 1 1 1 0 2 2 2 1 1 0 2 1 -14 
1 1 0 2 2 2 1 1 0 2 2 2 0 1 1 1 
0 1 1 1 0 -14 1 0 0 2 2 2 0 1 1 1 
0 1 1 1 1 1 0 1 1 1 0 1 1 1 0 1 
1 -14 0 1 1 1 1 1 0 1 1 1 0 1 1 1 
0 1 2 2 0 1 2 2 0 1 0 -14 1 1 0 1 
2 2 1 1 0 2 2 2 0 1 1 1 0 1 1 1 
1 1 0 -14 0 1 2 2 0 1 1 1 0 1 1 1 
1 1 0 1 1 1 0 1 1 1 1 1 0 1 0 -14 
1 1 1 1 0 1 1 1 1 1 0 2 2 2 1 1 
0 2 2 2 0 -14 0 1 2 2 0 1 2 2 0 1 
1 1 0 1 1 1 1371 2620 100 MP stroke
0 1 1 1 1 1 0 1 1 -14 0 1 1 1 0 1 
1 1 0 1 2 2 1 1 0 2 2 2 0 1 1 1 
0 -14 1 0 0 2 2 2 0 1 1 1 0 1 1 1 
1 1 0 1 1 1 0 1 1 1 0 1 1 -14 0 1 
2 2 0 1 2 2 0 2 2 2 0 1 2 2 0 1 
0 -15 1 1 0 1 1 1 0 1 1 1 1 1 0 1 
1 1 1 1 0 2 2 2 1 1 0 -14 0 1 2 2 
0 1 1 1 0 1 1 1 1 1 0 1 1 1 0 1 
1 1 1 1 0 1 0 -15 1 1 1 1 0 2 2 2 
0 1 1 1 0 1 1 1 1 1 0 1 1 1 0 1 
1 1 0 -15 0 1 2 2 1 1 0 2 2 2 0 1 
1 1 0 1 1 1 1 1 0 1 1 -15 0 2 2 2 
0 1 1 1 0 1 1305 2626 100 MP stroke
2 2 0 1 1 1 0 1 1 1 0 1 1 1 0 -16 
1 1 0 1 1 1 0 1 1 1 0 1 1 1 0 1 
1 1 1 1 0 1 1 1 0 1 1 1 0 1 1 -15 
0 1 1 1 1 1 0 1 1 1 0 1 1 1 0 1 
1 1 0 1 2 2 0 1 1 1 0 -15 1 0 0 2 
2 2 1 1 0 2 2 2 0 2 2 2 1 1 0 -16 
0 1 1 1 0 1 1 1 0 1 1 1 0 1 1 1 
1 1 0 1 1 1 0 1 1 1 0 1 1 1 0 1 
0 -17 1 1 1 1 0 1 1 1 0 1 1 1 0 1 
1 1 0 2 2 2 0 1 1 1 0 1 1 1 0 -17 
1 1 0 1 1 1 0 1 1 1 0 1 1 1 0 1 
1 1 0 1 1 1 0 1 1 1 1 1 0 2 1 -18 
0 1 1 1 0 2 1247 2637 100 MP stroke
1 1 0 1 1 1 1 1 0 1 1 1 0 1 1 1 
0 2 2 2 0 -17 1 1 0 1 1 1 0 1 1 1 
0 1 1 1 0 1 1 1 0 1 1 1 0 1 1 1 
0 1 1 1 0 1 1 -18 0 2 1 1 0 1 1 1 
0 1 2 2 0 2 1 1 0 1 1 1 0 1 1 1 
0 1 1 1 0 -18 1 1 0 1 1 1 0 1 1 1 
0 2 1 1 1 1 0 1 1 1 0 2 1 1 0 1 
1 1 0 2 1 -19 1 1 0 2 1 1 0 1 1 1 
0 1 1 1 0 2 1 1 1 1 0 2 1 1 0 1 
1 1 0 1 0 -19 1 1 0 1 1 1 0 1 1 1 
0 1 1 1 0 2 1 1 0 1 1 1 0 2 1 1 
1 1 0 2 1 1 0 -15 0 1 1 1 0 2 1 1 
0 1 1 1 0 1 1194 2635 100 MP stroke
1 1 0 1 1 1 0 1 1 1 0 2 1 1 0 1 
1 1 0 -13 1 1 0 2 1 1 0 1 1 1 0 1 
1 1 0 2 1 1 1 1 0 2 1 1 0 1 1 1 
0 1 0 -11 1 1 0 1 1 1 0 1 1 1 0 1 
1 1 0 1 1 1 0 2 1 1 0 1 1 1 0 1 
1 1 0 1 1 -9 0 1 1 1 0 2 1 1 0 1 
1 1 1 1 0 2 1 1 0 1 1 1 0 1 1 1 
0 2 1 -7 0 1 1 1 0 1 1 1 0 1 1 1 
0 1 1 1 0 2 2 2 0 1 1 1 0 1 1 1 
0 -3 1 1 0 2 2 2 0 1 1 1 0 1 1 1 
0 1 1 1 0 1 1 1 0 1 2 2 0 1 1 1 
0 1 1 1 0 1 2 2 1 1 0 2 2 2 0 6 
1 1 1 1 0 1 1138 2563 100 MP stroke
2 2 0 1 2 2 1 1 0 1 2 12 1 1 1 1 
1 1 0 1 2 2 1 1 1 1 1 1 0 17 1 1 
1 0 1 1 1 1 1 0 1 1 1 0 1 1 0 25 
1 0 1 0 1 1 1 0 1 0 1 0 1 0 1 0 
0 34 1 0 1 -1 1 0 1 -1 1 0 1 -1 1 -1 
1 0 -1 0 2 44 0 -1 1 -1 0 -1 2 -2 1 -1 
0 -1 2 -2 0 -1 2 54 0 -1 1 -1 0 -1 1 -1 
0 -2 1 -1 0 -1 1 -1 0 -2 1 -1 0 -1 1 -1 
0 -1 1 -1 0 -2 1 -1 0 69 0 -1 1 -2 0 -2 
1 -2 0 -2 1 -1 0 -2 1 -1 0 -2 1 -2 0 -2 
1 -1 0 -3 1 -1 0 -3 1 -1 0 82 1 -2 0 -3 
1 -2 0 -3 1 -2 0 -4 1 -1 0 -4 1 -2 0 -1 
1 -2 0 -4 1 -1 1067 2296 100 MP stroke
0 -4 1 -2 0 -1 0 97 1 -2 0 -5 1 -2 0 -3 
1 -2 0 -5 1 -2 0 -5 1 -2 0 -4 1 -3 0 -4 
1 -3 0 -2 1 -2 0 -5 1 113 0 -6 1 -3 0 -5 
1 -3 0 -6 1 -3 0 -3 1 -3 0 -6 1 -3 0 -6 
1 -3 0 -6 1 -3 0 -6 1 130 0 -3 1 -4 0 -7 
1 -4 0 -7 1 -4 0 -7 1 -4 0 -8 1 -3 0 -4 
1 -4 0 -7 1 -4 0 -7 1 -4 0 147 0 -4 1 -5 
0 -9 1 -4 0 -5 1 -4 0 -9 1 -5 0 -9 1 -4 
0 -9 1 -5 0 -9 1 -4 0 -5 1 -4 0 -5 0 164 
1 -6 0 -10 1 -6 0 -11 1 -5 0 -11 1 -5 0 -5 
1 -6 0 -11 1 -5 0 -11 1 -5 0 -11 1 -5 0 -6 
0 179 1 -6 0 -7 1 -6 0 -13 1 -6 0 -13 1 -6 
0 -13 1 -6 0 -13 1020 1977 100 MP stroke
1 -6 0 -7 1 -6 0 -13 1 -6 0 -13 1 192 0 -14 
1 -8 0 -15 1 -7 0 -7 1 -8 0 -15 1 -7 0 -15 
1 -7 0 -15 1 -7 0 -15 1 -8 0 -7 1 -7 0 202 
0 -8 1 -9 0 -17 1 -8 0 -17 1 -9 0 -17 1 -8 
0 -9 1 -8 0 -17 1 -9 0 -17 1 -8 0 -17 1 -9 
0 208 0 -9 1 -10 0 -9 1 -10 0 -19 1 -10 0 -19 
1 -10 0 -19 1 -9 0 -20 1 -9 0 -10 1 -9 0 -20 
1 -9 0 -10 0 208 1 -11 0 -21 1 -11 0 -21 1 -11 
0 -11 1 -11 0 -21 1 -11 0 -21 1 -11 0 -21 1 -11 
0 -21 1 -11 0 -11 1 200 0 -24 1 -12 0 -23 1 -12 
0 -23 1 -12 0 -24 1 -11 0 -12 1 -12 0 -24 1 -11 
0 -24 1 -12 0 -23 1 181 0 -25 1 -13 0 -13 1 -13 
0 -25 1 -13 0 -25 972 2019 100 MP stroke
1 -13 0 -25 1 -13 0 -25 1 -13 0 -13 1 -13 0 -25 
1 -13 0 150 0 -13 1 -14 0 -27 1 -13 0 -27 1 -14 
0 -13 1 -14 0 -27 1 -13 0 -27 1 -14 0 -27 1 -13 
0 -27 1 -14 0 102 1 -14 0 -29 1 -14 0 -28 1 -14 
0 -28 1 -14 0 -28 1 -14 0 -14 1 -14 0 -28 1 -14 
0 -28 1 -14 0 -15 0 26 1 -14 0 -28 1 -14 0 -15 
1 -14 0 -28 1 -15 0 -28 1 -14 0 -29 1 -14 0 -29 
1 -14 0 -14 1 -14 0 -29 1 -96 0 -27 1 -14 0 -28 
1 -14 0 -27 1 -14 0 -14 1 -14 0 -28 1 -14 0 -27 
1 -14 0 -28 1 -14 0 -28 1 -13 0 -14 1 -14 0 -28 
1 -14 0 -27 1 -14 0 -28 1 -14 0 -28 1 -13 0 -14 
1 -14 0 -28 1 -14 0 -27 1 -14 0 -28 1 -14 0 -28 
1 -13 0 -14 1 -14 923 3644 100 MP stroke
0 -28 1 -14 0 -28 1 -13 0 -28 1 -14 0 -28 1 -14 
0 -13 1 -14 0 -28 1 -14 0 -28 1 -13 0 -28 1 -14 
0 -28 1 -14 0 -13 1 -14 0 -28 1 -14 0 -28 1 -13 
0 -28 1 -14 0 -28 1 -14 0 -14 1 -13 0 -28 1 -14 
0 -28 1 -14 0 -27 1 -14 0 -28 1 -14 0 -14 1 -13 
0 -28 1 -14 0 -28 1 -14 0 -27 1 -14 0 -28 1 -14 
0 -28 899 4615 50 MP stroke
/c9 { 1.000000 0.000000 0.000000 sr} bdef
c9
1 0 1 0 1 0 -1 0 2 -4 1 1 1 0 1 0 
1 0 1 1 1 0 1 0 1 1 1 0 1 0 1 1 
1 0 1 0 1 -4 1 0 1 0 1 1 1 0 1 0 
1 1 1 0 1 0 1 0 1 1 1 0 1 0 1 1 
1 -5 1 1 1 0 1 0 1 0 1 1 1 0 1 0 
1 0 1 1 1 0 1 0 1 1 1 0 0 -5 1 0 
1 1 1 0 1 0 1 1 1 0 1 0 1 0 1 1 
1 0 1 0 1 0 1 1 1 0 0 -5 1 0 1 1 
1 0 1 0 1 0 1 1 1 0 1 0 1 0 1 1 
1 0 1 0 1 0 1 1 0 -6 1 1 1 0 1 0 
1 0 1 1 1 0 1 0 1 0 1 1 1 0 1 0 
1 1 1 0 1 0 0 -6 1 0 1 1 1 0 1 0 
1 0 1 1 1 0 6161 2639 100 MP stroke
1 0 1 1 1 0 1 0 1 0 1 1 1 0 0 -7 
1 0 1 0 1 1 1 0 1 0 1 1 1 0 1 0 
1 1 1 0 1 0 1 1 1 0 1 0 0 -8 1 0 
1 0 1 1 1 0 1 1 1 0 1 0 1 1 1 0 
1 0 1 1 1 0 1 0 1 1 0 -5 1 0 1 0 
1 1 1 0 1 0 1 1 1 0 1 0 1 1 1 0 
1 0 1 1 1 0 1 -5 1 1 1 0 1 1 1 0 
1 0 1 1 1 0 1 0 1 1 1 0 1 0 1 1 
1 0 0 -5 1 0 1 1 1 0 1 0 1 1 1 0 
1 0 1 1 1 0 1 0 1 1 1 0 1 0 -1 0 
2 -4 1 0 1 0 1 1 1 0 1 1 1 0 1 0 
1 1 1 0 1 0 1 1 1 0 1 0 0 -4 1 0 
1 0 1 0 1 1 6068 2648 100 MP stroke
1 0 1 0 1 1 1 0 1 0 1 1 1 0 1 0 
1 1 1 0 0 -5 1 1 1 0 1 0 1 1 1 0 
1 0 1 1 1 0 1 0 1 1 1 0 1 0 1 1 
0 -5 1 0 1 0 1 1 1 0 1 1 1 0 1 0 
1 0 1 1 1 0 1 1 1 0 1 0 1 1 0 -5 
1 0 1 0 1 1 1 0 1 0 1 1 1 0 1 0 
1 1 1 0 1 0 1 1 1 0 1 -4 1 0 1 0 
1 1 1 0 1 0 1 1 1 0 1 0 1 1 1 0 
1 0 1 1 1 0 0 -4 1 0 1 0 1 0 1 1 
1 0 1 0 1 1 1 0 1 0 1 1 1 0 1 0 
1 1 1 -5 1 1 1 0 1 0 1 1 1 0 1 0 
1 0 1 1 1 0 1 0 1 1 1 0 1 0 0 1 
0 -1 1 -4 1 1 5975 2650 100 MP stroke
1 0 1 0 1 0 1 1 1 0 1 0 1 1 1 0 
1 0 1 1 1 0 1 0 0 -4 1 0 1 1 1 0 
1 0 1 0 1 1 1 0 1 0 1 1 1 0 1 0 
1 1 1 0 0 -4 1 0 1 0 1 0 1 1 1 0 
1 0 1 1 1 0 1 0 1 1 1 0 1 0 1 0 
1 1 0 -4 1 0 1 0 1 0 1 1 1 0 1 0 
1 0 1 1 1 0 1 0 1 1 1 0 1 0 1 -4 
1 1 1 0 1 0 1 0 1 1 1 0 1 0 1 1 
1 0 1 0 1 0 1 1 1 0 0 -4 1 0 1 0 
1 1 1 0 1 0 1 0 1 1 1 0 1 0 1 0 
1 1 1 0 1 0 1 -4 1 1 1 0 1 0 1 0 
1 1 1 0 1 0 1 0 1 1 1 0 1 0 1 0 
1 1 0 -5 1 1 5881 2653 100 MP stroke
1 0 1 0 1 0 1 0 1 1 1 0 1 0 1 1 
1 0 1 0 1 0 1 1 1 -5 1 0 1 1 1 0 
1 0 1 0 1 1 1 0 1 0 1 0 1 1 1 0 
1 0 1 0 0 -4 1 0 1 0 1 0 1 0 1 1 
1 0 1 0 1 0 1 1 1 0 1 0 1 0 1 1 
1 0 0 -6 1 1 1 0 1 0 1 0 1 0 1 1 
1 0 1 0 1 0 1 1 1 0 1 0 1 1 1 -7 
1 1 1 0 1 0 1 1 1 0 1 0 1 0 1 1 
1 0 1 0 1 0 1 1 1 0 0 -7 1 0 1 0 
1 0 1 1 1 0 1 0 1 1 1 0 1 0 1 1 
1 0 1 0 1 1 1 -5 1 1 1 0 1 0 1 1 
1 0 1 0 1 1 1 0 1 0 1 1 1 0 1 0 
1 0 0 -4 1 0 5786 2666 100 MP stroke
1 1 1 0 1 0 1 0 1 1 1 0 1 0 1 1 
1 0 1 0 1 1 1 0 0 -4 1 0 1 0 1 0 
1 1 1 0 1 0 1 1 1 0 1 0 1 1 1 0 
1 0 1 1 0 -5 1 1 1 0 1 0 1 0 1 1 
1 0 1 0 1 1 1 0 1 0 1 1 1 0 1 0 
1 -4 1 0 1 1 1 0 1 0 1 1 1 0 1 0 
1 1 1 0 1 0 1 1 1 0 1 -4 1 0 1 0 
1 1 1 0 1 0 1 1 1 0 1 0 1 1 1 0 
1 0 1 0 1 1 0 -4 1 0 1 0 1 0 1 1 
1 0 1 0 1 1 1 0 1 0 1 0 1 1 1 0 
1 1 0 -5 1 0 1 1 1 0 1 0 1 1 1 0 
1 0 1 1 1 0 1 0 1 0 1 1 1 0 0 -4 
1 0 1 0 1 1 5692 2667 100 MP stroke
1 0 1 0 1 1 1 0 1 0 1 0 1 1 1 0 
1 0 1 1 1 -4 1 0 1 0 1 1 1 0 1 0 
1 1 1 0 1 0 1 0 1 1 1 0 1 0 -1 0 
2 -3 1 0 1 0 1 0 1 1 1 0 1 0 1 1 
1 0 1 0 1 0 1 1 1 0 1 0 0 -4 1 1 
1 0 1 0 1 0 1 1 1 0 1 0 1 1 1 0 
1 0 1 0 1 1 1 0 0 -4 1 0 1 1 1 0 
1 0 1 0 1 1 1 0 1 0 1 1 1 0 1 0 
1 0 1 1 0 -4 1 0 1 0 1 1 1 0 1 0 
1 0 1 1 1 0 1 0 1 1 1 0 1 0 1 0 
-1 0 2 -3 1 0 1 0 1 1 1 0 1 0 1 0 
1 1 1 0 1 0 1 0 1 1 1 0 1 0 0 -3 
1 0 1 0 1 0 5599 2669 100 MP stroke
1 1 1 0 1 0 1 0 1 1 1 0 1 0 1 0 
1 1 1 0 0 -4 1 0 1 1 1 0 1 0 1 0 
1 1 1 0 1 0 1 0 1 1 1 0 1 0 1 0 
0 -3 1 0 1 0 1 0 1 1 1 0 1 0 1 0 
1 1 1 0 1 0 1 0 1 0 1 1 0 -4 1 0 
1 0 1 1 1 0 1 0 1 0 1 0 1 1 1 0 
1 0 1 0 1 1 1 0 1 -4 1 1 1 0 1 0 
1 0 1 0 1 1 1 0 1 0 1 0 1 0 1 1 
1 0 1 0 0 -4 1 0 1 0 1 1 1 0 1 0 
1 0 1 1 1 0 1 0 1 0 1 0 1 1 1 0 
0 -4 1 0 1 0 1 0 1 0 1 0 1 1 1 0 
1 0 1 0 1 1 1 0 1 0 1 0 0 -5 1 0 
1 1 1 0 1 0 5506 2676 100 MP stroke
1 0 1 1 1 0 1 0 1 0 1 0 1 1 1 0 
1 0 1 -5 1 0 1 0 1 0 1 1 1 0 1 0 
1 0 1 1 1 0 1 0 1 0 1 1 1 -7 1 0 
1 1 1 0 1 0 1 0 1 1 1 0 1 0 1 1 
1 0 1 0 1 0 1 1 0 -4 1 0 1 0 1 1 
1 0 1 0 1 0 1 1 1 0 1 0 1 1 1 0 
1 0 1 -4 1 1 1 0 1 0 1 1 1 0 1 0 
1 0 1 1 1 0 1 0 1 1 1 0 1 -4 1 0 
1 1 1 0 1 0 1 1 1 0 1 0 1 0 1 1 
1 0 1 0 1 1 1 -4 1 0 1 0 1 1 1 0 
1 0 1 0 1 1 1 0 1 0 1 1 1 0 1 0 
0 -3 1 0 1 0 1 0 1 0 1 1 1 0 1 0 
1 0 1 1 1 0 5409 2682 100 MP stroke
1 0 1 1 1 0 0 -4 1 0 1 1 1 0 1 0 
1 0 1 1 1 0 1 0 1 1 1 0 1 0 1 0 
1 1 0 -4 1 0 1 0 1 1 1 0 1 0 1 0 
1 1 1 0 1 0 1 1 1 0 1 0 1 0 0 -3 
1 0 1 0 1 0 1 1 1 0 1 0 1 0 1 1 
1 0 1 0 1 1 1 0 1 -4 1 1 1 0 1 0 
1 0 1 1 1 0 1 0 1 0 1 1 1 0 1 0 
1 1 1 -4 1 0 1 1 1 0 1 0 1 0 1 1 
1 0 1 0 1 0 1 1 1 0 1 0 1 -3 1 0 
1 1 1 0 1 0 1 0 1 0 1 1 1 0 1 0 
1 1 1 0 1 0 0 -3 1 0 1 0 1 0 1 1 
1 0 1 0 1 0 1 1 1 0 1 0 1 0 1 1 
1 0 0 -3 1 0 5315 2686 100 MP stroke
1 0 1 0 1 0 1 1 1 0 1 0 1 0 1 1 
1 0 1 0 1 0 1 1 0 -4 1 1 1 0 1 0 
1 0 1 0 1 1 1 0 1 0 1 0 1 1 1 0 
1 0 1 0 0 -3 1 0 1 1 1 0 1 0 1 0 
1 0 1 1 1 0 1 0 1 0 1 1 1 0 1 -3 
1 0 1 0 1 0 1 1 1 0 1 0 1 0 1 0 
1 1 1 0 1 0 1 0 -1 0 2 -3 1 1 1 0 
1 0 1 0 1 0 1 1 1 0 1 0 1 0 1 1 
1 0 1 0 1 -3 1 0 1 0 1 1 1 0 1 0 
1 0 1 0 1 1 1 0 1 0 1 0 1 0 0 1 
0 -1 1 -3 1 1 1 0 1 0 1 0 1 0 1 1 
1 0 1 0 1 0 1 0 1 1 1 0 0 -4 1 1 
1 0 1 0 1 0 5222 2689 100 MP stroke
1 0 1 0 1 1 1 0 1 0 1 0 1 0 1 1 
1 0 0 -4 1 0 1 1 1 0 1 0 1 0 1 0 
1 1 1 0 1 0 1 0 1 0 1 1 1 0 0 -4 
1 0 1 0 1 0 1 0 1 1 1 0 1 0 1 0 
1 0 1 1 1 0 1 0 1 -4 1 0 1 0 1 0 
1 0 1 1 1 0 1 0 1 0 1 0 1 1 1 0 
1 0 1 -5 1 0 1 1 1 0 1 0 1 0 1 0 
1 1 1 0 1 0 1 0 1 1 1 0 0 -6 1 0 
1 0 1 0 1 1 1 0 1 0 1 0 1 1 1 0 
1 0 1 0 1 1 1 0 0 -3 1 0 1 0 1 0 
1 0 1 1 1 0 1 0 1 0 1 1 1 0 1 0 
1 0 -1 0 2 -3 1 0 1 1 1 0 1 0 1 0 
1 1 1 0 1 0 5128 2699 100 MP stroke
1 0 1 1 1 0 1 0 0 -3 1 0 1 0 1 0 
1 1 1 0 1 0 1 0 1 1 1 0 1 0 1 0 
1 1 1 -3 1 0 1 0 1 0 1 0 1 1 1 0 
1 0 1 0 1 1 1 0 1 0 1 0 0 1 0 -1 
1 -3 1 1 1 0 1 0 1 0 1 0 1 1 1 0 
1 0 1 0 1 1 1 0 1 -3 1 0 1 0 1 1 
1 0 1 0 1 0 1 0 1 1 1 0 1 0 1 0 
1 1 0 -3 1 0 1 0 1 0 1 0 1 1 1 0 
1 0 1 0 1 0 1 1 1 0 1 0 -1 0 2 -3 
1 0 1 1 1 0 1 0 1 0 1 1 1 0 1 0 
1 0 1 1 1 0 1 0 0 -3 1 0 1 0 1 1 
1 0 1 0 1 0 1 0 1 1 1 0 1 0 1 0 
1 1 1 -3 1 0 5035 2703 100 MP stroke
1 0 1 0 1 1 1 0 1 0 1 0 1 1 1 0 
1 0 1 0 1 0 0 1 0 -1 1 -2 1 0 1 0 
1 0 1 0 1 1 1 0 1 0 1 0 1 1 1 0 
1 0 1 -3 1 0 1 1 1 0 1 0 1 0 1 0 
1 1 1 0 1 0 1 0 1 1 1 0 0 -3 1 0 
1 0 1 1 1 0 1 0 1 0 1 0 1 1 1 0 
1 0 1 0 1 0 -1 0 2 -2 1 0 1 0 1 0 
1 1 1 0 1 0 1 0 1 0 1 1 1 0 1 0 
1 0 0 -2 1 0 1 0 1 0 1 0 1 0 1 1 
1 0 1 0 1 0 1 0 1 1 1 0 1 -3 1 0 
1 1 1 0 1 0 1 0 1 0 1 1 1 0 1 0 
1 0 1 0 1 1 0 -3 1 0 1 0 1 0 1 1 
1 0 1 0 1 0 4942 2704 100 MP stroke
1 0 1 0 1 1 1 0 1 0 1 -2 1 0 1 0 
1 0 1 0 1 0 1 1 1 0 1 0 1 0 1 0 
1 0 1 1 0 -3 1 0 1 0 1 0 1 1 1 0 
1 0 1 0 1 0 1 0 1 1 1 0 1 0 1 -3 
1 1 1 0 1 0 1 0 1 0 1 0 1 0 1 1 
1 0 1 0 1 0 1 0 0 -2 1 0 1 0 1 0 
1 0 1 0 1 0 1 1 1 0 1 0 1 0 1 0 
1 0 -1 0 2 -3 1 1 1 0 1 0 1 0 1 0 
1 0 1 0 1 1 1 0 1 0 1 0 1 0 0 -3 
1 0 1 0 1 0 1 0 1 1 1 0 1 0 1 0 
1 0 1 0 1 1 1 0 1 -4 1 0 1 0 1 0 
1 1 1 0 1 0 1 0 1 0 1 1 1 0 1 0 
1 0 0 -4 1 0 4848 2714 100 MP stroke
1 0 1 0 1 0 1 0 1 1 1 0 1 0 1 0 
1 0 1 1 1 0 1 -6 1 1 1 0 1 0 1 0 
1 1 1 0 1 0 1 0 1 0 1 1 1 0 1 0 
0 -3 1 0 1 0 1 1 1 0 1 0 1 0 1 1 
1 0 1 0 1 0 1 0 1 1 0 -3 1 0 1 0 
1 0 1 0 1 1 1 0 1 0 1 0 1 1 1 0 
1 0 1 0 1 -2 1 0 1 0 1 0 1 0 1 1 
1 0 1 0 1 0 1 0 1 1 1 0 1 -3 1 0 
1 1 1 0 1 0 1 0 1 0 1 1 1 0 1 0 
1 0 1 1 1 -3 1 0 1 0 1 0 1 1 1 0 
1 0 1 0 1 0 1 1 1 0 1 0 1 0 0 -2 
1 0 1 0 1 0 1 0 1 0 1 1 1 0 1 0 
1 0 1 0 1 1 4752 2717 100 MP stroke
1 0 0 -3 1 0 1 0 1 1 1 0 1 0 1 0 
1 0 1 1 1 0 1 0 1 0 1 1 0 -3 1 0 
1 0 1 0 1 1 1 0 1 0 1 0 1 0 1 1 
1 0 1 0 1 0 0 -2 1 0 1 0 1 0 1 0 
1 0 1 1 1 0 1 0 1 0 1 0 1 1 1 0 
1 -3 1 0 1 1 1 0 1 0 1 0 1 0 1 1 
1 0 1 0 1 0 1 0 -1 0 2 -2 1 0 1 0 
1 1 1 0 1 0 1 0 1 0 1 0 1 1 1 0 
1 0 1 -2 1 0 1 0 1 0 1 0 1 1 1 0 
1 0 1 0 1 0 1 1 1 0 1 0 0 -2 1 0 
1 0 1 0 1 0 1 0 1 0 1 1 1 0 1 0 
1 0 1 0 1 1 0 -3 1 0 1 0 1 1 1 0 
1 0 1 0 1 0 4659 2721 100 MP stroke
1 1 1 0 1 0 1 0 1 0 0 -2 1 0 1 0 
1 0 1 1 1 0 1 0 1 0 1 0 1 0 1 1 
1 0 1 0 0 -2 1 0 1 0 1 0 1 0 1 0 
1 1 1 0 1 0 1 0 1 0 1 0 1 1 1 -3 
1 1 1 0 1 0 1 0 1 0 1 0 1 0 1 1 
1 0 1 0 1 0 1 -2 1 0 1 0 1 0 1 1 
1 0 1 0 1 0 1 0 1 0 1 1 1 0 1 -2 
1 0 1 0 1 0 1 0 1 0 1 0 1 1 1 0 
1 0 1 0 1 0 1 0 0 -2 1 0 1 0 1 0 
1 1 1 0 1 0 1 0 1 0 1 0 1 0 1 1 
1 0 0 -2 1 0 1 0 1 0 1 0 1 0 1 0 
1 0 1 0 1 1 1 0 1 0 1 0 0 -2 1 0 
1 0 1 0 1 0 4565 2725 100 MP stroke
1 0 1 0 1 0 1 1 1 0 1 0 1 0 1 0 
0 -2 1 0 1 0 1 0 1 0 1 0 1 0 1 0 
1 0 1 1 1 0 1 0 1 0 0 -3 1 0 1 0 
1 0 1 0 1 1 1 0 1 0 1 0 1 0 1 0 
1 0 1 1 1 -4 1 0 1 1 1 0 1 0 1 0 
1 0 1 0 1 0 1 1 1 0 1 0 1 -4 1 0 
1 0 1 0 1 1 1 0 1 0 1 0 1 0 1 0 
1 1 1 0 1 0 0 -5 1 0 1 1 1 0 1 0 
1 0 1 0 1 0 1 1 1 0 1 0 1 0 1 0 
0 -2 1 0 1 0 1 0 1 1 1 0 1 0 1 0 
1 0 1 0 1 1 1 0 1 -2 1 0 1 0 1 0 
1 0 1 0 1 1 1 0 1 0 1 0 1 0 1 1 
1 -3 1 0 1 1 4470 2735 100 MP stroke
1 0 1 0 1 0 1 0 1 0 1 1 1 0 1 0 
1 0 0 -2 1 0 1 0 1 0 1 0 1 1 1 0 
1 0 1 0 1 0 1 1 1 0 1 0 0 -2 1 0 
1 0 1 0 1 0 1 0 1 0 1 1 1 0 1 0 
1 0 1 0 1 1 0 -3 1 0 1 0 1 1 1 0 
1 0 1 0 1 0 1 1 1 0 1 0 1 0 1 -2 
1 0 1 0 1 0 1 1 1 0 1 0 1 0 1 0 
1 0 1 1 1 0 1 -2 1 0 1 0 1 0 1 0 
1 0 1 1 1 0 1 0 1 0 1 0 1 0 0 1 
0 -1 1 -2 1 0 1 1 1 0 1 0 1 0 1 0 
1 0 1 1 1 0 1 0 1 0 0 -2 1 0 1 0 
1 0 1 1 1 0 1 0 1 0 1 0 1 0 1 1 
1 0 1 0 0 -2 4378 2738 100 MP stroke
1 0 1 0 1 0 1 0 1 0 1 1 1 0 1 0 
1 0 1 0 1 0 -1 0 2 -2 1 1 1 0 1 0 
1 0 1 0 1 0 1 0 1 1 1 0 1 0 1 0 
0 -2 1 0 1 0 1 0 1 1 1 0 1 0 1 0 
1 0 1 0 1 0 1 1 1 0 0 -2 1 0 1 0 
1 0 1 0 1 0 1 1 1 0 1 0 1 0 1 0 
1 0 1 1 0 -2 1 0 1 0 1 0 1 0 1 0 
1 0 1 0 1 1 1 0 1 0 1 0 1 -2 1 0 
1 1 1 0 1 0 1 0 1 0 1 0 1 0 1 0 
1 1 1 0 1 -2 1 0 1 0 1 0 1 0 1 1 
1 0 1 0 1 0 1 0 1 0 1 0 1 -1 1 0 
1 0 1 0 1 0 1 0 1 0 1 0 1 1 1 0 
1 0 1 0 0 -2 4284 2741 100 MP stroke
1 0 1 0 1 0 1 1 1 0 1 0 1 0 1 0 
1 0 1 0 1 0 1 0 1 -1 1 0 1 0 1 0 
1 0 1 0 1 0 1 0 1 1 1 0 1 0 1 -2 
1 0 1 0 1 0 1 0 1 0 1 1 1 0 1 0 
1 0 1 0 1 0 1 -2 1 0 1 0 1 0 1 1 
1 0 1 0 1 0 1 0 1 0 1 0 1 0 0 -2 
1 0 1 0 1 0 1 0 1 0 1 1 1 0 1 0 
1 0 1 0 1 0 1 0 0 -2 1 0 1 0 1 0 
1 0 1 0 1 0 1 0 1 0 1 1 1 0 1 0 
1 -3 1 0 1 0 1 0 1 0 1 1 1 0 1 0 
1 0 1 0 1 0 1 0 1 -3 1 0 1 0 1 0 
1 0 1 1 1 0 1 0 1 0 1 0 1 0 1 0 
0 -4 1 0 1 1 4188 2751 100 MP stroke
1 0 1 0 1 0 1 0 1 0 1 0 1 1 1 0 
1 0 1 0 0 -2 1 0 1 0 1 0 1 1 1 0 
1 0 1 0 1 0 1 0 1 1 1 0 1 -2 1 0 
1 0 1 0 1 0 1 0 1 1 1 0 1 0 1 0 
1 0 1 0 0 -2 1 0 1 1 1 0 1 0 1 0 
1 0 1 0 1 0 1 1 1 0 1 0 0 -2 1 0 
1 0 1 0 1 0 1 1 1 0 1 0 1 0 1 0 
1 0 1 1 1 0 0 -2 1 0 1 0 1 0 1 0 
1 0 1 0 1 1 1 0 1 0 1 0 1 0 0 -2 
1 0 1 1 1 0 1 0 1 0 1 0 1 0 1 0 
1 0 1 1 1 0 1 -2 1 0 1 0 1 0 1 1 
1 0 1 0 1 0 1 0 1 0 1 0 1 1 0 -2 
1 0 1 0 1 0 4095 2754 100 MP stroke
1 0 1 0 1 0 1 1 1 0 1 0 1 0 1 0 
1 -2 1 1 1 0 1 0 1 0 1 0 1 0 1 0 
1 0 1 1 1 0 1 0 0 -2 1 0 1 0 1 0 
1 0 1 1 1 0 1 0 1 0 1 0 1 0 1 0 
1 -1 1 0 1 0 1 0 1 0 1 0 1 0 1 1 
1 0 1 0 1 0 1 0 1 -1 1 0 1 0 1 0 
1 0 1 0 1 0 1 0 1 1 1 0 1 0 0 -2 
1 0 1 0 1 0 1 1 1 0 1 0 1 0 1 0 
1 0 1 0 1 0 1 -1 1 0 1 0 1 0 1 0 
1 0 1 1 1 0 1 0 1 0 1 0 1 0 1 -1 
1 0 1 0 1 0 1 0 1 0 1 0 1 0 1 0 
1 1 1 0 1 -2 1 0 1 1 1 0 1 0 1 0 
1 0 1 0 1 0 3998 2756 100 MP stroke
1 0 1 0 1 0 1 -1 1 0 1 0 1 0 1 0 
1 1 1 0 1 0 1 0 1 0 1 0 1 -1 1 0 
1 0 1 0 1 0 1 0 1 0 1 0 1 0 1 0 
1 1 1 0 0 -2 1 0 1 0 1 1 1 0 1 0 
1 0 1 0 1 0 1 0 1 0 1 0 1 -1 1 0 
1 0 1 0 1 0 1 0 1 0 1 0 1 0 1 1 
1 0 1 -2 1 0 1 0 1 1 1 0 1 0 1 0 
1 0 1 0 1 0 1 0 1 0 1 -1 1 0 1 0 
1 0 1 0 1 0 1 0 1 0 1 0 1 0 1 0 
1 -1 1 0 1 0 1 0 1 0 1 0 1 0 1 0 
1 0 1 0 1 0 1 1 0 -2 1 0 1 0 1 0 
1 0 1 0 1 0 1 0 1 0 1 0 1 0 1 1 
0 -2 1 0 1 0 3902 2762 100 MP stroke
1 0 1 0 1 0 1 0 1 0 1 0 1 0 1 0 
1 0 1 -2 1 0 1 0 1 0 1 0 1 0 1 0 
1 1 1 0 1 0 1 0 1 0 0 -3 1 0 1 0 
1 0 1 0 1 0 1 1 1 0 1 0 1 0 1 0 
1 0 1 -3 1 0 1 0 1 0 1 0 1 0 1 0 
1 1 1 0 1 0 1 0 1 0 0 -2 1 1 1 0 
1 0 1 0 1 0 1 0 1 0 1 0 1 0 1 0 
1 1 0 -2 1 0 1 0 1 0 1 0 1 1 1 0 
1 0 1 0 1 0 1 0 1 0 1 -1 1 0 1 0 
1 0 1 0 1 0 1 0 1 0 1 1 1 0 1 0 
0 -2 1 0 1 1 1 0 1 0 1 0 1 0 1 0 
1 0 1 0 1 0 1 0 0 1 0 -1 1 -1 1 0 
1 0 1 0 1 0 3809 2770 100 MP stroke
1 1 1 0 1 0 1 0 1 0 1 0 1 -1 1 0 
1 0 1 0 1 0 1 0 1 0 1 0 1 0 1 1 
1 0 1 -2 1 0 1 1 1 0 1 0 1 0 1 0 
1 0 1 0 1 0 1 0 1 -1 1 0 1 0 1 0 
1 0 1 0 1 1 1 0 1 0 1 0 1 0 1 -1 
1 0 1 0 1 0 1 0 1 0 1 0 1 0 1 0 
1 0 1 1 1 -2 1 0 1 1 1 0 1 0 1 0 
1 0 1 0 1 0 1 0 1 0 1 -1 1 0 1 0 
1 0 1 0 1 0 1 1 1 0 1 0 1 0 1 0 
1 0 1 -1 1 0 1 0 1 0 1 0 1 0 1 0 
1 0 1 0 1 1 1 0 0 -2 1 1 1 0 1 0 
1 0 1 0 1 0 1 0 1 0 1 0 1 0 1 0 
1 -1 1 0 1 0 3711 2773 100 MP stroke
1 0 1 0 1 1 1 0 1 0 1 0 1 0 1 0 
1 -1 1 0 1 0 1 0 1 0 1 0 1 0 1 0 
1 0 1 1 1 0 1 -1 1 0 1 0 1 0 1 0 
1 0 1 0 1 0 1 0 1 0 1 0 1 -1 1 0 
1 0 1 0 1 0 1 1 1 0 1 0 1 0 1 0 
1 0 1 -1 1 0 1 0 1 0 1 0 1 0 1 0 
1 0 1 0 1 0 1 0 -1 0 2 0 1 0 1 0 
1 0 1 0 1 0 1 0 1 0 1 0 1 0 1 0 
1 -1 1 0 1 0 1 0 1 0 1 0 1 0 1 0 
1 1 1 0 1 0 1 -1 1 0 1 0 1 0 1 0 
1 0 1 0 1 0 1 0 1 0 1 0 1 -1 1 0 
1 0 1 0 1 0 1 0 1 0 1 0 1 0 1 0 
1 1 1 -1 1 0 3613 2776 100 MP stroke
1 0 1 0 1 0 1 0 1 0 1 0 1 0 1 0 
1 0 1 -1 1 0 1 0 1 0 1 0 1 0 1 0 
1 0 1 0 1 0 1 0 1 -1 1 0 1 0 1 0 
1 0 1 0 1 0 1 0 1 0 1 0 1 0 1 0 
1 -1 1 0 1 0 1 0 1 0 1 0 1 0 1 0 
1 0 1 0 1 0 0 -2 1 0 1 0 1 0 1 0 
1 0 1 0 1 0 1 0 1 1 1 0 1 0 0 -2 
1 0 1 0 1 0 1 0 1 0 1 0 1 0 1 0 
1 0 1 0 1 0 0 -3 1 0 1 0 1 0 1 1 
1 0 1 0 1 0 1 0 1 0 1 0 1 0 1 -1 
1 0 1 0 1 0 1 0 1 0 1 0 1 0 1 1 
1 0 1 -1 1 0 1 0 1 0 1 0 1 0 1 0 
1 0 1 0 1 0 3517 2785 100 MP stroke
1 0 1 -1 1 0 1 0 1 0 1 1 1 0 1 0 
1 0 1 0 1 0 1 0 1 -1 1 0 1 0 1 0 
1 0 1 0 1 0 1 0 1 0 1 1 1 0 1 -1 
1 0 1 0 1 0 1 0 1 0 1 0 1 0 1 0 
1 0 1 -1 1 0 1 0 1 0 1 0 1 1 1 0 
1 0 1 0 1 0 1 0 1 -1 1 0 1 0 1 0 
1 0 1 0 1 0 1 0 1 0 1 0 1 1 1 -1 
1 0 1 0 1 0 1 0 1 0 1 0 1 0 1 0 
1 0 1 -1 1 0 1 0 1 0 1 0 1 0 1 0 
1 1 1 0 1 0 1 0 1 -1 1 0 1 0 1 0 
1 0 1 0 1 0 1 0 1 0 1 0 1 0 1 0 
1 0 1 0 1 0 1 0 1 0 1 0 1 0 1 0 
1 0 1 0 1 -1 3418 2789 100 MP stroke
1 0 1 0 1 0 1 0 1 0 1 1 1 0 1 0 
1 0 1 -1 1 0 1 0 1 0 1 0 1 0 1 0 
1 0 1 0 1 0 1 0 1 0 1 0 1 0 1 0 
1 0 1 0 1 0 1 0 1 0 1 0 1 0 1 -1 
1 0 1 0 1 0 1 0 1 0 1 1 1 0 1 0 
1 0 1 -1 1 0 1 0 1 0 1 0 1 0 1 0 
1 0 1 0 1 0 1 0 1 0 1 0 1 0 1 0 
1 0 1 0 1 0 1 0 1 0 1 0 1 0 1 -1 
1 0 1 0 1 0 1 0 1 0 1 0 1 1 1 0 
1 0 1 0 1 -1 1 0 1 0 1 0 1 0 1 0 
1 0 1 0 1 0 1 0 1 0 1 0 1 0 1 0 
1 0 1 0 1 0 1 0 1 0 1 0 1 0 1 -1 
1 0 1 0 1 0 3319 2792 100 MP stroke
1 0 1 0 1 0 1 0 1 0 1 0 1 0 1 0 
1 0 1 0 1 0 1 0 1 0 1 0 1 0 1 0 
1 0 1 -1 1 0 1 0 1 0 1 0 1 0 1 0 
1 0 1 0 1 0 1 0 1 0 1 0 1 0 1 0 
1 0 1 0 1 0 1 0 1 0 1 0 1 0 1 -1 
1 0 1 0 1 0 1 0 1 0 1 0 1 0 1 0 
1 0 1 0 1 -1 1 0 1 0 1 0 1 0 1 0 
1 0 1 0 1 0 1 0 1 -1 1 0 1 0 1 0 
1 0 1 0 1 0 1 0 1 0 1 0 1 0 1 -1 
1 0 1 0 1 0 1 0 1 0 1 0 1 0 1 0 
1 0 1 0 0 -2 1 0 1 0 1 0 1 0 1 0 
1 0 1 0 1 0 1 0 1 0 1 -2 1 0 1 0 
1 0 1 0 1 0 3221 2801 100 MP stroke
1 0 1 0 1 0 1 0 1 0 -1 0 2 0 1 0 
1 0 1 0 1 0 1 0 1 0 1 0 1 0 1 0 
1 0 1 0 1 0 1 0 1 0 1 0 1 0 1 0 
1 0 1 0 1 0 1 -1 1 0 1 0 1 0 1 0 
1 0 1 0 1 0 1 0 1 0 1 0 1 0 1 0 
1 0 1 0 1 0 1 0 1 0 1 0 1 0 1 0 
1 -1 1 0 1 0 1 0 1 0 1 1 1 0 1 0 
1 0 1 0 1 -1 1 0 1 0 1 0 1 0 1 0 
1 0 1 0 1 0 1 0 1 0 1 0 1 0 1 0 
1 0 1 0 1 0 1 0 1 0 1 0 1 0 1 -1 
1 0 1 0 1 0 1 0 1 0 1 0 1 0 1 0 
1 1 1 -1 1 0 1 0 1 0 1 0 1 0 1 0 
1 0 1 0 1 0 3123 2804 100 MP stroke
1 0 1 0 1 0 1 0 1 0 1 0 1 0 1 0 
1 0 1 0 1 0 1 -1 1 0 1 0 1 0 1 0 
1 0 1 0 1 0 1 0 1 0 1 0 1 0 1 0 
1 0 1 0 1 0 1 0 1 0 1 0 1 0 1 0 
1 0 1 0 1 0 1 0 1 0 1 0 1 0 1 0 
1 0 1 0 1 -1 1 0 1 0 1 0 1 0 1 0 
1 0 1 0 1 0 1 0 1 0 1 0 1 0 1 0 
1 0 1 0 1 0 1 0 1 0 1 0 1 0 1 0 
1 0 1 0 1 0 1 0 1 0 1 0 1 0 1 0 
1 0 1 0 1 0 1 -1 1 0 1 0 1 0 1 0 
1 0 1 0 1 0 1 0 1 0 1 0 1 0 1 0 
1 0 1 0 1 0 1 0 1 0 1 0 1 0 1 0 
1 0 1 0 1 0 3024 2807 100 MP stroke
1 0 1 0 1 0 1 0 1 0 1 0 1 0 1 -1 
1 0 1 0 1 0 1 0 1 0 1 0 1 0 1 0 
1 0 1 0 1 0 1 0 1 0 1 0 1 0 1 0 
1 0 1 0 1 0 1 0 1 0 1 0 1 0 1 -1 
1 0 1 0 1 0 1 0 1 0 1 0 1 0 1 0 
1 0 1 0 1 0 1 0 1 0 1 0 1 0 1 0 
1 0 1 0 1 0 1 0 1 -1 1 0 1 0 1 0 
1 0 1 0 1 0 1 0 1 0 1 0 1 0 1 0 
1 0 1 0 1 0 1 0 1 -1 1 0 1 0 1 0 
1 0 1 0 1 0 1 0 1 0 1 0 1 0 1 0 
1 0 1 -1 1 0 1 0 1 0 1 0 1 0 1 0 
1 0 1 0 1 0 1 -1 1 0 1 0 1 0 1 0 
1 0 1 0 1 0 2925 2813 100 MP stroke
1 -1 1 0 1 0 1 0 1 0 1 0 1 0 1 0 
1 0 1 -1 1 0 1 0 1 0 1 0 1 0 1 0 
1 0 1 0 1 0 1 0 0 -2 1 0 1 0 1 0 
1 0 1 0 1 0 1 0 1 0 1 0 1 0 1 0 
1 0 1 0 1 0 1 0 1 0 1 0 1 0 1 0 
1 0 1 0 1 0 1 0 1 0 1 0 1 0 1 0 
1 0 1 0 1 -1 1 0 1 0 1 0 1 0 1 0 
1 0 1 0 1 0 1 0 1 0 1 0 1 0 1 0 
1 0 1 0 1 0 1 0 1 0 1 0 1 0 1 0 
1 0 1 0 1 0 1 0 1 -1 1 0 1 0 1 0 
1 0 1 0 1 0 1 0 1 0 1 0 1 0 1 0 
1 0 1 0 1 0 1 0 1 0 1 0 1 0 1 0 
1 0 1 0 1 0 2827 2819 100 MP stroke
1 0 1 0 1 0 1 0 1 0 1 0 1 -1 1 0 
1 0 1 0 1 0 1 0 1 0 1 0 1 0 1 0 
1 0 1 0 1 0 1 0 1 0 1 0 1 0 1 0 
1 0 1 0 1 0 1 0 1 0 1 0 1 0 1 0 
1 0 1 0 1 0 1 -1 1 0 1 0 1 0 1 0 
1 0 1 0 1 0 1 0 1 0 1 0 1 0 1 0 
1 0 1 0 1 0 1 0 1 0 1 0 1 0 1 0 
1 0 1 0 1 0 1 0 1 0 1 0 1 0 1 0 
1 0 1 -1 1 0 1 0 1 0 1 0 1 0 1 0 
1 0 1 0 1 0 1 0 1 0 1 0 1 0 1 0 
1 0 1 0 1 0 1 0 1 0 1 0 1 0 1 0 
1 0 1 0 1 0 1 -1 1 1 1 0 1 0 1 0 
1 -1 1 0 1 0 2728 2823 100 MP stroke
1 0 1 0 1 0 1 0 1 0 1 0 1 0 1 0 
1 0 1 0 1 0 1 0 1 0 1 0 1 0 1 0 
1 0 1 0 1 0 1 0 1 0 1 -1 1 0 1 1 
1 0 1 0 1 -1 1 0 1 0 1 0 1 0 1 0 
1 0 1 0 1 0 1 0 1 0 1 0 1 0 1 0 
1 0 1 0 1 0 1 0 1 0 1 0 1 0 1 0 
1 0 1 -1 1 0 1 0 1 0 1 1 1 0 1 -1 
1 0 1 0 1 0 1 0 1 0 1 0 1 0 1 0 
1 0 1 0 1 0 1 0 1 0 1 0 1 -1 1 0 
1 0 1 1 1 0 1 -1 1 0 1 0 1 0 1 0 
1 0 1 0 1 0 1 0 1 0 1 0 1 0 1 0 
1 0 1 -1 1 0 1 0 1 0 1 0 1 0 1 0 
1 0 1 0 1 0 2629 2827 100 MP stroke
1 0 1 0 1 0 1 0 1 0 1 0 1 -1 1 0 
1 0 1 0 1 0 1 0 1 0 1 0 1 0 1 0 
1 0 1 -1 1 0 1 0 1 0 1 0 1 0 1 0 
1 0 1 0 1 0 1 -1 1 0 1 0 1 0 1 0 
1 0 1 0 1 0 1 -1 1 0 1 0 1 0 1 0 
1 0 1 0 1 0 1 0 1 -1 1 0 1 0 1 0 
1 0 1 0 1 0 1 0 1 -1 1 0 1 1 1 0 
1 0 1 -1 1 0 1 0 1 0 1 0 1 0 1 0 
1 0 1 0 1 0 1 0 1 0 1 0 1 0 1 0 
1 0 1 0 1 0 1 0 1 0 1 0 1 0 1 -1 
1 0 1 0 1 0 1 1 1 0 1 -1 1 0 1 0 
1 0 1 0 1 0 1 0 1 0 1 0 1 0 1 0 
1 0 1 0 1 0 2530 2834 100 MP stroke
1 0 1 0 1 0 1 0 1 0 1 0 1 0 1 0 
1 0 1 -1 1 0 1 0 1 0 1 1 1 0 1 -1 
1 0 1 0 1 0 1 0 1 0 1 0 1 0 1 0 
1 0 1 0 1 0 1 0 1 0 1 0 1 0 1 0 
-1 0 2 0 1 0 1 0 1 0 1 0 1 -1 1 0 
1 0 1 0 1 0 1 1 1 -1 1 0 1 0 1 0 
1 0 1 0 1 0 1 0 1 0 1 0 1 0 1 0 
1 0 1 0 1 0 1 0 1 0 1 -1 1 1 1 0 
1 0 1 0 1 0 1 -1 1 0 1 0 1 0 1 0 
1 1 1 -1 1 0 1 0 1 0 1 0 1 0 1 0 
1 0 1 0 1 0 1 0 1 0 1 0 1 0 1 0 
1 0 1 -1 1 0 1 1 1 0 1 0 1 0 1 -1 
1 0 1 0 1 0 2432 2838 100 MP stroke
1 0 1 0 1 1 1 -1 1 0 1 0 1 0 1 0 
1 0 1 0 1 0 1 0 1 0 1 0 1 0 1 0 
1 0 1 0 1 0 1 -1 1 0 1 1 1 0 1 0 
1 0 1 -1 1 0 1 0 1 0 1 0 1 0 1 1 
1 -1 1 0 1 0 1 0 1 0 1 0 1 0 1 0 
1 0 1 0 1 0 1 0 1 0 1 0 1 0 1 -1 
1 0 1 0 1 1 1 0 1 0 1 0 1 -1 1 0 
1 0 1 0 1 0 1 0 1 1 1 -1 1 0 1 0 
1 0 1 0 1 0 1 0 1 0 1 0 1 0 1 0 
1 0 1 0 1 0 1 -1 1 0 1 0 1 0 1 1 
1 0 1 0 1 -1 1 0 1 0 1 0 1 0 1 0 
1 1 1 -1 1 0 1 0 1 0 1 0 1 0 1 0 
1 -1 1 0 1 1 2333 2841 100 MP stroke
1 0 1 0 1 0 1 -1 1 0 1 0 1 0 1 0 
1 0 1 1 1 -1 1 0 1 0 1 0 1 0 1 0 
1 0 1 -1 1 1 1 0 1 0 1 0 1 0 1 -1 
1 0 1 0 1 0 1 0 -1 0 2 0 1 0 1 0 
1 0 1 0 1 0 1 0 1 -1 1 0 1 0 1 1 
1 0 1 -1 1 0 1 0 1 0 1 0 1 0 1 0 
-1 0 2 0 1 0 1 0 1 0 1 -1 1 0 1 0 
1 0 1 0 1 0 1 0 1 0 1 0 1 0 1 -1 
1 0 1 0 1 0 1 0 1 0 1 0 1 0 1 0 
1 0 1 -1 1 0 1 0 1 0 1 0 1 0 1 0 
1 0 1 -1 1 0 1 0 1 0 1 0 1 0 1 0 
1 0 1 0 1 0 1 0 1 0 1 0 1 0 1 -1 
1 0 1 1 1 0 2236 2848 100 MP stroke
1 0 1 0 1 -1 1 0 1 0 1 0 1 0 1 1 
1 0 1 -1 1 0 1 0 1 0 1 0 1 0 1 0 
1 0 1 0 1 0 1 0 1 0 1 0 1 0 1 -1 
1 0 1 0 1 1 1 0 1 0 1 0 1 -1 1 0 
1 0 1 0 1 0 1 1 1 0 1 -1 1 0 1 0 
1 0 1 0 1 0 1 0 1 0 1 0 1 0 1 0 
1 0 1 0 1 0 1 -1 1 0 1 0 1 1 1 0 
1 0 1 0 1 -1 1 0 1 0 1 0 1 0 1 1 
1 0 1 -1 1 0 1 0 1 0 1 0 1 0 1 0 
-1 0 2 0 1 0 1 0 1 0 1 0 1 0 1 -1 
1 0 1 0 1 0 1 1 1 0 1 0 1 0 1 -1 
1 0 1 0 1 0 1 0 1 1 1 0 1 -1 1 0 
1 0 1 0 1 0 2138 2852 100 MP stroke
1 0 1 -1 1 1 1 0 1 0 1 0 1 0 1 0 
1 -1 1 0 1 0 1 0 1 1 1 0 1 0 1 -1 
1 0 1 0 1 0 1 0 1 0 1 1 1 0 1 -1 
1 0 1 0 1 0 1 0 1 0 1 -1 1 1 1 0 
1 0 1 0 1 0 1 0 1 -1 1 0 1 0 1 1 
1 0 1 0 1 0 1 -1 1 0 1 0 1 0 1 0 
1 0 1 1 1 -1 1 0 1 0 1 0 1 0 1 0 
1 0 1 -1 0 2 1 -1 1 0 1 0 1 0 1 0 
1 0 1 -1 1 0 1 0 1 1 1 0 1 0 1 0 
1 -1 1 0 1 0 1 0 1 0 1 0 1 1 1 -1 
1 0 1 0 1 0 1 0 1 0 1 -1 1 0 0 2 
1 -1 1 0 1 0 1 0 1 0 1 -1 1 0 1 0 
1 0 1 1 1 0 2041 2855 100 MP stroke
1 0 1 0 1 -1 1 0 1 0 1 0 1 0 1 1 
1 0 1 -1 1 0 1 0 1 0 1 0 1 -1 1 0 
1 0 1 1 1 0 1 0 1 0 1 0 1 -1 1 0 
1 0 1 0 1 1 1 0 1 0 1 -1 1 0 1 0 
1 0 1 0 1 -1 1 2 1 -1 1 0 1 0 1 0 
1 0 1 -1 1 0 1 0 1 0 1 1 1 0 1 0 
1 -1 1 0 1 0 1 0 1 0 1 -1 0 2 1 0 
1 -1 1 0 1 0 1 0 1 0 1 -1 1 0 1 0 
1 1 1 0 1 0 1 -1 1 0 1 0 1 0 1 0 
1 -1 1 2 1 -1 1 0 1 0 1 0 1 -1 1 0 
1 0 1 0 1 0 1 1 1 -1 1 0 1 0 1 0 
1 0 1 -1 1 0 1 0 1 1 1 0 1 0 1 -1 
1 0 1 0 1 0 1943 2861 100 MP stroke
1 0 1 -1 1 1 1 0 1 0 1 -1 1 0 1 0 
1 0 1 0 1 0 1 -1 1 1 1 0 1 0 1 -1 
1 0 1 0 1 0 1 0 1 -1 0 2 1 0 1 -1 
1 0 1 0 1 0 1 0 1 -1 1 0 1 0 1 1 
1 0 1 0 1 0 1 -1 1 0 1 0 1 0 1 0 
1 1 1 0 1 -1 1 0 1 0 1 0 1 0 1 0 
1 -1 0 2 1 0 1 -1 1 0 1 0 1 0 1 0 
1 -1 1 0 1 1 1 0 1 0 1 0 1 0 1 -1 
1 0 1 0 1 0 1 1 1 0 1 0 1 -1 1 0 
1 0 1 0 1 0 1 -1 1 2 1 -1 1 0 1 0 
1 0 1 0 1 -1 1 0 1 0 1 1 1 0 1 0 
1 0 1 0 1 -1 1 0 1 0 1 0 1 1 1 0 
1 0 1 -1 1 0 1846 2866 100 MP stroke
1 0 1 0 1 0 1 -1 0 2 1 0 1 0 1 -1 
1 0 1 0 1 0 1 -1 1 0 1 0 1 1 1 0 
1 0 1 0 1 -1 1 0 1 0 1 0 1 0 1 1 
1 0 1 0 1 -1 1 0 1 0 1 0 1 -1 1 0 
0 2 1 0 1 -1 1 0 1 0 1 0 1 0 1 -1 
1 0 1 0 1 1 1 0 1 0 1 0 1 -1 1 0 
1 0 1 0 1 0 1 1 1 0 1 0 1 -1 1 0 
1 0 1 0 1 -1 1 0 0 2 1 0 1 -1 1 0 
1 0 1 0 1 -1 1 0 1 0 1 0 1 1 1 0 
1 0 1 0 1 -1 1 0 1 0 1 0 1 0 1 1 
1 0 1 -1 1 0 1 0 1 0 1 0 1 -1 1 2 
1 0 1 -1 1 0 1 0 1 0 1 -1 1 0 1 0 
1 2 1 -1 1 0 1750 2869 100 MP stroke
1 0 1 0 1 -1 1 0 1 0 1 0 1 1 1 0 
1 0 1 -1 1 0 1 0 1 0 1 -1 1 0 1 2 
1 0 1 -1 1 0 1 0 1 0 1 -1 1 0 1 0 
1 2 1 -1 1 0 1 0 1 -1 1 0 1 0 1 0 
1 0 0 -1 0 1 1 1 1 0 1 0 1 -1 1 0 
1 0 1 0 1 -1 1 0 0 2 1 0 1 -1 1 0 
1 0 1 0 1 0 1 -1 1 0 1 0 0 2 1 -1 
1 0 1 0 1 0 1 -1 1 0 1 0 1 0 1 -1 
0 2 1 0 1 0 1 0 1 -1 1 0 1 0 1 0 
1 -1 1 0 0 2 1 0 1 -1 1 0 1 0 1 0 
1 -1 1 0 1 0 1 0 1 1 1 0 1 0 1 -1 
1 0 1 0 1 0 1 -1 1 0 0 2 1 0 1 0 
1 -1 1 0 1 0 1658 2873 100 MP stroke
1 0 1 -1 1 0 1 0 0 2 1 -1 1 0 1 0 
1 0 1 -1 1 0 1 0 1 0 1 -1 0 2 1 0 
1 0 1 -1 1 0 1 0 1 0 1 -1 1 0 1 2 
1 -1 1 0 1 0 1 0 1 -1 1 0 1 0 1 0 
-1 0 2 1 1 0 1 0 1 -1 1 0 1 0 1 0 
1 -1 1 0 1 2 1 -1 1 0 1 0 1 -1 1 0 
1 0 1 0 1 -1 1 2 1 0 1 -1 1 0 1 0 
1 0 1 -1 1 0 1 0 1 1 1 0 1 0 1 -1 
1 0 1 0 1 0 1 -1 1 0 1 1 1 0 1 0 
1 -1 1 0 1 0 1 0 1 -1 1 0 0 2 1 0 
1 -1 1 0 1 0 1 0 1 -1 1 0 1 0 1 0 
0 2 1 -1 1 0 1 0 1 0 1 -1 1 0 1 0 
1 0 0 -1 0 1 1566 2879 100 MP stroke
1 1 1 0 1 0 1 -1 1 0 1 0 1 0 1 -1 
1 0 0 2 1 0 1 -1 1 0 1 0 1 0 1 -1 
1 0 1 0 1 2 1 -1 1 0 1 0 1 0 1 -1 
1 0 1 0 1 -1 0 2 1 0 1 0 1 0 1 -1 
1 0 1 0 1 0 1 -1 1 2 1 0 1 -1 1 0 
1 0 1 0 1 -1 1 0 1 0 0 2 1 0 1 -1 
1 0 1 0 1 -1 1 0 1 0 1 0 1 -1 0 2 
1 0 1 0 1 -1 1 0 1 0 1 0 1 -1 1 0 
0 2 1 0 1 0 1 -1 1 0 1 0 1 -1 1 0 
1 0 1 0 0 2 1 -1 1 0 1 0 1 0 1 -1 
1 0 1 0 1 0 -1 0 2 1 1 0 1 0 1 -1 
1 0 1 0 1 0 1 -1 1 0 0 2 1 0 1 0 
1 -1 1 0 1 0 1475 2882 100 MP stroke
1 0 1 -1 1 0 1 2 1 -1 1 0 1 0 1 0 
1 -1 1 0 1 0 1 0 0 -1 0 1 1 1 1 0 
1 0 1 0 1 -1 1 0 1 0 1 -1 1 0 0 2 
1 0 1 0 1 -1 1 0 1 0 1 0 1 -1 1 0 
0 2 1 0 1 0 1 -1 1 0 1 0 1 -1 1 0 
1 0 1 0 0 2 1 -1 1 0 1 0 1 0 1 -1 
1 0 1 0 1 -1 1 2 1 0 1 0 1 -1 1 0 
1 0 1 0 1 -1 1 0 0 2 1 0 1 0 1 -1 
1 0 1 0 1 0 1 -1 1 0 1 2 1 0 1 -1 
1 0 1 0 1 -1 1 0 1 0 1 0 0 -1 0 1 
1 2 1 -1 1 0 1 0 1 -1 1 0 1 0 1 -1 
1 0 0 3 1 -1 1 0 1 0 1 -1 1 0 1 0 
1 -1 1 0 0 2 1386 2884 100 MP stroke
1 0 1 0 1 0 1 -1 1 0 1 0 1 0 1 -1 
1 0 0 2 1 0 1 0 1 -1 1 0 1 0 1 -1 
1 0 1 0 1 2 1 0 1 0 1 -1 1 0 1 0 
1 -1 1 0 1 0 0 2 1 0 1 0 1 -1 1 0 
1 0 1 -1 1 0 1 0 -1 0 2 2 1 0 1 -1 
1 0 1 0 1 -1 1 0 1 0 1 -1 0 3 1 0 
1 0 1 -1 1 0 1 -1 1 0 1 0 1 -1 1 0 
0 3 1 0 1 -1 1 0 1 0 1 -1 1 0 1 0 
1 -1 0 3 1 0 1 0 1 -1 1 0 1 -1 1 0 
1 0 1 -1 1 0 0 3 1 0 1 -1 1 0 1 0 
1 -1 1 0 1 -1 1 0 1 3 1 -1 1 0 1 0 
1 -1 1 0 1 -1 1 0 1 0 0 3 1 0 1 -1 
1 0 1 -1 1 0 1295 2886 100 MP stroke
1 -1 1 0 1 0 -1 0 2 3 1 -1 1 0 1 -1 
1 0 1 -1 1 0 1 0 1 -1 0 3 1 0 1 0 
1 -1 1 0 1 -1 1 0 1 -1 1 0 1 0 0 3 
1 0 1 -1 1 0 1 -1 1 0 1 -1 1 0 1 -1 
0 3 1 0 1 0 1 -1 1 0 1 -1 1 0 1 -1 
1 0 1 -1 0 3 1 0 1 0 1 -1 1 0 1 -1 
1 0 1 -1 1 0 -1 0 2 2 1 0 1 -1 1 0 
1 -1 1 0 1 -1 1 0 1 -1 0 3 1 0 1 -1 
1 -1 1 0 1 -1 1 0 1 -1 1 0 -1 0 2 2 
1 -1 1 0 1 -1 1 0 1 -1 1 0 1 -1 1 0 
0 -1 0 1 1 1 1 -1 1 0 1 -1 1 0 1 -1 
1 0 1 -1 1 1 1 -1 1 0 1 -1 1 0 1 -1 
1 0 1 -1 1 0 1206 2901 100 MP stroke
1 -1 1 0 1 0 1 -1 1 0 1 -1 1 0 1 -1 
1 0 1 -1 1 -1 1 0 1 -1 1 0 1 0 1 -1 
1 0 0 -3 1 0 1 0 1 0 1 -1 1 0 1 0 
1 -1 1 0 0 -4 1 0 1 -1 1 0 1 0 1 0 
1 -1 1 0 1 0 1 -6 1 0 1 0 1 -1 1 0 
1 0 1 0 1 0 1 -8 1 0 1 0 1 0 1 0 
1 0 1 0 1 0 1 0 0 -11 1 0 1 0 1 1 
1 0 1 0 1 0 1 0 1 0 0 -13 1 0 1 0 
1 1 1 0 1 0 1 1 1 0 1 1 0 -17 1 0 
1 0 1 1 1 1 1 1 1 0 1 1 1 1 1 -21 
1 1 1 1 1 1 1 1 1 1 1 1 1 1 1 1 
0 -26 0 1 2 2 0 1 2 2 1 1 0 1 2 2 
1 1 0 -30 1 1 1114 3024 100 MP stroke
0 1 2 2 0 2 2 2 0 2 2 2 0 1 1 1 
0 -36 1 1 0 2 1 1 0 2 2 2 0 2 1 1 
0 1 1 1 0 2 1 1 0 2 2 -40 0 2 1 1 
0 2 1 1 0 2 1 1 0 3 1 1 0 1 1 1 
0 2 1 1 0 2 1 1 0 2 1 -47 0 3 1 1 
0 1 1 2 0 2 1 1 0 3 1 1 0 3 1 1 
0 3 1 1 0 2 1 1 0 3 1 1 0 -54 0 2 
1 2 0 3 1 1 0 4 1 1 0 2 1 1 0 4 
1 1 0 3 1 2 0 3 1 2 0 3 1 2 0 -60 
1 2 0 4 1 2 0 3 1 2 0 4 1 2 0 4 
1 2 0 2 1 2 0 3 1 2 0 4 1 2 0 2 
0 -66 1 3 0 4 1 2 0 3 1 2 0 4 1 3 
0 4 1 2 0 5 1061 3134 100 MP stroke
1 2 0 5 1 2 0 2 1 3 0 4 1 -71 0 5 
1 3 0 5 1 3 0 5 1 3 0 2 1 3 0 5 
1 3 0 5 1 3 0 5 1 3 0 5 1 -76 0 3 
1 3 0 6 1 3 0 6 1 3 0 6 1 3 0 7 
1 3 0 3 1 3 0 6 1 3 0 6 1 3 0 -79 
0 4 1 3 0 7 1 3 0 4 1 3 0 7 1 3 
0 7 1 4 0 7 1 3 0 7 1 3 0 4 1 3 
0 4 0 -80 1 4 0 8 1 4 0 7 1 4 0 8 
1 4 0 4 1 3 0 8 1 4 0 8 1 4 0 7 
1 4 0 4 0 -78 1 5 0 4 1 4 0 9 1 4 
0 8 1 5 0 8 1 4 0 9 1 4 0 4 1 5 
0 8 1 4 0 9 1 -72 0 9 1 5 0 9 1 5 
0 4 1 5 0 9 1013 3146 100 MP stroke
1 5 0 9 1 5 0 9 1 5 0 9 1 5 0 4 
1 5 0 -62 0 5 1 5 0 10 1 5 0 10 1 5 
0 10 1 5 0 5 1 5 0 9 1 5 0 10 1 5 
0 10 1 5 0 -45 0 5 1 5 0 5 1 6 0 10 
1 5 0 11 1 5 0 10 1 5 0 11 1 5 0 5 
1 5 0 11 1 5 0 5 0 -21 1 5 0 11 1 5 
0 11 1 5 0 5 1 6 0 10 1 5 0 11 1 5 
0 11 1 5 0 11 1 5 0 6 1 11 0 11 1 5 
0 11 1 5 0 11 1 5 0 10 1 6 0 5 1 5 
0 11 1 5 0 11 1 5 0 10 1 57 0 10 1 5 
0 5 1 5 0 10 1 5 0 10 1 5 0 10 1 5 
0 10 1 5 0 5 1 5 0 10 1 5 0 124 1 4 
0 9 1 4 0 9 965 2434 100 MP stroke
1 5 0 4 1 5 0 8 1 5 0 9 1 4 0 9 
1 5 0 8 1 5 0 204 1 4 0 7 1 3 0 7 
1 3 0 7 1 4 0 7 1 3 0 4 1 3 0 7 
1 4 0 7 1 3 0 333 1 2 0 4 1 2 0 2 
1 2 0 4 1 2 0 4 1 2 0 4 1 2 0 3 
1 2 0 2 1 2 0 4 1 527 0 -1 2 -2 1 -1 
1 -1 1 -1 1 -1 0 -1 2 -2 1 0 -1 0 2 -2 
1 -1 1 -1 1 -1 1 -1 1 -1 1 -1 0 -1 2 -2 
1 0 -1 0 2 -2 1 -1 1 -1 1 -1 1 -1 1 -1 
1 -1 1 -1 1 -1 1 -1 1 -1 1 -1 1 -1 1 -1 
1 -1 1 -1 1 -1 1 -1 1 -1 1 -1 1 -1 1 -1 
1 -1 0 -1 900 1233 91 MP stroke
/c10 { 0.000000 1.000000 0.000000 sr} bdef
c10
1 0 1 0 1 0 1 0 1 0 1 0 1 0 1 0 
1 0 1 0 1 0 1 0 1 0 1 0 1 0 1 0 
1 0 1 0 1 0 1 0 1 0 1 0 1 0 1 0 
1 0 1 0 1 0 1 0 1 0 1 0 1 0 1 0 
1 0 1 0 1 0 1 0 1 0 1 0 1 0 1 0 
1 0 1 0 1 0 1 0 1 0 1 0 1 0 1 0 
1 0 1 0 1 0 1 0 1 0 1 0 1 0 1 0 
1 0 1 0 1 0 1 0 1 0 1 0 1 0 1 0 
1 0 1 0 1 0 1 0 1 0 1 0 1 0 1 0 
1 0 1 0 1 0 1 0 1 0 1 0 1 0 1 0 
1 0 1 0 1 0 1 0 1 0 1 0 1 0 1 0 
1 0 1 0 1 0 1 0 1 0 1 0 1 0 1 0 
1 0 1 0 1 0 6156 2927 100 MP stroke
1 0 1 0 1 0 1 0 1 0 1 0 1 0 1 0 
1 0 1 0 1 0 1 0 1 0 1 0 1 0 1 0 
1 0 1 0 1 0 1 0 1 0 1 0 1 0 1 0 
1 0 1 0 1 0 1 0 1 0 1 0 1 0 1 0 
1 0 1 0 1 0 1 0 1 0 1 0 1 0 1 0 
1 0 1 0 1 0 1 0 1 0 1 0 1 0 1 0 
1 0 1 0 1 0 1 0 1 0 1 0 1 0 1 0 
1 0 1 0 1 0 1 0 1 0 1 0 1 0 1 0 
1 0 1 0 1 0 1 0 1 0 1 0 1 0 1 0 
1 0 1 0 1 0 1 0 1 0 1 0 1 0 1 0 
1 0 1 0 1 0 1 0 -1 0 2 0 1 0 1 0 
1 0 1 0 1 0 1 0 1 0 1 0 1 0 1 0 
1 0 1 0 1 0 6058 2927 100 MP stroke
1 -1 1 0 1 1 1 0 1 0 1 0 1 0 1 0 
1 0 1 0 1 0 1 0 1 0 1 -1 1 0 1 0 
1 0 1 1 1 0 1 0 1 0 1 0 1 0 1 0 
1 0 1 0 1 0 1 -1 1 0 1 0 1 0 1 0 
1 1 1 0 1 0 1 0 1 0 1 0 1 0 1 0 
1 -1 1 0 1 0 1 0 1 0 1 0 1 0 1 1 
1 0 1 0 1 0 1 0 1 0 1 0 1 -1 1 0 
1 0 1 0 1 0 1 0 1 0 1 0 1 1 1 0 
1 0 1 0 1 0 1 -1 1 0 1 0 1 0 1 0 
1 0 1 0 1 0 1 0 1 0 1 0 1 1 1 0 
1 0 1 -1 1 0 1 0 1 0 1 0 1 0 1 0 
1 0 1 0 1 0 1 0 1 0 1 1 1 0 1 -1 
1 0 1 0 1 0 5959 2928 100 MP stroke
1 0 1 0 1 0 1 0 1 0 1 0 1 0 1 0 
1 0 1 0 1 0 1 0 1 0 1 0 1 0 1 0 
1 0 1 0 1 0 1 0 1 0 1 0 1 0 1 0 
1 0 1 0 1 0 1 0 1 0 1 0 1 0 1 0 
1 0 1 0 1 0 1 0 1 0 1 0 1 0 1 0 
1 0 1 0 1 0 1 0 1 0 1 0 1 0 1 0 
1 0 1 0 1 0 1 0 1 0 1 0 1 0 1 0 
1 0 1 0 1 0 1 0 1 0 1 0 1 0 1 0 
1 0 1 0 1 0 1 0 1 0 1 0 1 0 1 0 
1 0 1 0 1 0 1 0 1 0 1 0 1 0 1 0 
1 0 1 0 1 0 1 0 1 0 1 0 1 0 1 0 
1 0 1 0 1 0 1 0 1 0 1 0 1 0 1 0 
1 0 1 0 1 0 5860 2928 100 MP stroke
1 0 1 0 1 0 1 0 1 0 1 0 1 0 1 0 
1 0 1 0 1 0 1 0 1 0 1 0 1 0 1 0 
1 0 1 0 1 0 1 0 1 0 1 0 1 0 1 0 
1 0 1 0 1 0 1 0 1 0 1 0 1 0 1 0 
1 0 1 0 1 0 1 0 1 0 1 0 1 0 1 0 
1 0 1 0 1 0 1 0 1 0 1 0 1 0 1 0 
1 0 1 0 1 0 1 0 1 0 1 0 1 0 1 0 
1 0 1 0 1 0 1 0 1 0 1 0 1 0 1 0 
1 0 1 0 1 0 1 0 1 0 1 0 1 0 1 0 
1 0 1 0 1 0 1 0 1 0 1 0 1 0 1 0 
1 0 1 0 1 0 1 0 1 0 1 0 1 0 1 0 
1 0 1 0 1 0 1 0 1 0 1 0 1 0 1 0 
1 0 1 0 1 0 5761 2928 100 MP stroke
1 0 1 0 1 0 1 0 1 0 1 0 1 0 1 0 
1 0 1 0 1 0 1 0 1 0 1 0 1 0 1 0 
1 0 1 0 1 0 1 0 1 0 1 0 1 0 1 0 
1 0 1 0 1 0 1 0 1 0 1 0 1 0 1 0 
1 0 1 0 1 0 1 0 1 0 1 0 1 0 1 0 
1 0 1 0 1 0 1 0 1 0 1 0 1 0 1 0 
1 0 1 0 1 0 1 0 1 0 1 0 1 0 1 0 
1 0 1 0 1 0 1 0 1 0 1 0 1 0 1 0 
1 0 1 0 1 0 1 0 1 0 1 0 1 0 1 0 
1 0 1 0 1 0 1 0 1 0 1 0 1 0 1 0 
1 0 1 0 1 0 1 0 1 0 1 0 1 0 1 0 
1 0 1 0 1 0 1 0 1 0 1 0 1 0 1 0 
1 0 1 0 1 0 5662 2928 100 MP stroke
1 0 1 0 1 0 1 0 1 0 1 0 1 0 1 0 
1 0 1 0 1 0 1 0 1 0 1 0 1 0 1 0 
1 0 1 0 1 0 1 0 1 0 1 0 1 0 1 0 
1 0 1 0 1 0 1 0 1 0 1 0 1 0 1 0 
1 0 1 0 1 0 1 0 1 0 1 0 1 0 1 0 
1 0 1 0 1 0 1 0 1 0 1 0 1 0 1 0 
1 0 1 0 1 0 1 0 1 0 1 0 1 0 1 0 
1 0 1 0 1 0 1 0 1 0 1 0 1 0 1 0 
1 0 1 0 1 0 1 0 1 0 1 0 1 0 1 0 
1 0 1 0 1 0 1 0 1 0 1 0 1 0 1 0 
1 0 1 0 1 0 1 0 1 0 1 0 1 0 1 0 
1 0 1 0 1 0 1 0 1 0 1 0 1 0 1 0 
1 0 1 0 1 0 5563 2928 100 MP stroke
1 0 1 0 1 0 1 0 1 0 1 0 1 0 1 0 
1 0 1 0 1 0 1 0 1 0 1 0 1 0 1 0 
1 0 1 0 1 0 1 0 1 0 1 0 1 0 1 0 
1 0 1 0 1 0 1 0 1 0 1 0 1 0 1 0 
1 0 1 0 1 0 1 0 1 0 1 0 1 0 1 0 
1 0 1 0 1 0 1 0 1 0 1 0 1 0 1 0 
1 0 1 0 1 0 1 0 1 0 1 0 1 0 1 0 
1 0 1 0 1 0 1 0 1 0 1 0 1 0 1 0 
1 0 1 0 1 0 1 0 1 0 1 0 1 0 1 0 
1 0 1 0 1 0 1 0 1 0 1 0 1 0 1 0 
1 0 1 0 1 0 1 0 1 0 1 0 1 0 1 0 
1 0 1 0 1 0 1 0 1 0 1 0 1 0 1 0 
1 0 1 0 1 0 5464 2928 100 MP stroke
1 0 1 0 1 0 1 0 1 0 1 0 1 0 1 0 
1 0 1 0 1 0 1 0 1 0 1 0 1 0 1 0 
1 0 1 0 1 0 1 0 1 0 1 0 1 0 1 0 
1 0 1 0 1 0 1 0 1 0 1 0 1 0 1 0 
1 0 1 0 1 0 1 0 1 0 1 0 1 0 1 0 
1 0 1 0 1 0 1 0 1 0 1 0 1 0 1 0 
1 0 1 0 1 0 1 0 1 0 1 0 1 0 1 0 
1 0 1 0 1 0 1 0 1 0 1 0 1 0 1 0 
1 0 1 0 1 0 1 0 1 0 1 0 1 0 1 0 
1 0 1 0 1 0 1 0 1 0 1 0 1 0 1 0 
1 0 1 0 1 0 1 0 1 0 1 0 1 0 1 0 
1 0 1 0 1 0 1 0 1 0 1 0 1 0 1 0 
1 0 1 0 1 0 5365 2928 100 MP stroke
1 0 1 0 1 0 1 0 1 0 1 0 1 0 1 0 
1 0 1 0 1 0 1 0 1 0 1 0 1 0 1 0 
1 0 1 0 1 0 1 0 1 0 1 0 1 0 1 0 
1 0 1 0 1 0 1 0 1 0 1 0 1 0 1 0 
1 0 1 0 1 0 1 0 1 0 1 0 1 0 1 0 
1 0 1 0 1 0 1 0 1 0 1 0 1 0 1 0 
1 0 1 0 1 0 1 0 1 0 1 0 1 0 1 0 
1 0 1 0 1 0 1 0 1 0 1 0 1 0 1 0 
1 0 1 0 1 0 1 0 1 0 1 0 1 0 1 0 
1 0 1 0 1 0 1 0 1 0 1 0 1 0 1 0 
1 0 1 0 1 0 1 0 1 0 1 0 1 0 1 0 
1 0 1 0 1 0 1 0 1 0 1 0 1 0 1 0 
1 0 1 0 1 0 5266 2928 100 MP stroke
1 0 1 0 1 0 1 0 1 0 1 0 1 0 1 0 
1 0 1 0 1 0 1 0 1 0 1 0 1 0 1 0 
1 0 1 0 1 0 1 0 1 0 1 0 1 0 1 0 
1 0 1 0 1 0 1 0 1 0 1 0 1 0 1 0 
1 0 1 0 1 0 1 0 1 0 1 0 1 0 1 0 
1 0 1 0 1 0 1 0 1 0 1 0 1 0 1 0 
1 0 1 0 1 0 1 0 1 0 1 0 1 0 1 0 
1 0 1 0 1 0 1 0 1 0 1 0 1 0 1 0 
1 0 1 0 1 0 1 0 1 0 1 0 1 0 1 0 
1 0 1 0 1 0 1 0 1 0 1 0 1 0 1 0 
1 0 1 0 1 0 1 0 1 0 1 0 1 0 1 0 
1 0 1 0 1 0 1 0 1 0 1 0 1 0 1 0 
1 0 1 0 1 0 5167 2928 100 MP stroke
1 0 1 0 1 0 1 0 1 0 1 0 1 0 1 0 
1 0 1 0 1 0 1 0 1 0 1 0 1 0 1 0 
1 0 1 0 1 0 1 0 1 0 1 0 1 0 1 0 
1 0 1 0 1 0 1 0 1 0 1 0 1 0 1 0 
1 0 1 0 1 0 1 0 1 0 1 0 1 0 1 0 
1 0 1 0 1 0 1 0 1 0 1 0 1 0 1 0 
1 0 1 0 1 0 1 0 1 0 1 0 1 0 1 0 
1 0 1 0 1 0 1 0 1 0 1 0 1 0 1 0 
1 0 1 0 1 0 1 0 1 0 1 0 1 0 1 0 
1 0 1 0 1 0 1 0 1 0 1 0 1 0 1 0 
1 0 1 0 1 0 1 0 1 0 1 0 1 0 1 0 
1 0 1 0 1 0 1 0 1 0 1 0 1 0 1 0 
1 0 1 0 1 0 5068 2928 100 MP stroke
1 0 1 0 1 0 1 0 1 0 1 0 1 0 1 0 
1 0 1 0 1 0 1 0 1 0 1 0 1 0 1 0 
1 0 1 0 1 0 1 0 1 0 1 0 1 0 1 0 
1 0 1 0 1 0 1 0 1 0 1 0 1 0 1 0 
1 0 1 0 1 0 1 0 1 0 1 0 1 0 1 0 
1 0 1 0 1 0 1 0 1 0 1 0 1 0 1 0 
1 0 1 0 1 0 1 0 1 0 1 0 1 0 1 0 
1 0 1 0 1 0 1 0 1 0 1 0 1 0 1 0 
1 0 1 0 1 0 1 0 1 0 1 0 1 0 1 0 
1 0 1 0 1 0 1 0 1 0 1 0 1 0 1 0 
1 0 1 0 1 0 1 0 1 0 1 0 1 0 1 0 
1 0 1 0 1 0 1 0 1 0 1 0 1 0 1 0 
1 0 1 0 1 0 4969 2928 100 MP stroke
1 0 1 0 1 0 1 0 1 0 1 0 1 0 1 0 
1 0 1 0 1 0 1 0 1 0 1 0 1 0 1 0 
1 0 1 0 1 0 1 0 1 0 1 0 1 0 1 0 
1 0 1 0 1 0 1 0 1 0 1 0 1 0 1 0 
1 0 1 0 1 0 1 0 1 0 1 0 1 0 1 0 
1 0 1 0 1 0 1 0 1 0 1 0 1 0 1 0 
1 0 1 0 1 0 1 0 1 0 1 0 1 0 1 0 
1 0 1 0 1 0 1 0 1 0 1 0 1 0 1 0 
1 0 1 0 1 0 1 0 1 0 1 0 1 0 1 0 
1 0 1 0 1 0 1 0 1 0 1 0 1 0 1 0 
1 0 1 0 1 0 1 0 1 0 1 0 1 0 1 0 
1 0 1 0 1 0 1 0 1 0 1 0 1 0 1 0 
1 0 1 0 1 0 4870 2928 100 MP stroke
1 0 1 0 1 0 1 0 1 0 1 0 1 0 1 0 
1 0 1 0 1 0 1 0 1 0 1 0 1 0 1 0 
1 0 1 0 1 0 1 0 1 0 1 0 1 0 1 0 
1 0 1 0 1 0 1 0 1 0 1 0 1 0 1 0 
1 0 1 0 1 0 1 0 1 0 1 0 1 0 1 0 
1 0 1 0 1 0 1 0 1 0 1 0 1 0 1 0 
1 0 1 0 1 0 1 0 1 0 1 0 1 0 1 0 
1 0 1 0 1 0 1 0 1 0 1 0 1 0 1 0 
1 0 1 0 1 0 1 0 1 0 1 0 1 0 1 0 
1 0 1 0 1 0 1 0 1 0 1 0 1 0 1 0 
1 0 1 0 1 0 1 0 1 0 1 0 1 0 1 0 
1 0 1 0 1 0 1 0 1 0 1 0 1 0 1 0 
1 0 1 0 1 0 4771 2928 100 MP stroke
1 0 1 0 1 0 1 0 1 0 1 0 1 0 1 0 
1 0 1 0 1 0 1 0 1 0 1 0 1 0 1 0 
1 0 1 0 1 0 1 0 1 0 1 0 1 0 1 0 
1 0 1 0 1 0 1 0 1 0 1 0 1 0 1 0 
1 0 1 0 1 0 1 0 1 0 1 0 1 0 1 0 
1 0 1 0 1 0 1 0 1 0 1 0 1 0 1 0 
1 0 1 0 1 0 1 0 1 0 1 0 1 0 1 0 
1 0 1 0 1 0 1 0 1 0 1 0 1 0 1 0 
1 0 1 0 1 0 1 0 1 0 1 0 1 0 1 0 
1 0 1 0 1 0 1 0 1 0 1 0 1 0 1 0 
1 0 1 0 1 0 1 0 1 0 1 0 1 0 1 0 
1 0 1 0 1 0 1 0 1 0 1 0 1 0 1 0 
1 0 1 0 1 0 4672 2928 100 MP stroke
1 0 1 0 1 0 1 0 1 0 1 0 1 0 1 0 
1 0 1 0 1 0 1 0 1 0 1 0 1 0 1 0 
1 0 1 0 1 0 1 0 1 0 1 0 1 0 1 0 
1 0 1 0 1 0 1 0 1 0 1 0 1 0 1 0 
1 0 1 0 1 0 1 0 1 0 1 0 1 0 1 0 
1 0 1 0 1 0 1 0 1 0 1 0 1 0 1 0 
1 0 1 0 1 0 1 0 1 0 1 0 1 0 1 0 
1 0 1 0 1 0 1 0 1 0 1 0 1 0 1 0 
1 0 1 0 1 0 1 0 1 0 1 0 1 0 1 0 
1 0 1 0 1 0 1 0 1 0 1 0 1 0 1 0 
1 0 1 0 1 0 1 0 1 0 1 0 1 0 1 0 
1 0 1 0 1 0 1 0 1 0 1 0 1 0 1 0 
1 0 1 0 1 0 4573 2928 100 MP stroke
1 0 1 0 1 0 1 0 1 0 1 0 1 0 1 0 
1 0 1 0 1 0 1 0 1 0 1 0 1 0 1 0 
1 0 1 0 1 0 1 0 1 0 1 0 1 0 1 0 
1 0 1 0 1 0 1 0 1 0 1 0 1 0 1 0 
1 0 1 0 1 0 1 0 1 0 1 0 1 0 1 0 
1 0 1 0 1 0 1 0 1 0 1 0 1 0 1 0 
1 0 1 0 1 0 1 0 1 0 1 0 1 0 1 0 
1 0 1 0 1 0 1 0 1 0 1 0 1 0 1 0 
1 0 1 0 1 0 1 0 1 0 1 0 1 0 1 0 
1 0 1 0 1 0 1 0 1 0 1 0 1 0 1 0 
1 0 1 0 1 0 1 0 1 0 1 0 1 0 1 0 
1 0 1 0 1 0 1 0 1 0 1 0 1 0 1 0 
1 0 1 0 1 0 4474 2928 100 MP stroke
1 0 1 0 1 0 1 0 1 0 1 0 1 0 1 0 
1 0 1 0 1 0 1 0 1 0 1 0 1 0 1 0 
1 0 1 0 1 0 1 0 1 0 1 0 1 0 1 0 
1 0 1 0 1 0 1 0 1 0 1 0 1 0 1 0 
1 0 1 0 1 0 1 0 1 0 1 0 1 0 1 0 
1 0 1 0 1 0 1 0 1 0 1 0 1 0 1 0 
1 0 1 0 1 0 1 0 1 0 1 0 1 0 1 0 
1 0 1 0 1 0 1 0 1 0 1 0 1 0 1 0 
1 0 1 0 1 0 1 0 1 0 1 0 1 0 1 0 
1 0 1 0 1 0 1 0 1 0 1 0 1 0 1 0 
1 0 1 0 1 0 1 0 1 0 1 0 1 0 1 0 
1 0 1 0 1 0 1 0 1 0 1 0 1 0 1 0 
1 0 1 0 1 0 4375 2928 100 MP stroke
1 0 1 0 1 0 1 0 1 0 1 0 1 0 1 0 
1 0 1 0 1 0 1 0 1 0 1 0 1 0 1 0 
1 0 1 0 1 0 1 0 1 0 1 0 1 0 1 0 
1 0 1 0 1 0 1 0 1 0 1 0 1 0 1 0 
1 0 1 0 1 0 1 0 1 0 1 0 1 0 1 0 
1 0 1 0 1 0 1 0 1 0 1 0 1 0 1 0 
1 0 1 0 1 0 1 0 1 0 1 0 1 0 1 0 
1 0 1 0 1 0 1 0 1 0 1 0 1 0 1 0 
1 0 1 0 1 0 1 0 1 0 1 0 1 0 1 0 
1 0 1 0 1 0 1 0 1 0 1 0 1 0 1 0 
1 0 1 0 1 0 1 0 1 0 1 0 1 0 1 0 
1 0 1 0 1 0 1 0 1 0 1 0 1 0 1 0 
1 0 1 0 1 0 4276 2928 100 MP stroke
1 0 1 0 1 0 1 0 1 0 1 0 1 0 1 0 
1 0 1 0 1 0 1 0 1 0 1 0 1 0 1 0 
1 0 1 0 1 0 1 0 1 0 1 0 1 0 1 0 
1 0 1 0 1 0 1 0 1 0 1 0 1 0 1 0 
1 0 1 0 1 0 1 0 1 0 1 0 1 0 1 0 
1 0 1 0 1 0 1 0 1 0 1 0 1 0 1 0 
1 0 1 0 1 0 1 0 1 0 1 0 1 0 1 0 
1 0 1 0 1 0 1 0 1 0 1 0 1 0 1 0 
1 0 1 0 1 0 1 0 1 0 1 0 1 0 1 0 
1 0 1 0 1 0 1 0 1 0 1 0 1 0 1 0 
1 0 1 0 1 0 1 0 1 0 1 0 1 0 1 0 
1 0 1 0 1 0 1 0 1 0 1 0 1 0 1 0 
1 0 1 0 1 0 4177 2928 100 MP stroke
1 0 1 0 1 0 1 0 1 0 1 0 1 0 1 0 
1 0 1 0 1 0 1 0 1 0 1 0 1 0 1 0 
1 0 1 0 1 0 1 0 1 0 1 0 1 0 1 0 
1 0 1 0 1 0 1 0 1 0 1 0 1 0 1 0 
1 0 1 0 1 0 1 0 1 0 1 0 1 0 1 0 
1 0 1 0 1 0 1 0 1 0 1 0 1 0 1 0 
1 0 1 0 1 0 1 0 1 0 1 0 1 0 1 0 
1 0 1 0 1 0 1 0 1 0 1 0 1 0 1 0 
1 0 1 0 1 0 1 0 1 0 1 0 1 0 1 0 
1 0 1 0 1 0 1 0 1 0 1 0 1 0 1 0 
1 0 1 0 1 0 1 0 1 0 1 0 1 0 1 0 
1 0 1 0 1 0 1 0 1 0 1 0 1 0 1 0 
1 0 1 0 1 0 4078 2928 100 MP stroke
1 0 1 0 1 0 1 0 1 0 1 0 1 0 1 0 
1 0 1 0 1 0 1 0 1 0 1 0 1 0 1 0 
1 0 1 0 1 0 1 0 1 0 1 0 1 0 1 0 
1 0 1 0 1 0 1 0 1 0 1 0 1 0 1 0 
1 0 1 0 1 0 1 0 1 0 1 0 1 0 1 0 
1 0 1 0 1 0 1 0 1 0 1 0 1 0 1 0 
1 0 1 0 1 0 1 0 1 0 1 0 1 0 1 0 
1 0 1 0 1 0 1 0 1 0 1 0 1 0 1 0 
1 0 1 0 1 0 1 0 1 0 1 0 1 0 1 0 
1 0 1 0 1 0 1 0 1 0 1 0 1 0 1 0 
1 0 1 0 1 0 1 0 1 0 1 0 1 0 1 0 
1 0 1 0 1 0 1 0 1 0 1 0 1 0 1 0 
1 0 1 0 1 0 3979 2928 100 MP stroke
1 0 1 0 1 0 1 0 1 0 1 0 1 0 1 0 
1 0 1 0 1 0 1 0 1 0 1 0 1 0 1 0 
1 0 1 0 1 0 1 0 1 0 1 0 1 0 1 0 
1 0 1 0 1 0 1 0 1 0 1 0 1 0 1 0 
1 0 1 0 1 0 1 0 1 0 1 0 1 0 1 0 
1 0 1 0 1 0 1 0 1 0 1 0 1 0 1 0 
1 0 1 0 1 0 1 0 1 0 1 0 1 0 1 0 
1 0 1 0 1 0 1 0 1 0 1 0 1 0 1 0 
1 0 1 0 1 0 1 0 1 0 1 0 1 0 1 0 
1 0 1 0 1 0 1 -1 1 0 1 0 1 1 1 0 
1 0 1 0 1 0 1 0 1 0 1 0 1 -1 1 0 
1 0 1 0 1 0 1 0 1 0 1 0 1 1 1 0 
1 0 1 0 1 -1 3880 2929 100 MP stroke
1 0 1 0 1 0 1 0 1 0 1 0 1 0 1 0 
1 0 1 0 1 0 1 0 1 0 1 0 1 0 1 0 
1 0 1 0 1 0 1 0 1 0 1 0 1 0 1 0 
1 0 1 0 1 0 1 0 1 0 1 0 1 0 1 0 
1 0 1 0 1 0 1 0 1 0 1 0 1 0 1 0 
1 0 1 0 1 0 1 0 1 0 1 0 1 0 1 0 
1 0 1 0 1 0 1 0 1 0 1 0 1 0 1 0 
1 0 1 0 1 0 1 0 1 0 1 0 1 0 1 0 
1 0 1 0 1 0 1 0 1 0 1 0 1 0 1 0 
1 0 1 0 1 0 1 0 1 0 1 0 1 0 1 0 
1 0 1 0 1 0 1 0 1 0 1 0 1 0 1 0 
1 0 1 0 1 0 1 0 1 0 1 0 1 0 1 0 
1 0 1 0 1 0 3781 2929 100 MP stroke
1 0 1 0 1 0 1 0 1 0 1 0 1 0 1 0 
1 0 1 0 1 0 1 0 1 0 1 0 1 0 1 0 
1 0 1 0 1 0 1 0 1 0 1 0 1 0 1 0 
1 0 1 0 1 0 1 0 1 0 1 0 1 0 1 0 
1 0 1 0 1 0 1 0 1 0 1 0 1 0 1 0 
1 0 1 0 1 0 1 0 1 0 1 0 1 0 1 0 
1 0 1 0 1 0 1 0 1 0 1 0 1 0 1 0 
1 0 1 0 1 0 1 0 1 0 1 0 1 0 1 0 
1 0 1 0 1 0 1 0 1 0 1 0 1 0 1 0 
1 0 1 0 1 0 1 0 1 0 1 0 1 0 1 0 
1 0 1 0 1 0 1 0 1 0 1 0 1 0 1 0 
1 0 1 0 1 0 1 0 1 0 1 0 1 0 1 0 
1 0 1 0 1 0 3682 2929 100 MP stroke
1 0 1 0 1 0 1 0 1 0 1 0 1 0 1 0 
1 0 1 0 1 0 1 0 1 0 1 0 1 0 1 0 
1 0 1 0 1 0 1 0 1 0 1 0 1 0 1 0 
1 0 1 0 1 0 1 0 1 0 1 0 1 0 1 0 
1 0 1 0 1 0 1 0 1 0 1 0 1 0 1 0 
1 0 1 0 1 0 1 0 1 0 1 0 1 0 1 0 
1 0 1 0 1 0 1 0 1 0 1 0 1 0 1 0 
1 0 1 0 1 0 1 0 1 0 1 0 1 0 1 0 
1 0 1 0 1 0 1 0 1 0 1 0 1 0 1 0 
1 0 1 0 1 0 1 0 1 0 1 0 1 0 1 0 
1 0 1 0 1 0 1 0 1 0 1 0 1 0 1 0 
1 0 1 0 1 0 1 0 1 0 1 0 1 0 1 0 
1 0 1 0 1 0 3583 2929 100 MP stroke
1 0 1 0 1 0 1 0 1 0 1 0 1 0 1 0 
1 0 1 0 1 0 1 0 1 0 1 0 1 0 1 0 
1 0 1 0 1 0 1 0 1 0 1 0 1 0 1 0 
1 0 1 0 1 0 1 0 1 0 1 0 1 0 1 0 
1 0 1 0 1 0 1 0 1 0 1 0 1 0 1 0 
1 0 1 0 1 0 1 0 1 0 1 0 1 0 1 0 
1 0 1 0 1 0 1 0 1 0 1 0 1 0 1 0 
1 0 1 0 1 0 1 0 1 0 1 0 1 0 1 0 
1 0 1 0 1 0 1 0 1 0 1 0 1 0 1 0 
1 0 1 0 1 0 1 0 1 0 1 0 1 0 1 0 
1 0 1 0 1 0 1 0 1 0 1 0 1 0 1 0 
1 0 1 0 1 0 1 0 1 0 1 0 1 0 1 0 
1 0 1 0 1 0 3484 2929 100 MP stroke
1 0 1 0 1 0 1 0 1 0 1 0 1 0 1 0 
1 0 1 0 1 0 1 0 1 0 1 0 1 0 1 0 
1 0 1 0 1 0 1 0 1 0 1 0 1 0 1 0 
1 0 1 0 1 0 1 0 1 0 1 0 1 0 1 0 
1 0 1 0 1 0 1 0 1 0 1 0 1 0 1 0 
1 0 1 0 1 0 1 0 1 0 1 0 1 0 1 0 
1 0 1 0 1 0 1 0 1 0 1 0 1 0 1 0 
1 0 1 0 1 0 1 0 1 0 1 0 1 0 1 0 
1 0 1 0 1 0 1 0 1 0 1 0 1 0 1 0 
1 0 1 0 1 0 1 0 1 0 1 0 1 0 1 0 
1 0 1 0 1 0 1 0 1 0 1 0 1 0 1 0 
1 0 1 0 1 0 1 0 1 0 1 0 1 0 1 0 
1 0 1 0 1 0 3385 2929 100 MP stroke
1 0 1 0 1 0 1 0 1 0 1 0 1 0 1 0 
1 0 1 0 1 0 1 0 1 0 1 0 1 0 1 0 
1 0 1 0 1 0 1 0 1 0 1 0 1 0 1 0 
1 0 1 0 1 0 1 0 1 0 1 0 1 0 1 0 
1 0 1 0 1 0 1 0 1 0 1 0 1 0 1 0 
1 0 1 0 1 0 1 0 1 0 1 0 1 0 1 0 
1 0 1 0 1 0 1 0 1 0 1 0 1 0 1 0 
1 0 1 0 1 0 1 0 1 0 1 0 1 0 1 0 
1 0 1 0 1 0 1 0 1 0 1 0 1 0 1 0 
1 0 1 0 1 0 1 0 1 0 1 0 1 0 1 0 
1 0 1 0 1 0 1 0 1 0 1 0 1 0 1 0 
1 0 1 0 1 0 1 0 1 0 1 0 1 0 1 0 
1 0 1 0 1 0 3286 2929 100 MP stroke
1 0 1 0 1 0 1 0 1 0 1 0 1 0 1 0 
1 0 1 0 1 0 1 0 1 0 1 0 1 0 1 0 
1 0 1 0 1 0 1 0 1 0 1 0 1 0 1 0 
1 0 1 0 1 0 1 0 1 0 1 0 1 0 1 0 
1 0 1 0 1 0 1 0 1 0 1 0 1 0 1 0 
1 0 1 0 1 0 1 0 1 0 1 0 1 0 1 0 
1 0 1 0 1 0 1 0 1 0 1 0 1 0 1 0 
1 0 1 0 1 0 1 0 1 0 1 0 1 0 1 0 
1 0 1 0 1 0 1 0 1 0 1 0 1 0 1 0 
1 0 1 0 1 0 1 0 1 0 1 0 1 0 1 0 
1 0 1 0 1 0 1 0 1 0 1 0 1 0 1 0 
1 0 1 0 1 0 1 0 1 0 1 0 1 0 1 0 
1 0 1 0 1 0 3187 2929 100 MP stroke
1 0 1 0 1 0 1 0 1 0 1 0 1 0 1 0 
1 0 1 0 1 0 1 0 1 0 1 0 1 0 1 0 
1 0 1 0 1 0 1 0 1 0 1 0 1 0 1 0 
1 0 1 0 1 0 1 0 1 0 1 0 1 0 1 0 
1 0 1 0 1 0 1 0 1 0 1 0 1 0 1 0 
1 0 1 0 1 0 1 0 1 0 1 0 1 0 1 0 
1 0 1 0 1 0 1 0 1 0 1 0 1 0 1 0 
1 0 1 0 1 0 1 0 1 0 1 0 1 0 1 0 
1 0 1 0 1 0 1 0 1 0 1 0 1 0 1 0 
1 0 1 0 1 0 1 0 1 0 1 0 1 0 1 0 
1 0 1 0 1 0 1 0 1 0 1 0 1 0 1 0 
1 0 1 0 1 0 1 0 1 0 1 0 1 0 1 0 
1 0 1 0 1 0 3088 2929 100 MP stroke
1 0 1 0 1 0 1 0 1 0 1 0 1 0 1 0 
1 0 1 0 1 0 1 0 1 0 1 0 1 0 1 0 
1 0 1 0 1 0 1 0 1 0 1 0 1 0 1 0 
1 0 1 0 1 0 1 0 1 0 1 0 1 0 1 0 
1 0 1 0 1 0 1 0 1 0 1 0 1 0 1 0 
1 0 1 0 1 0 1 0 1 0 1 0 1 0 1 0 
1 0 1 0 1 0 1 0 1 0 1 0 1 0 1 0 
1 0 1 0 1 0 1 0 1 0 1 0 1 0 1 0 
1 0 1 0 1 0 1 0 1 0 1 0 1 0 1 0 
1 0 1 0 1 0 1 0 1 0 1 0 1 0 1 0 
1 0 1 0 1 0 1 0 1 0 1 0 1 0 1 0 
1 0 1 0 1 0 1 0 1 0 1 0 1 0 1 0 
1 0 1 0 1 0 2989 2929 100 MP stroke
1 0 1 0 1 0 1 0 1 0 1 0 1 0 1 0 
1 0 1 0 1 0 1 0 1 0 1 0 1 0 1 0 
1 0 1 0 1 0 1 0 1 0 1 0 1 0 1 0 
1 0 1 0 1 0 1 0 1 0 1 0 1 0 1 0 
1 0 1 0 1 0 1 0 1 0 1 0 1 0 1 0 
1 0 1 0 1 0 1 0 1 0 1 0 1 0 1 0 
1 0 1 0 1 0 1 0 1 0 1 0 1 0 1 0 
1 0 1 0 1 0 1 0 1 0 1 0 1 0 1 0 
1 0 1 0 1 0 1 0 1 0 1 0 1 0 1 0 
1 0 1 0 1 0 1 0 1 0 1 0 1 0 1 0 
1 0 1 0 1 0 1 0 1 0 1 0 1 0 1 0 
1 0 1 0 1 0 1 0 1 0 1 0 1 0 1 0 
1 0 1 0 1 0 2890 2929 100 MP stroke
1 0 1 0 1 0 1 0 1 0 1 0 1 0 1 0 
1 0 1 0 1 0 1 0 1 0 1 0 1 0 1 0 
1 0 1 0 1 0 1 0 1 0 1 0 1 0 1 0 
1 0 1 0 1 0 1 0 1 0 1 0 1 0 1 0 
1 0 1 0 1 0 1 0 1 0 1 0 1 0 1 0 
1 0 1 0 1 0 1 0 1 0 1 0 1 0 1 0 
1 0 1 0 1 0 1 0 1 0 1 0 1 0 1 0 
1 0 1 0 1 0 1 0 1 0 1 0 1 0 1 0 
1 0 1 0 1 0 1 0 1 0 1 0 1 0 1 0 
1 0 1 0 1 0 1 0 1 0 1 0 1 0 1 0 
1 0 1 0 1 0 1 0 1 0 1 0 1 0 1 0 
1 0 1 0 1 0 1 0 1 0 1 0 1 0 1 0 
1 0 1 0 1 0 2791 2929 100 MP stroke
1 0 1 0 1 0 1 0 1 0 1 0 1 0 1 0 
1 0 1 0 1 0 1 0 1 0 1 0 1 0 1 0 
1 0 1 0 1 0 1 0 1 0 1 0 1 0 1 0 
1 0 1 0 1 0 1 0 1 0 1 0 1 0 1 0 
1 0 1 0 1 0 1 0 1 0 1 0 1 0 1 0 
1 0 1 0 1 0 1 0 1 0 1 0 1 0 1 0 
1 0 1 0 1 0 1 0 1 0 1 0 1 0 1 0 
1 0 1 0 1 0 1 0 1 0 1 0 1 0 1 0 
1 0 1 0 1 0 1 0 1 0 1 0 1 0 1 0 
1 0 1 0 1 0 1 0 1 0 1 0 1 0 1 0 
1 0 1 0 1 0 1 0 1 0 1 0 1 0 1 0 
1 0 1 0 1 0 1 0 1 0 1 0 1 0 1 0 
1 0 1 0 1 0 2692 2929 100 MP stroke
1 0 1 0 1 0 1 0 1 0 1 0 1 0 1 0 
1 0 1 0 1 0 1 0 1 0 1 0 1 0 1 0 
1 0 1 0 1 0 1 0 1 0 1 0 1 0 1 0 
1 0 1 0 1 0 1 0 1 0 1 0 1 0 1 0 
1 0 1 0 1 0 1 0 1 0 1 0 1 0 1 0 
1 0 1 0 1 0 1 0 1 0 1 0 1 0 1 0 
1 0 1 0 1 0 1 0 1 0 1 0 1 0 1 0 
1 0 1 -1 1 1 1 0 1 0 1 0 1 0 1 0 
1 0 1 0 1 0 1 -1 1 0 1 0 1 0 1 0 
1 0 1 0 1 1 1 0 1 0 1 -1 1 0 1 0 
1 0 1 0 1 0 1 0 1 0 1 0 1 0 1 0 
1 0 1 0 1 0 1 0 1 0 1 0 1 0 1 0 
1 0 1 0 1 0 2593 2930 100 MP stroke
1 0 1 0 1 0 1 0 1 0 1 0 1 0 1 0 
1 0 1 0 1 0 1 0 1 0 1 0 1 0 1 0 
1 0 1 0 1 0 1 0 1 0 1 0 1 0 1 0 
1 0 1 0 1 0 1 0 1 0 1 0 1 0 1 0 
1 0 1 0 1 0 1 0 1 0 1 0 1 0 1 0 
1 0 1 0 1 0 1 0 1 0 1 0 1 0 1 0 
1 0 1 0 1 0 1 0 1 0 1 0 1 0 1 0 
1 0 1 0 1 0 1 0 1 0 1 0 1 0 1 0 
1 0 1 0 1 0 1 0 1 0 1 0 1 0 1 0 
1 0 1 0 1 0 1 0 1 0 1 0 1 0 1 0 
1 0 1 0 1 0 1 0 1 0 1 0 1 0 1 0 
1 0 1 0 1 0 1 0 1 0 1 0 1 0 1 0 
1 0 1 0 1 0 2494 2930 100 MP stroke
1 0 1 0 1 0 1 0 1 0 1 0 1 0 1 0 
1 0 1 0 1 0 1 0 1 0 1 0 1 0 1 0 
1 0 1 0 1 0 1 0 1 0 1 0 1 0 1 0 
1 0 1 0 1 0 1 0 1 0 1 0 1 0 1 0 
1 0 1 0 1 0 1 0 1 0 1 0 1 0 1 0 
1 0 1 0 1 0 1 0 1 0 1 0 1 0 1 0 
1 0 1 0 1 0 1 0 1 0 1 0 1 0 1 0 
1 0 1 0 1 0 1 0 1 0 1 0 1 0 1 0 
1 0 1 0 1 0 1 0 1 0 1 0 1 0 1 0 
1 0 1 0 1 0 1 0 1 0 1 0 1 0 1 0 
1 0 1 0 1 0 1 0 1 0 1 0 1 0 1 0 
1 0 1 0 1 0 1 0 1 0 1 0 1 0 1 0 
1 0 1 0 1 0 2395 2930 100 MP stroke
1 0 1 0 1 0 1 0 1 0 1 0 1 0 1 0 
1 0 1 0 1 0 1 0 1 0 1 0 1 0 1 0 
1 0 1 0 1 0 1 0 1 0 1 0 1 0 1 0 
1 0 1 0 1 0 1 0 1 0 1 0 1 0 1 0 
1 0 1 0 1 0 1 0 1 0 1 0 1 0 1 0 
1 0 1 0 1 0 1 0 1 0 1 0 1 0 1 0 
1 0 1 0 1 0 1 0 1 0 1 0 1 0 1 0 
1 0 1 0 1 0 1 0 1 0 1 0 1 0 1 0 
1 0 1 0 1 0 1 0 1 0 1 0 1 0 1 0 
1 0 1 0 1 0 1 0 1 0 1 0 1 0 1 0 
1 0 1 0 1 0 1 0 1 0 1 0 1 0 1 0 
1 0 1 0 1 0 1 0 1 0 1 0 1 0 1 0 
1 0 1 0 1 0 2296 2930 100 MP stroke
1 0 1 0 1 0 1 0 1 0 1 0 1 0 1 0 
1 0 1 0 1 0 1 0 1 0 1 0 1 0 1 0 
1 0 1 0 1 0 1 0 1 0 1 0 1 0 1 0 
1 0 1 0 1 0 1 0 1 0 1 0 1 0 1 0 
1 0 1 0 1 0 1 0 1 0 1 0 1 0 1 0 
1 0 1 0 1 0 1 0 1 0 1 0 1 0 1 0 
1 0 1 0 1 0 1 0 1 0 1 0 1 0 1 0 
1 0 1 0 1 0 1 0 1 0 1 0 1 0 1 0 
1 0 1 0 1 0 1 0 1 0 1 0 1 0 1 0 
1 0 1 0 1 0 1 0 1 0 1 0 1 0 1 0 
1 0 1 0 1 0 1 0 1 0 1 0 1 0 1 0 
1 0 1 0 1 0 1 0 1 0 1 0 1 0 1 0 
1 0 1 0 1 0 2197 2930 100 MP stroke
1 0 1 0 1 0 1 0 1 0 1 0 1 0 1 0 
1 0 1 0 1 0 1 0 1 0 1 0 1 0 1 0 
1 0 1 0 1 0 1 0 1 0 1 0 1 0 1 0 
1 0 1 0 1 0 1 0 1 0 1 0 1 0 1 0 
1 0 1 0 1 0 1 0 1 0 1 0 1 0 1 0 
1 0 1 0 1 0 1 0 1 0 1 0 1 0 1 0 
1 0 1 0 1 0 1 0 1 0 1 0 1 0 1 0 
1 0 1 0 1 0 1 0 1 0 1 0 1 0 1 0 
1 0 1 0 1 0 1 0 1 0 1 0 1 0 1 0 
1 0 1 0 1 0 1 0 1 0 1 0 1 0 1 0 
1 0 1 0 1 0 1 0 1 0 1 0 1 0 1 0 
1 0 1 0 1 0 1 0 1 0 1 0 1 0 1 0 
1 0 1 0 1 0 2098 2930 100 MP stroke
1 0 1 0 1 0 1 0 1 0 1 0 1 0 1 0 
1 0 1 0 1 0 1 0 1 0 1 0 1 0 1 0 
1 0 1 0 1 0 1 0 1 0 1 0 1 0 1 0 
1 0 1 0 1 0 1 0 1 0 1 0 1 0 1 0 
1 0 1 0 1 0 1 0 1 0 1 0 1 0 1 0 
1 0 1 0 1 0 1 0 1 0 1 0 1 0 1 0 
1 0 1 0 1 0 1 0 1 0 1 0 1 0 1 0 
1 0 1 0 1 0 1 0 1 0 1 0 1 0 1 0 
1 0 1 0 1 0 1 0 1 0 1 0 1 0 1 0 
1 0 1 0 1 0 1 0 1 0 1 0 1 0 1 0 
1 0 1 0 1 0 1 0 1 0 1 0 1 0 1 0 
1 0 1 0 1 0 1 0 1 0 1 0 1 0 1 0 
1 0 1 0 1 0 1999 2930 100 MP stroke
1 0 1 0 1 0 1 0 1 0 1 0 1 0 1 0 
1 0 1 0 1 0 1 0 1 0 1 0 1 0 1 0 
1 0 1 0 1 0 1 0 1 0 1 0 1 0 1 0 
1 0 1 0 1 0 1 0 1 0 1 0 1 0 1 0 
1 0 1 0 1 0 1 0 1 0 1 0 1 0 1 0 
1 0 1 0 1 0 1 0 1 0 1 0 1 0 1 0 
1 0 1 0 1 0 1 0 1 0 1 0 1 0 1 0 
1 0 1 0 1 0 1 0 1 0 1 0 1 0 1 0 
1 0 1 0 1 0 1 0 1 0 1 0 1 0 1 0 
1 0 1 0 1 0 1 0 1 0 1 0 1 0 1 0 
1 0 1 0 1 0 1 0 1 0 1 0 1 0 1 0 
1 0 1 0 1 0 1 0 1 0 1 0 1 0 1 0 
1 0 1 0 1 0 1900 2930 100 MP stroke
1 0 1 0 1 0 1 0 1 0 1 0 1 0 1 0 
1 0 1 0 1 0 1 0 1 0 1 0 1 0 1 0 
1 0 1 0 1 0 1 0 1 0 1 0 1 0 1 0 
1 0 1 0 1 0 1 0 1 0 1 0 1 0 1 0 
1 0 1 0 1 0 1 0 1 0 1 0 1 0 1 0 
1 0 1 0 1 0 1 0 1 0 1 0 1 0 1 0 
1 0 1 0 1 0 1 0 1 0 1 0 1 0 1 0 
1 0 1 0 1 0 1 0 1 0 1 0 1 0 1 0 
1 0 1 0 1 0 1 0 1 0 1 0 1 0 1 0 
1 0 1 0 1 0 1 0 1 0 1 0 1 0 1 0 
1 0 1 0 1 0 1 0 1 0 1 0 1 0 1 0 
1 0 1 0 1 0 1 0 1 0 1 0 1 0 1 0 
1 0 1 0 1 0 1801 2930 100 MP stroke
1 0 1 0 1 0 1 0 1 0 1 0 1 0 1 0 
1 0 1 0 1 0 1 0 1 0 1 0 1 0 1 0 
1 0 1 0 1 0 1 0 1 0 1 0 1 0 1 0 
1 0 1 0 1 0 1 0 1 0 1 0 1 0 1 0 
1 0 1 0 1 0 1 0 1 0 1 0 1 0 1 0 
1 0 1 0 1 0 1 0 1 0 1 0 1 0 1 0 
1 0 1 0 1 0 1 0 1 0 1 0 1 0 1 0 
1 0 1 0 1 0 1 0 1 0 1 0 1 0 1 0 
1 0 1 0 1 0 1 0 1 0 1 0 1 0 1 0 
1 0 1 0 1 0 1 0 1 0 1 0 1 0 1 0 
1 0 1 0 1 0 1 0 1 0 1 0 1 0 1 0 
1 0 1 0 1 0 1 0 1 0 1 0 1 0 1 0 
1 0 1 0 1 0 1702 2930 100 MP stroke
1 0 1 0 1 0 1 0 1 0 1 0 1 0 1 0 
1 0 1 0 1 0 1 0 1 0 1 0 1 0 1 0 
1 0 1 0 1 0 1 0 1 0 1 0 1 0 1 0 
1 0 1 0 1 0 1 0 1 0 1 0 1 0 1 0 
1 0 1 0 1 0 1 0 1 0 1 0 1 0 1 0 
1 0 1 0 1 0 1 0 1 0 1 0 1 0 1 0 
1 0 1 0 1 0 1 0 1 0 1 0 1 0 1 0 
1 0 1 0 1 0 1 0 1 0 1 0 1 0 1 0 
1 0 1 0 1 0 1 0 1 0 1 0 1 0 1 0 
1 0 1 0 1 0 1 0 1 0 1 0 1 0 1 0 
1 0 1 0 1 0 1 0 1 0 1 0 1 0 1 0 
1 0 1 0 1 0 1 0 1 0 1 0 1 0 1 0 
1 0 1 0 1 0 1603 2930 100 MP stroke
1 0 1 0 1 0 1 0 1 0 1 0 1 0 1 0 
1 0 1 0 1 0 1 0 1 0 1 0 1 0 1 0 
1 0 1 0 1 0 1 0 1 0 1 0 1 0 1 0 
1 0 1 0 1 0 1 0 1 0 1 0 1 0 1 0 
1 0 1 0 1 0 1 0 1 0 1 0 1 0 1 0 
1 0 1 0 1 0 1 0 1 0 1 0 1 0 1 0 
1 0 1 0 1 0 1 0 1 0 1 0 1 0 1 0 
1 0 1 0 1 0 1 0 1 0 1 0 1 0 1 0 
1 0 1 0 1 0 1 0 1 0 1 0 1 0 1 0 
1 0 1 0 1 0 1 0 1 0 1 0 1 0 1 0 
1 0 1 0 1 0 1 0 1 0 1 0 1 0 1 0 
1 0 1 0 1 0 1 0 1 0 1 0 1 0 1 0 
1 0 1 0 1 0 1504 2930 100 MP stroke
1 0 1 0 1 0 1 0 1 0 1 0 1 0 1 0 
1 0 1 0 1 0 1 0 1 0 1 0 1 0 1 0 
1 0 1 0 1 0 1 0 1 0 1 0 1 0 1 0 
1 0 1 0 1 0 1 0 1 0 1 0 1 0 1 0 
1 0 1 0 1 0 1 0 1 0 1 0 1 0 1 0 
1 0 1 0 1 0 1 0 1 0 1 0 1 0 1 0 
1 0 1 0 1 0 1 0 1 0 1 0 1 0 1 0 
1 0 1 0 1 0 1 0 1 0 1 0 1 0 1 0 
1 0 1 0 1 0 1 0 1 0 1 0 1 0 1 1 
1 0 1 0 1 0 1 0 1 0 1 0 1 0 1 0 
1 0 1 0 1 0 1 0 1 0 1 0 1 0 1 0 
1 0 1 0 1 0 1 0 1 0 1 0 1 0 1 0 
1 0 1 0 1 0 1405 2929 100 MP stroke
1 0 1 0 1 0 1 0 1 0 1 0 1 0 1 0 
1 0 1 0 1 0 1 0 1 0 1 0 1 0 1 0 
1 0 1 0 1 0 1 1 1 0 1 0 1 0 1 0 
1 0 1 0 1 0 1 0 1 0 1 0 1 0 1 0 
1 0 1 0 1 0 1 0 1 0 1 0 1 0 1 0 
1 0 1 0 1 0 1 0 1 0 1 0 1 0 1 0 
1 0 1 0 1 0 1 0 1 0 1 1 1 0 1 0 
1 0 1 0 1 0 1 0 1 0 1 0 1 0 1 0 
1 0 1 0 1 0 1 0 1 0 1 0 1 0 -1 0 
2 0 1 0 1 0 1 0 1 0 1 0 1 0 1 0 
1 1 1 0 1 0 1 0 1 0 1 0 1 0 1 0 
1 0 1 0 1 0 1 0 1 0 1 0 1 0 1 0 
1 0 1 1 1 0 1307 2925 100 MP stroke
1 -1 1 0 1 0 1 0 1 0 1 0 1 0 1 1 
1 0 1 0 1 0 1 0 1 0 1 -1 1 0 1 1 
1 0 1 0 1 0 1 0 1 0 1 0 1 0 1 -1 
1 1 1 0 1 0 1 0 1 0 1 0 1 0 1 0 
1 -1 1 1 1 0 1 0 1 0 1 0 1 0 1 0 
1 -1 1 1 1 0 1 0 1 0 1 0 1 0 1 -1 
1 0 1 0 1 1 1 0 1 0 1 -1 1 0 1 0 
1 0 1 0 1 0 1 0 1 0 1 0 1 0 1 0 
1 -1 1 0 1 0 1 0 1 0 1 0 1 0 1 0 
1 -1 1 0 1 0 1 0 1 0 1 0 1 -1 1 0 
1 0 1 0 1 0 1 0 1 -1 1 0 1 -1 1 0 
1 0 1 0 1 0 1 0 1 -2 1 0 1 0 1 0 
1 0 1 0 1 -1 1208 2934 100 MP stroke
1 0 1 0 0 -2 1 0 1 0 1 0 1 0 1 -1 
1 0 1 0 1 0 1 0 0 -3 1 0 1 0 1 0 
1 0 1 -1 1 0 1 0 1 0 0 -4 1 0 1 0 
1 0 1 0 1 0 1 0 1 0 1 0 0 -7 1 0 
1 1 1 0 1 0 1 0 1 0 1 0 1 0 1 -8 
1 0 1 0 1 1 1 0 1 0 1 0 1 0 -1 0 
2 -10 1 0 1 1 1 0 1 1 1 0 1 0 1 1 
1 0 0 -13 1 0 1 1 1 0 1 1 1 0 1 1 
1 0 1 1 0 -16 1 0 1 1 1 1 1 1 1 0 
1 1 1 1 1 1 0 -20 1 1 1 0 0 1 2 2 
1 1 1 1 1 0 -1 0 2 2 1 -23 0 1 2 2 
1 1 1 1 0 1 2 2 1 1 1 1 0 -28 0 1 
2 2 0 2 2 2 1119 3030 100 MP stroke
0 1 2 2 0 2 2 2 0 -33 0 1 1 1 1 1 
0 2 1 1 0 1 1 1 0 1 1 1 0 2 1 1 
1 1 0 2 1 1 0 -38 1 1 0 2 1 1 0 2 
1 1 0 1 1 1 0 2 1 1 0 2 1 1 0 2 
1 1 0 2 1 1 0 1 1 -45 0 3 1 1 0 2 
1 2 0 2 1 1 0 3 1 1 0 1 1 1 0 3 
1 1 0 2 1 2 0 2 1 -50 0 3 1 1 0 1 
1 2 0 3 1 1 0 3 1 2 0 3 1 1 0 3 
1 2 0 1 1 1 0 3 1 2 0 -57 0 2 1 2 
0 3 1 2 0 3 1 2 0 2 1 2 0 3 1 2 
0 3 1 2 0 4 1 1 0 4 1 2 0 -63 1 2 
0 4 1 2 0 4 1 2 0 4 1 2 0 4 1 2 
0 2 1 3 0 4 1068 3137 100 MP stroke
1 2 0 4 1 2 0 2 0 -69 1 2 0 5 1 3 
0 2 1 2 0 5 1 3 0 4 1 3 0 5 1 2 
0 5 1 2 0 3 1 2 0 5 1 -75 0 6 1 3 
0 5 1 3 0 6 1 2 0 3 1 3 0 5 1 3 
0 6 1 3 0 5 1 3 0 6 1 -80 0 3 1 4 
0 6 1 3 0 7 1 3 0 6 1 3 0 7 1 3 
0 3 1 3 0 7 1 3 0 6 1 3 0 -82 0 3 
1 4 0 7 1 4 0 3 1 4 0 7 1 4 0 7 
1 4 0 7 1 4 0 7 1 3 0 4 1 4 0 3 
0 -84 1 4 0 8 1 4 0 9 1 4 0 8 1 4 
0 4 1 4 0 8 1 4 0 8 1 4 0 8 1 4 
0 4 0 -82 1 4 0 5 1 4 0 9 1 5 0 8 
1 5 0 9 1 4 1020 3193 100 MP stroke
0 9 1 5 0 4 1 4 0 9 1 5 0 9 1 -77 
0 9 1 5 0 10 1 5 0 5 1 4 0 10 1 5 
0 10 1 4 0 10 1 5 0 10 1 4 0 5 1 5 
0 -67 0 6 1 5 0 10 1 5 0 11 1 5 0 10 
1 5 0 5 1 6 0 10 1 5 0 10 1 6 0 10 
1 5 0 -51 0 6 1 5 0 6 1 5 0 11 1 5 
0 11 1 6 0 10 1 6 0 11 1 5 0 6 1 5 
0 11 1 5 0 6 0 -27 1 5 0 11 1 6 0 11 
1 5 0 6 1 6 0 11 1 5 0 11 1 6 0 11 
1 6 0 11 1 5 0 6 1 5 0 11 1 6 0 11 
1 6 0 11 1 5 0 11 1 6 0 5 1 6 0 11 
1 5 0 12 1 5 0 11 1 51 0 10 1 5 0 6 
1 5 0 11 1 5 972 2688 100 MP stroke
0 10 1 6 0 10 1 6 0 10 1 5 0 6 1 5 
0 11 1 5 0 116 1 5 0 9 1 5 0 10 1 4 
0 5 1 5 0 9 1 5 0 10 1 4 0 10 1 5 
0 9 1 5 0 196 1 4 0 8 1 4 0 7 1 4 
0 8 1 4 0 7 1 4 0 4 1 4 0 7 1 4 
0 8 1 4 0 324 1 2 0 5 1 2 0 2 1 3 
0 4 1 3 0 4 1 3 0 4 1 3 0 4 1 3 
0 2 1 2 0 5 1 516 1 0 1 0 1 0 1 0 
1 0 1 0 1 0 1 0 1 0 1 0 1 -1 1 0 
1 0 1 0 1 0 1 0 1 0 1 0 1 0 1 0 
1 -1 1 0 1 0 1 0 1 0 1 0 1 0 1 0 
1 0 1 0 1 0 1 -1 1 0 1 0 1 0 1 0 
1 0 1 0 1 0 903 1233 100 MP stroke
1 0 1 0 1 -1 1 0 899 1234 5 MP stroke
gr

c10
0 sg
3363 4903 mt 
(Time [s]) s
 546 2957 mt  -90 rotate
(Position error [m]) s
90 rotate
2762  294 mt 
(Error estimation of the position) s
 870 4670 mt 
( ) s
6227  443 mt 
( ) s
1 sg
0 520 591 0 0 -520 5340 1146 4 MP
PP
-591 0 0 520 591 0 0 -520 5340 1146 5 MP stroke
4 w
DO
SO
6 w
0 sg
5340 1146 mt 5931 1146 L
5340  626 mt 5931  626 L
5340 1146 mt 5340  626 L
5931 1146 mt 5931  626 L
5340 1146 mt 5931 1146 L
5340 1146 mt 5340  626 L
5340 1146 mt 5931 1146 L
5340  626 mt 5931  626 L
5340 1146 mt 5340  626 L
5931 1146 mt 5931  626 L
5809  769 mt 
(x) s
gs 5340 626 592 521 MR c np
c8
360 0 5412 726 2 MP stroke
gr

c8
0 sg
5809  929 mt 
(y) s
gs 5340 626 592 521 MR c np
c9
360 0 5412 886 2 MP stroke
gr

c9
0 sg
5809 1088 mt 
(z) s
gs 5340 626 592 521 MR c np
c10
360 0 5412 1045 2 MP stroke
gr

c10

end %%Color Dict

eplot
%%EndObject

epage
end

showpage

%%Trailer
%%EOF
