%!PS-Adobe-2.0 EPSF-1.2
%%Creator: MATLAB, The Mathworks, Inc. Version 7.9.0.529 (R2009b). Operating System: Darwin 10.8.0 Darwin Kernel Version 10.8.0: Tue Jun  7 16:33:36 PDT 2011; root:xnu-1504.15.3~1/RELEASE_I386 i386.
%%Title: ./vD_trajectoria_x_zoom.eps
%%CreationDate: 09/20/2011  00:23:10
%%DocumentNeededFonts: Helvetica
%%DocumentProcessColors: Cyan Magenta Yellow Black
%%Extensions: CMYK
%%Pages: 1
%%BoundingBox:    52   199   551   602
%%EndComments

%%BeginProlog
% MathWorks dictionary
/MathWorks 160 dict begin
% definition operators
/bdef {bind def} bind def
/ldef {load def} bind def
/xdef {exch def} bdef
/xstore {exch store} bdef
% operator abbreviations
/c  /clip ldef
/cc /concat ldef
/cp /closepath ldef
/gr /grestore ldef
/gs /gsave ldef
/mt /moveto ldef
/np /newpath ldef
/cm /currentmatrix ldef
/sm /setmatrix ldef
/rm /rmoveto ldef
/rl /rlineto ldef
/s {show newpath} bdef
/sc {setcmykcolor} bdef
/sr /setrgbcolor ldef
/sg /setgray ldef
/w /setlinewidth ldef
/j /setlinejoin ldef
/cap /setlinecap ldef
/rc {rectclip} bdef
/rf {rectfill} bdef
% page state control
/pgsv () def
/bpage {/pgsv save def} bdef
/epage {pgsv restore} bdef
/bplot /gsave ldef
/eplot {stroke grestore} bdef
% orientation switch
/portraitMode 0 def /landscapeMode 1 def /rotateMode 2 def
% coordinate system mappings
/dpi2point 0 def
% font control
/FontSize 0 def
/FMS {/FontSize xstore findfont [FontSize 0 0 FontSize neg 0 0]
  makefont setfont} bdef
/reencode {exch dup where {pop load} {pop StandardEncoding} ifelse
  exch dup 3 1 roll findfont dup length dict begin
  { 1 index /FID ne {def}{pop pop} ifelse } forall
  /Encoding exch def currentdict end definefont pop} bdef
/isroman {findfont /CharStrings get /Agrave known} bdef
/FMSR {3 1 roll 1 index dup isroman {reencode} {pop pop} ifelse
  exch FMS} bdef
/csm {1 dpi2point div -1 dpi2point div scale neg translate
 dup landscapeMode eq {pop -90 rotate}
  {rotateMode eq {90 rotate} if} ifelse} bdef
% line types: solid, dotted, dashed, dotdash
/SO { [] 0 setdash } bdef
/DO { [.5 dpi2point mul 4 dpi2point mul] 0 setdash } bdef
/DA { [6 dpi2point mul] 0 setdash } bdef
/DD { [.5 dpi2point mul 4 dpi2point mul 6 dpi2point mul 4
  dpi2point mul] 0 setdash } bdef
% macros for lines and objects
/L {lineto stroke} bdef
/MP {3 1 roll moveto 1 sub {rlineto} repeat} bdef
/AP {{rlineto} repeat} bdef
/PDlw -1 def
/W {/PDlw currentlinewidth def setlinewidth} def
/PP {closepath eofill} bdef
/DP {closepath stroke} bdef
/MR {4 -2 roll moveto dup  0 exch rlineto exch 0 rlineto
  neg 0 exch rlineto closepath} bdef
/FR {MR stroke} bdef
/PR {MR fill} bdef
/L1i {{currentfile picstr readhexstring pop} image} bdef
/tMatrix matrix def
/MakeOval {newpath tMatrix currentmatrix pop translate scale
0 0 1 0 360 arc tMatrix setmatrix} bdef
/FO {MakeOval stroke} bdef
/PO {MakeOval fill} bdef
/PD {currentlinewidth 2 div 0 360 arc fill
   PDlw -1 eq not {PDlw w /PDlw -1 def} if} def
/FA {newpath tMatrix currentmatrix pop translate scale
  0 0 1 5 -2 roll arc tMatrix setmatrix stroke} bdef
/PA {newpath tMatrix currentmatrix pop	translate 0 0 moveto scale
  0 0 1 5 -2 roll arc closepath tMatrix setmatrix fill} bdef
/FAn {newpath tMatrix currentmatrix pop translate scale
  0 0 1 5 -2 roll arcn tMatrix setmatrix stroke} bdef
/PAn {newpath tMatrix currentmatrix pop translate 0 0 moveto scale
  0 0 1 5 -2 roll arcn closepath tMatrix setmatrix fill} bdef
/vradius 0 def /hradius 0 def /lry 0 def
/lrx 0 def /uly 0 def /ulx 0 def /rad 0 def
/MRR {/vradius xdef /hradius xdef /lry xdef /lrx xdef /uly xdef
  /ulx xdef newpath tMatrix currentmatrix pop ulx hradius add uly
  vradius add translate hradius vradius scale 0 0 1 180 270 arc 
  tMatrix setmatrix lrx hradius sub uly vradius add translate
  hradius vradius scale 0 0 1 270 360 arc tMatrix setmatrix
  lrx hradius sub lry vradius sub translate hradius vradius scale
  0 0 1 0 90 arc tMatrix setmatrix ulx hradius add lry vradius sub
  translate hradius vradius scale 0 0 1 90 180 arc tMatrix setmatrix
  closepath} bdef
/FRR {MRR stroke } bdef
/PRR {MRR fill } bdef
/MlrRR {/lry xdef /lrx xdef /uly xdef /ulx xdef /rad lry uly sub 2 div def
  newpath tMatrix currentmatrix pop ulx rad add uly rad add translate
  rad rad scale 0 0 1 90 270 arc tMatrix setmatrix lrx rad sub lry rad
  sub translate rad rad scale 0 0 1 270 90 arc tMatrix setmatrix
  closepath} bdef
/FlrRR {MlrRR stroke } bdef
/PlrRR {MlrRR fill } bdef
/MtbRR {/lry xdef /lrx xdef /uly xdef /ulx xdef /rad lrx ulx sub 2 div def
  newpath tMatrix currentmatrix pop ulx rad add uly rad add translate
  rad rad scale 0 0 1 180 360 arc tMatrix setmatrix lrx rad sub lry rad
  sub translate rad rad scale 0 0 1 0 180 arc tMatrix setmatrix
  closepath} bdef
/FtbRR {MtbRR stroke } bdef
/PtbRR {MtbRR fill } bdef
/stri 6 array def /dtri 6 array def
/smat 6 array def /dmat 6 array def
/tmat1 6 array def /tmat2 6 array def /dif 3 array def
/asub {/ind2 exch def /ind1 exch def dup dup
  ind1 get exch ind2 get sub exch } bdef
/tri_to_matrix {
  2 0 asub 3 1 asub 4 0 asub 5 1 asub
  dup 0 get exch 1 get 7 -1 roll astore } bdef
/compute_transform {
  dmat dtri tri_to_matrix tmat1 invertmatrix 
  smat stri tri_to_matrix tmat2 concatmatrix } bdef
/ds {stri astore pop} bdef
/dt {dtri astore pop} bdef
/db {2 copy /cols xdef /rows xdef mul dup 3 mul string
  currentfile exch readhexstring pop
  dup 0 3 index getinterval /rbmap xdef
  dup 2 index dup getinterval /gbmap xdef
  1 index dup 2 mul exch getinterval /bbmap xdef pop pop}bdef
/it {gs np dtri aload pop moveto lineto lineto cp c
  cols rows 8 compute_transform 
  rbmap gbmap bbmap true 3 colorimage gr}bdef
/il {newpath moveto lineto stroke}bdef
currentdict end def
%%EndProlog

%%BeginSetup
MathWorks begin

0 cap

end
%%EndSetup

%%Page: 1 1
%%BeginPageSetup
%%PageBoundingBox:    52   199   551   602
MathWorks begin
bpage
%%EndPageSetup

%%BeginObject: obj1
bplot

/dpi2point 12 def
portraitMode 0216 7344 csm

  413   110  5991  4845 MR c np
86 dict begin %Colortable dictionary
/c0 { 0.000000 0.000000 0.000000 sr} bdef
/c1 { 1.000000 1.000000 1.000000 sr} bdef
/c2 { 0.900000 0.000000 0.000000 sr} bdef
/c3 { 0.000000 0.820000 0.000000 sr} bdef
/c4 { 0.000000 0.000000 0.800000 sr} bdef
/c5 { 0.910000 0.820000 0.320000 sr} bdef
/c6 { 1.000000 0.260000 0.820000 sr} bdef
/c7 { 0.000000 0.820000 0.820000 sr} bdef
c0
1 j
1 sg
   0    0 6913 5186 PR
6 w
0 4226 5356 0 0 -4226 899 4615 4 MP
PP
-5356 0 0 4226 5356 0 0 -4226 899 4615 5 MP stroke
4 w
DO
0 sg
 899 4615 mt  899  389 L
 899  389 mt  899  389 L
1568 4615 mt 1568  389 L
1568  389 mt 1568  389 L
2238 4615 mt 2238  389 L
2238  389 mt 2238  389 L
2907 4615 mt 2907  389 L
2907  389 mt 2907  389 L
3577 4615 mt 3577  389 L
3577  389 mt 3577  389 L
4246 4615 mt 4246  389 L
4246  389 mt 4246  389 L
4916 4615 mt 4916  389 L
4916  389 mt 4916  389 L
5585 4615 mt 5585  389 L
5585  389 mt 5585  389 L
6255 4615 mt 6255  389 L
6255  389 mt 6255  389 L
 899 4615 mt 6255 4615 L
6255 4615 mt 6255 4615 L
 899 4011 mt 6255 4011 L
6255 4011 mt 6255 4011 L
 899 3407 mt 6255 3407 L
6255 3407 mt 6255 3407 L
 899 2803 mt 6255 2803 L
6255 2803 mt 6255 2803 L
 899 2200 mt 6255 2200 L
6255 2200 mt 6255 2200 L
 899 1596 mt 6255 1596 L
6255 1596 mt 6255 1596 L
 899  992 mt 6255  992 L
6255  992 mt 6255  992 L
 899  389 mt 6255  389 L
6255  389 mt 6255  389 L
SO
6 w
 899 4615 mt 6255 4615 L
 899  389 mt 6255  389 L
 899 4615 mt  899  389 L
6255 4615 mt 6255  389 L
 899 4615 mt 6255 4615 L
 899 4615 mt  899  389 L
 899 4615 mt  899 4561 L
 899  389 mt  899  442 L
%%IncludeResource: font Helvetica
/Helvetica /ISOLatin1Encoding 120 FMSR

 799 4760 mt 
(100) s
1568 4615 mt 1568 4561 L
1568  389 mt 1568  442 L
1418 4760 mt 
(100.5) s
2238 4615 mt 2238 4561 L
2238  389 mt 2238  442 L
2138 4760 mt 
(101) s
2907 4615 mt 2907 4561 L
2907  389 mt 2907  442 L
2757 4760 mt 
(101.5) s
3577 4615 mt 3577 4561 L
3577  389 mt 3577  442 L
3477 4760 mt 
(102) s
4246 4615 mt 4246 4561 L
4246  389 mt 4246  442 L
4096 4760 mt 
(102.5) s
4916 4615 mt 4916 4561 L
4916  389 mt 4916  442 L
4816 4760 mt 
(103) s
5585 4615 mt 5585 4561 L
5585  389 mt 5585  442 L
5435 4760 mt 
(103.5) s
6255 4615 mt 6255 4561 L
6255  389 mt 6255  442 L
6155 4760 mt 
(104) s
 899 4615 mt  952 4615 L
6255 4615 mt 6201 4615 L
 631 4659 mt 
(78.5) s
 899 4011 mt  952 4011 L
6255 4011 mt 6201 4011 L
 731 4055 mt 
(79) s
 899 3407 mt  952 3407 L
6255 3407 mt 6201 3407 L
 631 3451 mt 
(79.5) s
 899 2803 mt  952 2803 L
6255 2803 mt 6201 2803 L
 731 2847 mt 
(80) s
 899 2200 mt  952 2200 L
6255 2200 mt 6201 2200 L
 631 2244 mt 
(80.5) s
 899 1596 mt  952 1596 L
6255 1596 mt 6201 1596 L
 731 1640 mt 
(81) s
 899  992 mt  952  992 L
6255  992 mt 6201  992 L
 631 1036 mt 
(81.5) s
 899  389 mt  952  389 L
6255  389 mt 6201  389 L
 731  433 mt 
(82) s
 899 4615 mt 6255 4615 L
 899  389 mt 6255  389 L
 899 4615 mt  899  389 L
6255 4615 mt 6255  389 L
gs 899 389 5357 4227 MR c np
gr

gs 826 820 5504 3617 MR c np
/c8 { 0.000000 0.000000 1.000000 sr} bdef
c8
  36   36  912 4354 FO
  36   36  925 4345 FO
  36   36  939 4337 FO
  36   36  952 4328 FO
  36   36  965 4319 FO
  36   36  979 4310 FO
  36   36  992 4302 FO
  36   36 1006 4293 FO
  36   36 1019 4284 FO
  36   36 1032 4275 FO
  36   36 1046 4267 FO
  36   36 1059 4258 FO
  36   36 1073 4249 FO
  36   36 1086 4241 FO
  36   36 1099 4232 FO
  36   36 1113 4223 FO
  36   36 1126 4214 FO
  36   36 1140 4206 FO
  36   36 1153 4197 FO
  36   36 1166 4188 FO
  36   36 1180 4180 FO
  36   36 1193 4171 FO
  36   36 1206 4162 FO
  36   36 1220 4153 FO
  36   36 1233 4145 FO
  36   36 1247 4136 FO
  36   36 1260 4127 FO
  36   36 1273 4119 FO
  36   36 1287 4110 FO
  36   36 1300 4101 FO
  36   36 1314 4092 FO
  36   36 1327 4084 FO
  36   36 1340 4075 FO
  36   36 1354 4066 FO
  36   36 1367 4058 FO
  36   36 1381 4049 FO
  36   36 1394 4040 FO
  36   36 1407 4032 FO
  36   36 1421 4023 FO
  36   36 1434 4014 FO
  36   36 1447 4005 FO
  36   36 1461 3997 FO
  36   36 1474 3988 FO
  36   36 1488 3979 FO
  36   36 1501 3971 FO
  36   36 1514 3962 FO
  36   36 1528 3953 FO
  36   36 1541 3944 FO
  36   36 1555 3936 FO
  36   36 1568 3927 FO
  36   36 1581 3918 FO
  36   36 1595 3910 FO
  36   36 1608 3901 FO
  36   36 1622 3892 FO
  36   36 1635 3883 FO
  36   36 1648 3875 FO
  36   36 1662 3866 FO
  36   36 1675 3857 FO
  36   36 1689 3849 FO
  36   36 1702 3840 FO
  36   36 1715 3831 FO
  36   36 1729 3823 FO
  36   36 1742 3814 FO
  36   36 1755 3805 FO
  36   36 1769 3796 FO
  36   36 1782 3788 FO
  36   36 1796 3779 FO
  36   36 1809 3770 FO
  36   36 1822 3762 FO
  36   36 1836 3753 FO
  36   36 1849 3744 FO
  36   36 1863 3736 FO
  36   36 1876 3727 FO
  36   36 1889 3718 FO
  36   36 1903 3709 FO
  36   36 1916 3701 FO
  36   36 1930 3692 FO
  36   36 1943 3683 FO
  36   36 1956 3675 FO
  36   36 1970 3666 FO
  36   36 1983 3657 FO
  36   36 1996 3649 FO
  36   36 2010 3640 FO
  36   36 2023 3631 FO
  36   36 2037 3622 FO
  36   36 2050 3614 FO
  36   36 2063 3605 FO
  36   36 2077 3596 FO
  36   36 2090 3588 FO
  36   36 2104 3579 FO
  36   36 2117 3570 FO
  36   36 2130 3562 FO
  36   36 2144 3553 FO
  36   36 2157 3544 FO
  36   36 2171 3535 FO
  36   36 2184 3527 FO
  36   36 2197 3518 FO
  36   36 2211 3509 FO
  36   36 2224 3501 FO
  36   36 2238 3492 FO
  36   36 2251 3483 FO
  36   36 2264 3475 FO
  36   36 2278 3466 FO
  36   36 2291 3457 FO
  36   36 2304 3448 FO
  36   36 2318 3440 FO
  36   36 2331 3431 FO
  36   36 2345 3422 FO
  36   36 2358 3414 FO
  36   36 2371 3405 FO
  36   36 2385 3396 FO
  36   36 2398 3388 FO
  36   36 2412 3379 FO
  36   36 2425 3370 FO
  36   36 2438 3362 FO
  36   36 2452 3353 FO
  36   36 2465 3344 FO
  36   36 2479 3335 FO
  36   36 2492 3327 FO
  36   36 2505 3318 FO
  36   36 2519 3309 FO
  36   36 2532 3301 FO
  36   36 2545 3292 FO
  36   36 2559 3283 FO
  36   36 2572 3275 FO
  36   36 2586 3266 FO
  36   36 2599 3257 FO
  36   36 2612 3249 FO
  36   36 2626 3240 FO
  36   36 2639 3231 FO
  36   36 2653 3223 FO
  36   36 2666 3214 FO
  36   36 2679 3205 FO
  36   36 2693 3196 FO
  36   36 2706 3188 FO
  36   36 2720 3179 FO
  36   36 2733 3170 FO
  36   36 2746 3162 FO
  36   36 2760 3153 FO
  36   36 2773 3144 FO
  36   36 2786 3136 FO
  36   36 2800 3127 FO
  36   36 2813 3118 FO
  36   36 2827 3110 FO
  36   36 2840 3101 FO
  36   36 2853 3092 FO
  36   36 2867 3084 FO
  36   36 2880 3075 FO
  36   36 2894 3066 FO
  36   36 2907 3057 FO
  36   36 2920 3049 FO
  36   36 2934 3040 FO
  36   36 2947 3031 FO
  36   36 2961 3023 FO
  36   36 2974 3014 FO
  36   36 2987 3005 FO
  36   36 3001 2997 FO
  36   36 3014 2988 FO
  36   36 3028 2979 FO
  36   36 3041 2971 FO
  36   36 3054 2962 FO
  36   36 3068 2953 FO
  36   36 3081 2945 FO
  36   36 3094 2936 FO
  36   36 3108 2927 FO
  36   36 3121 2919 FO
  36   36 3135 2910 FO
  36   36 3148 2901 FO
  36   36 3161 2893 FO
  36   36 3175 2884 FO
  36   36 3188 2875 FO
  36   36 3202 2867 FO
  36   36 3215 2858 FO
  36   36 3228 2849 FO
  36   36 3242 2840 FO
  36   36 3255 2832 FO
  36   36 3269 2823 FO
  36   36 3282 2814 FO
  36   36 3295 2806 FO
  36   36 3309 2797 FO
  36   36 3322 2788 FO
  36   36 3335 2780 FO
  36   36 3349 2771 FO
  36   36 3362 2762 FO
  36   36 3376 2754 FO
  36   36 3389 2745 FO
  36   36 3402 2736 FO
  36   36 3416 2728 FO
  36   36 3429 2719 FO
  36   36 3443 2710 FO
  36   36 3456 2702 FO
  36   36 3469 2693 FO
  36   36 3483 2684 FO
  36   36 3496 2676 FO
  36   36 3510 2667 FO
  36   36 3523 2658 FO
  36   36 3536 2650 FO
  36   36 3550 2641 FO
  36   36 3563 2632 FO
  36   36 3577 2624 FO
  36   36 3590 2615 FO
  36   36 3603 2606 FO
  36   36 3617 2598 FO
  36   36 3630 2589 FO
  36   36 3643 2580 FO
  36   36 3657 2572 FO
  36   36 3670 2563 FO
  36   36 3684 2554 FO
  36   36 3697 2546 FO
  36   36 3710 2537 FO
  36   36 3724 2528 FO
  36   36 3737 2520 FO
  36   36 3751 2511 FO
  36   36 3764 2502 FO
  36   36 3777 2494 FO
  36   36 3791 2485 FO
  36   36 3804 2476 FO
  36   36 3818 2468 FO
  36   36 3831 2459 FO
  36   36 3844 2450 FO
  36   36 3858 2442 FO
  36   36 3871 2433 FO
  36   36 3884 2424 FO
  36   36 3898 2416 FO
  36   36 3911 2407 FO
  36   36 3925 2398 FO
  36   36 3938 2390 FO
  36   36 3951 2381 FO
  36   36 3965 2372 FO
  36   36 3978 2364 FO
  36   36 3992 2355 FO
  36   36 4005 2346 FO
  36   36 4018 2338 FO
  36   36 4032 2329 FO
  36   36 4045 2320 FO
  36   36 4059 2312 FO
  36   36 4072 2303 FO
  36   36 4085 2294 FO
  36   36 4099 2286 FO
  36   36 4112 2277 FO
  36   36 4125 2268 FO
  36   36 4139 2260 FO
  36   36 4152 2251 FO
  36   36 4166 2242 FO
  36   36 4179 2234 FO
  36   36 4192 2225 FO
  36   36 4206 2216 FO
  36   36 4219 2208 FO
  36   36 4233 2199 FO
  36   36 4246 2190 FO
  36   36 4259 2182 FO
  36   36 4273 2173 FO
  36   36 4286 2164 FO
  36   36 4300 2156 FO
  36   36 4313 2147 FO
  36   36 4326 2138 FO
  36   36 4340 2130 FO
  36   36 4353 2121 FO
  36   36 4367 2112 FO
  36   36 4380 2104 FO
  36   36 4393 2095 FO
  36   36 4407 2086 FO
  36   36 4420 2078 FO
  36   36 4433 2069 FO
  36   36 4447 2060 FO
  36   36 4460 2052 FO
  36   36 4474 2043 FO
  36   36 4487 2034 FO
  36   36 4500 2026 FO
  36   36 4514 2017 FO
  36   36 4527 2009 FO
  36   36 4541 2000 FO
  36   36 4554 1991 FO
  36   36 4567 1983 FO
  36   36 4581 1974 FO
  36   36 4594 1965 FO
  36   36 4608 1957 FO
  36   36 4621 1948 FO
  36   36 4634 1939 FO
  36   36 4648 1931 FO
  36   36 4661 1922 FO
  36   36 4674 1913 FO
  36   36 4688 1905 FO
  36   36 4701 1896 FO
  36   36 4715 1887 FO
  36   36 4728 1879 FO
  36   36 4741 1870 FO
  36   36 4755 1861 FO
  36   36 4768 1853 FO
  36   36 4782 1844 FO
  36   36 4795 1835 FO
  36   36 4808 1827 FO
  36   36 4822 1818 FO
  36   36 4835 1810 FO
  36   36 4849 1801 FO
  36   36 4862 1792 FO
  36   36 4875 1784 FO
  36   36 4889 1775 FO
  36   36 4902 1766 FO
  36   36 4916 1758 FO
  36   36 4929 1749 FO
  36   36 4942 1740 FO
  36   36 4956 1732 FO
  36   36 4969 1723 FO
  36   36 4982 1714 FO
  36   36 4996 1706 FO
  36   36 5009 1697 FO
  36   36 5023 1688 FO
  36   36 5036 1680 FO
  36   36 5049 1671 FO
  36   36 5063 1662 FO
  36   36 5076 1654 FO
  36   36 5090 1645 FO
  36   36 5103 1637 FO
  36   36 5116 1628 FO
  36   36 5130 1619 FO
  36   36 5143 1611 FO
  36   36 5157 1602 FO
  36   36 5170 1593 FO
  36   36 5183 1585 FO
  36   36 5197 1576 FO
  36   36 5210 1567 FO
  36   36 5223 1559 FO
  36   36 5237 1550 FO
  36   36 5250 1541 FO
  36   36 5264 1533 FO
  36   36 5277 1524 FO
  36   36 5290 1516 FO
  36   36 5304 1507 FO
  36   36 5317 1498 FO
  36   36 5331 1490 FO
  36   36 5344 1481 FO
  36   36 5357 1472 FO
  36   36 5371 1464 FO
  36   36 5384 1455 FO
  36   36 5398 1446 FO
  36   36 5411 1438 FO
  36   36 5424 1429 FO
  36   36 5438 1421 FO
  36   36 5451 1412 FO
  36   36 5464 1403 FO
  36   36 5478 1395 FO
  36   36 5491 1386 FO
  36   36 5505 1377 FO
  36   36 5518 1369 FO
  36   36 5531 1360 FO
  36   36 5545 1351 FO
  36   36 5558 1343 FO
  36   36 5572 1334 FO
  36   36 5585 1326 FO
  36   36 5598 1317 FO
  36   36 5612 1308 FO
  36   36 5625 1300 FO
  36   36 5639 1291 FO
  36   36 5652 1282 FO
  36   36 5665 1274 FO
  36   36 5679 1265 FO
  36   36 5692 1256 FO
  36   36 5706 1248 FO
  36   36 5719 1239 FO
  36   36 5732 1231 FO
  36   36 5746 1222 FO
  36   36 5759 1213 FO
  36   36 5772 1205 FO
  36   36 5786 1196 FO
  36   36 5799 1187 FO
  36   36 5813 1179 FO
  36   36 5826 1170 FO
  36   36 5839 1161 FO
  36   36 5853 1153 FO
  36   36 5866 1144 FO
  36   36 5880 1136 FO
  36   36 5893 1127 FO
  36   36 5906 1118 FO
  36   36 5920 1110 FO
  36   36 5933 1101 FO
  36   36 5947 1092 FO
  36   36 5960 1084 FO
  36   36 5973 1075 FO
  36   36 5987 1067 FO
  36   36 6000 1058 FO
  36   36 6013 1049 FO
  36   36 6027 1041 FO
  36   36 6040 1032 FO
  36   36 6054 1023 FO
  36   36 6067 1015 FO
  36   36 6080 1006 FO
  36   36 6094  997 FO
  36   36 6107  989 FO
  36   36 6121  980 FO
  36   36 6134  972 FO
  36   36 6147  963 FO
  36   36 6161  954 FO
  36   36 6174  946 FO
  36   36 6188  937 FO
  36   36 6201  928 FO
  36   36 6214  920 FO
  36   36 6228  911 FO
  36   36 6241  903 FO
  36   36 6255  894 FO
gr

c8
gs 899 389 5357 4227 MR c np
gr

gs 826 1030 5504 3611 MR c np
/c9 { 0.000000 1.000000 0.000000 sr} bdef
c9
 887 4533 mt  937 4583 L
 937 4533 mt  887 4583 L
 900 4524 mt  950 4574 L
 950 4524 mt  900 4574 L
 914 4515 mt  964 4565 L
 964 4515 mt  914 4565 L
 927 4506 mt  977 4556 L
 977 4506 mt  927 4556 L
 940 4497 mt  990 4547 L
 990 4497 mt  940 4547 L
 954 4488 mt 1004 4538 L
1004 4488 mt  954 4538 L
 967 4478 mt 1017 4528 L
1017 4478 mt  967 4528 L
 981 4469 mt 1031 4519 L
1031 4469 mt  981 4519 L
 994 4460 mt 1044 4510 L
1044 4460 mt  994 4510 L
1007 4451 mt 1057 4501 L
1057 4451 mt 1007 4501 L
1021 4442 mt 1071 4492 L
1071 4442 mt 1021 4492 L
1034 4433 mt 1084 4483 L
1084 4433 mt 1034 4483 L
1048 4424 mt 1098 4474 L
1098 4424 mt 1048 4474 L
1061 4415 mt 1111 4465 L
1111 4415 mt 1061 4465 L
1074 4406 mt 1124 4456 L
1124 4406 mt 1074 4456 L
1088 4397 mt 1138 4447 L
1138 4397 mt 1088 4447 L
1101 4388 mt 1151 4438 L
1151 4388 mt 1101 4438 L
1115 4379 mt 1165 4429 L
1165 4379 mt 1115 4429 L
1128 4370 mt 1178 4420 L
1178 4370 mt 1128 4420 L
1141 4371 mt 1191 4421 L
1191 4371 mt 1141 4421 L
1155 4362 mt 1205 4412 L
1205 4362 mt 1155 4412 L
1168 4353 mt 1218 4403 L
1218 4353 mt 1168 4403 L
1181 4344 mt 1231 4394 L
1231 4344 mt 1181 4394 L
1195 4335 mt 1245 4385 L
1245 4335 mt 1195 4385 L
1208 4326 mt 1258 4376 L
1258 4326 mt 1208 4376 L
1222 4317 mt 1272 4367 L
1272 4317 mt 1222 4367 L
1235 4308 mt 1285 4358 L
1285 4308 mt 1235 4358 L
1248 4299 mt 1298 4349 L
1298 4299 mt 1248 4349 L
1262 4290 mt 1312 4340 L
1312 4290 mt 1262 4340 L
1275 4281 mt 1325 4331 L
1325 4281 mt 1275 4331 L
1289 4272 mt 1339 4322 L
1339 4272 mt 1289 4322 L
1302 4263 mt 1352 4313 L
1352 4263 mt 1302 4313 L
1315 4254 mt 1365 4304 L
1365 4254 mt 1315 4304 L
1329 4245 mt 1379 4295 L
1379 4245 mt 1329 4295 L
1342 4236 mt 1392 4286 L
1392 4236 mt 1342 4286 L
1356 4227 mt 1406 4277 L
1406 4227 mt 1356 4277 L
1369 4218 mt 1419 4268 L
1419 4218 mt 1369 4268 L
1382 4209 mt 1432 4259 L
1432 4209 mt 1382 4259 L
1396 4199 mt 1446 4249 L
1446 4199 mt 1396 4249 L
1409 4190 mt 1459 4240 L
1459 4190 mt 1409 4240 L
1422 4181 mt 1472 4231 L
1472 4181 mt 1422 4231 L
1436 4172 mt 1486 4222 L
1486 4172 mt 1436 4222 L
1449 4163 mt 1499 4213 L
1499 4163 mt 1449 4213 L
1463 4154 mt 1513 4204 L
1513 4154 mt 1463 4204 L
1476 4145 mt 1526 4195 L
1526 4145 mt 1476 4195 L
1489 4136 mt 1539 4186 L
1539 4136 mt 1489 4186 L
1503 4127 mt 1553 4177 L
1553 4127 mt 1503 4177 L
1516 4118 mt 1566 4168 L
1566 4118 mt 1516 4168 L
1530 4109 mt 1580 4159 L
1580 4109 mt 1530 4159 L
1543 4100 mt 1593 4150 L
1593 4100 mt 1543 4150 L
1556 4091 mt 1606 4141 L
1606 4091 mt 1556 4141 L
1570 4093 mt 1620 4143 L
1620 4093 mt 1570 4143 L
1583 4083 mt 1633 4133 L
1633 4083 mt 1583 4133 L
1597 4074 mt 1647 4124 L
1647 4074 mt 1597 4124 L
1610 4065 mt 1660 4115 L
1660 4065 mt 1610 4115 L
1623 4056 mt 1673 4106 L
1673 4056 mt 1623 4106 L
1637 4047 mt 1687 4097 L
1687 4047 mt 1637 4097 L
1650 4038 mt 1700 4088 L
1700 4038 mt 1650 4088 L
1664 4029 mt 1714 4079 L
1714 4029 mt 1664 4079 L
1677 4020 mt 1727 4070 L
1727 4020 mt 1677 4070 L
1690 4011 mt 1740 4061 L
1740 4011 mt 1690 4061 L
1704 4002 mt 1754 4052 L
1754 4002 mt 1704 4052 L
1717 3993 mt 1767 4043 L
1767 3993 mt 1717 4043 L
1730 3984 mt 1780 4034 L
1780 3984 mt 1730 4034 L
1744 3975 mt 1794 4025 L
1794 3975 mt 1744 4025 L
1757 3966 mt 1807 4016 L
1807 3966 mt 1757 4016 L
1771 3957 mt 1821 4007 L
1821 3957 mt 1771 4007 L
1784 3948 mt 1834 3998 L
1834 3948 mt 1784 3998 L
1797 3939 mt 1847 3989 L
1847 3939 mt 1797 3989 L
1811 3930 mt 1861 3980 L
1861 3930 mt 1811 3980 L
1824 3921 mt 1874 3971 L
1874 3921 mt 1824 3971 L
1838 3912 mt 1888 3962 L
1888 3912 mt 1838 3962 L
1851 3903 mt 1901 3953 L
1901 3903 mt 1851 3953 L
1864 3894 mt 1914 3944 L
1914 3894 mt 1864 3944 L
1878 3885 mt 1928 3935 L
1928 3885 mt 1878 3935 L
1891 3876 mt 1941 3926 L
1941 3876 mt 1891 3926 L
1905 3866 mt 1955 3916 L
1955 3866 mt 1905 3916 L
1918 3857 mt 1968 3907 L
1968 3857 mt 1918 3907 L
1931 3848 mt 1981 3898 L
1981 3848 mt 1931 3898 L
1945 3839 mt 1995 3889 L
1995 3839 mt 1945 3889 L
1958 3830 mt 2008 3880 L
2008 3830 mt 1958 3880 L
1971 3821 mt 2021 3871 L
2021 3821 mt 1971 3871 L
1985 3812 mt 2035 3862 L
2035 3812 mt 1985 3862 L
1998 3814 mt 2048 3864 L
2048 3814 mt 1998 3864 L
2012 3805 mt 2062 3855 L
2062 3805 mt 2012 3855 L
2025 3796 mt 2075 3846 L
2075 3796 mt 2025 3846 L
2038 3787 mt 2088 3837 L
2088 3787 mt 2038 3837 L
2052 3778 mt 2102 3828 L
2102 3778 mt 2052 3828 L
2065 3769 mt 2115 3819 L
2115 3769 mt 2065 3819 L
2079 3760 mt 2129 3810 L
2129 3760 mt 2079 3810 L
2092 3751 mt 2142 3801 L
2142 3751 mt 2092 3801 L
2105 3742 mt 2155 3792 L
2155 3742 mt 2105 3792 L
2119 3733 mt 2169 3783 L
2169 3733 mt 2119 3783 L
2132 3724 mt 2182 3774 L
2182 3724 mt 2132 3774 L
2146 3714 mt 2196 3764 L
2196 3714 mt 2146 3764 L
2159 3705 mt 2209 3755 L
2209 3705 mt 2159 3755 L
2172 3696 mt 2222 3746 L
2222 3696 mt 2172 3746 L
2186 3687 mt 2236 3737 L
2236 3687 mt 2186 3737 L
2199 3678 mt 2249 3728 L
2249 3678 mt 2199 3728 L
2213 3669 mt 2263 3719 L
2263 3669 mt 2213 3719 L
2226 3660 mt 2276 3710 L
2276 3660 mt 2226 3710 L
2239 3651 mt 2289 3701 L
2289 3651 mt 2239 3701 L
2253 3642 mt 2303 3692 L
2303 3642 mt 2253 3692 L
2266 3633 mt 2316 3683 L
2316 3633 mt 2266 3683 L
2279 3624 mt 2329 3674 L
2329 3624 mt 2279 3674 L
2293 3615 mt 2343 3665 L
2343 3615 mt 2293 3665 L
2306 3606 mt 2356 3656 L
2356 3606 mt 2306 3656 L
2320 3597 mt 2370 3647 L
2370 3597 mt 2320 3647 L
2333 3588 mt 2383 3638 L
2383 3588 mt 2333 3638 L
2346 3579 mt 2396 3629 L
2396 3579 mt 2346 3629 L
2360 3570 mt 2410 3620 L
2410 3570 mt 2360 3620 L
2373 3561 mt 2423 3611 L
2423 3561 mt 2373 3611 L
2387 3552 mt 2437 3602 L
2437 3552 mt 2387 3602 L
2400 3543 mt 2450 3593 L
2450 3543 mt 2400 3593 L
2413 3534 mt 2463 3584 L
2463 3534 mt 2413 3584 L
2427 3525 mt 2477 3575 L
2477 3525 mt 2427 3575 L
2440 3529 mt 2490 3579 L
2490 3529 mt 2440 3579 L
2454 3520 mt 2504 3570 L
2504 3520 mt 2454 3570 L
2467 3511 mt 2517 3561 L
2517 3511 mt 2467 3561 L
2480 3502 mt 2530 3552 L
2530 3502 mt 2480 3552 L
2494 3493 mt 2544 3543 L
2544 3493 mt 2494 3543 L
2507 3484 mt 2557 3534 L
2557 3484 mt 2507 3534 L
2520 3475 mt 2570 3525 L
2570 3475 mt 2520 3525 L
2534 3466 mt 2584 3516 L
2584 3466 mt 2534 3516 L
2547 3457 mt 2597 3507 L
2597 3457 mt 2547 3507 L
2561 3448 mt 2611 3498 L
2611 3448 mt 2561 3498 L
2574 3439 mt 2624 3489 L
2624 3439 mt 2574 3489 L
2587 3430 mt 2637 3480 L
2637 3430 mt 2587 3480 L
2601 3421 mt 2651 3471 L
2651 3421 mt 2601 3471 L
2614 3412 mt 2664 3462 L
2664 3412 mt 2614 3462 L
2628 3403 mt 2678 3453 L
2678 3403 mt 2628 3453 L
2641 3394 mt 2691 3444 L
2691 3394 mt 2641 3444 L
2654 3385 mt 2704 3435 L
2704 3385 mt 2654 3435 L
2668 3376 mt 2718 3426 L
2718 3376 mt 2668 3426 L
2681 3367 mt 2731 3417 L
2731 3367 mt 2681 3417 L
2695 3358 mt 2745 3408 L
2745 3358 mt 2695 3408 L
2708 3349 mt 2758 3399 L
2758 3349 mt 2708 3399 L
2721 3340 mt 2771 3390 L
2771 3340 mt 2721 3390 L
2735 3331 mt 2785 3381 L
2785 3331 mt 2735 3381 L
2748 3322 mt 2798 3372 L
2798 3322 mt 2748 3372 L
2761 3313 mt 2811 3363 L
2811 3313 mt 2761 3363 L
2775 3304 mt 2825 3354 L
2825 3304 mt 2775 3354 L
2788 3295 mt 2838 3345 L
2838 3295 mt 2788 3345 L
2802 3286 mt 2852 3336 L
2852 3286 mt 2802 3336 L
2815 3277 mt 2865 3327 L
2865 3277 mt 2815 3327 L
2828 3268 mt 2878 3318 L
2878 3268 mt 2828 3318 L
2842 3259 mt 2892 3309 L
2892 3259 mt 2842 3309 L
2855 3250 mt 2905 3300 L
2905 3250 mt 2855 3300 L
2869 3241 mt 2919 3291 L
2919 3241 mt 2869 3291 L
2882 3244 mt 2932 3294 L
2932 3244 mt 2882 3294 L
2895 3235 mt 2945 3285 L
2945 3235 mt 2895 3285 L
2909 3226 mt 2959 3276 L
2959 3226 mt 2909 3276 L
2922 3217 mt 2972 3267 L
2972 3217 mt 2922 3267 L
2936 3208 mt 2986 3258 L
2986 3208 mt 2936 3258 L
2949 3199 mt 2999 3249 L
2999 3199 mt 2949 3249 L
2962 3190 mt 3012 3240 L
3012 3190 mt 2962 3240 L
2976 3181 mt 3026 3231 L
3026 3181 mt 2976 3231 L
2989 3172 mt 3039 3222 L
3039 3172 mt 2989 3222 L
3003 3163 mt 3053 3213 L
3053 3163 mt 3003 3213 L
3016 3154 mt 3066 3204 L
3066 3154 mt 3016 3204 L
3029 3145 mt 3079 3195 L
3079 3145 mt 3029 3195 L
3043 3136 mt 3093 3186 L
3093 3136 mt 3043 3186 L
3056 3127 mt 3106 3177 L
3106 3127 mt 3056 3177 L
3069 3118 mt 3119 3168 L
3119 3118 mt 3069 3168 L
3083 3110 mt 3133 3160 L
3133 3110 mt 3083 3160 L
3096 3101 mt 3146 3151 L
3146 3101 mt 3096 3151 L
3110 3092 mt 3160 3142 L
3160 3092 mt 3110 3142 L
3123 3083 mt 3173 3133 L
3173 3083 mt 3123 3133 L
3136 3074 mt 3186 3124 L
3186 3074 mt 3136 3124 L
3150 3065 mt 3200 3115 L
3200 3065 mt 3150 3115 L
3163 3056 mt 3213 3106 L
3213 3056 mt 3163 3106 L
3177 3047 mt 3227 3097 L
3227 3047 mt 3177 3097 L
3190 3038 mt 3240 3088 L
3240 3038 mt 3190 3088 L
3203 3029 mt 3253 3079 L
3253 3029 mt 3203 3079 L
3217 3020 mt 3267 3070 L
3267 3020 mt 3217 3070 L
3230 3011 mt 3280 3061 L
3280 3011 mt 3230 3061 L
3244 3002 mt 3294 3052 L
3294 3002 mt 3244 3052 L
3257 2993 mt 3307 3043 L
3307 2993 mt 3257 3043 L
3270 2984 mt 3320 3034 L
3320 2984 mt 3270 3034 L
3284 2975 mt 3334 3025 L
3334 2975 mt 3284 3025 L
3297 2966 mt 3347 3016 L
3347 2966 mt 3297 3016 L
3310 2957 mt 3360 3007 L
3360 2957 mt 3310 3007 L
3324 2959 mt 3374 3009 L
3374 2959 mt 3324 3009 L
3337 2950 mt 3387 3000 L
3387 2950 mt 3337 3000 L
3351 2941 mt 3401 2991 L
3401 2941 mt 3351 2991 L
3364 2932 mt 3414 2982 L
3414 2932 mt 3364 2982 L
3377 2923 mt 3427 2973 L
3427 2923 mt 3377 2973 L
3391 2915 mt 3441 2965 L
3441 2915 mt 3391 2965 L
3404 2906 mt 3454 2956 L
3454 2906 mt 3404 2956 L
3418 2897 mt 3468 2947 L
3468 2897 mt 3418 2947 L
3431 2888 mt 3481 2938 L
3481 2888 mt 3431 2938 L
3444 2879 mt 3494 2929 L
3494 2879 mt 3444 2929 L
3458 2870 mt 3508 2920 L
3508 2870 mt 3458 2920 L
3471 2861 mt 3521 2911 L
3521 2861 mt 3471 2911 L
3485 2852 mt 3535 2902 L
3535 2852 mt 3485 2902 L
3498 2843 mt 3548 2893 L
3548 2843 mt 3498 2893 L
3511 2834 mt 3561 2884 L
3561 2834 mt 3511 2884 L
3525 2825 mt 3575 2875 L
3575 2825 mt 3525 2875 L
3538 2816 mt 3588 2866 L
3588 2816 mt 3538 2866 L
3552 2807 mt 3602 2857 L
3602 2807 mt 3552 2857 L
3565 2798 mt 3615 2848 L
3615 2798 mt 3565 2848 L
3578 2789 mt 3628 2839 L
3628 2789 mt 3578 2839 L
3592 2780 mt 3642 2830 L
3642 2780 mt 3592 2830 L
3605 2771 mt 3655 2821 L
3655 2771 mt 3605 2821 L
3618 2762 mt 3668 2812 L
3668 2762 mt 3618 2812 L
3632 2753 mt 3682 2803 L
3682 2753 mt 3632 2803 L
3645 2744 mt 3695 2794 L
3695 2744 mt 3645 2794 L
3659 2735 mt 3709 2785 L
3709 2735 mt 3659 2785 L
3672 2726 mt 3722 2776 L
3722 2726 mt 3672 2776 L
3685 2717 mt 3735 2767 L
3735 2717 mt 3685 2767 L
3699 2708 mt 3749 2758 L
3749 2708 mt 3699 2758 L
3712 2699 mt 3762 2749 L
3762 2699 mt 3712 2749 L
3726 2690 mt 3776 2740 L
3776 2690 mt 3726 2740 L
3739 2681 mt 3789 2731 L
3789 2681 mt 3739 2731 L
3752 2672 mt 3802 2722 L
3802 2672 mt 3752 2722 L
3766 2674 mt 3816 2724 L
3816 2674 mt 3766 2724 L
3779 2665 mt 3829 2715 L
3829 2665 mt 3779 2715 L
3793 2656 mt 3843 2706 L
3843 2656 mt 3793 2706 L
3806 2647 mt 3856 2697 L
3856 2647 mt 3806 2697 L
3819 2638 mt 3869 2688 L
3869 2638 mt 3819 2688 L
3833 2629 mt 3883 2679 L
3883 2629 mt 3833 2679 L
3846 2620 mt 3896 2670 L
3896 2620 mt 3846 2670 L
3859 2611 mt 3909 2661 L
3909 2611 mt 3859 2661 L
3873 2603 mt 3923 2653 L
3923 2603 mt 3873 2653 L
3886 2594 mt 3936 2644 L
3936 2594 mt 3886 2644 L
3900 2585 mt 3950 2635 L
3950 2585 mt 3900 2635 L
3913 2576 mt 3963 2626 L
3963 2576 mt 3913 2626 L
3926 2567 mt 3976 2617 L
3976 2567 mt 3926 2617 L
3940 2558 mt 3990 2608 L
3990 2558 mt 3940 2608 L
3953 2549 mt 4003 2599 L
4003 2549 mt 3953 2599 L
3967 2540 mt 4017 2590 L
4017 2540 mt 3967 2590 L
3980 2531 mt 4030 2581 L
4030 2531 mt 3980 2581 L
3993 2522 mt 4043 2572 L
4043 2522 mt 3993 2572 L
4007 2513 mt 4057 2563 L
4057 2513 mt 4007 2563 L
4020 2504 mt 4070 2554 L
4070 2504 mt 4020 2554 L
4034 2495 mt 4084 2545 L
4084 2495 mt 4034 2545 L
4047 2486 mt 4097 2536 L
4097 2486 mt 4047 2536 L
4060 2477 mt 4110 2527 L
4110 2477 mt 4060 2527 L
4074 2468 mt 4124 2518 L
4124 2468 mt 4074 2518 L
4087 2459 mt 4137 2509 L
4137 2459 mt 4087 2509 L
4100 2450 mt 4150 2500 L
4150 2450 mt 4100 2500 L
4114 2441 mt 4164 2491 L
4164 2441 mt 4114 2491 L
4127 2432 mt 4177 2482 L
4177 2432 mt 4127 2482 L
4141 2423 mt 4191 2473 L
4191 2423 mt 4141 2473 L
4154 2414 mt 4204 2464 L
4204 2414 mt 4154 2464 L
4167 2405 mt 4217 2455 L
4217 2405 mt 4167 2455 L
4181 2396 mt 4231 2446 L
4231 2396 mt 4181 2446 L
4194 2387 mt 4244 2437 L
4244 2387 mt 4194 2437 L
4208 2389 mt 4258 2439 L
4258 2389 mt 4208 2439 L
4221 2380 mt 4271 2430 L
4271 2380 mt 4221 2430 L
4234 2371 mt 4284 2421 L
4284 2371 mt 4234 2421 L
4248 2362 mt 4298 2412 L
4298 2362 mt 4248 2412 L
4261 2353 mt 4311 2403 L
4311 2353 mt 4261 2403 L
4275 2344 mt 4325 2394 L
4325 2344 mt 4275 2394 L
4288 2335 mt 4338 2385 L
4338 2335 mt 4288 2385 L
4301 2326 mt 4351 2376 L
4351 2326 mt 4301 2376 L
4315 2317 mt 4365 2367 L
4365 2317 mt 4315 2367 L
4328 2308 mt 4378 2358 L
4378 2308 mt 4328 2358 L
4342 2299 mt 4392 2349 L
4392 2299 mt 4342 2349 L
4355 2291 mt 4405 2341 L
4405 2291 mt 4355 2341 L
4368 2282 mt 4418 2332 L
4418 2282 mt 4368 2332 L
4382 2273 mt 4432 2323 L
4432 2273 mt 4382 2323 L
4395 2264 mt 4445 2314 L
4445 2264 mt 4395 2314 L
4408 2255 mt 4458 2305 L
4458 2255 mt 4408 2305 L
4422 2246 mt 4472 2296 L
4472 2246 mt 4422 2296 L
4435 2237 mt 4485 2287 L
4485 2237 mt 4435 2287 L
4449 2228 mt 4499 2278 L
4499 2228 mt 4449 2278 L
4462 2219 mt 4512 2269 L
4512 2219 mt 4462 2269 L
4475 2210 mt 4525 2260 L
4525 2210 mt 4475 2260 L
4489 2201 mt 4539 2251 L
4539 2201 mt 4489 2251 L
4502 2192 mt 4552 2242 L
4552 2192 mt 4502 2242 L
4516 2183 mt 4566 2233 L
4566 2183 mt 4516 2233 L
4529 2174 mt 4579 2224 L
4579 2174 mt 4529 2224 L
4542 2165 mt 4592 2215 L
4592 2165 mt 4542 2215 L
4556 2156 mt 4606 2206 L
4606 2156 mt 4556 2206 L
4569 2147 mt 4619 2197 L
4619 2147 mt 4569 2197 L
4583 2138 mt 4633 2188 L
4633 2138 mt 4583 2188 L
4596 2129 mt 4646 2179 L
4646 2129 mt 4596 2179 L
4609 2120 mt 4659 2170 L
4659 2120 mt 4609 2170 L
4623 2111 mt 4673 2161 L
4673 2111 mt 4623 2161 L
4636 2102 mt 4686 2152 L
4686 2102 mt 4636 2152 L
4649 2104 mt 4699 2154 L
4699 2104 mt 4649 2154 L
4663 2095 mt 4713 2145 L
4713 2095 mt 4663 2145 L
4676 2086 mt 4726 2136 L
4726 2086 mt 4676 2136 L
4690 2077 mt 4740 2127 L
4740 2077 mt 4690 2127 L
4703 2068 mt 4753 2118 L
4753 2068 mt 4703 2118 L
4716 2059 mt 4766 2109 L
4766 2059 mt 4716 2109 L
4730 2050 mt 4780 2100 L
4780 2050 mt 4730 2100 L
4743 2041 mt 4793 2091 L
4793 2041 mt 4743 2091 L
4757 2032 mt 4807 2082 L
4807 2032 mt 4757 2082 L
4770 2023 mt 4820 2073 L
4820 2023 mt 4770 2073 L
4783 2014 mt 4833 2064 L
4833 2014 mt 4783 2064 L
4797 2005 mt 4847 2055 L
4847 2005 mt 4797 2055 L
4810 1996 mt 4860 2046 L
4860 1996 mt 4810 2046 L
4824 1987 mt 4874 2037 L
4874 1987 mt 4824 2037 L
4837 1979 mt 4887 2029 L
4887 1979 mt 4837 2029 L
4850 1970 mt 4900 2020 L
4900 1970 mt 4850 2020 L
4864 1961 mt 4914 2011 L
4914 1961 mt 4864 2011 L
4877 1952 mt 4927 2002 L
4927 1952 mt 4877 2002 L
4891 1943 mt 4941 1993 L
4941 1943 mt 4891 1993 L
4904 1934 mt 4954 1984 L
4954 1934 mt 4904 1984 L
4917 1925 mt 4967 1975 L
4967 1925 mt 4917 1975 L
4931 1916 mt 4981 1966 L
4981 1916 mt 4931 1966 L
4944 1907 mt 4994 1957 L
4994 1907 mt 4944 1957 L
4957 1898 mt 5007 1948 L
5007 1898 mt 4957 1948 L
4971 1889 mt 5021 1939 L
5021 1889 mt 4971 1939 L
4984 1880 mt 5034 1930 L
5034 1880 mt 4984 1930 L
4998 1871 mt 5048 1921 L
5048 1871 mt 4998 1921 L
5011 1862 mt 5061 1912 L
5061 1862 mt 5011 1912 L
5024 1853 mt 5074 1903 L
5074 1853 mt 5024 1903 L
5038 1844 mt 5088 1894 L
5088 1844 mt 5038 1894 L
5051 1835 mt 5101 1885 L
5101 1835 mt 5051 1885 L
5065 1826 mt 5115 1876 L
5115 1826 mt 5065 1876 L
5078 1817 mt 5128 1867 L
5128 1817 mt 5078 1867 L
5091 1819 mt 5141 1869 L
5141 1819 mt 5091 1869 L
5105 1810 mt 5155 1860 L
5155 1810 mt 5105 1860 L
5118 1801 mt 5168 1851 L
5168 1801 mt 5118 1851 L
5132 1792 mt 5182 1842 L
5182 1792 mt 5132 1842 L
5145 1783 mt 5195 1833 L
5195 1783 mt 5145 1833 L
5158 1774 mt 5208 1824 L
5208 1774 mt 5158 1824 L
5172 1765 mt 5222 1815 L
5222 1765 mt 5172 1815 L
5185 1756 mt 5235 1806 L
5235 1756 mt 5185 1806 L
5198 1747 mt 5248 1797 L
5248 1747 mt 5198 1797 L
5212 1738 mt 5262 1788 L
5262 1738 mt 5212 1788 L
5225 1729 mt 5275 1779 L
5275 1729 mt 5225 1779 L
5239 1720 mt 5289 1770 L
5289 1720 mt 5239 1770 L
5252 1711 mt 5302 1761 L
5302 1711 mt 5252 1761 L
5265 1702 mt 5315 1752 L
5315 1702 mt 5265 1752 L
5279 1693 mt 5329 1743 L
5329 1693 mt 5279 1743 L
5292 1685 mt 5342 1735 L
5342 1685 mt 5292 1735 L
5306 1676 mt 5356 1726 L
5356 1676 mt 5306 1726 L
5319 1667 mt 5369 1717 L
5369 1667 mt 5319 1717 L
5332 1658 mt 5382 1708 L
5382 1658 mt 5332 1708 L
5346 1649 mt 5396 1699 L
5396 1649 mt 5346 1699 L
5359 1640 mt 5409 1690 L
5409 1640 mt 5359 1690 L
5373 1631 mt 5423 1681 L
5423 1631 mt 5373 1681 L
5386 1622 mt 5436 1672 L
5436 1622 mt 5386 1672 L
5399 1613 mt 5449 1663 L
5449 1613 mt 5399 1663 L
5413 1604 mt 5463 1654 L
5463 1604 mt 5413 1654 L
5426 1595 mt 5476 1645 L
5476 1595 mt 5426 1645 L
5439 1586 mt 5489 1636 L
5489 1586 mt 5439 1636 L
5453 1577 mt 5503 1627 L
5503 1577 mt 5453 1627 L
5466 1568 mt 5516 1618 L
5516 1568 mt 5466 1618 L
5480 1559 mt 5530 1609 L
5530 1559 mt 5480 1609 L
5493 1550 mt 5543 1600 L
5543 1550 mt 5493 1600 L
5506 1541 mt 5556 1591 L
5556 1541 mt 5506 1591 L
5520 1532 mt 5570 1582 L
5570 1532 mt 5520 1582 L
5533 1534 mt 5583 1584 L
5583 1534 mt 5533 1584 L
5547 1525 mt 5597 1575 L
5597 1525 mt 5547 1575 L
5560 1516 mt 5610 1566 L
5610 1516 mt 5560 1566 L
5573 1507 mt 5623 1557 L
5623 1507 mt 5573 1557 L
5587 1498 mt 5637 1548 L
5637 1498 mt 5587 1548 L
5600 1489 mt 5650 1539 L
5650 1489 mt 5600 1539 L
5614 1480 mt 5664 1530 L
5664 1480 mt 5614 1530 L
5627 1471 mt 5677 1521 L
5677 1471 mt 5627 1521 L
5640 1462 mt 5690 1512 L
5690 1462 mt 5640 1512 L
5654 1453 mt 5704 1503 L
5704 1453 mt 5654 1503 L
5667 1444 mt 5717 1494 L
5717 1444 mt 5667 1494 L
5681 1435 mt 5731 1485 L
5731 1435 mt 5681 1485 L
5694 1426 mt 5744 1476 L
5744 1426 mt 5694 1476 L
5707 1417 mt 5757 1467 L
5757 1417 mt 5707 1467 L
5721 1409 mt 5771 1459 L
5771 1409 mt 5721 1459 L
5734 1400 mt 5784 1450 L
5784 1400 mt 5734 1450 L
5747 1391 mt 5797 1441 L
5797 1391 mt 5747 1441 L
5761 1382 mt 5811 1432 L
5811 1382 mt 5761 1432 L
5774 1373 mt 5824 1423 L
5824 1373 mt 5774 1423 L
5788 1364 mt 5838 1414 L
5838 1364 mt 5788 1414 L
5801 1355 mt 5851 1405 L
5851 1355 mt 5801 1405 L
5814 1346 mt 5864 1396 L
5864 1346 mt 5814 1396 L
5828 1337 mt 5878 1387 L
5878 1337 mt 5828 1387 L
5841 1328 mt 5891 1378 L
5891 1328 mt 5841 1378 L
5855 1319 mt 5905 1369 L
5905 1319 mt 5855 1369 L
5868 1310 mt 5918 1360 L
5918 1310 mt 5868 1360 L
5881 1301 mt 5931 1351 L
5931 1301 mt 5881 1351 L
5895 1292 mt 5945 1342 L
5945 1292 mt 5895 1342 L
5908 1283 mt 5958 1333 L
5958 1283 mt 5908 1333 L
5922 1274 mt 5972 1324 L
5972 1274 mt 5922 1324 L
5935 1265 mt 5985 1315 L
5985 1265 mt 5935 1315 L
5948 1256 mt 5998 1306 L
5998 1256 mt 5948 1306 L
5962 1248 mt 6012 1298 L
6012 1248 mt 5962 1298 L
5975 1249 mt 6025 1299 L
6025 1249 mt 5975 1299 L
5988 1240 mt 6038 1290 L
6038 1240 mt 5988 1290 L
6002 1231 mt 6052 1281 L
6052 1231 mt 6002 1281 L
6015 1222 mt 6065 1272 L
6065 1222 mt 6015 1272 L
6029 1213 mt 6079 1263 L
6079 1213 mt 6029 1263 L
6042 1204 mt 6092 1254 L
6092 1204 mt 6042 1254 L
6055 1195 mt 6105 1245 L
6105 1195 mt 6055 1245 L
6069 1186 mt 6119 1236 L
6119 1186 mt 6069 1236 L
6082 1177 mt 6132 1227 L
6132 1177 mt 6082 1227 L
6096 1168 mt 6146 1218 L
6146 1168 mt 6096 1218 L
6109 1159 mt 6159 1209 L
6159 1159 mt 6109 1209 L
6122 1150 mt 6172 1200 L
6172 1150 mt 6122 1200 L
6136 1142 mt 6186 1192 L
6186 1142 mt 6136 1192 L
6149 1133 mt 6199 1183 L
6199 1133 mt 6149 1183 L
6163 1124 mt 6213 1174 L
6213 1124 mt 6163 1174 L
6176 1115 mt 6226 1165 L
6226 1115 mt 6176 1165 L
6189 1106 mt 6239 1156 L
6239 1106 mt 6189 1156 L
6203 1097 mt 6253 1147 L
6253 1097 mt 6203 1147 L
6216 1088 mt 6266 1138 L
6266 1088 mt 6216 1138 L
6230 1079 mt 6280 1129 L
6280 1079 mt 6230 1129 L
gr

c9
gs 899 389 5357 4227 MR c np
12 w
gr

12 w
gs 826 1039 5504 3609 MR c np
/c10 { 1.000000 0.000000 0.000000 sr} bdef
c10
  36   36 1166 4400 FO
  36   36 1595 4121 FO
  36   36 2023 3842 FO
  36   36 2465 3564 FO
  36   36 2907 3277 FO
  36   36 3349 2991 FO
  36   36 3791 2704 FO
  36   36 4233 2418 FO
  36   36 4674 2132 FO
  36   36 5116 1847 FO
  36   36 5558 1562 FO
  36   36 6000 1276 FO
gr

c10
gs 899 389 5357 4227 MR c np
gr

0 sg
3316 4903 mt 
(Tempo [s]) s
 549 2813 mt  -90 rotate
(Posi\347\343o [m]) s
90 rotate
2227  294 mt 
(Traject\363ria do Mergulhador: Real e Estimada, em x) s
 870 4670 mt 
( ) s
6227  443 mt 
( ) s
6 w
1 sg
0 521 1157 0 0 -521 4970 4399 4 MP
PP
-1157 0 0 521 1157 0 0 -521 4970 4399 5 MP stroke
4 w
DO
SO
6 w
0 sg
4970 4399 mt 6127 4399 L
4970 3878 mt 6127 3878 L
4970 4399 mt 4970 3878 L
6127 4399 mt 6127 3878 L
4970 4399 mt 6127 4399 L
4970 4399 mt 4970 3878 L
4970 4399 mt 6127 4399 L
4970 3878 mt 6127 3878 L
4970 4399 mt 4970 3878 L
6127 4399 mt 6127 3878 L
5438 4021 mt 
(Real) s
gs 4970 3878 1158 522 MR c np
gs 5149 3905 147 147 MR c np
c8
  36   36 5222 3978 FO
gr

c8
gr

c8
0 sg
5438 4181 mt 
(Kalman) s
gs 4970 3878 1158 522 MR c np
gs 5149 4065 147 147 MR c np
c9
5197 4113 mt 5247 4163 L
5247 4113 mt 5197 4163 L
gr

c9
gr

c9
0 sg
5438 4341 mt 
(Trilatera\347\343o) s
gs 4970 3878 1158 522 MR c np
12 w
gs 5149 4225 147 147 MR c np
c10
  36   36 5222 4298 FO
gr

c10
6 w
gr

c10

end %%Color Dict

eplot
%%EndObject

epage
end

showpage

%%Trailer
%%EOF
