%!PS-Adobe-2.0 EPSF-1.2
%%Creator: MATLAB, The Mathworks, Inc. Version 7.9.0.529 (R2009b). Operating System: Darwin 10.8.0 Darwin Kernel Version 10.8.0: Tue Jun  7 16:33:36 PDT 2011; root:xnu-1504.15.3~1/RELEASE_I386 i386.
%%Title: ./vD_vV_falhas_erro_covariancia.eps
%%CreationDate: 09/20/2011  01:04:01
%%DocumentNeededFonts: Helvetica
%%DocumentProcessColors: Cyan Magenta Yellow Black
%%Extensions: CMYK
%%Pages: 1
%%BoundingBox:    55   199   551   602
%%EndComments

%%BeginProlog
% MathWorks dictionary
/MathWorks 160 dict begin
% definition operators
/bdef {bind def} bind def
/ldef {load def} bind def
/xdef {exch def} bdef
/xstore {exch store} bdef
% operator abbreviations
/c  /clip ldef
/cc /concat ldef
/cp /closepath ldef
/gr /grestore ldef
/gs /gsave ldef
/mt /moveto ldef
/np /newpath ldef
/cm /currentmatrix ldef
/sm /setmatrix ldef
/rm /rmoveto ldef
/rl /rlineto ldef
/s {show newpath} bdef
/sc {setcmykcolor} bdef
/sr /setrgbcolor ldef
/sg /setgray ldef
/w /setlinewidth ldef
/j /setlinejoin ldef
/cap /setlinecap ldef
/rc {rectclip} bdef
/rf {rectfill} bdef
% page state control
/pgsv () def
/bpage {/pgsv save def} bdef
/epage {pgsv restore} bdef
/bplot /gsave ldef
/eplot {stroke grestore} bdef
% orientation switch
/portraitMode 0 def /landscapeMode 1 def /rotateMode 2 def
% coordinate system mappings
/dpi2point 0 def
% font control
/FontSize 0 def
/FMS {/FontSize xstore findfont [FontSize 0 0 FontSize neg 0 0]
  makefont setfont} bdef
/reencode {exch dup where {pop load} {pop StandardEncoding} ifelse
  exch dup 3 1 roll findfont dup length dict begin
  { 1 index /FID ne {def}{pop pop} ifelse } forall
  /Encoding exch def currentdict end definefont pop} bdef
/isroman {findfont /CharStrings get /Agrave known} bdef
/FMSR {3 1 roll 1 index dup isroman {reencode} {pop pop} ifelse
  exch FMS} bdef
/csm {1 dpi2point div -1 dpi2point div scale neg translate
 dup landscapeMode eq {pop -90 rotate}
  {rotateMode eq {90 rotate} if} ifelse} bdef
% line types: solid, dotted, dashed, dotdash
/SO { [] 0 setdash } bdef
/DO { [.5 dpi2point mul 4 dpi2point mul] 0 setdash } bdef
/DA { [6 dpi2point mul] 0 setdash } bdef
/DD { [.5 dpi2point mul 4 dpi2point mul 6 dpi2point mul 4
  dpi2point mul] 0 setdash } bdef
% macros for lines and objects
/L {lineto stroke} bdef
/MP {3 1 roll moveto 1 sub {rlineto} repeat} bdef
/AP {{rlineto} repeat} bdef
/PDlw -1 def
/W {/PDlw currentlinewidth def setlinewidth} def
/PP {closepath eofill} bdef
/DP {closepath stroke} bdef
/MR {4 -2 roll moveto dup  0 exch rlineto exch 0 rlineto
  neg 0 exch rlineto closepath} bdef
/FR {MR stroke} bdef
/PR {MR fill} bdef
/L1i {{currentfile picstr readhexstring pop} image} bdef
/tMatrix matrix def
/MakeOval {newpath tMatrix currentmatrix pop translate scale
0 0 1 0 360 arc tMatrix setmatrix} bdef
/FO {MakeOval stroke} bdef
/PO {MakeOval fill} bdef
/PD {currentlinewidth 2 div 0 360 arc fill
   PDlw -1 eq not {PDlw w /PDlw -1 def} if} def
/FA {newpath tMatrix currentmatrix pop translate scale
  0 0 1 5 -2 roll arc tMatrix setmatrix stroke} bdef
/PA {newpath tMatrix currentmatrix pop	translate 0 0 moveto scale
  0 0 1 5 -2 roll arc closepath tMatrix setmatrix fill} bdef
/FAn {newpath tMatrix currentmatrix pop translate scale
  0 0 1 5 -2 roll arcn tMatrix setmatrix stroke} bdef
/PAn {newpath tMatrix currentmatrix pop translate 0 0 moveto scale
  0 0 1 5 -2 roll arcn closepath tMatrix setmatrix fill} bdef
/vradius 0 def /hradius 0 def /lry 0 def
/lrx 0 def /uly 0 def /ulx 0 def /rad 0 def
/MRR {/vradius xdef /hradius xdef /lry xdef /lrx xdef /uly xdef
  /ulx xdef newpath tMatrix currentmatrix pop ulx hradius add uly
  vradius add translate hradius vradius scale 0 0 1 180 270 arc 
  tMatrix setmatrix lrx hradius sub uly vradius add translate
  hradius vradius scale 0 0 1 270 360 arc tMatrix setmatrix
  lrx hradius sub lry vradius sub translate hradius vradius scale
  0 0 1 0 90 arc tMatrix setmatrix ulx hradius add lry vradius sub
  translate hradius vradius scale 0 0 1 90 180 arc tMatrix setmatrix
  closepath} bdef
/FRR {MRR stroke } bdef
/PRR {MRR fill } bdef
/MlrRR {/lry xdef /lrx xdef /uly xdef /ulx xdef /rad lry uly sub 2 div def
  newpath tMatrix currentmatrix pop ulx rad add uly rad add translate
  rad rad scale 0 0 1 90 270 arc tMatrix setmatrix lrx rad sub lry rad
  sub translate rad rad scale 0 0 1 270 90 arc tMatrix setmatrix
  closepath} bdef
/FlrRR {MlrRR stroke } bdef
/PlrRR {MlrRR fill } bdef
/MtbRR {/lry xdef /lrx xdef /uly xdef /ulx xdef /rad lrx ulx sub 2 div def
  newpath tMatrix currentmatrix pop ulx rad add uly rad add translate
  rad rad scale 0 0 1 180 360 arc tMatrix setmatrix lrx rad sub lry rad
  sub translate rad rad scale 0 0 1 0 180 arc tMatrix setmatrix
  closepath} bdef
/FtbRR {MtbRR stroke } bdef
/PtbRR {MtbRR fill } bdef
/stri 6 array def /dtri 6 array def
/smat 6 array def /dmat 6 array def
/tmat1 6 array def /tmat2 6 array def /dif 3 array def
/asub {/ind2 exch def /ind1 exch def dup dup
  ind1 get exch ind2 get sub exch } bdef
/tri_to_matrix {
  2 0 asub 3 1 asub 4 0 asub 5 1 asub
  dup 0 get exch 1 get 7 -1 roll astore } bdef
/compute_transform {
  dmat dtri tri_to_matrix tmat1 invertmatrix 
  smat stri tri_to_matrix tmat2 concatmatrix } bdef
/ds {stri astore pop} bdef
/dt {dtri astore pop} bdef
/db {2 copy /cols xdef /rows xdef mul dup 3 mul string
  currentfile exch readhexstring pop
  dup 0 3 index getinterval /rbmap xdef
  dup 2 index dup getinterval /gbmap xdef
  1 index dup 2 mul exch getinterval /bbmap xdef pop pop}bdef
/it {gs np dtri aload pop moveto lineto lineto cp c
  cols rows 8 compute_transform 
  rbmap gbmap bbmap true 3 colorimage gr}bdef
/il {newpath moveto lineto stroke}bdef
currentdict end def
%%EndProlog

%%BeginSetup
MathWorks begin

0 cap

end
%%EndSetup

%%Page: 1 1
%%BeginPageSetup
%%PageBoundingBox:    55   199   551   602
MathWorks begin
bpage
%%EndPageSetup

%%BeginObject: obj1
bplot

/dpi2point 12 def
portraitMode 0216 7344 csm

  446   110  5958  4845 MR c np
85 dict begin %Colortable dictionary
/c0 { 0.000000 0.000000 0.000000 sr} bdef
/c1 { 1.000000 1.000000 1.000000 sr} bdef
/c2 { 0.900000 0.000000 0.000000 sr} bdef
/c3 { 0.000000 0.820000 0.000000 sr} bdef
/c4 { 0.000000 0.000000 0.800000 sr} bdef
/c5 { 0.910000 0.820000 0.320000 sr} bdef
/c6 { 1.000000 0.260000 0.820000 sr} bdef
/c7 { 0.000000 0.820000 0.820000 sr} bdef
c0
1 j
1 sg
   0    0 6913 5186 PR
6 w
0 4226 5356 0 0 -4226 899 4615 4 MP
PP
-5356 0 0 4226 5356 0 0 -4226 899 4615 5 MP stroke
4 w
DO
0 sg
 899 4615 mt  899  389 L
 899  389 mt  899  389 L
1791 4615 mt 1791  389 L
1791  389 mt 1791  389 L
2684 4615 mt 2684  389 L
2684  389 mt 2684  389 L
3577 4615 mt 3577  389 L
3577  389 mt 3577  389 L
4469 4615 mt 4469  389 L
4469  389 mt 4469  389 L
5362 4615 mt 5362  389 L
5362  389 mt 5362  389 L
6255 4615 mt 6255  389 L
6255  389 mt 6255  389 L
 899 4615 mt 6255 4615 L
6255 4615 mt 6255 4615 L
 899 4192 mt 6255 4192 L
6255 4192 mt 6255 4192 L
 899 3769 mt 6255 3769 L
6255 3769 mt 6255 3769 L
 899 3347 mt 6255 3347 L
6255 3347 mt 6255 3347 L
 899 2924 mt 6255 2924 L
6255 2924 mt 6255 2924 L
 899 2502 mt 6255 2502 L
6255 2502 mt 6255 2502 L
 899 2079 mt 6255 2079 L
6255 2079 mt 6255 2079 L
 899 1656 mt 6255 1656 L
6255 1656 mt 6255 1656 L
 899 1234 mt 6255 1234 L
6255 1234 mt 6255 1234 L
 899  811 mt 6255  811 L
6255  811 mt 6255  811 L
 899  389 mt 6255  389 L
6255  389 mt 6255  389 L
SO
6 w
 899 4615 mt 6255 4615 L
 899 4615 mt  899  389 L
 899 4615 mt  899 4561 L
%%IncludeResource: font Helvetica
/Helvetica /ISOLatin1Encoding 120 FMSR

 866 4760 mt 
(0) s
1791 4615 mt 1791 4561 L
1691 4760 mt 
(100) s
2684 4615 mt 2684 4561 L
2584 4760 mt 
(200) s
3577 4615 mt 3577 4561 L
3477 4760 mt 
(300) s
4469 4615 mt 4469 4561 L
4369 4760 mt 
(400) s
5362 4615 mt 5362 4561 L
5262 4760 mt 
(500) s
6255 4615 mt 6255 4561 L
6155 4760 mt 
(600) s
 899 4615 mt  952 4615 L
 798 4659 mt 
(0) s
 899 4192 mt  952 4192 L
 731 4236 mt 
(10) s
 899 3769 mt  952 3769 L
 731 3813 mt 
(20) s
 899 3347 mt  952 3347 L
 731 3391 mt 
(30) s
 899 2924 mt  952 2924 L
 731 2968 mt 
(40) s
 899 2502 mt  952 2502 L
 731 2546 mt 
(50) s
 899 2079 mt  952 2079 L
 731 2123 mt 
(60) s
 899 1656 mt  952 1656 L
 731 1700 mt 
(70) s
 899 1234 mt  952 1234 L
 731 1278 mt 
(80) s
 899  811 mt  952  811 L
 731  855 mt 
(90) s
 899  389 mt  952  389 L
 664  433 mt 
(100) s
gs 899 389 5357 4227 MR c np
/c8 { 0.000000 0.000000 1.000000 sr} bdef
c8
1 -1 0 -14 1 -1 0 -13 1 -1 0 -12 1 -1 0 -11 
1 -1 0 -11 1 -1 0 -9 1 -1 0 -9 1 -1 0 -8 
1 -1 0 -7 1 -1 0 50 0 -10 1 -1 0 -9 1 -1 
0 -9 1 -1 0 -8 1 -1 0 -7 1 -1 0 50 0 -51 
0 43 1 -1 0 -9 1 -1 0 -9 1 -1 0 -8 1 -1 
0 -7 1 -1 0 55 0 -58 0 52 1 -1 0 -9 1 -1 
0 -9 1 -1 0 -9 1 -1 0 -7 1 -1 0 81 0 -85 
0 81 1 -2 0 -11 1 -1 0 -11 1 -1 0 -10 1 -1 
0 -9 1 -1 0 280 0 -287 0 282 1 -2 0 -25 1 -2 
0 -23 1 -2 0 -22 1 -2 0 -21 1 -2 0 -22 1 -2 
0 -18 1 -2 0 -17 1 -2 0 -17 1 -1 0 -16 1 -1 
0 -16 1 -2 0 -13 1 -2 0 -12 1 -2 0 -12 1 -1 
0 -11 1 -1 0 -11 6210 4492 100 MP stroke
1 -1 0 -10 1 -1 0 -8 1 -1 0 -8 1 -1 0 -7 
1 -1 0 49 0 -50 0 41 1 -1 0 -10 1 -1 0 -8 
1 -1 0 -8 1 -1 0 -7 1 -1 0 49 0 -51 0 44 
1 -1 0 -10 1 -1 0 -8 1 -1 0 -8 1 -1 0 -7 
1 -1 0 54 0 -58 0 53 1 -1 0 -10 1 -1 0 -9 
1 -1 0 -8 1 -1 0 -8 1 -1 0 80 0 -85 0 82 
1 -1 0 -12 1 -1 0 -11 1 -1 0 -10 1 -1 0 -9 
1 -1 0 275 0 -283 0 280 1 -2 0 -24 1 -3 0 -23 
1 -2 0 -21 1 -3 0 -20 1 -2 0 -21 1 -2 0 -19 
1 -1 0 -18 1 -1 0 -17 1 -1 0 -16 1 -1 0 -16 
1 -2 0 -13 1 -1 0 -13 1 -1 0 -12 1 -1 0 -12 
1 -1 0 -11 1 -1 0 -9 1 -1 0 -9 1 -1 0 -8 
1 -1 0 -8 1 -1 6165 4532 100 MP stroke
0 51 0 -9 1 -1 0 -10 1 -1 0 -9 1 -1 0 -8 
1 -1 0 -8 1 -1 0 49 0 -50 0 43 1 -1 0 -10 
1 -1 0 -9 1 -1 0 -8 1 -1 0 -8 1 -1 0 47 
0 -50 0 45 1 -1 0 -10 1 -1 0 -9 1 -1 0 -8 
1 -1 0 -9 1 -1 0 46 0 -50 0 47 1 -1 0 -10 
1 -1 0 -9 1 -1 0 -9 1 -1 0 -8 1 -1 0 44 
0 -50 0 49 1 -1 0 -10 1 -1 0 -9 1 -1 0 -9 
1 -1 0 -8 1 -1 0 -7 1 51 0 -10 1 -1 0 -9 
1 -1 0 -9 1 -1 0 -8 1 -1 0 -7 1 -1 0 57 
0 -58 0 50 1 -1 0 -10 1 -1 0 -9 1 -1 0 -8 
1 -1 0 -8 1 -1 0 83 0 -85 0 78 1 -1 0 -11 
1 -1 0 -11 1 -1 0 -10 1 -1 0 -9 1 -1 0 278 
0 -283 0 273 1 -2 6123 4222 100 MP stroke
0 -24 1 -2 0 -22 1 -3 0 -23 1 -2 0 -20 1 -2 
0 -19 1 -2 0 -18 1 -2 0 -17 1 -2 0 -18 1 -1 
0 -15 1 -2 0 -14 1 -1 0 -13 1 -2 0 -12 1 -1 
0 -13 1 -1 0 -11 1 -1 0 -10 1 -1 0 -9 1 -1 
0 -9 1 -1 0 -8 1 -1 0 -7 0 50 1 -1 0 -10 
1 -1 0 -9 1 -1 0 -9 1 -1 0 -9 1 -1 0 -7 
1 -1 0 51 0 -10 1 -1 0 -9 1 -1 0 -9 1 -1 
0 -9 1 -1 0 -7 1 -1 0 49 0 -51 0 44 1 -1 
0 -10 1 -1 0 -9 1 -1 0 -9 1 -1 0 -7 1 -1 
0 47 0 -50 0 45 1 -1 0 -10 1 -1 0 -10 1 -1 
0 -8 1 -1 0 -8 1 -1 0 46 0 -50 0 47 1 -1 
0 -10 1 -1 0 -10 1 -1 0 -8 1 -1 0 -8 1 -1 
0 44 0 -50 0 49 6079 4482 100 MP stroke
1 -1 0 -10 1 -1 0 -10 1 -1 0 -9 1 -1 0 -7 
1 -1 0 -8 1 50 0 -10 1 -1 0 -10 1 -1 0 -9 
1 -1 0 -7 1 -1 0 -7 1 -1 0 50 0 -51 0 43 
1 -1 0 -10 1 -1 0 -9 1 -1 0 -7 1 -1 0 -7 
1 -1 0 56 0 -58 0 51 1 -1 0 -10 1 -1 0 -9 
1 -1 0 -8 1 -1 0 -8 1 -1 0 82 0 -85 0 81 
1 -2 0 -12 1 -1 0 -11 1 -1 0 -10 1 -1 0 -9 
1 -1 0 279 0 -285 0 280 1 -3 0 -26 1 -3 0 -22 
1 -3 0 -21 1 -2 0 -21 1 -2 0 -19 1 -2 0 -20 
1 -2 0 -17 1 -2 0 -16 1 -2 0 -15 1 -2 0 -14 
1 -1 0 -15 1 -2 0 -12 1 -1 0 -12 1 -1 0 -11 
1 -1 0 -10 1 -1 0 -10 1 -1 0 -9 1 -1 0 -7 
1 -1 0 -7 1 -1 6033 4530 100 MP stroke
0 51 0 -9 1 -1 0 -10 1 -1 0 -9 1 -1 0 -8 
1 -1 0 -6 1 -1 0 56 0 -58 0 51 1 -1 0 -11 
1 -1 0 -9 1 -1 0 -8 1 -1 0 -7 1 -1 0 82 
0 -85 0 79 1 -1 0 -12 1 -2 0 -10 1 -1 0 -10 
1 -1 0 -9 1 -1 0 274 0 -279 0 272 1 -2 0 -26 
1 -3 0 -22 1 -2 0 -21 1 -2 0 -20 1 -2 0 -19 
1 -2 0 -20 1 -2 0 -17 1 -1 0 -16 1 -2 0 -15 
1 -1 0 -15 1 -1 0 -15 1 -1 0 -12 1 -1 0 -12 
1 -1 0 -11 1 -1 0 -11 1 -1 0 -9 1 -1 0 -8 
1 -1 0 -8 1 -1 0 -6 0 49 1 -2 0 -11 1 -1 
0 -9 1 -1 0 -8 1 -1 0 -8 1 -1 0 -7 1 49 
0 -11 1 -1 0 -10 1 -1 0 -8 1 -1 0 -8 1 -1 
0 -7 1 -1 0 49 5988 4483 100 MP stroke
0 -10 1 -1 0 -9 1 -1 0 -9 1 -1 0 -8 1 -1 
0 -7 1 -1 0 48 0 -49 0 40 1 -1 0 -9 1 -1 
0 -9 1 -1 0 -8 1 -1 0 -7 1 -1 0 48 0 -50 
0 41 1 -1 0 -9 1 -1 0 -9 1 -1 0 -8 1 -1 
0 -7 1 -1 0 46 0 -49 0 42 1 -1 0 -9 1 -1 
0 -9 1 -1 0 -8 1 -1 0 -8 1 -1 0 46 0 -48 
0 42 1 -1 0 -9 1 -1 0 -9 1 -1 0 -8 1 -1 
0 -7 1 -1 0 46 0 -50 0 45 1 -1 0 -9 1 -1 
0 -9 1 -1 0 -8 1 -1 0 -7 1 -1 0 53 0 -57 
0 53 1 -2 0 -9 1 -1 0 -9 1 -1 0 -8 1 -1 
0 -8 1 -1 0 79 0 -84 0 81 1 -2 0 -11 1 -1 
0 -11 1 -1 0 -10 1 -1 0 -9 1 -1 0 273 0 -280 
0 275 1 -3 0 -23 5947 4244 100 MP stroke
1 -3 0 -22 1 -3 0 -21 1 -2 0 -21 1 -2 0 -21 
1 -2 0 -18 1 -2 0 -17 1 -2 0 -16 1 -1 0 -16 
1 -1 0 -16 1 -1 0 -14 1 -1 0 -12 1 -2 0 -11 
1 -1 0 -11 1 -1 0 -12 1 -1 0 -9 1 -1 0 -8 
1 -1 0 -8 1 -1 0 -7 0 50 1 -1 0 -11 1 -1 
0 -10 1 -1 0 -8 1 -1 0 -8 1 -1 0 -7 1 49 
0 -11 1 -1 0 -10 1 -1 0 -8 1 -1 0 -8 1 -1 
0 -8 1 49 0 -10 1 -1 0 -9 1 -1 0 -9 1 -1 
0 -8 1 -1 0 -7 1 -1 0 50 0 -9 1 -1 0 -9 
1 -1 0 -9 1 -1 0 -7 1 -1 0 -8 1 -1 0 56 
0 -57 0 49 1 -1 0 -9 1 -1 0 -9 1 -1 0 -8 
1 -1 0 -8 1 -1 0 83 0 -84 0 75 1 -1 0 -11 
1 -1 0 -11 1 -1 5900 4469 100 MP stroke
0 -9 1 -1 0 -10 1 -1 0 275 0 -277 0 263 1 -3 
0 -23 1 -2 0 -22 1 -2 0 -21 1 -2 0 -22 1 -2 
0 -18 1 -2 0 -18 1 -1 0 -17 1 -2 0 -15 1 -2 
0 -16 1 -1 0 -14 1 -1 0 -13 1 -1 0 -12 1 -1 
0 -11 1 -2 0 -11 1 -1 0 -9 1 -1 0 -9 1 -1 
0 -8 1 -1 0 -7 1 -1 0 52 0 -56 0 52 1 -1 
0 -9 1 -1 0 -9 1 -1 0 -9 1 -1 0 -7 1 -1 
0 79 0 -84 0 80 1 -1 0 -11 1 -1 0 -11 1 -1 
0 -10 1 -1 0 -9 1 -1 0 269 0 -276 0 272 1 -3 
0 -23 1 -3 0 -22 1 -2 0 -22 1 -2 0 -20 1 -2 
0 -21 1 -2 0 -18 1 -2 0 -17 1 -1 0 -16 1 -2 
0 -15 1 -2 0 -15 1 -1 0 -14 1 -1 0 -12 1 -2 
0 -11 1 -1 0 -11 5855 4484 100 MP stroke
1 -1 0 -11 1 -1 0 -9 1 -1 0 -9 1 -1 0 -8 
1 -1 0 -6 0 49 1 -1 0 -11 1 -1 0 -9 1 -1 
0 -9 1 -1 0 -7 1 -1 0 -8 1 50 0 -12 1 -1 
0 -9 1 -1 0 -9 1 -1 0 -7 1 -1 0 -8 1 -1 
0 50 0 -10 1 -1 0 -10 1 -1 0 -9 1 -1 0 -7 
1 -1 0 -8 1 -1 0 49 0 -9 1 -1 0 -10 1 -1 
0 -9 1 -1 0 -8 1 -1 0 -7 1 -1 0 48 0 -49 
0 41 1 -1 0 -10 1 -1 0 -8 1 -1 0 -8 1 -1 
0 -8 1 -1 0 49 0 -50 0 43 1 -1 0 -9 1 -1 
0 -9 1 -1 0 -8 1 -1 0 -8 1 -1 0 55 0 -57 
0 51 1 -1 0 -10 1 -1 0 -8 1 -1 0 -8 1 -1 
0 -9 1 -1 0 82 0 -84 0 78 1 -2 0 -11 1 -1 
0 -11 1 -1 0 -9 5811 4476 100 MP stroke
1 -1 0 -10 1 -1 0 273 0 -277 0 267 1 -2 0 -23 
1 -3 0 -22 1 -2 0 -21 1 -2 0 -22 1 -2 0 -19 
1 -1 0 -18 1 -2 0 -17 1 -1 0 -16 1 -2 0 -16 
1 -1 0 -14 1 -2 0 -12 1 -2 0 -12 1 -1 0 -11 
1 -1 0 -12 1 -1 0 -9 1 -1 0 -9 1 -1 0 -8 
1 -1 0 -8 1 -1 0 51 0 -56 0 54 1 -1 0 -10 
1 -1 0 -9 1 -1 0 -8 1 -1 0 -8 1 -1 0 78 
0 -84 0 82 1 -1 0 -11 1 -2 0 -10 1 -1 0 -10 
1 -1 0 -10 1 -1 0 -8 0 274 1 -3 0 -23 1 -3 
0 -22 1 -2 0 -22 1 -2 0 -20 1 -2 0 -21 1 -2 
0 -18 1 -2 0 -17 1 -2 0 -16 1 -1 0 -16 1 -1 
0 -16 1 -1 0 -13 1 -2 0 -12 1 -1 0 -12 1 -1 
0 -11 1 -1 0 -11 5765 4495 100 MP stroke
1 -1 0 -9 1 -1 0 -9 1 -1 0 -8 1 -1 0 -7 
1 -1 0 49 0 -10 1 -1 0 -9 1 -1 0 -9 1 -1 
0 -8 1 -1 0 -7 1 -1 0 48 0 -49 0 40 1 -1 
0 -10 1 -1 0 -8 1 -1 0 -8 1 -1 0 -8 1 -1 
0 48 0 -49 0 41 1 -1 0 -10 1 -1 0 -8 1 -1 
0 -8 1 -1 0 -8 1 -1 0 47 0 -49 0 42 1 -1 
0 -10 1 -1 0 -8 1 -1 0 -8 1 -1 0 -8 1 -1 
0 46 0 -49 0 43 1 -1 0 -10 1 -1 0 -9 1 -1 
0 -8 1 -1 0 -8 1 -1 0 46 0 -49 0 44 1 -1 
0 -10 1 -1 0 -9 1 -1 0 -8 1 -1 0 -8 1 -1 
0 45 0 -49 0 45 1 -1 0 -10 1 -1 0 -9 1 -1 
0 -8 1 -1 0 -8 1 -1 0 44 0 -49 0 46 1 -1 
0 -10 1 -1 0 -9 5723 4508 100 MP stroke
1 -1 0 -8 1 -1 0 -9 1 -1 0 44 0 -49 0 47 
1 -1 0 -10 1 -1 0 -9 1 -1 0 -8 1 -1 0 -9 
1 -1 0 43 0 -49 0 48 1 -1 0 -10 1 -1 0 -9 
1 -1 0 -9 1 -1 0 -8 1 -1 0 -7 0 49 1 -1 
0 -10 1 -1 0 -9 1 -1 0 -9 1 -1 0 -8 1 -1 
0 -8 1 49 0 -10 1 -1 0 -9 1 -1 0 -9 1 -1 
0 -8 1 -1 0 -7 1 -1 0 49 0 -9 1 -1 0 -10 
1 -1 0 -9 1 -1 0 -8 1 -1 0 -7 1 -1 0 48 
0 -49 0 41 1 -1 0 -10 1 -1 0 -8 1 -1 0 -9 
1 -1 0 -7 1 -1 0 48 0 -50 0 43 1 -2 0 -9 
1 -1 0 -9 1 -1 0 -9 1 -1 0 -7 1 -1 0 47 
0 -50 0 44 1 -1 0 -10 1 -1 0 -9 1 -1 0 -9 
1 -1 0 -7 1 -1 5679 4528 100 MP stroke
0 47 0 -50 0 45 1 -1 0 -10 1 -1 0 -9 1 -1 
0 -10 1 -1 0 -7 1 -1 0 46 0 -50 0 46 1 -1 
0 -10 1 -1 0 -9 1 -1 0 -9 1 -1 0 -8 1 -1 
0 45 0 -49 0 46 1 -1 0 -10 1 -1 0 -10 1 -1 
0 -8 1 -1 0 -8 1 -1 0 46 0 -51 0 49 1 -1 
0 -10 1 -1 0 -10 1 -1 0 -8 1 -1 0 -7 1 -1 
0 51 0 -57 0 56 1 -1 0 -10 1 -1 0 -10 1 -1 
0 -8 1 -1 0 -8 1 -1 0 -6 0 86 1 -1 0 -12 
1 -1 0 -11 1 -1 0 -10 1 -1 0 -9 1 -1 0 -8 
1 350 0 -26 1 -2 0 -28 1 -2 0 -24 1 -2 0 -23 
1 -2 0 -21 1 -2 0 -21 1 -2 0 -21 1 -2 0 -18 
1 -2 0 -17 1 -1 0 -17 1 -1 0 -16 1 -1 0 -16 
1 -1 0 -14 1 -1 5635 4420 100 MP stroke
0 -13 1 -1 0 -12 1 -1 0 -11 1 -1 0 -11 1 -1 
0 -10 1 -1 0 -9 1 -1 0 280 0 -19 1 -2 0 -24 
1 -2 0 -24 1 -2 0 -21 1 -2 0 -20 1 -2 0 -19 
1 -2 0 -17 1 -2 0 -18 1 -2 0 -15 1 -2 0 -15 
1 -1 0 -14 1 -1 0 -13 1 -1 0 -13 1 -2 0 -11 
1 -1 0 -10 1 -1 0 -10 1 -1 0 -8 1 -1 0 -9 
1 -1 0 -7 1 -1 0 48 0 -50 0 44 1 -1 0 -9 
1 -1 0 -9 1 -1 0 -9 1 -1 0 -7 1 -1 0 55 
0 -58 0 53 1 -1 0 -10 1 -1 0 -9 1 -1 0 -9 
1 -1 0 -7 1 -1 0 82 0 -86 0 81 1 -1 0 -12 
1 -1 0 -11 1 -1 0 -11 1 -1 0 -9 1 -1 0 296 
0 -300 0 289 1 -2 0 -26 1 -2 0 -24 1 -3 0 -25 
1 -2 0 -22 1 -2 5590 4309 100 MP stroke
0 -20 1 -2 0 -19 1 -2 0 -18 1 -2 0 -19 1 -2 
0 -15 1 -2 0 -15 1 -1 0 -14 1 -2 0 -14 1 -1 
0 -12 1 -1 0 -11 1 -1 0 -11 1 -1 0 -9 1 -1 
0 -9 1 -1 0 -8 1 -1 0 47 0 -50 0 46 1 -1 
0 -10 1 -1 0 -9 1 -1 0 -9 1 -1 0 -7 1 -1 
0 53 0 -56 0 52 1 -1 0 -9 1 -1 0 -8 1 -1 
0 -9 1 -1 0 -6 1 -1 0 93 0 -96 0 91 1 -1 
0 -10 1 -1 0 -9 1 -1 0 -10 1 -1 0 -7 1 -1 
0 1672 0 -1676 0 1648 1 -7 0 -68 1 -7 0 -67 1 -6 
0 -72 1 -6 0 -63 1 -6 0 -60 1 -6 0 -59 1 -6 
0 -57 1 -5 0 -61 1 -5 0 -53 1 -6 0 -51 1 -5 
0 -50 1 -4 0 -48 1 -5 0 -51 1 -4 0 -45 1 -4 
0 -43 1 -4 0 -41 5545 3792 100 MP stroke
1 -4 0 -40 1 -4 0 -42 1 -3 0 -37 1 -4 0 -35 
1 -3 0 -34 1 -3 0 -32 1 -3 0 -34 1 -3 0 -30 
1 -3 0 -28 1 -2 0 -27 1 -3 0 -25 1 -3 0 -27 
1 -2 0 -23 1 -2 0 -22 1 -3 0 -20 1 -2 0 -20 
1 -2 0 -21 1 -1 0 -18 1 -2 0 -16 1 -2 0 -16 
1 -1 0 -15 1 -1 0 -15 1 -2 0 -13 1 -1 0 -12 
1 -1 0 -11 1 -1 0 -11 1 -1 0 -10 1 -1 0 -9 
1 -1 0 -8 1 -1 0 -8 1 -1 0 80 0 -83 0 78 
1 -1 0 -12 1 -1 0 -11 1 -1 0 -10 1 -1 0 -9 
1 -1 0 273 0 -277 0 267 1 -2 0 -26 1 -2 0 -23 
1 -2 0 -21 1 -2 0 -20 1 -2 0 -19 1 -2 0 -19 
1 -2 0 -17 1 -2 0 -16 1 -1 0 -15 1 -2 0 -15 
1 -1 0 -13 1 -2 5497 4452 100 MP stroke
0 -12 1 -1 0 -11 1 -1 0 -11 1 -1 0 -11 1 -1 
0 -9 1 -1 0 -8 1 -1 0 -7 1 -1 0 44 0 -48 
0 44 1 -1 0 -11 1 -1 0 -9 1 -1 0 -8 1 -1 
0 -7 1 -1 0 44 0 -48 0 44 1 -1 0 -10 1 -1 
0 -9 1 -1 0 -8 1 -1 0 -7 1 -1 0 45 0 -49 
0 45 1 -1 0 -10 1 -1 0 -9 1 -1 0 -8 1 -1 
0 -7 1 -1 0 53 0 -56 0 52 1 -1 0 -11 1 -1 
0 -9 1 -1 0 -8 1 -1 0 -7 1 -1 0 79 0 -83 
0 78 1 -1 0 -12 1 -1 0 -11 1 -1 0 -10 1 -1 
0 -9 1 -1 0 268 0 -272 0 262 1 -2 0 -25 1 -3 
0 -21 1 -2 0 -21 1 -2 0 -20 1 -2 0 -18 1 -2 
0 -19 1 -2 0 -16 1 -2 0 -15 1 -2 0 -15 1 -1 
0 -14 1 -1 0 -14 5454 4450 100 MP stroke
1 -1 0 -12 1 -1 0 -11 1 -1 0 -10 1 -1 0 -10 
1 -1 0 -9 1 -1 0 -8 1 -1 0 -7 1 -1 0 52 
0 -56 0 52 1 -1 0 -10 1 -1 0 -9 1 -1 0 -8 
1 -1 0 -8 1 -1 0 79 0 -82 0 78 1 -2 0 -11 
1 -1 0 -11 1 -1 0 -10 1 -1 0 -9 1 -1 0 269 
0 -273 0 263 1 -2 0 -24 1 -2 0 -24 1 -2 0 -21 
1 -2 0 -20 1 -2 0 -19 1 -1 0 -18 1 -2 0 -18 
1 -2 0 -16 1 -1 0 -15 1 -1 0 -14 1 -1 0 -13 
1 -2 0 -13 1 -1 0 -11 1 -2 0 -10 1 -1 0 -10 
1 -1 0 -9 1 -1 0 -9 1 -1 0 -7 1 -1 0 44 
0 -48 0 44 1 -1 0 -9 1 -1 0 -10 1 -1 0 -8 
1 -1 0 -8 1 -1 0 45 0 -49 0 45 1 -1 0 -10 
1 -1 0 -10 1 -1 5409 4511 100 MP stroke
0 -8 1 -1 0 -8 1 -1 0 45 0 -48 0 44 1 -1 
0 -10 1 -1 0 -10 1 -1 0 -8 1 -1 0 -8 1 -1 
0 45 0 -48 0 43 1 -1 0 -9 1 -1 0 -10 1 -1 
0 -8 1 -1 0 -7 1 -1 0 44 0 -48 0 43 1 -1 
0 -9 1 -1 0 -10 1 -1 0 -8 1 -1 0 -7 1 -1 
0 46 0 -49 0 45 1 -1 0 -10 1 -1 0 -9 1 -1 
0 -8 1 -1 0 -7 1 -1 0 52 0 -56 0 52 1 -1 
0 -10 1 -1 0 -10 1 -1 0 -8 1 -1 0 -7 1 -1 
0 79 0 -82 0 77 1 -1 0 -11 1 -1 0 -12 1 -1 
0 -9 1 -1 0 -9 1 -1 0 266 0 -271 0 261 1 -2 
0 -23 1 -2 0 -25 1 -2 0 -20 1 -2 0 -20 1 -2 
0 -19 1 -1 0 -18 1 -2 0 -18 1 -1 0 -16 1 -2 
0 -14 1 -2 0 -13 5367 4437 100 MP stroke
1 -2 0 -13 1 -1 0 -13 1 -1 0 -11 1 -1 0 -11 
1 -1 0 -10 1 -1 0 -8 1 -1 0 -9 1 -1 0 -8 
1 -1 0 44 0 -47 0 43 1 -1 0 -10 1 -1 0 -8 
1 -1 0 -9 1 -1 0 -8 1 -1 0 44 0 -47 0 43 
1 -1 0 -10 1 -1 0 -8 1 -1 0 -9 1 -1 0 -8 
1 -1 0 44 0 -47 0 43 1 -1 0 -10 1 -1 0 -8 
1 -1 0 -9 1 -1 0 -8 1 -1 0 44 0 -47 0 43 
1 -1 0 -10 1 -1 0 -8 1 -1 0 -9 1 -1 0 -8 
1 -1 0 44 0 -47 0 43 1 -1 0 -10 1 -1 0 -9 
1 -1 0 -9 1 -1 0 -7 1 -1 0 43 0 -46 0 42 
1 -1 0 -9 1 -1 0 -10 1 -1 0 -8 1 -1 0 -7 
1 -1 0 42 0 -46 0 42 1 -1 0 -9 1 -1 0 -10 
1 -1 0 -8 1 -1 5324 4523 100 MP stroke
0 -7 1 -1 0 43 0 -46 0 41 1 -1 0 -9 1 -1 
0 -10 1 -1 0 -7 1 -1 0 -8 1 -1 0 44 0 -46 
0 40 1 -1 0 -9 1 -1 0 -9 1 -1 0 -8 1 -1 
0 -7 1 -1 0 44 0 -46 0 39 1 -1 0 -9 1 -1 
0 -9 1 -1 0 -8 1 -1 0 -7 1 -1 0 45 0 -46 
0 38 1 -1 0 -9 1 -1 0 -9 1 -1 0 -8 1 -1 
0 -7 1 -1 0 46 0 -8 1 -1 0 -10 1 -1 0 -9 
1 -1 0 -8 1 -1 0 -7 1 46 0 -9 1 -1 0 -10 
1 -1 0 -9 1 -1 0 -7 1 -1 0 -7 0 46 1 -1 
0 -9 1 -1 0 -9 1 -1 0 -10 1 -1 0 -7 1 -1 
0 40 0 -46 0 45 1 -1 0 -9 1 -1 0 -9 1 -1 
0 -9 1 -1 0 -8 1 -1 0 41 0 -46 0 44 1 -1 
0 -9 1 -1 0 -9 5282 4510 100 MP stroke
1 -1 0 -9 1 -1 0 -8 1 -1 0 42 0 -46 0 43 
1 -1 0 -9 1 -1 0 -9 1 -1 0 -9 1 -1 0 -7 
1 -1 0 42 0 -46 0 42 1 -1 0 -9 1 -1 0 -9 
1 -1 0 -9 1 -1 0 -7 1 -1 0 43 0 -46 0 41 
1 -1 0 -9 1 -1 0 -9 1 -1 0 -8 1 -1 0 -8 
1 -1 0 44 0 -46 0 40 1 -1 0 -9 1 -1 0 -9 
1 -1 0 -8 1 -1 0 -7 1 -1 0 44 0 -46 0 39 
1 -1 0 -9 1 -1 0 -8 1 -1 0 -9 1 -1 0 -7 
1 -1 0 45 0 -46 0 38 1 -1 0 -9 1 -1 0 -8 
1 -1 0 -9 1 -1 0 -7 1 -1 0 46 0 -8 1 -1 
0 -10 1 -1 0 -9 1 -1 0 -8 1 -1 0 -7 1 46 
0 -9 1 -1 0 -10 1 -1 0 -9 1 -1 0 -7 1 -1 
0 -7 0 46 1 -1 5239 4489 100 MP stroke
0 -9 1 -1 0 -9 1 -1 0 -10 1 -1 0 -7 1 -1 
0 40 0 -46 0 45 1 -1 0 -9 1 -1 0 -9 1 -1 
0 -9 1 -1 0 -8 1 -1 0 41 0 -46 0 44 1 -1 
0 -9 1 -1 0 -9 1 -1 0 -9 1 -1 0 -8 1 -1 
0 42 0 -46 0 43 1 -1 0 -9 1 -1 0 -9 1 -1 
0 -9 1 -1 0 -7 1 -1 0 42 0 -46 0 42 1 -1 
0 -9 1 -1 0 -9 1 -1 0 -9 1 -1 0 -7 1 -1 
0 43 0 -46 0 41 1 -1 0 -9 1 -1 0 -9 1 -1 
0 -8 1 -1 0 -8 1 -1 0 44 0 -46 0 40 1 -1 
0 -9 1 -1 0 -9 1 -1 0 -8 1 -1 0 -7 1 -1 
0 44 0 -46 0 39 1 -1 0 -9 1 -1 0 -8 1 -1 
0 -9 1 -1 0 -7 1 -1 0 45 0 -46 0 38 1 -1 
0 -9 1 -1 0 -8 5198 4515 100 MP stroke
1 -1 0 -9 1 -1 0 -7 1 -1 0 46 0 -8 1 -1 
0 -10 1 -1 0 -8 1 -1 0 -9 1 -1 0 -7 1 46 
0 -9 1 -1 0 -10 1 -1 0 -8 1 -1 0 -8 1 -1 
0 -7 0 46 1 -1 0 -9 1 -1 0 -9 1 -1 0 -9 
1 -1 0 -8 1 -1 0 40 0 -46 0 45 1 -1 0 -9 
1 -1 0 -9 1 -1 0 -9 1 -1 0 -8 1 -1 0 41 
0 -46 0 44 1 -1 0 -9 1 -1 0 -9 1 -1 0 -8 
1 -1 0 -9 1 -1 0 42 0 -46 0 43 1 -1 0 -9 
1 -1 0 -9 1 -1 0 -8 1 -1 0 -8 1 -1 0 42 
0 -46 0 42 1 -1 0 -9 1 -1 0 -9 1 -1 0 -9 
1 -1 0 -7 1 -1 0 43 0 -46 0 41 1 -1 0 -9 
1 -1 0 -9 1 -1 0 -8 1 -1 0 -8 1 -1 0 44 
0 -46 0 40 1 -1 5155 4495 100 MP stroke
0 -9 1 -1 0 -9 1 -1 0 -8 1 -1 0 -7 1 -1 
0 44 0 -46 0 39 1 -1 0 -9 1 -1 0 -8 1 -1 
0 -9 1 -1 0 -7 1 -1 0 45 0 -46 0 38 1 -1 
0 -9 1 -1 0 -8 1 -1 0 -9 1 -1 0 -7 1 -1 
0 46 0 -9 1 -1 0 -9 1 -1 0 -8 1 -1 0 -9 
1 -1 0 -7 1 46 0 -9 1 -1 0 -10 1 -1 0 -8 
1 -1 0 -8 1 -1 0 -7 0 46 1 -1 0 -9 1 -1 
0 -9 1 -1 0 -9 1 -1 0 -8 1 -1 0 40 0 -46 
0 45 1 -1 0 -9 1 -1 0 -9 1 -1 0 -9 1 -1 
0 -8 1 -1 0 41 0 -46 0 44 1 -1 0 -9 1 -1 
0 -9 1 -1 0 -8 1 -1 0 -9 1 -1 0 42 0 -46 
0 43 1 -1 0 -9 1 -1 0 -9 1 -1 0 -8 1 -1 
0 -8 1 -1 0 42 5112 4488 100 MP stroke
0 -46 0 42 1 -1 0 -10 1 -1 0 -9 1 -1 0 -8 
1 -1 0 -8 1 -1 0 43 0 -45 0 40 1 -1 0 -10 
1 -1 0 -8 1 -1 0 -8 1 -1 0 -8 1 -1 0 44 
0 -45 0 38 1 -1 0 -9 1 -1 0 -9 1 -1 0 -8 
1 -1 0 -7 1 -1 0 45 0 -9 1 -1 0 -9 1 -1 
0 -9 1 -1 0 -7 1 -1 0 -7 0 45 1 -1 0 -10 
1 -1 0 -9 1 -1 0 -8 1 -1 0 -8 1 -1 0 40 
0 -45 0 43 1 -1 0 -10 1 -1 0 -9 1 -1 0 -8 
1 -1 0 -7 1 -1 0 41 0 -45 0 41 1 -1 0 -10 
1 -1 0 -8 1 -1 0 -8 1 -1 0 -8 1 -1 0 43 
0 -45 0 39 1 -1 0 -10 1 -1 0 -8 1 -1 0 -8 
1 -1 0 -8 1 -1 0 45 0 -8 1 -1 0 -9 1 -1 
0 -9 1 -1 0 -7 5070 4525 100 MP stroke
1 -1 0 -8 1 45 0 -10 1 -1 0 -9 1 -1 0 -8 
1 -1 0 -8 1 -1 0 39 0 -45 0 44 1 -1 0 -10 
1 -1 0 -9 1 -1 0 -8 1 -1 0 -7 1 -1 0 40 
0 -45 0 42 1 -1 0 -10 1 -1 0 -9 1 -1 0 -8 
1 -1 0 -7 1 -1 0 42 0 -45 0 40 1 -1 0 -10 
1 -1 0 -8 1 -1 0 -8 1 -1 0 -7 1 -1 0 43 
0 -45 0 38 1 -1 0 -9 1 -1 0 -9 1 -1 0 -8 
1 -1 0 -7 1 -1 0 45 0 -9 1 -1 0 -9 1 -1 
0 -8 1 -1 0 -8 1 -1 0 -7 1 45 0 -11 1 -1 
0 -9 1 -1 0 -8 1 -1 0 -7 1 -1 0 39 0 -45 
0 44 1 -1 0 -10 1 -1 0 -9 1 -1 0 -8 1 -1 
0 -8 1 -1 0 42 0 -46 0 43 1 -1 0 -11 1 -1 
0 -9 1 -1 0 -8 5027 4522 100 MP stroke
1 -1 0 -7 1 -1 0 43 0 -46 0 41 1 -1 0 -11 
1 -1 0 -8 1 -1 0 -8 1 -1 0 -7 1 -1 0 44 
0 -46 0 39 1 -1 0 -10 1 -1 0 -9 1 -1 0 -7 
1 -1 0 -7 1 -1 0 45 0 -9 1 -1 0 -10 1 -1 
0 -8 1 -1 0 -8 1 -1 0 -6 0 45 1 -1 0 -10 
1 -1 0 -10 1 -1 0 -8 1 -1 0 -7 1 -1 0 40 
0 -45 0 43 1 -1 0 -9 1 -1 0 -10 1 -1 0 -8 
1 -1 0 -7 1 -1 0 43 0 -46 0 42 1 -1 0 -9 
1 -1 0 -9 1 -1 0 -8 1 -1 0 -7 1 -1 0 52 
0 -54 0 48 1 -1 0 -10 1 -1 0 -9 1 -1 0 -8 
1 -1 0 -7 1 -1 0 80 0 -10 1 -1 0 -12 1 -1 
0 -10 1 -1 0 -9 1 -1 0 -9 1 257 0 -23 1 -2 
0 -24 1 -2 0 -21 4984 4310 100 MP stroke
1 -2 0 -19 1 -2 0 -19 1 -1 0 -18 1 -2 0 -18 
1 -1 0 -16 1 -1 0 -15 1 -1 0 -14 1 -1 0 -13 
1 -1 0 -14 1 -1 0 -11 1 -1 0 -10 1 -1 0 -10 
1 -1 0 -9 1 -1 0 -8 1 -1 0 -8 1 -1 0 42 
0 -45 0 41 1 -1 0 -10 1 -1 0 -8 1 -1 0 -9 
1 -1 0 -7 1 -1 0 43 0 -45 0 39 1 -1 0 -9 
1 -1 0 -9 1 -1 0 -8 1 -1 0 -7 1 -1 0 44 
0 -45 0 37 1 -1 0 -9 1 -1 0 -8 1 -1 0 -9 
1 -1 0 -7 1 46 0 -10 1 -1 0 -9 1 -1 0 -9 
1 -1 0 -8 1 -1 0 40 0 -46 0 45 1 -1 0 -10 
1 -1 0 -9 1 -1 0 -8 1 -1 0 -8 1 -1 0 41 
0 -46 0 43 1 -1 0 -10 1 -1 0 -8 1 -1 0 -9 
1 -1 0 -8 1 -1 4939 4531 100 MP stroke
0 43 0 -46 0 41 1 -1 0 -9 1 -1 0 -9 1 -1 
0 -8 1 -1 0 -8 1 -1 0 44 0 -45 0 38 1 -1 
0 -9 1 -1 0 -9 1 -1 0 -8 1 -1 0 -7 1 -1 
0 45 0 -9 1 -1 0 -9 1 -1 0 -8 1 -1 0 -7 
1 -1 0 -8 0 47 1 -1 0 -10 1 -1 0 -8 1 -1 
0 -8 1 -1 0 -7 1 -1 0 47 0 -53 0 51 1 -1 
0 -10 1 -1 0 -8 1 -1 0 -9 1 -1 0 -8 1 -1 
0 77 0 -79 0 73 1 -1 0 -11 1 -1 0 -10 1 -1 
0 -10 1 -1 0 -10 1 -1 0 258 0 -19 1 -2 0 -22 
1 -2 0 -22 1 -2 0 -20 1 -2 0 -20 1 -2 0 -18 
1 -2 0 -17 1 -1 0 -16 1 -2 0 -15 1 -1 0 -16 
1 -1 0 -13 1 -1 0 -12 1 -2 0 -11 1 -1 0 -11 
1 -1 0 -10 1 -1 4895 4501 100 MP stroke
0 -9 1 -1 0 -9 1 -1 0 -7 1 -1 0 39 0 -44 
0 42 1 -1 0 -10 1 -1 0 -9 1 -1 0 -8 1 -1 
0 -7 1 -1 0 41 0 -44 0 39 1 -1 0 -10 1 -1 
0 -8 1 -1 0 -7 1 -1 0 -7 1 -1 0 45 0 -46 
0 38 1 -1 0 -10 1 -1 0 -8 1 -1 0 -7 1 -1 
0 -6 0 52 1 -1 0 -9 1 -1 0 -10 1 -1 0 -8 
1 -1 0 -7 1 -1 0 74 0 -79 0 76 1 -2 0 -11 
1 -1 0 -11 1 -1 0 -10 1 -1 0 -9 1 -1 0 251 
0 -253 0 239 1 -2 0 -22 1 -2 0 -23 1 -2 0 -20 
1 -2 0 -19 1 -2 0 -17 1 -2 0 -17 1 -1 0 -18 
1 -1 0 -15 1 -2 0 -13 1 -2 0 -13 1 -1 0 -12 
1 -1 0 -13 1 -1 0 -10 1 -1 0 -10 1 -1 0 -9 
1 -1 0 -8 1 -1 4851 4520 100 MP stroke
0 -9 1 -1 0 40 0 -45 0 43 1 -1 0 -10 1 -1 
0 -8 1 -1 0 -9 1 -1 0 -8 1 -1 0 42 0 -44 
0 39 1 -1 0 -9 1 -1 0 -9 1 -1 0 -8 1 -1 
0 -8 1 -1 0 44 0 -8 1 -1 0 -9 1 -1 0 -8 
1 -1 0 -8 1 -1 0 -7 0 44 1 -1 0 -9 1 -1 
0 -9 1 -1 0 -9 1 -1 0 -8 1 -1 0 40 0 -44 
0 41 1 -1 0 -9 1 -1 0 -9 1 -1 0 -8 1 -1 
0 -8 1 -1 0 42 0 -44 0 38 1 -1 0 -9 1 -1 
0 -8 1 -1 0 -7 1 -1 0 -8 1 -1 0 46 0 -9 
1 -1 0 -9 1 -1 0 -8 1 -1 0 -7 1 -1 0 47 
0 -53 0 52 1 -1 0 -10 1 -1 0 -9 1 -1 0 -8 
1 -1 0 -7 1 -1 0 75 0 -80 0 75 1 -1 0 -11 
1 -1 0 -11 1 -1 4809 4472 100 MP stroke
0 -9 1 -1 0 -9 1 -1 0 256 0 -259 0 243 1 -3 
0 -22 1 -2 0 -21 1 -2 0 -20 1 -2 0 -19 1 -2 
0 -20 1 -2 0 -17 1 -1 0 -16 1 -2 0 -15 1 -1 
0 -14 1 -2 0 -14 1 -1 0 -13 1 -1 0 -11 1 -2 
0 -10 1 -1 0 -10 1 -1 0 -10 1 -1 0 -8 1 -1 
0 -8 1 -1 0 40 0 -46 0 45 1 -2 0 -9 1 -1 
0 -10 1 -1 0 -8 1 -1 0 -8 1 -1 0 42 0 -45 
0 41 1 -1 0 -9 1 -1 0 -10 1 -1 0 -8 1 -1 
0 -7 1 -1 0 44 0 -46 0 39 1 -1 0 -10 1 -1 
0 -9 1 -1 0 -8 1 -1 0 -7 1 45 0 -10 1 -1 
0 -9 1 -1 0 -9 1 -1 0 -8 1 -1 0 40 0 -45 
0 43 1 -1 0 -10 1 -1 0 -9 1 -1 0 -8 1 -1 
0 -7 1 -1 0 43 4765 4485 100 MP stroke
0 -46 0 41 1 -1 0 -9 1 -1 0 -8 1 -1 0 -8 
1 -1 0 -7 1 -1 0 53 0 -54 0 46 1 -1 0 -9 
1 -1 0 -8 1 -1 0 -8 1 -1 0 -6 0 91 1 -1 
0 -11 1 -1 0 -11 1 -1 0 -9 1 -1 0 -9 1 -1 
0 715 0 -720 0 707 1 -4 0 -41 1 -4 0 -39 1 -4 
0 -41 1 -4 0 -36 1 -4 0 -35 1 -3 0 -33 1 -4 
0 -32 1 -3 0 -33 1 -3 0 -29 1 -3 0 -28 1 -3 
0 -26 1 -3 0 -25 1 -3 0 -26 1 -3 0 -23 1 -2 
0 -21 1 -3 0 -20 1 -2 0 -20 1 -2 0 -20 1 -2 
0 -17 1 -2 0 -16 1 -2 0 -15 1 -2 0 -15 1 -1 
0 -15 1 -1 0 -13 1 -1 0 -12 1 -1 0 -11 1 -1 
0 -11 1 -1 0 -10 1 -1 0 -9 1 -1 0 -8 1 -1 
0 -7 1 -1 0 38 4719 4493 100 MP stroke
0 -43 0 40 1 -1 0 -10 1 -1 0 -8 1 -1 0 -8 
1 -1 0 -7 1 -1 0 41 0 -43 0 36 1 -1 0 -9 
1 -1 0 -9 1 -1 0 -7 1 -1 0 -7 0 43 1 -1 
0 -9 1 -1 0 -10 1 -1 0 -8 1 -1 0 -7 1 -1 
0 39 0 -43 0 39 1 -1 0 -9 1 -1 0 -9 1 -1 
0 -8 1 -1 0 -7 1 -1 0 42 0 -43 0 35 1 -1 
0 -8 1 -1 0 -9 1 -1 0 -8 1 -1 0 37 0 -43 
0 42 1 -1 0 -9 1 -1 0 -9 1 -1 0 -9 1 -1 
0 -7 1 -1 0 40 0 -43 0 38 1 -1 0 -9 1 -1 
0 -8 1 -1 0 -9 1 -1 0 -7 1 -1 0 43 0 -8 
1 -1 0 -9 1 -1 0 -8 1 -1 0 -9 1 -1 0 38 
0 -43 0 41 1 -1 0 -9 1 -1 0 -9 1 -1 0 -8 
1 -1 0 -7 1 -1 4677 4533 100 MP stroke
0 40 0 -43 0 37 1 -1 0 -9 1 -1 0 -8 1 -1 
0 -8 1 -1 0 -8 1 43 0 -9 1 -1 0 -9 1 -1 
0 -8 1 -1 0 -8 1 -1 0 38 0 -43 0 40 1 -1 
0 -9 1 -1 0 -9 1 -1 0 -7 1 -1 0 -8 1 -1 
0 41 0 -43 0 36 1 -1 0 -9 1 -1 0 -8 1 -1 
0 -7 1 -1 0 -8 0 43 1 -1 0 -9 1 -1 0 -9 
1 -1 0 -8 1 -1 0 -7 1 -1 0 38 0 -43 0 39 
1 -1 0 -9 1 -1 0 -8 1 -1 0 -8 1 -1 0 -7 
1 -1 0 41 0 -43 0 35 1 -1 0 -8 1 -1 0 -9 
1 -1 0 -7 1 -1 0 -7 0 43 1 -1 0 -10 1 -1 
0 -9 1 -1 0 -8 1 -1 0 -7 1 -1 0 39 0 -43 
0 39 1 -1 0 -10 1 -1 0 -8 1 -1 0 -8 1 -1 
0 -7 1 -1 0 42 4635 4493 100 MP stroke
0 -43 0 35 1 -1 0 -9 1 -1 0 -8 1 -1 0 -8 
1 -1 0 37 0 -43 0 42 1 -1 0 -9 1 -1 0 -10 
1 -1 0 -8 1 -1 0 -7 1 -1 0 40 0 -43 0 38 
1 -1 0 -9 1 -1 0 -9 1 -1 0 -8 1 -1 0 -7 
1 -1 0 43 0 -9 1 -1 0 -8 1 -1 0 -9 1 -1 
0 -8 1 -1 0 38 0 -43 0 41 1 -1 0 -9 1 -1 
0 -9 1 -1 0 -8 1 -1 0 -8 1 -1 0 41 0 -43 
0 37 1 -1 0 -9 1 -1 0 -8 1 -1 0 -8 1 -1 
0 -8 1 43 0 -9 1 -1 0 -9 1 -1 0 -8 1 -1 
0 -8 1 -1 0 38 0 -43 0 40 1 -1 0 -9 1 -1 
0 -9 1 -1 0 -7 1 -1 0 -8 1 -1 0 41 0 -43 
0 36 1 -1 0 -9 1 -1 0 -8 1 -1 0 -8 1 -1 
0 -7 0 42 1 -1 4593 4495 100 MP stroke
0 -9 1 -1 0 -9 1 -1 0 -8 1 -1 0 -7 1 -1 
0 38 0 -42 0 38 1 -1 0 -9 1 -1 0 -9 1 -1 
0 -7 1 -1 0 -7 1 -1 0 41 0 -42 0 33 1 -1 
0 -9 1 -1 0 -8 1 -1 0 -7 1 -1 0 37 0 -42 
0 39 1 -1 0 -9 1 -1 0 -9 1 -1 0 -7 1 -1 
0 -8 1 -1 0 41 0 -42 0 34 1 -1 0 -8 1 -1 
0 -9 1 -1 0 -7 1 -1 0 36 0 -42 0 41 1 -1 
0 -10 1 -1 0 -9 1 -1 0 -7 1 -1 0 -7 1 -1 
0 40 0 -43 0 37 1 -1 0 -10 1 -1 0 -8 1 -1 
0 -8 1 -1 0 -6 0 42 1 -1 0 -10 1 -1 0 -9 
1 -1 0 -8 1 -1 0 -7 1 -1 0 39 0 -42 0 37 
1 -1 0 -9 1 -1 0 -9 1 -1 0 -8 1 -1 0 -7 
1 42 0 -10 1 -1 4551 4504 100 MP stroke
0 -9 1 -1 0 -8 1 -1 0 -7 1 -1 0 38 0 -42 
0 38 1 -1 0 -9 1 -1 0 -8 1 -1 0 -8 1 -1 
0 -7 1 -1 0 44 0 -9 1 -1 0 -8 1 -1 0 -8 
1 -1 0 -8 1 -1 0 47 0 -51 0 48 1 -1 0 -9 
1 -1 0 -9 1 -1 0 -8 1 -1 0 -7 1 -1 0 76 
0 -77 0 68 1 -1 0 -11 1 -1 0 -10 1 -1 0 -9 
1 -1 0 245 0 -252 0 247 1 -2 0 -23 1 -2 0 -21 
1 -3 0 -20 1 -2 0 -19 1 -2 0 -20 1 -2 0 -17 
1 -2 0 -16 1 -2 0 -15 1 -2 0 -14 1 -1 0 -15 
1 -1 0 -13 1 -1 0 -12 1 -1 0 -11 1 -1 0 -10 
1 -1 0 -10 1 -1 0 -8 1 -1 0 -8 1 -1 0 -6 
0 42 1 -1 0 -9 1 -1 0 -10 1 -1 0 -8 1 -1 
0 -7 1 -1 0 40 4507 4491 100 MP stroke
0 -43 0 38 1 -1 0 -9 1 -1 0 -9 1 -1 0 -8 
1 -1 0 -7 1 44 0 -9 1 -1 0 -9 1 -1 0 -8 
1 -1 0 -7 1 -1 0 47 0 -51 0 47 1 -1 0 -9 
1 -1 0 -9 1 -1 0 -7 1 -1 0 -7 1 -1 0 79 
0 -10 1 -1 0 -10 1 -1 0 -11 1 -1 0 -8 1 -1 
0 312 0 -317 0 310 1 -3 0 -24 1 -3 0 -23 1 -2 
0 -24 1 -3 0 -20 1 -2 0 -20 1 -2 0 -19 1 -2 
0 -18 1 -1 0 -19 1 -1 0 -16 1 -2 0 -14 1 -2 
0 -14 1 -1 0 -13 1 -1 0 -14 1 -1 0 -12 1 -1 
0 -10 1 -1 0 -10 1 -1 0 -9 1 -1 0 237 0 -244 
0 239 1 -2 0 -22 1 -2 0 -21 1 -2 0 -20 1 -2 
0 -18 1 -2 0 -19 1 -2 0 -17 1 -1 0 -16 1 -1 
0 -15 1 -1 0 -14 4462 4433 100 MP stroke
1 -2 0 -14 1 -1 0 -12 1 -1 0 -11 1 -1 0 -11 
1 -1 0 -9 1 -1 0 -10 1 -1 0 -8 1 -1 0 -7 
1 -1 0 -6 0 50 1 -1 0 -9 1 -1 0 -10 1 -1 
0 -8 1 -1 0 -7 1 -1 0 73 0 -76 0 71 1 -2 
0 -10 1 -1 0 -12 1 -1 0 -9 1 -1 0 -9 1 237 
0 -22 1 -2 0 -21 1 -2 0 -22 1 -2 0 -18 1 -2 
0 -18 1 -1 0 -17 1 -2 0 -15 1 -2 0 -16 1 -2 
0 -14 1 -1 0 -13 1 -1 0 -12 1 -1 0 -12 1 -1 
0 -11 1 -1 0 -10 1 -1 0 -9 1 -1 0 -8 1 -1 
0 -8 1 -1 0 -7 0 41 1 -1 0 -10 1 -1 0 -8 
1 -1 0 -8 1 -1 0 -7 1 -1 0 38 0 -41 0 35 
1 -1 0 -9 1 -1 0 -8 1 -1 0 -7 1 -1 0 -7 
0 41 1 -1 0 -11 4416 4508 100 MP stroke
1 -1 0 -8 1 -1 0 -8 1 -1 0 -7 1 -1 0 39 
0 -41 0 34 1 -1 0 -9 1 -1 0 -8 1 -1 0 -7 
1 -1 0 35 0 -41 0 40 1 -1 0 -10 1 -1 0 -9 
1 -1 0 -7 1 -1 0 -7 1 -1 0 39 0 -41 0 34 
1 -1 0 -10 1 -1 0 -8 1 -1 0 -7 1 -1 0 36 
0 -41 0 39 1 -1 0 -9 1 -1 0 -10 1 -1 0 -7 
1 -1 0 -7 1 -1 0 40 0 -41 0 33 1 -1 0 -9 
1 -1 0 -8 1 -1 0 -8 1 -1 0 37 0 -41 0 38 
1 -1 0 -9 1 -1 0 -9 1 -1 0 -8 1 -1 0 -7 
1 -1 0 41 0 -9 1 -1 0 -8 1 -1 0 -8 1 -1 
0 -8 1 -1 0 37 0 -41 0 37 1 -1 0 -9 1 -1 
0 -8 1 -1 0 -8 1 -1 0 -8 1 41 0 -9 1 -1 
0 -9 1 -1 0 -8 4374 4524 100 MP stroke
1 -1 0 -7 1 -1 0 37 0 -41 0 37 1 -1 0 -9 
1 -1 0 -9 1 -1 0 -7 1 -1 0 -7 1 41 0 -11 
1 -1 0 -8 1 -1 0 -8 1 -1 0 -7 1 -1 0 38 
0 -41 0 36 1 -1 0 -10 1 -1 0 -8 1 -1 0 -8 
1 -1 0 -6 0 41 1 -1 0 -9 1 -1 0 -10 1 -1 
0 -8 1 -1 0 -7 1 -1 0 39 0 -41 0 35 1 -1 
0 -9 1 -1 0 -9 1 -1 0 -7 1 -1 0 35 0 -41 
0 40 1 -1 0 -9 1 -1 0 -9 1 -1 0 -8 1 -1 
0 -7 1 -1 0 39 0 -40 0 34 1 -1 0 -9 1 -1 
0 -8 1 -1 0 -8 1 -1 0 38 0 -42 0 40 1 -1 
0 -9 1 -1 0 -8 1 -1 0 -7 1 -1 0 -8 1 -1 
0 50 0 -8 1 -1 0 -9 1 -1 0 -8 1 -1 0 -8 
1 -1 0 71 0 -76 4332 4523 100 MP stroke
0 72 1 -1 0 -11 1 -1 0 -10 1 -1 0 -10 1 -1 
0 -9 1 -1 0 236 0 -20 1 -2 0 -21 1 -2 0 -20 
1 -2 0 -19 1 -2 0 -20 1 -1 0 -17 1 -2 0 -16 
1 -1 0 -15 1 -2 0 -14 1 -1 0 -14 1 -2 0 -12 
1 -1 0 -11 1 -1 0 -11 1 -1 0 -10 1 -1 0 -10 
1 -1 0 -8 1 -1 0 -7 1 -1 0 -7 1 39 0 -9 
1 -1 0 -9 1 -1 0 -7 1 -1 0 -7 1 -1 0 39 
0 -41 0 36 1 -1 0 -9 1 -1 0 -8 1 -1 0 -7 
1 -1 0 44 0 -49 0 47 1 -1 0 -10 1 -1 0 -8 
1 -1 0 -8 1 -1 0 -7 1 -1 0 73 0 -10 1 -1 
0 -10 1 -1 0 -10 1 -1 0 -10 1 -1 0 228 0 -231 
0 220 1 -2 0 -21 1 -2 0 -20 1 -2 0 -19 1 -2 
0 -20 1 -1 0 -17 4287 4383 100 MP stroke
1 -2 0 -16 1 -2 0 -15 1 -1 0 -14 1 -1 0 -15 
1 -1 0 -13 1 -1 0 -11 1 -1 0 -11 1 -1 0 -10 
1 -1 0 -10 1 -1 0 -9 1 -1 0 -7 1 -1 0 -7 
1 -1 0 38 0 -39 0 32 1 -1 0 -9 1 -1 0 -8 
1 -1 0 -7 1 -1 0 35 0 -39 0 36 1 -1 0 -9 
1 -1 0 -9 1 -1 0 -7 1 -1 0 -7 1 39 0 -9 
1 -1 0 -9 1 -1 0 -8 1 -1 0 -7 1 -1 0 37 
0 -39 0 33 1 -1 0 -8 1 -1 0 -9 1 -1 0 -8 
1 -1 0 35 0 -39 0 37 1 -1 0 -9 1 -1 0 -8 
1 -1 0 -8 1 -1 0 -7 1 -1 0 39 0 -8 1 -1 
0 -9 1 -1 0 -8 1 -1 0 -7 1 -1 0 36 0 -39 
0 34 1 -1 0 -9 1 -1 0 -8 1 -1 0 -7 1 -1 
0 33 0 -39 0 38 4244 4499 100 MP stroke
1 -1 0 -9 1 -1 0 -9 1 -1 0 -7 1 -1 0 -7 
1 -1 0 38 0 -39 0 31 1 -1 0 -8 1 -1 0 -8 
1 -1 0 -7 1 -1 0 35 0 -39 0 36 1 -1 0 -10 
1 -1 0 -8 1 -1 0 -7 1 -1 0 -7 1 39 0 -9 
1 -1 0 -10 1 -1 0 -7 1 -1 0 -7 1 -1 0 37 
0 -39 0 33 1 -1 0 -9 1 -1 0 -8 1 -1 0 -8 
1 -1 0 35 0 -39 0 37 1 -1 0 -9 1 -1 0 -8 
1 -1 0 -9 1 -1 0 -6 1 -1 0 39 0 -8 1 -1 
0 -9 1 -1 0 -8 1 -1 0 -8 1 -1 0 37 0 -39 
0 34 1 -1 0 -9 1 -1 0 -8 1 -1 0 -7 1 -1 
0 33 0 -39 0 38 1 -1 0 -9 1 -1 0 -8 1 -1 
0 -8 1 -1 0 -7 1 -1 0 38 0 -39 0 32 1 -1 
0 -9 1 -1 0 -8 4202 4524 100 MP stroke
1 -1 0 -7 1 -1 0 35 0 -39 0 36 1 -1 0 -10 
1 -1 0 -8 1 -1 0 -7 1 -1 0 -7 1 39 0 -9 
1 -1 0 -9 1 -1 0 -8 1 -1 0 -7 1 -1 0 37 
0 -39 0 34 1 -1 0 -9 1 -1 0 -9 1 -1 0 -7 
1 -1 0 35 0 -40 0 38 1 -1 0 -9 1 -1 0 -9 
1 -1 0 -8 1 -1 0 -7 1 -1 0 39 0 -8 1 -1 
0 -9 1 -1 0 -8 1 -1 0 -8 1 -1 0 36 0 -38 
0 34 1 -1 0 -9 1 -1 0 -8 1 -1 0 -8 1 -1 
0 33 0 -38 0 36 1 -1 0 -9 1 -1 0 -8 1 -1 
0 -7 1 -1 0 -7 1 -1 0 38 0 -9 1 -1 0 -8 
1 -1 0 -8 1 -1 0 -7 1 -1 0 37 0 -39 0 33 
1 -1 0 -9 1 -1 0 -8 1 -1 0 -7 1 -1 0 37 
0 -41 0 38 1 -1 4160 4499 100 MP stroke
0 -9 1 -1 0 -8 1 -1 0 -7 1 -1 0 -7 0 48 
1 -1 0 -9 1 -1 0 -9 1 -1 0 -8 1 -1 0 -7 
1 -1 0 72 0 -73 0 64 1 -1 0 -10 1 -1 0 -11 
1 -1 0 -9 1 -1 0 226 0 -229 0 218 1 -2 0 -21 
1 -2 0 -20 1 -2 0 -21 1 -2 0 -18 1 -2 0 -17 
1 -1 0 -16 1 -2 0 -15 1 -1 0 -15 1 -2 0 -13 
1 -1 0 -12 1 -2 0 -11 1 -1 0 -11 1 -1 0 -11 
1 -1 0 -9 1 -1 0 -8 1 -1 0 -8 1 -1 0 -6 
1 -1 0 38 0 -9 1 -1 0 -8 1 -1 0 -8 1 -1 
0 -7 1 -1 0 36 0 -38 0 33 1 -1 0 -10 1 -1 
0 -8 1 -1 0 -7 1 -1 0 34 0 -38 0 36 1 -1 
0 -9 1 -1 0 -9 1 -1 0 -8 1 -1 0 -6 0 38 
1 -1 0 -9 1 -1 4116 4510 100 MP stroke
0 -8 1 -1 0 -8 1 -1 0 -7 1 -1 0 38 0 -39 
0 31 1 -1 0 -8 1 -1 0 -8 1 -1 0 -7 1 -1 
0 38 0 -41 0 36 1 -1 0 -8 1 -1 0 -8 1 -1 
0 -7 1 -1 0 42 0 -48 0 46 1 -1 0 -9 1 -1 
0 -8 1 -1 0 -8 1 -1 0 -7 1 -1 0 73 0 -11 
1 -1 0 -11 1 -1 0 -9 1 -1 0 -9 1 -1 0 223 
0 -226 0 213 1 -2 0 -23 1 -2 0 -19 1 -2 0 -19 
1 -2 0 -17 1 -2 0 -16 1 -2 0 -17 1 -2 0 -14 
1 -2 0 -14 1 -1 0 -13 1 -1 0 -12 1 -1 0 -13 
1 -1 0 -10 1 -1 0 -10 1 -1 0 -9 1 -1 0 -8 
1 -1 0 -8 1 -1 0 -6 0 38 1 -1 0 -9 1 -1 
0 -8 1 -1 0 -9 1 -1 0 -6 1 -1 0 37 0 -38 
0 31 1 -1 0 -9 4073 4517 100 MP stroke
1 -1 0 -8 1 -1 0 -7 1 -1 0 35 0 -38 0 33 
1 -1 0 -8 1 -1 0 -8 1 -1 0 -8 1 -1 0 33 
0 -38 0 36 1 -1 0 -9 1 -1 0 -8 1 -1 0 -7 
1 -1 0 -7 1 -1 0 38 0 -9 1 -1 0 -9 1 -1 
0 -7 1 -1 0 -7 1 -1 0 35 0 -37 0 32 1 -1 
0 -10 1 -1 0 -7 1 -1 0 -8 1 -1 0 33 0 -37 
0 35 1 -1 0 -9 1 -1 0 -9 1 -1 0 -7 1 -1 
0 -6 0 37 1 -1 0 -9 1 -1 0 -8 1 -1 0 -9 
1 -1 0 -7 1 38 0 -9 1 -1 0 -9 1 -1 0 -7 
1 -1 0 -8 1 -1 0 37 0 -38 0 30 1 -1 0 -8 
1 -1 0 -8 1 -1 0 -7 1 -1 0 35 0 -38 0 32 
1 -1 0 -8 1 -1 0 -8 1 -1 0 -7 1 -1 0 33 
0 -37 0 34 1 -1 4031 4505 100 MP stroke
0 -9 1 -1 0 -8 1 -1 0 -8 1 -1 0 33 0 -38 
0 37 1 -1 0 -9 1 -1 0 -9 1 -1 0 -8 1 -1 
0 -7 1 38 0 -9 1 -1 0 -9 1 -1 0 -8 1 -1 
0 -7 1 -1 0 37 0 -38 0 31 1 -1 0 -9 1 -1 
0 -8 1 -1 0 -8 1 -1 0 36 0 -38 0 33 1 -1 
0 -9 1 -1 0 -8 1 -1 0 -7 1 -1 0 33 0 -37 
0 33 1 -1 0 -8 1 -1 0 -8 1 -1 0 -7 1 -1 
0 32 0 -38 0 37 1 -1 0 -10 1 -1 0 -8 1 -1 
0 -7 1 -1 0 -7 1 40 0 -9 1 -1 0 -9 1 -1 
0 -7 1 -1 0 -7 1 -1 0 46 0 -47 0 40 1 -1 
0 -9 1 -1 0 -8 1 -1 0 -8 1 -1 0 70 0 -72 
0 65 1 -1 0 -11 1 -1 0 -10 1 -1 0 -9 1 -1 
0 217 0 -221 0 212 3990 4285 100 MP stroke
1 -2 0 -20 1 -2 0 -20 1 -2 0 -20 1 -2 0 -17 
1 -2 0 -16 1 -2 0 -15 1 -2 0 -14 1 -2 0 -15 
1 -1 0 -13 1 -1 0 -12 1 -1 0 -11 1 -1 0 -10 
1 -1 0 -10 1 -1 0 -9 1 -1 0 -8 1 -1 0 -7 
1 -1 0 -6 0 47 1 -1 0 -10 1 -1 0 -9 1 -1 
0 -7 1 -1 0 -7 1 -1 0 72 0 -10 1 -1 0 -12 
1 -1 0 -9 1 -1 0 -9 1 -1 0 223 0 -225 0 210 
1 -2 0 -21 1 -2 0 -22 1 -2 0 -18 1 -2 0 -18 
1 -1 0 -17 1 -1 0 -16 1 -1 0 -16 1 -2 0 -14 
1 -1 0 -13 1 -1 0 -12 1 -1 0 -11 1 -1 0 -12 
1 -1 0 -9 1 -1 0 -9 1 -1 0 -8 1 -1 0 -7 
1 -1 0 32 0 -37 0 35 1 -1 0 -9 1 -1 0 -8 
1 -1 0 -8 1 -1 3943 4532 100 MP stroke
0 -6 0 37 1 -1 0 -10 1 -1 0 -8 1 -1 0 -7 
1 -1 0 -7 1 -1 0 37 0 -8 1 -1 0 -9 1 -1 
0 -8 1 -1 0 -7 1 -1 0 35 0 -36 0 30 1 -1 
0 -8 1 -1 0 -8 1 -1 0 -7 1 -1 0 37 0 -39 
0 34 1 -1 0 -9 1 -1 0 -7 1 -1 0 -8 1 -1 
0 43 0 -46 0 42 1 -1 0 -9 1 -1 0 -8 1 -1 
0 -7 1 -1 0 66 0 -70 0 66 1 -1 0 -11 1 -1 
0 -10 1 -1 0 -9 1 -1 0 211 0 -217 0 213 1 -2 
0 -23 1 -2 0 -20 1 -2 0 -19 1 -1 0 -18 1 -2 
0 -16 1 -2 0 -17 1 -2 0 -15 1 -1 0 -14 1 -1 
0 -13 1 -1 0 -13 1 -2 0 -11 1 -1 0 -10 1 -1 
0 -10 1 -1 0 -9 1 -1 0 -9 1 -1 0 -7 1 -1 
0 31 0 -37 0 36 3901 4503 100 MP stroke
1 -1 0 -9 1 -1 0 -8 1 -1 0 -8 1 -1 0 -6 
0 36 1 -1 0 -9 1 -1 0 -8 1 -1 0 -7 1 -1 
0 -8 1 36 0 -8 1 -1 0 -8 1 -1 0 -8 1 -1 
0 -6 1 -1 0 38 0 -39 0 31 1 -1 0 -8 1 -1 
0 -8 1 -1 0 -6 1 -1 0 44 0 -46 0 40 1 -1 
0 -10 1 -1 0 -8 1 -1 0 -7 1 -1 0 68 0 -70 
0 64 1 -1 0 -11 1 -1 0 -11 1 -1 0 -8 1 -1 
0 209 0 -213 0 203 1 -2 0 -20 1 -2 0 -20 1 -2 
0 -20 1 -1 0 -17 1 -2 0 -16 1 -2 0 -15 1 -1 
0 -15 1 -1 0 -15 1 -1 0 -13 1 -1 0 -12 1 -1 
0 -11 1 -1 0 -10 1 -1 0 -10 1 -1 0 -8 1 -1 
0 -8 1 -1 0 -7 1 -1 0 32 0 -36 0 33 1 -1 
0 -10 1 -1 0 -7 3857 4525 100 MP stroke
1 -1 0 -8 1 -1 0 32 0 -36 0 34 1 -1 0 -9 
1 -1 0 -9 1 -1 0 -7 1 -1 0 31 0 -36 0 35 
1 -1 0 -9 1 -1 0 -8 1 -1 0 -8 1 -1 0 -6 
0 36 1 -1 0 -9 1 -1 0 -8 1 -1 0 -8 1 -1 
0 -7 1 36 0 -9 1 -1 0 -9 1 -1 0 -7 1 -1 
0 -7 1 -1 0 36 0 -9 1 -1 0 -8 1 -1 0 -7 
1 -1 0 -7 1 -1 0 34 0 -35 0 29 1 -1 0 -9 
1 -1 0 -8 1 -1 0 -7 1 -1 0 34 0 -36 0 31 
1 -1 0 -9 1 -1 0 -8 1 -1 0 -7 1 -1 0 33 
0 -36 0 31 1 -1 0 -8 1 -1 0 -9 1 -1 0 -7 
1 -1 0 32 0 -35 0 31 1 -1 0 -8 1 -1 0 -8 
1 -1 0 -8 1 -1 0 32 0 -35 0 31 1 -1 0 -8 
1 -1 0 -8 1 -1 3815 4528 100 MP stroke
0 -7 1 -1 0 31 0 -35 0 31 1 -1 0 -8 1 -1 
0 -8 1 -1 0 -7 1 -1 0 31 0 -35 0 32 1 -1 
0 -9 1 -1 0 -8 1 -1 0 -7 1 -1 0 31 0 -35 
0 32 1 -1 0 -8 1 -1 0 -9 1 -1 0 -7 1 -1 
0 31 0 -35 0 32 1 -1 0 -8 1 -1 0 -8 1 -1 
0 -8 1 -1 0 31 0 -35 0 32 1 -1 0 -8 1 -1 
0 -8 1 -1 0 -7 1 -1 0 30 0 -35 0 32 1 -1 
0 -8 1 -1 0 -8 1 -1 0 -7 1 -1 0 30 0 -35 
0 33 1 -1 0 -9 1 -1 0 -8 1 -1 0 -7 1 -1 
0 30 0 -35 0 33 1 -1 0 -9 1 -1 0 -8 1 -1 
0 -7 1 -1 0 30 0 -35 0 33 1 -1 0 -9 1 -1 
0 -7 1 -1 0 -8 1 -1 0 30 0 -35 0 33 1 -1 
0 -9 1 -1 0 -7 3776 4525 100 MP stroke
1 -1 0 -8 1 -1 0 30 0 -35 0 33 1 -1 0 -9 
1 -1 0 -7 1 -1 0 -8 1 -1 0 30 0 -35 0 34 
1 -1 0 -10 1 -1 0 -7 1 -1 0 -8 1 -1 0 30 
0 -35 0 34 1 -1 0 -9 1 -1 0 -8 1 -1 0 -8 
1 -1 0 30 0 -35 0 34 1 -1 0 -9 1 -1 0 -8 
1 -1 0 -8 1 -1 0 30 0 -35 0 34 1 -1 0 -9 
1 -1 0 -8 1 -1 0 -7 1 -1 0 29 0 -35 0 34 
1 -1 0 -9 1 -1 0 -8 1 -1 0 -7 1 -1 0 -6 
0 35 1 -1 0 -10 1 -1 0 -8 1 -1 0 -7 1 -1 
0 -6 0 35 1 -1 0 -9 1 -1 0 -9 1 -1 0 -7 
1 -1 0 -6 0 35 1 -1 0 -9 1 -1 0 -9 1 -1 
0 -7 1 -1 0 -6 0 35 1 -1 0 -9 1 -1 0 -8 
1 -1 0 -8 1 -1 3734 4534 100 MP stroke
0 -6 0 35 1 -1 0 -9 1 -1 0 -8 1 -1 0 -7 
1 -1 0 -7 0 35 1 -1 0 -9 1 -1 0 -8 1 -1 
0 -7 1 -1 0 -7 1 35 0 -10 1 -1 0 -8 1 -1 
0 -7 1 -1 0 -7 1 35 0 -9 1 -1 0 -9 1 -1 
0 -7 1 -1 0 -7 1 35 0 -9 1 -1 0 -8 1 -1 
0 -8 1 -1 0 -7 1 34 0 -9 1 -1 0 -8 1 -1 
0 -7 1 -1 0 -8 1 35 0 -9 1 -1 0 -8 1 -1 
0 -8 1 -1 0 -6 1 34 0 -10 1 -1 0 -8 1 -1 
0 -7 1 -1 0 -6 0 34 1 -1 0 -9 1 -1 0 -8 
1 -1 0 -8 1 -1 0 29 0 -34 0 33 1 -1 0 -8 
1 -1 0 -8 1 -1 0 -8 1 -1 0 29 0 -34 0 33 
1 -1 0 -9 1 -1 0 -8 1 -1 0 -7 1 -1 0 29 
0 -34 0 32 1 -1 3689 4509 100 MP stroke
0 -9 1 -1 0 -8 1 -1 0 -7 1 -1 0 30 0 -34 
0 32 1 -1 0 -10 1 -1 0 -7 1 -1 0 -7 1 -1 
0 30 0 -34 0 31 1 -1 0 -9 1 -1 0 -8 1 -1 
0 -7 1 -1 0 32 0 -34 0 30 1 -1 0 -8 1 -1 
0 -8 1 -1 0 -7 1 -1 0 35 0 -37 0 32 1 -1 
0 -9 1 -1 0 -7 1 -1 0 -7 1 -1 0 43 0 -45 
0 38 1 -1 0 -8 1 -1 0 -8 1 -1 0 -7 1 -1 
0 67 0 -68 0 60 1 -1 0 -11 1 -1 0 -10 1 -1 
0 -8 1 -1 0 208 0 -209 0 192 1 -2 0 -20 1 -2 
0 -21 1 -2 0 -17 1 -2 0 -17 1 -1 0 -16 1 -2 
0 -16 1 -1 0 -14 1 -2 0 -13 1 -1 0 -12 1 -1 
0 -11 1 -2 0 -11 1 -1 0 -10 1 -1 0 -9 1 -1 
0 -8 1 -1 0 -7 3647 4531 100 MP stroke
1 -1 0 -8 1 34 0 -9 1 -1 0 -8 1 -1 0 -7 
1 -1 0 -7 1 34 0 -9 1 -1 0 -8 1 -1 0 -7 
1 -1 0 -6 0 34 1 -1 0 -8 1 -1 0 -9 1 -1 
0 -7 1 -1 0 32 0 -37 0 36 1 -1 0 -8 1 -1 
0 -8 1 -1 0 -8 1 -1 0 40 0 -44 0 42 1 -1 
0 -8 1 -1 0 -8 1 -1 0 -8 1 -1 0 65 0 -70 
0 67 1 -1 0 -11 1 -1 0 -10 1 -1 0 -9 1 -1 
0 220 0 -225 0 218 1 -2 0 -24 1 -2 0 -20 1 -2 
0 -19 1 -2 0 -18 1 -2 0 -17 1 -2 0 -18 1 -1 
0 -15 1 -2 0 -14 1 -1 0 -14 1 -1 0 -12 1 -2 
0 -12 1 -1 0 -11 1 -1 0 -10 1 -1 0 -9 1 -1 
0 -8 1 -1 0 -9 1 -1 0 37 0 -39 0 33 1 -1 
0 -9 1 -1 0 -9 3603 4523 100 MP stroke
1 -1 0 -7 1 -1 0 36 0 -38 0 31 1 -1 0 -9 
1 -1 0 -8 1 -1 0 -8 1 -1 0 38 0 -39 0 31 
1 -1 0 -10 1 -1 0 -8 1 -1 0 -8 1 38 0 -10 
1 -1 0 -8 1 -1 0 -9 1 -1 0 33 0 -38 0 37 
1 -1 0 -9 1 -1 0 -8 1 -1 0 -7 1 -1 0 41 
0 -45 0 42 1 -1 0 -8 1 -1 0 -7 1 -1 0 -6 
1 -1 0 83 0 -86 0 82 1 -1 0 -9 1 -1 0 -8 
1 -1 0 -6 1 -1 0 3800 0 -3802 0 3730 1 -11 0 -129 
1 -12 0 -114 1 -11 0 -111 1 -11 0 -109 1 -11 0 -107 
1 -10 0 -114 1 -10 0 -101 1 -10 0 -99 1 -10 0 -96 
1 -10 0 -93 1 -10 0 -100 1 -9 0 -89 1 -9 0 -87 
1 -8 0 -84 1 -9 0 -82 1 -8 0 -88 1 -8 0 -77 
1 -8 0 -75 1 -8 3559 2664 100 MP stroke
0 -73 1 -7 0 -71 1 -7 0 -76 1 -7 0 -67 1 -6 
0 -65 1 -7 0 -63 1 -6 0 -61 1 -6 0 -65 1 -6 
0 -57 1 -5 0 -56 1 -5 0 -53 1 -6 0 -51 1 -5 
0 -55 1 -5 0 -48 1 -5 0 -46 1 -5 0 -45 1 -4 
0 -43 1 -4 0 -46 1 -4 0 -40 1 -4 0 -38 1 -4 
0 -37 1 -3 0 -36 1 -3 0 -37 1 -4 0 -32 1 -3 
0 -31 1 -3 0 -30 1 -3 0 -28 1 -3 0 -30 1 -2 
0 -26 1 -3 0 -24 1 -3 0 -23 1 -2 0 -23 1 -2 
0 -23 1 -2 0 -20 1 -2 0 -19 1 -2 0 -17 1 -2 
0 -17 1 -2 0 -17 1 -2 0 -14 1 -2 0 -14 1 -1 
0 -13 1 -2 0 -12 1 -1 0 -13 1 -1 0 -10 1 -1 
0 -10 1 -1 0 -9 1 -1 0 -9 1 -1 0 -8 1 -1 
0 -7 1 -1 0 30 3510 4509 100 MP stroke
0 -33 0 29 1 -1 0 -8 1 -1 0 -8 1 -1 0 -7 
1 -1 0 31 0 -33 0 27 1 -1 0 -8 1 -1 0 -7 
1 -1 0 -7 1 -1 0 32 0 -33 0 25 1 -1 0 -8 
1 -1 0 -7 1 -1 0 -7 1 32 0 -9 1 -1 0 -8 
1 -1 0 -7 1 -1 0 27 0 -32 0 30 1 -1 0 -8 
1 -1 0 -8 1 -1 0 -7 1 -1 0 29 0 -32 0 28 
1 -1 0 -8 1 -1 0 -8 1 -1 0 -7 1 -1 0 32 
0 -33 0 26 1 -1 0 -8 1 -1 0 -8 1 -1 0 -6 
1 32 0 -9 1 -1 0 -8 1 -1 0 -7 1 -1 0 27 
0 -32 0 31 1 -1 0 -9 1 -1 0 -8 1 -1 0 -7 
1 -1 0 30 0 -33 0 29 1 -1 0 -9 1 -1 0 -7 
1 -1 0 -8 1 -1 0 32 0 -33 0 26 1 -1 0 -8 
1 -1 0 -7 1 -1 3469 4533 100 MP stroke
0 -7 1 32 0 -9 1 -1 0 -8 1 -1 0 -7 1 -1 
0 28 0 -33 0 31 1 -1 0 -9 1 -1 0 -8 1 -1 
0 -7 1 -1 0 30 0 -32 0 28 1 -1 0 -8 1 -1 
0 -7 1 -1 0 -7 1 -1 0 34 0 -35 0 28 1 -1 
0 -7 1 -1 0 -7 1 -1 0 -7 1 43 0 -10 1 -1 
0 -8 1 -1 0 -7 1 -1 0 65 0 -70 0 68 1 -1 
0 -11 1 -1 0 -10 1 -1 0 -9 1 -1 0 268 0 -271 
0 259 1 -2 0 -22 1 -2 0 -21 1 -2 0 -22 1 -2 
0 -19 1 -2 0 -18 1 -1 0 -17 1 -2 0 -16 1 -1 
0 -17 1 -1 0 -14 1 -2 0 -13 1 -1 0 -12 1 -2 
0 -11 1 -1 0 -12 1 -1 0 -10 1 -1 0 -9 1 -1 
0 -9 1 198 0 -20 1 -2 0 -20 1 -2 0 -18 1 -2 
0 -16 1 -2 0 -16 3425 4400 100 MP stroke
1 -1 0 -15 1 -2 0 -15 1 -1 0 -13 1 -1 0 -13 
1 -1 0 -11 1 -1 0 -11 1 -1 0 -10 1 -1 0 -9 
1 -1 0 -8 1 -1 0 -8 1 -1 0 -7 1 -1 0 39 
0 -42 0 38 1 -1 0 -9 1 -1 0 -7 1 -1 0 -7 
1 -1 0 63 0 -65 0 56 1 -1 0 -10 1 -1 0 -9 
1 -1 0 -9 1 190 0 -20 1 -2 0 -20 1 -2 0 -18 
1 -1 0 -17 1 -1 0 -16 1 -2 0 -14 1 -2 0 -15 
1 -1 0 -13 1 -1 0 -12 1 -1 0 -12 1 -1 0 -10 
1 -1 0 -11 1 -1 0 -9 1 -1 0 -8 1 -1 0 -7 
1 -1 0 -7 1 -1 0 29 0 -31 0 25 1 -1 0 -8 
1 -1 0 -7 1 -1 0 -7 1 31 0 -8 1 -1 0 -9 
1 -1 0 -7 1 -1 0 27 0 -31 0 28 1 -1 0 -8 
1 -1 0 -7 1 -1 3379 4533 100 MP stroke
0 -7 1 -1 0 29 0 -31 0 25 1 -1 0 -8 1 -1 
0 -7 1 -1 0 -7 1 31 0 -9 1 -1 0 -8 1 -1 
0 -7 1 -1 0 27 0 -31 0 29 1 -1 0 -8 1 -1 
0 -8 1 -1 0 -7 1 -1 0 30 0 -31 0 25 1 -1 
0 -8 1 -1 0 -7 1 -1 0 -7 0 31 1 -1 0 -8 
1 -1 0 -8 1 -1 0 -7 1 -1 0 28 0 -32 0 29 
1 -1 0 -9 1 -1 0 -7 1 -1 0 -7 1 -1 0 31 
0 -33 0 26 1 -1 0 -8 1 -1 0 -8 1 -1 0 -6 
0 32 1 -1 0 -8 1 -1 0 -8 1 -1 0 -7 1 -1 
0 28 0 -32 0 28 1 -1 0 -8 1 -1 0 -8 1 -1 
0 -7 1 -1 0 32 0 -33 0 26 1 -1 0 -9 1 -1 
0 -7 1 -1 0 -6 0 32 1 -1 0 -8 1 -1 0 -8 
1 -1 0 -8 1 -1 3338 4535 100 MP stroke
0 29 0 -32 0 29 1 -1 0 -8 1 -1 0 -8 1 -1 
0 -6 1 -1 0 33 0 -35 0 28 1 -1 0 -8 1 -1 
0 -7 1 -1 0 -6 0 42 1 -1 0 -8 1 -1 0 -9 
1 -1 0 -7 1 -1 0 65 0 -68 0 64 1 -1 0 -10 
1 -1 0 -10 1 -1 0 -8 1 -1 0 278 0 -18 1 -2 
0 -21 1 -2 0 -21 1 -2 0 -21 1 -1 0 -18 1 -2 
0 -17 1 -2 0 -16 1 -1 0 -15 1 -2 0 -15 1 -2 
0 -13 1 -1 0 -12 1 -2 0 -11 1 -1 0 -11 1 -1 
0 -11 1 -1 0 -9 1 -1 0 -8 1 -1 0 676 0 -680 
0 661 1 -4 0 -39 1 -3 0 -41 1 -3 0 -36 1 -3 
0 -34 1 -3 0 -33 1 -3 0 -31 1 -3 0 -33 1 -3 
0 -28 1 -3 0 -27 1 -2 0 -26 1 -3 0 -25 1 -2 
0 -26 1 -2 0 -22 3294 4254 100 MP stroke
1 -3 0 -21 1 -2 0 -20 1 -2 0 -19 1 -2 0 -20 
1 -2 0 -17 1 -1 0 -16 1 -2 0 -15 1 -2 0 -14 
1 -1 0 -15 1 -1 0 -13 1 -1 0 -12 1 -1 0 -11 
1 -1 0 -10 1 -1 0 -11 1 -1 0 -8 1 -1 0 182 
0 -184 0 171 1 -2 0 -19 1 -2 0 -18 1 -1 0 -19 
1 -1 0 -16 1 -1 0 -15 1 -2 0 -13 1 -2 0 -13 
1 -1 0 -13 1 -1 0 -12 1 -1 0 -10 1 -1 0 -10 
1 -1 0 -9 1 -1 0 -9 1 -1 0 -7 1 -1 0 -7 
1 -1 0 27 0 -30 0 26 1 -1 0 -8 1 -1 0 -8 
1 -1 0 -7 1 30 0 -8 1 -1 0 -8 1 -1 0 -7 
1 -1 0 26 0 -30 0 27 1 -1 0 -8 1 -1 0 -7 
1 -1 0 -7 1 -1 0 29 0 -30 0 23 1 -1 0 -8 
1 -1 0 -7 1 -1 3248 4539 100 MP stroke
0 25 0 -30 0 29 1 -1 0 -9 1 -1 0 -7 1 -1 
0 -7 1 -1 0 28 0 -30 0 24 1 -1 0 -7 1 -1 
0 -7 1 -1 0 -6 0 29 1 -1 0 -9 1 -1 0 -7 
1 -1 0 -7 1 -1 0 27 0 -29 0 25 1 -1 0 -8 
1 -1 0 -8 1 -1 0 -6 1 30 0 -9 1 -1 0 -7 
1 -1 0 -8 1 -1 0 27 0 -30 0 26 1 -1 0 -8 
1 -1 0 -7 1 -1 0 -6 1 -1 0 29 0 -30 0 22 
1 -1 0 -7 1 -1 0 -7 1 -1 0 25 0 -30 0 29 
1 -1 0 -9 1 -1 0 -8 1 -1 0 -7 1 -1 0 29 
0 -30 0 24 1 -1 0 -7 1 -1 0 -8 1 -1 0 24 
0 -30 0 29 1 -1 0 -8 1 -1 0 -7 1 -1 0 -7 
1 -1 0 27 0 -30 0 26 1 -1 0 -9 1 -1 0 -7 
1 -1 0 -7 1 30 3208 4513 100 MP stroke
0 -8 1 -1 0 -7 1 -1 0 -8 1 -1 0 27 0 -30 
0 27 1 -1 0 -8 1 -1 0 -7 1 -1 0 -6 1 -1 
0 32 0 -33 0 26 1 -1 0 -8 1 -1 0 -6 1 -1 
0 35 0 -40 0 38 1 -1 0 -9 1 -1 0 -8 1 -1 
0 -7 1 -1 0 61 0 -62 0 54 1 -1 0 -10 1 -1 
0 -9 1 -1 0 176 0 -182 0 176 1 -2 0 -19 1 -2 
0 -18 1 -2 0 -17 1 -1 0 -17 1 -1 0 -17 1 -1 
0 -14 1 -2 0 -13 1 -1 0 -12 1 -2 0 -11 1 -1 
0 -12 1 -1 0 -10 1 -1 0 -9 1 -1 0 -8 1 -1 
0 -8 1 -1 0 -7 1 -1 0 25 0 -29 0 26 1 -1 
0 -8 1 -1 0 -7 1 -1 0 -6 1 -1 0 29 0 -30 
0 23 1 -1 0 -8 1 -1 0 -6 1 -1 0 28 0 -32 
0 30 1 -1 0 -8 3167 4520 100 MP stroke
1 -1 0 -8 1 -1 0 -6 1 -1 0 39 0 -7 1 -1 
0 -8 1 -1 0 -7 1 -1 0 57 0 -62 0 58 1 -1 
0 -10 1 -1 0 -9 1 -1 0 -9 1 -1 0 183 0 -20 
1 -2 0 -18 1 -2 0 -17 1 -2 0 -17 1 -1 0 -16 
1 -1 0 -16 1 -2 0 -13 1 -1 0 -13 1 -1 0 -12 
1 -1 0 -11 1 -2 0 -11 1 -1 0 -9 1 -1 0 -9 
1 -1 0 -8 1 -1 0 -7 1 -1 0 -7 1 28 0 -8 
1 -1 0 -7 1 -1 0 -7 1 -1 0 26 0 -29 0 26 
1 -1 0 -9 1 -1 0 -7 1 -1 0 -7 1 30 0 -8 
1 -1 0 -7 1 -1 0 -7 1 -1 0 29 0 -32 0 28 
1 -1 0 -7 1 -1 0 -7 1 -1 0 -7 1 39 0 -9 
1 -1 0 -8 1 -1 0 -7 1 -1 0 59 0 -62 0 57 
1 -1 0 -10 1 -1 3122 4483 100 MP stroke
0 -10 1 -1 0 -8 0 181 1 -2 0 -20 1 -1 0 -19 
1 -2 0 -17 1 -1 0 -18 1 -2 0 -15 1 -2 0 -14 
1 -1 0 -14 1 -1 0 -12 1 -2 0 -12 1 -2 0 -10 
1 -1 0 -11 1 -1 0 -9 1 -1 0 -8 1 -1 0 -9 
1 -1 0 -7 1 -1 0 -6 0 29 1 -1 0 -8 1 -1 
0 -7 1 -1 0 -7 1 -1 0 26 0 -28 0 23 1 -1 
0 -7 1 -1 0 -7 1 -1 0 -5 0 31 1 -1 0 -9 
1 -1 0 -7 1 -1 0 -6 1 -1 0 37 0 -38 0 32 
1 -1 0 -8 1 -1 0 -8 1 -1 0 57 0 -61 0 57 
1 -2 0 -10 1 -1 0 -9 1 -1 0 -8 1 174 0 -21 
1 -2 0 -17 1 -2 0 -17 1 -2 0 -15 1 -2 0 -15 
1 -1 0 -16 1 -1 0 -13 1 -1 0 -13 1 -1 0 -11 
1 -1 0 -11 1 -1 3077 4492 100 MP stroke
0 -11 1 -1 0 -9 1 -1 0 -8 1 -1 0 -8 1 -1 
0 -7 1 -1 0 23 0 -28 0 26 1 -1 0 -8 1 -1 
0 -7 1 -1 0 -6 1 -1 0 27 0 -28 0 20 1 -1 
0 -7 1 -1 0 -7 1 -1 0 25 0 -28 0 24 1 -1 
0 -7 1 -1 0 -8 1 -1 0 -6 0 28 1 -1 0 -8 
1 -1 0 -8 1 -1 0 -6 1 -1 0 26 0 -28 0 22 
1 -1 0 -8 1 -1 0 -6 1 -1 0 23 0 -28 0 26 
1 -1 0 -8 1 -1 0 -8 1 -1 0 -6 1 -1 0 28 
0 -8 1 -1 0 -7 1 -1 0 -7 1 -1 0 25 0 -28 
0 24 1 -1 0 -8 1 -1 0 -7 1 -1 0 -6 0 28 
1 -1 0 -8 1 -1 0 -8 1 -1 0 -7 1 -1 0 27 
0 -28 0 22 1 -1 0 -8 1 -1 0 -6 1 -1 0 22 
0 -27 0 25 1 -1 3037 4521 100 MP stroke
0 -8 1 -1 0 -7 1 -1 0 -6 1 -1 0 27 0 -7 
1 -1 0 -8 1 -1 0 -6 1 -1 0 24 0 -27 0 23 
1 -1 0 -7 1 -1 0 -7 1 -1 0 -6 0 27 1 -1 
0 -8 1 -1 0 -7 1 -1 0 -7 1 -1 0 26 0 -27 
0 22 1 -1 0 -8 1 -1 0 -7 1 -1 0 23 0 -27 
0 25 1 -1 0 -8 1 -1 0 -7 1 -1 0 -7 1 27 
0 -8 1 -1 0 -7 1 -1 0 -7 1 -1 0 25 0 -27 
0 23 1 -1 0 -8 1 -1 0 -7 1 -1 0 22 0 -27 
0 26 1 -1 0 -8 1 -1 0 -7 1 -1 0 -7 1 -1 
0 26 0 -27 0 21 1 -1 0 -8 1 -1 0 -6 1 -1 
0 23 0 -27 0 24 1 -1 0 -8 1 -1 0 -7 1 -1 
0 -6 0 27 1 -1 0 -8 1 -1 0 -7 1 -1 0 -7 
1 -1 0 26 0 -7 2997 4526 100 MP stroke
1 -1 0 -7 1 -1 0 -7 1 -1 0 25 0 -27 0 23 
1 -1 0 -9 1 -1 0 -7 1 -1 0 23 0 -27 0 25 
1 -1 0 -7 1 -1 0 -8 1 -1 0 -7 1 27 0 -8 
1 -1 0 -7 1 -1 0 -7 1 -1 0 25 0 -27 0 21 
1 -1 0 -7 1 -1 0 -7 1 -1 0 23 0 -27 0 25 
1 -1 0 -8 1 -1 0 -8 1 -1 0 -6 0 27 1 -1 
0 -7 1 -1 0 -8 1 -1 0 -6 1 -1 0 26 0 -27 
0 20 1 -1 0 -7 1 -1 0 -6 1 -1 0 24 0 -28 
0 25 1 -1 0 -7 1 -1 0 -8 1 -1 0 -5 0 30 
1 -1 0 -8 1 -1 0 -7 1 -1 0 -6 1 -1 0 37 
0 -38 0 30 1 -1 0 -8 1 -1 0 -7 1 -1 0 57 
0 -60 0 54 1 -1 0 -9 1 -1 0 -10 1 -1 0 164 
0 -170 0 166 1 -2 2957 4339 100 MP stroke
0 -18 1 -2 0 -17 1 -2 0 -16 1 -2 0 -17 1 -1 
0 -15 1 -1 0 -13 1 -2 0 -12 1 -2 0 -11 1 -2 
0 -12 1 -1 0 -10 1 -1 0 -9 1 -1 0 -9 1 -1 
0 -7 1 -1 0 -8 1 -1 0 -7 1 -1 0 29 0 -31 
0 26 1 -1 0 -7 1 -1 0 -7 1 -1 0 33 0 -38 
0 35 1 -1 0 -8 1 -1 0 -7 1 -1 0 -7 1 58 
0 -10 1 -1 0 -10 1 -1 0 -9 1 -1 0 163 0 -165 
0 152 1 -2 0 -18 1 -1 0 -17 1 -2 0 -17 1 -1 
0 -15 1 -2 0 -13 1 -2 0 -13 1 -1 0 -12 1 -1 
0 -13 1 -1 0 -10 1 -1 0 -10 1 -1 0 -9 1 -1 
0 -8 1 -1 0 -8 1 -1 0 -7 1 -1 0 21 0 -26 
0 25 1 -1 0 -8 1 -1 0 -7 1 -1 0 -7 0 26 
1 -1 0 -8 1 -1 2912 4531 100 MP stroke
0 -7 1 -1 0 -6 1 -1 0 25 0 -26 0 20 1 -1 
0 -8 1 -1 0 -7 1 -1 0 24 0 -26 0 21 1 -1 
0 -7 1 -1 0 -7 1 -1 0 22 0 -26 0 23 1 -1 
0 -7 1 -1 0 -7 1 -1 0 -6 0 26 1 -1 0 -9 
1 -1 0 -7 1 -1 0 -6 1 25 0 -7 1 -1 0 -8 
1 -1 0 -7 1 -1 0 26 0 -7 1 -1 0 -7 1 -1 
0 -7 1 -1 0 24 0 -26 0 22 1 -1 0 -8 1 -1 
0 -7 1 -1 0 22 0 -26 0 24 1 -1 0 -8 1 -1 
0 -7 1 -1 0 20 0 -26 0 25 1 -1 0 -7 1 -1 
0 -8 1 -1 0 -6 1 -1 0 26 0 -7 1 -1 0 -8 
1 -1 0 -7 1 -1 0 25 0 -26 0 21 1 -1 0 -8 
1 -1 0 -6 1 -1 0 22 0 -26 0 22 1 -1 0 -7 
1 -1 0 -7 1 -1 2872 4541 100 MP stroke
0 21 0 -26 0 25 1 -1 0 -8 1 -1 0 -8 1 -1 
0 -5 0 1 1 24 0 -8 1 -1 0 -7 1 -1 0 -6 
1 -1 0 26 0 -27 0 20 1 -1 0 -7 1 -1 0 -6 
1 -1 0 28 0 -30 0 25 1 -1 0 -7 1 -1 0 -8 
1 -1 0 34 0 -37 0 34 1 -1 0 -8 1 -1 0 -8 
1 -1 0 53 0 -58 0 57 1 -1 0 -11 1 -1 0 -9 
1 -1 0 -9 1 167 0 -18 1 -2 0 -18 1 -1 0 -19 
1 -1 0 -16 1 -2 0 -14 1 -2 0 -13 1 -2 0 -13 
1 -1 0 -13 1 -1 0 -12 1 -1 0 -10 1 -1 0 -10 
1 -1 0 -8 1 -1 0 -9 1 -1 0 -8 1 -1 0 -6 
1 -1 0 23 0 -26 0 22 1 -1 0 -7 1 -1 0 -8 
1 -1 0 22 0 -26 0 23 1 -1 0 -7 1 -1 0 -7 
1 -1 0 -6 0 26 2831 4520 100 MP stroke
1 -1 0 -8 1 -1 0 -7 1 -1 0 -6 1 -1 0 26 
0 -7 1 -1 0 -7 1 -1 0 -7 1 -1 0 28 0 -29 
0 24 1 -1 0 -8 1 -1 0 -6 1 -1 0 33 0 -36 
0 31 1 -1 0 -8 1 -1 0 -7 1 -1 0 54 0 -57 
0 53 1 -1 0 -10 1 -1 0 -10 1 -1 0 156 0 -161 
0 155 1 -1 0 -18 1 -2 0 -17 1 -2 0 -16 1 -1 
0 -17 1 -1 0 -14 1 -1 0 -13 1 -2 0 -12 1 -1 
0 -12 1 -1 0 -12 1 -1 0 -9 1 -1 0 -10 1 -1 
0 -8 1 -1 0 -7 1 -1 0 -8 1 -1 0 -6 0 25 
1 -1 0 -8 1 -1 0 -7 1 -1 0 -6 1 -1 0 25 
0 -8 1 -1 0 -7 1 -1 0 -6 1 -1 0 24 0 -25 
0 19 1 -1 0 -7 1 -1 0 -7 1 -1 0 23 0 -25 
0 20 1 -1 0 -7 2789 4535 100 MP stroke
1 -1 0 -7 1 -1 0 22 0 -25 0 21 1 -1 0 -8 
1 -1 0 -6 1 -1 0 21 0 -25 0 22 1 -1 0 -7 
1 -1 0 -7 1 -1 0 20 0 -24 0 22 1 -1 0 -7 
1 -1 0 -7 1 -1 0 20 0 -25 0 24 1 -1 0 -7 
1 -1 0 -8 1 -1 0 -5 0 26 1 -1 0 -8 1 -1 
0 -7 1 -1 0 -6 1 -1 0 29 0 -8 1 -1 0 -6 
1 -1 0 -7 1 -1 0 36 0 -7 1 -1 0 -8 1 -1 
0 -7 1 -1 0 56 0 -58 0 51 1 -1 0 -10 1 -1 
0 -9 1 -1 0 162 0 -165 0 156 1 -2 0 -20 1 -2 
0 -17 1 -1 0 -16 1 -2 0 -15 1 -1 0 -15 1 -1 
0 -14 1 -2 0 -12 1 -1 0 -12 1 -1 0 -11 1 -1 
0 -10 1 -1 0 -10 1 -1 0 -8 1 -1 0 -7 1 -1 
0 -7 1 -1 0 20 2747 4521 100 MP stroke
0 -25 0 24 1 -1 0 -9 1 -1 0 -6 1 -1 0 -6 
0 25 1 -1 0 -8 1 -1 0 -7 1 -1 0 -7 0 25 
1 -1 0 -7 1 -1 0 -7 1 -1 0 -6 1 -1 0 24 
0 -7 1 -1 0 -7 1 -1 0 -6 1 -1 0 24 0 -25 
0 19 1 -1 0 -7 1 -1 0 -6 1 -1 0 27 0 -28 
0 22 1 -1 0 -7 1 -1 0 -6 1 -1 0 34 0 -35 
0 30 1 -1 0 -8 1 -1 0 -7 1 -1 0 60 0 -61 
0 54 1 -1 0 -10 1 -1 0 -8 1 -1 0 231 0 -234 
0 219 1 -2 0 -20 1 -2 0 -20 1 -2 0 -18 1 -2 
0 -17 1 -2 0 -18 1 -1 0 -16 1 -1 0 -14 1 -2 
0 -13 1 -2 0 -13 1 -1 0 -13 1 -1 0 -11 1 -1 
0 -11 1 -1 0 -9 1 -1 0 -9 1 -1 0 154 0 -157 
0 146 1 -2 0 -18 2706 4379 100 MP stroke
1 -1 0 -17 1 -1 0 -16 1 -1 0 -15 1 -1 0 -15 
1 -2 0 -12 1 -2 0 -12 1 -1 0 -11 1 -1 0 -10 
1 -1 0 -11 1 -1 0 -8 1 -1 0 -8 1 -1 0 -7 
1 -1 0 -7 1 -1 0 21 0 -24 0 21 1 -1 0 -7 
1 -1 0 -7 1 -1 0 22 0 -25 0 22 1 -1 0 -7 
1 -1 0 -7 1 -1 0 25 0 -28 0 25 1 -1 0 -7 
1 -1 0 -7 1 -1 0 31 0 -35 0 33 1 -1 0 -9 
1 -1 0 -7 1 -1 0 52 0 -56 0 53 1 -1 0 -10 
1 -1 0 -9 1 -1 0 150 0 -156 0 151 1 -2 0 -18 
1 -1 0 -17 1 -2 0 -16 1 -1 0 -15 1 -1 0 -16 
1 -1 0 -13 1 -1 0 -12 1 -2 0 -11 1 -1 0 -10 
1 -2 0 -10 1 -1 0 -9 1 -1 0 -8 1 -1 0 -7 
1 -1 0 -7 1 -1 2662 4542 100 MP stroke
0 20 0 -24 0 22 1 -1 0 -8 1 -1 0 -6 1 -1 
0 21 0 -26 0 24 1 -1 0 -7 1 -1 0 -7 1 -1 
0 23 0 -28 0 27 1 -1 0 -8 1 -1 0 -6 1 -1 
0 29 0 -35 0 34 1 -1 0 -8 1 -1 0 -7 1 -1 
0 49 0 -55 0 54 1 -1 0 -10 1 -1 0 -9 1 -1 
0 150 0 -157 0 155 1 -2 0 -17 1 -2 0 -16 1 -2 
0 -16 1 -1 0 -16 1 -2 0 -13 1 -2 0 -12 1 -2 
0 -12 1 -1 0 -11 1 -1 0 -11 1 -1 0 -10 1 -1 
0 -9 1 -1 0 -8 1 -1 0 -7 1 -1 0 -7 1 -1 
0 29 0 -34 0 33 1 -1 0 -8 1 -1 0 -7 1 -1 
0 49 0 -54 0 52 1 -1 0 -11 1 -1 0 -9 1 -1 
0 145 0 -150 0 145 1 -2 0 -17 1 -2 0 -16 1 -2 
0 -16 1 -2 0 -14 2622 4433 100 MP stroke
1 -2 0 -13 1 -1 0 -13 1 -1 0 -12 1 -1 0 -12 
1 -1 0 -11 1 -1 0 -9 1 -1 0 -9 1 -1 0 -7 
1 -1 0 -8 1 -1 0 -7 1 -1 0 20 0 -23 0 20 
1 -1 0 -7 1 -1 0 -7 1 -1 0 20 0 -23 0 19 
1 -1 0 -7 1 -1 0 -7 1 -1 0 21 0 -23 0 19 
1 -1 0 -7 1 -1 0 -7 1 -1 0 21 0 -23 0 18 
1 -1 0 -7 1 -1 0 -6 1 -1 0 21 0 -23 0 18 
1 -1 0 -7 1 -1 0 -7 1 -1 0 22 0 -23 0 17 
1 -1 0 -6 1 -1 0 -7 1 -1 0 22 0 -23 0 17 
1 -1 0 -7 1 -1 0 -6 1 -1 0 22 0 -23 0 17 
1 -1 0 -7 1 -1 0 -7 1 -1 0 23 0 -7 1 -1 
0 -7 1 -1 0 -6 1 -1 0 23 0 -7 1 -1 0 -7 
1 -1 0 -7 1 23 2581 4526 100 MP stroke
0 -8 1 -1 0 -6 1 -1 0 -7 1 23 0 -8 1 -1 
0 -7 1 -1 0 -6 0 23 1 -1 0 -7 1 -1 0 -7 
1 -1 0 17 0 -23 0 22 1 -1 0 -7 1 -1 0 -7 
1 -1 0 -5 0 23 1 -1 0 -9 1 -1 0 -6 1 -1 
0 18 0 -23 0 22 1 -1 0 -8 1 -1 0 -6 1 -1 
0 18 0 -23 0 21 1 -1 0 -7 1 -1 0 -7 1 -1 
0 19 0 -23 0 21 1 -1 0 -8 1 -1 0 -7 1 -1 
0 19 0 -22 0 19 1 -1 0 -7 1 -1 0 -7 1 -1 
0 20 0 -22 0 18 1 -1 0 -7 1 -1 0 -7 1 -1 
0 21 0 -22 0 17 1 -1 0 -7 1 -1 0 -6 1 -1 
0 21 0 -22 0 15 1 -1 0 -6 1 -1 0 -7 1 23 
0 -8 1 -1 0 -6 1 -1 0 18 0 -24 0 23 1 -1 
0 -7 1 -1 0 -6 2542 4540 100 MP stroke
1 -1 0 21 0 -26 0 25 1 -1 0 -7 1 -1 0 -7 
1 -1 0 30 0 -33 0 30 1 -1 0 -8 1 -1 0 -7 
1 -1 0 50 0 -53 0 48 1 -1 0 -10 1 -1 0 -9 
1 -1 0 145 0 -147 0 134 1 -2 0 -16 1 -2 0 -16 
1 -1 0 -16 1 -2 0 -14 1 -1 0 -13 1 -1 0 -12 
1 -2 0 -11 1 -1 0 -12 1 -1 0 -9 1 -1 0 -9 
1 -1 0 -9 1 -1 0 -7 1 -1 0 -7 1 -1 0 -6 
0 22 1 -1 0 -7 1 -1 0 -7 1 -1 0 17 0 -22 
0 21 1 -1 0 -8 1 -1 0 -6 1 -1 0 18 0 -22 
0 20 1 -1 0 -7 1 -1 0 -7 1 -1 0 19 0 -22 
0 18 1 -1 0 -7 1 -1 0 -6 1 -1 0 20 0 -22 
0 17 1 -1 0 -6 1 -1 0 -7 1 -1 0 21 0 -22 
0 16 1 -1 0 -7 2502 4541 100 MP stroke
1 -1 0 -6 1 -1 0 23 0 -7 1 -1 0 -7 1 -1 
0 -6 0 24 1 -1 0 -7 1 -1 0 -7 1 -1 0 22 
0 -27 0 26 1 -1 0 -8 1 -1 0 -7 1 -1 0 30 
0 -33 0 31 1 -1 0 -8 1 -1 0 -7 1 -1 0 49 
0 -53 0 48 1 -1 0 -9 1 -1 0 -9 1 -1 0 142 
0 -145 0 135 1 -2 0 -19 1 -1 0 -16 1 -2 0 -14 
1 -2 0 -14 1 -1 0 -13 1 -1 0 -14 1 -1 0 -11 
1 -1 0 -11 1 -1 0 -10 1 -1 0 -9 1 -1 0 -9 
1 -1 0 -7 1 -1 0 -7 1 -1 0 -6 0 22 1 -1 
0 -7 1 -1 0 -8 1 -1 0 18 0 -21 0 19 1 -1 
0 -7 1 -1 0 -7 1 -1 0 19 0 -21 0 17 1 -1 
0 -7 1 -1 0 -6 1 -1 0 20 0 -21 0 15 1 -1 
0 -6 1 -1 0 -7 2461 4549 100 MP stroke
1 22 0 -8 1 -1 0 -6 1 -1 0 18 0 -23 0 22 
1 -1 0 -7 1 -1 0 -6 1 -1 0 22 0 -26 0 22 
1 -1 0 -7 1 -1 0 -6 1 -1 0 32 0 -33 0 27 
1 -1 0 -7 1 -1 0 -8 1 53 0 -10 1 -1 0 -9 
1 -1 0 144 0 -151 0 150 1 -2 0 -18 1 -1 0 -18 
1 -2 0 -15 1 -1 0 -15 1 -1 0 -14 1 -1 0 -12 
1 -2 0 -12 1 -2 0 -10 1 -2 0 -10 1 -1 0 -9 
1 -1 0 -8 1 -1 0 -9 1 -1 0 -7 1 -1 0 -6 
1 -1 0 31 0 -33 0 28 1 -1 0 -8 1 -1 0 -7 
1 -1 0 53 0 -9 1 -1 0 -9 1 -1 0 -8 0 153 
1 -2 0 -18 1 -1 0 -18 1 -2 0 -15 1 -2 0 -14 
1 -2 0 -13 1 -2 0 -12 1 -2 0 -13 1 -1 0 -11 
1 -1 0 -10 1 -1 2417 4493 100 MP stroke
0 -10 1 -1 0 -8 1 -1 0 -9 1 -1 0 -7 1 -1 
0 -6 1 -1 0 30 0 -33 0 29 1 -1 0 -8 1 -1 
0 -7 1 -1 0 51 0 -52 0 45 1 -1 0 -10 1 -1 
0 -8 1 146 0 -17 1 -2 0 -18 1 -2 0 -15 1 -2 
0 -14 1 -1 0 -14 1 -1 0 -14 1 -1 0 -12 1 -1 
0 -11 1 -1 0 -10 1 -1 0 -10 1 -1 0 -9 1 -1 
0 -8 1 -1 0 -6 1 -1 0 -7 1 -1 0 23 0 -26 
0 23 1 -1 0 -8 1 -1 0 -6 1 -1 0 32 0 -33 
0 28 1 -1 0 -7 1 -1 0 -7 1 -1 0 58 0 -10 
1 -1 0 -8 1 -1 0 208 0 -215 0 213 1 -2 0 -20 
1 -2 0 -19 1 -2 0 -19 1 -2 0 -17 1 -2 0 -16 
1 -1 0 -15 1 -2 0 -14 1 -1 0 -15 1 -1 0 -12 
1 -2 0 -11 1 -1 2373 4461 100 MP stroke
0 -11 1 -1 0 -10 1 -1 0 -10 1 -1 0 -9 1 -1 
0 147 0 -149 0 137 1 -2 0 -16 1 -2 0 -15 1 -2 
0 -16 1 -1 0 -14 1 -1 0 -13 1 -1 0 -12 1 -1 
0 -12 1 -1 0 -11 1 -1 0 -10 1 -1 0 -8 1 -1 
0 -8 1 -1 0 -8 1 -1 0 -7 1 -1 0 -5 0 32 
1 -1 0 -8 1 -1 0 -7 1 -1 0 47 0 -51 0 48 
1 -1 0 -10 1 -1 0 -9 1 -1 0 139 0 -141 0 130 
1 -1 0 -17 1 -2 0 -15 1 -2 0 -16 1 -1 0 -14 
1 -1 0 -13 1 -1 0 -12 1 -1 0 -11 1 -1 0 -12 
1 -1 0 -9 1 -1 0 -9 1 -1 0 -8 1 -1 0 -8 
1 -1 0 -7 1 -1 0 -6 0 21 1 -1 0 -7 1 -1 
0 -6 1 -1 0 16 0 -21 0 20 1 -1 0 -8 1 -1 
0 -6 1 -1 0 18 2329 4530 100 MP stroke
0 -21 0 18 1 -1 0 -7 1 -1 0 -6 1 -1 0 19 
0 -21 0 16 1 -1 0 -7 1 -1 0 -7 1 21 0 -7 
1 -1 0 -6 1 -1 0 15 0 -21 0 20 1 -1 0 -7 
1 -1 0 -6 1 -1 0 17 0 -21 0 18 1 -1 0 -7 
1 -1 0 -7 1 -1 0 19 0 -20 0 15 1 -1 0 -6 
1 -1 0 -7 1 20 0 -7 1 -1 0 -7 1 -1 0 17 
0 -21 0 19 1 -1 0 -7 1 -1 0 -7 1 -1 0 19 
0 -21 0 16 1 -1 0 -7 1 -1 0 -6 1 20 0 -7 
1 -1 0 -7 1 -1 0 16 0 -20 0 18 1 -1 0 -7 
1 -1 0 -6 1 -1 0 19 0 -21 0 17 1 -1 0 -7 
1 -1 0 -7 1 22 0 -7 1 -1 0 -6 1 -1 0 20 
0 -25 0 24 1 -1 0 -7 1 -1 0 -7 1 -1 0 30 
0 -32 0 27 1 -1 2290 4516 100 MP stroke
0 -7 1 -1 0 -7 1 -1 0 51 0 -9 1 -1 0 -10 
1 -1 0 134 0 -140 0 136 1 -1 0 -17 1 -2 0 -16 
1 -1 0 -15 1 -2 0 -15 1 -1 0 -13 1 -2 0 -12 
1 -1 0 -11 1 -2 0 -10 1 -1 0 -11 1 -1 0 -9 
1 -1 0 -8 1 -1 0 -7 1 -1 0 -7 1 -1 0 -6 
1 -1 0 22 0 -7 1 -1 0 -6 1 -1 0 20 0 -25 
0 24 1 -1 0 -7 1 -1 0 -7 1 -1 0 29 0 -31 
0 28 1 -1 0 -8 1 -1 0 -6 1 -1 0 52 0 -53 
0 45 1 -1 0 -10 1 -1 0 157 0 -163 0 161 1 -1 
0 -18 1 -2 0 -17 1 -1 0 -16 1 -1 0 -17 1 -1 
0 -14 1 -1 0 -13 1 -1 0 -13 1 -1 0 -11 1 -1 
0 -12 1 -1 0 -10 1 -1 0 -9 1 -1 0 -8 1 -1 
0 -7 1 -1 0 -8 2247 4531 100 MP stroke
1 -1 0 50 0 -51 0 43 1 -1 0 -9 1 -1 0 -8 
0 137 1 -1 0 -17 1 -2 0 -17 1 -2 0 -15 1 -1 
0 -14 1 -1 0 -13 1 -2 0 -13 1 -1 0 -12 1 -1 
0 -10 1 -1 0 -10 1 -1 0 -9 1 -1 0 -9 1 -1 
0 -7 1 -1 0 -7 1 -1 0 -6 1 -1 0 19 0 -20 
0 15 1 -1 0 -7 1 -1 0 -5 0 1 1 20 0 -7 
1 -1 0 -6 1 -1 0 20 0 -24 0 22 1 -1 0 -7 
1 -1 0 -6 1 -1 0 30 0 -32 0 26 1 -1 0 -7 
1 -1 0 -7 1 50 0 -11 1 -1 0 -8 1 -1 0 129 
0 -134 0 129 1 -1 0 -17 1 -1 0 -16 1 -1 0 -16 
1 -2 0 -13 1 -2 0 -12 1 -2 0 -12 1 -1 0 -11 
1 -1 0 -11 1 -1 0 -10 1 -1 0 -8 1 -1 0 -8 
1 -1 0 -8 1 -1 2203 4538 100 MP stroke
0 -7 1 -1 0 -6 0 1 1 19 0 -7 1 -1 0 -7 
1 -1 0 16 0 -20 0 18 1 -1 0 -7 1 -1 0 -6 
1 -1 0 18 0 -20 0 15 1 -1 0 -6 1 -1 0 -7 
1 20 0 -7 1 -1 0 -7 1 -1 0 16 0 -20 0 18 
1 -1 0 -7 1 -1 0 -6 1 -1 0 18 0 -20 0 15 
1 -1 0 -6 1 -1 0 -7 1 20 0 -7 1 -1 0 -6 
1 -1 0 15 0 -20 0 18 1 -1 0 -7 1 -1 0 -6 
1 -1 0 18 0 -20 0 16 1 -1 0 -7 1 -1 0 -7 
1 20 0 -7 1 -1 0 -6 1 -1 0 15 0 -20 0 19 
1 -1 0 -7 1 -1 0 -7 1 -1 0 18 0 -20 0 16 
1 -1 0 -6 1 -1 0 -7 1 -1 0 21 0 -7 1 -1 
0 -7 1 -1 0 16 0 -20 0 18 1 -1 0 -7 1 -1 
0 -6 1 -1 0 18 2164 4531 100 MP stroke
0 -20 0 16 1 -1 0 -7 1 -1 0 -6 1 -1 0 20 
0 -7 1 -1 0 -6 1 -1 0 15 0 -20 0 19 1 -1 
0 -7 1 -1 0 -7 1 -1 0 18 0 -20 0 16 1 -1 
0 -7 1 -1 0 -6 1 -1 0 20 0 -7 1 -1 0 -6 
1 -1 0 14 0 -20 0 19 1 -1 0 -7 1 -1 0 -6 
1 -1 0 17 0 -19 0 15 1 -1 0 -7 1 -1 0 -6 
1 19 0 -7 1 -1 0 -7 1 -1 0 16 0 -19 0 17 
1 -1 0 -7 1 -1 0 -6 1 -1 0 19 0 -20 0 14 
1 -1 0 -7 1 -1 0 15 0 -20 0 19 1 -1 0 -7 
1 -1 0 -6 1 -1 0 18 0 -20 0 16 1 -1 0 -8 
1 -1 0 -5 0 21 1 -1 0 -7 1 -1 0 -6 1 -1 
0 21 0 -24 0 21 1 -1 0 -7 1 -1 0 -6 1 -1 
0 31 0 -7 1 -1 2126 4519 100 MP stroke
0 -7 1 -1 0 47 0 -52 0 50 1 -1 0 -10 1 -1 
0 -8 1 -1 0 157 0 -159 0 147 1 -2 0 -17 1 -1 
0 -16 1 -2 0 -16 1 -2 0 -14 1 -1 0 -13 1 -1 
0 -13 1 -1 0 -11 1 -2 0 -11 1 -1 0 -10 1 -1 
0 -9 1 -1 0 -9 1 -1 0 -8 1 -1 0 -7 1 -1 
0 47 0 -50 0 45 1 -1 0 -9 1 -1 0 -9 1 -1 
0 137 0 -15 1 -2 0 -18 1 -1 0 -15 1 -2 0 -14 
1 -2 0 -13 1 -1 0 -13 1 -1 0 -13 1 -1 0 -10 
1 -2 0 -10 1 -1 0 -9 1 -1 0 -8 1 -1 0 -9 
1 -1 0 -6 1 -1 0 -7 1 -1 0 19 0 -20 0 15 
1 -1 0 -7 1 -1 0 14 0 -20 0 19 1 -1 0 -7 
1 -1 0 -6 1 -1 0 17 0 -20 0 16 1 -1 0 -6 
1 -1 0 -7 1 19 2083 4531 100 MP stroke
0 -7 1 -1 0 -6 1 -1 0 16 0 -20 0 18 1 -1 
0 -7 1 -1 0 -6 1 -1 0 20 0 -21 0 16 1 -1 
0 -7 1 -1 0 -4 0 23 1 -1 0 -7 1 -1 0 -7 
1 -1 0 30 0 -31 0 27 1 -1 0 -7 1 -1 0 -7 
1 56 0 -11 1 -1 0 -8 1 -1 0 203 0 -207 0 199 
1 -2 0 -20 1 -1 0 -19 1 -2 0 -19 1 -1 0 -17 
1 -1 0 -16 1 -1 0 -15 1 -1 0 -14 1 -1 0 -14 
1 -2 0 -12 1 -1 0 -11 1 -1 0 -10 1 -1 0 -10 
1 -1 0 -10 1 -1 0 126 0 -132 0 128 1 -1 0 -17 
1 -1 0 -16 1 -1 0 -15 1 -1 0 -15 1 -1 0 -13 
1 -1 0 -12 1 -1 0 -11 1 -1 0 -10 1 -1 0 -11 
1 -1 0 -8 1 -1 0 -8 1 -1 0 -8 1 -1 0 -6 
1 -1 0 -6 0 19 2040 4533 100 MP stroke
1 -1 0 -7 1 -1 0 -6 1 -1 0 16 0 -19 0 16 
1 -1 0 -7 1 -1 0 -6 1 -1 0 19 0 -7 1 -1 
0 -6 1 -1 0 15 0 -19 0 17 1 -1 0 -6 1 -1 
0 -7 1 -1 0 18 0 -19 0 14 1 -1 0 -7 1 -1 
0 -5 0 19 1 -1 0 -7 1 -1 0 -7 1 -1 0 17 
0 -19 0 15 1 -1 0 -6 1 -1 0 -6 1 -1 0 19 
0 -7 1 -1 0 -7 1 -1 0 16 0 -19 0 17 1 -1 
0 -7 1 -1 0 -6 1 -1 0 18 0 -19 0 14 1 -1 
0 -7 1 -1 0 14 0 -19 0 18 1 -1 0 -6 1 -1 
0 -7 1 -1 0 17 0 -19 0 16 1 -1 0 -8 1 -1 
0 -6 1 19 0 -7 1 -1 0 -6 1 -1 0 15 0 -19 
0 17 1 -1 0 -7 1 -1 0 -6 1 -1 0 18 0 -19 
0 14 1 -1 0 -7 2002 4546 100 MP stroke
1 -1 0 -5 0 19 1 -1 0 -8 1 -1 0 -6 1 -1 
0 17 0 -19 0 15 1 -1 0 -7 1 -1 0 -6 1 19 
0 -8 1 -1 0 -6 1 -1 0 15 0 -18 0 16 1 -1 
0 -7 1 -1 0 -6 1 -1 0 18 0 -6 1 -1 0 -6 
1 -1 0 15 0 -19 0 17 1 -1 0 -6 1 -1 0 -7 
1 -1 0 20 0 -6 1 -1 0 -6 1 -1 0 19 0 -23 
0 22 1 -1 0 -7 1 -1 0 -7 1 -1 0 30 0 -7 
1 -1 0 -7 1 -1 0 44 0 -48 0 45 1 -1 0 -10 
1 -1 0 -9 1 -1 0 127 0 -14 1 -2 0 -15 1 -2 
0 -14 1 -2 0 -14 1 -1 0 -14 1 -1 0 -12 1 -1 
0 -11 1 -1 0 -11 1 -1 0 -9 1 -1 0 -10 1 -1 
0 -8 1 -1 0 -7 1 -1 0 -7 1 -1 0 -6 1 -1 
0 18 0 -6 1 -1 1960 4542 100 MP stroke
0 -7 1 -1 0 15 0 -18 0 16 1 -1 0 -7 1 -1 
0 -6 1 -1 0 18 0 -6 1 -1 0 -7 1 -1 0 15 
0 -18 0 16 1 -1 0 -7 1 -1 0 -6 1 -1 0 18 
0 -6 1 -1 0 -7 1 -1 0 15 0 -18 0 16 1 -1 
0 -7 1 -1 0 -6 1 -1 0 18 0 -6 1 -1 0 -7 
1 -1 0 15 0 -18 0 16 1 -1 0 -7 1 -1 0 -6 
1 -1 0 18 0 -6 1 -1 0 -7 1 -1 0 15 0 -18 
0 16 1 -1 0 -7 1 -1 0 -6 1 -1 0 18 0 -6 
1 -1 0 -7 1 -1 0 15 0 -18 0 16 1 -1 0 -7 
1 -1 0 -6 1 -1 0 18 0 -6 1 -1 0 -7 1 -1 
0 15 0 -18 0 16 1 -1 0 -7 1 -1 0 -6 1 -1 
0 18 0 -6 1 -1 0 -7 1 -1 0 15 0 -18 0 16 
1 -1 0 -7 1 -1 1922 4546 100 MP stroke
0 -6 1 -1 0 18 0 -6 1 -1 0 -7 1 -1 0 15 
0 -18 0 16 1 -1 0 -7 1 -1 0 -6 1 -1 0 18 
0 -6 1 -1 0 -7 1 -1 0 15 0 -18 0 16 1 -1 
0 -7 1 -1 0 -6 1 -1 0 18 0 -6 1 -1 0 -7 
1 -1 0 15 0 -18 0 16 1 -1 0 -7 1 -1 0 -6 
1 -1 0 18 0 -6 1 -1 0 -7 1 -1 0 15 0 -18 
0 16 1 -1 0 -7 1 -1 0 -6 1 -1 0 18 0 -6 
1 -1 0 -7 1 -1 0 15 0 -18 0 16 1 -1 0 -7 
1 -1 0 -6 1 -1 0 18 0 -6 1 -1 0 -7 1 -1 
0 15 0 -18 0 16 1 -1 0 -7 1 -1 0 -6 1 -1 
0 18 0 -6 1 -1 0 -7 1 -1 0 15 0 -18 0 16 
1 -1 0 -7 1 -1 0 -6 1 -1 0 18 0 -6 1 -1 
0 -7 1 -1 0 15 1884 4535 100 MP stroke
0 -18 0 16 1 -1 0 -7 1 -1 0 -6 1 -1 0 18 
0 -6 1 -1 0 -6 1 -1 0 14 0 -18 0 16 1 -1 
0 -6 1 -1 0 -7 1 -1 0 18 0 -6 1 -1 0 -6 
1 -1 0 14 0 -18 0 17 1 -1 0 -7 1 -1 0 -7 
1 -1 0 19 0 -7 1 -1 0 -6 1 -1 0 15 0 -19 
0 17 1 -1 0 -7 1 -1 0 -7 1 -1 0 19 0 -7 
1 -1 0 -6 1 -1 0 15 0 -19 0 17 1 -1 0 -7 
1 -1 0 -7 1 -1 0 19 0 -7 1 -1 0 -6 1 -1 
0 15 0 -19 0 17 1 -1 0 -7 1 -1 0 -6 1 -1 
0 18 0 -6 1 -1 0 -6 1 -1 0 15 0 -19 0 17 
1 -1 0 -6 1 -1 0 -7 1 -1 0 20 0 -6 1 -1 
0 -6 1 -1 0 19 0 -23 0 21 1 -1 0 -6 1 -1 
0 -7 1 -1 0 30 1846 4514 100 MP stroke
0 -7 1 -1 0 -7 1 -1 0 43 0 -47 0 44 1 -1 
0 -9 1 -1 0 -9 1 -1 0 124 0 -15 1 -1 0 -16 
1 -1 0 -15 1 -1 0 -14 1 -1 0 -14 1 -1 0 -12 
1 -1 0 -11 1 -1 0 -10 1 -1 0 -9 1 -1 0 -10 
1 -1 0 -8 1 -1 0 -7 1 -1 0 -6 1 -1 0 -6 
1 -1 0 17 0 -7 1 -1 0 -6 1 -1 0 15 0 -17 
0 14 1 -1 0 -7 1 -1 0 -5 0 17 1 -1 0 -7 
1 -1 0 -6 1 -1 0 16 0 -17 0 12 1 -1 0 -6 
1 -1 0 13 0 -17 0 15 1 -1 0 -6 1 -1 0 -6 
1 -1 0 17 0 -6 1 -1 0 -6 1 -1 0 14 0 -17 
0 14 1 -1 0 -7 1 -1 0 -5 0 1 1 16 0 -7 
1 -1 0 -6 1 -1 0 15 0 -17 0 13 1 -1 0 -7 
1 -1 0 13 0 -17 1806 4554 100 MP stroke
0 16 1 -1 0 -6 1 -1 0 -6 1 -1 0 17 0 -18 
0 11 1 -1 0 -6 1 -1 0 15 0 -18 0 15 1 -1 
0 -6 1 -1 0 -7 1 18 0 -8 1 -1 0 -6 1 -1 
0 16 0 -18 0 14 1 -1 0 -7 1 -1 0 13 0 -18 
0 17 1 -1 0 -7 1 -1 0 -6 1 -1 0 17 0 -18 
0 12 1 -1 0 -6 1 -1 0 14 0 -17 0 15 1 -1 
0 -7 1 -1 0 -6 1 17 0 -7 1 -1 0 -6 1 -1 
0 15 0 -17 0 14 1 -1 0 -7 1 -1 0 -5 0 18 
1 -1 0 -7 1 -1 0 -5 1 -1 0 18 0 -20 0 15 
1 -1 0 -7 1 -1 0 19 0 -22 0 20 1 -1 0 -6 
1 -1 0 -7 1 -1 0 30 0 -7 1 -1 0 -8 1 -1 
0 44 0 -47 0 42 1 -1 0 -9 1 -1 0 -7 0 125 
1 -2 0 -16 1 -2 1768 4406 100 MP stroke
0 -17 1 -1 0 -14 1 -2 0 -13 1 -1 0 -13 1 -1 
0 -12 1 -1 0 -12 1 -1 0 -10 1 -1 0 -9 1 -1 
0 -8 1 -1 0 -8 1 -1 0 -8 1 -1 0 -6 1 -1 
0 13 0 -18 0 17 1 -1 0 -7 1 -1 0 -6 1 -1 
0 17 0 -18 0 12 1 -1 0 -6 1 -1 0 14 0 -17 
0 15 1 -1 0 -7 1 -1 0 -6 1 17 0 -7 1 -1 
0 -6 1 -1 0 15 0 -17 0 13 1 -1 0 -6 1 -1 
0 13 0 -18 0 17 1 -1 0 -7 1 -1 0 -6 1 -1 
0 17 0 -18 0 12 1 -1 0 -6 1 -1 0 14 0 -18 
0 16 1 -1 0 -7 1 -1 0 -6 1 18 0 -7 1 -1 
0 -5 1 -1 0 17 0 -20 0 16 1 -1 0 -7 1 -1 
0 18 0 -23 0 22 1 -1 0 -6 1 -1 0 -7 1 -1 
0 28 0 -29 0 23 1729 4521 100 MP stroke
1 -1 0 -7 1 -1 0 44 0 -48 0 45 1 -1 0 -9 
1 -1 0 -8 1 -1 0 132 0 -16 1 -2 0 -15 1 -1 
0 -15 1 -1 0 -14 1 -1 0 -13 1 -1 0 -13 1 -1 
0 -11 1 -1 0 -10 1 -1 0 -10 1 -1 0 -8 1 -1 
0 -9 1 -1 0 -7 1 -1 0 -7 1 -1 0 -6 0 1 
1 28 0 -8 1 -1 0 -8 1 -1 0 46 0 -47 0 40 
1 -1 0 -9 1 -1 0 117 0 -123 0 120 1 -2 0 -16 
1 -1 0 -17 1 -1 0 -14 1 -1 0 -13 1 -2 0 -12 
1 -1 0 -11 1 -1 0 -12 1 -1 0 -10 1 -1 0 -9 
1 -1 0 -8 1 -1 0 -8 1 -1 0 -7 1 -1 0 -6 
1 -1 0 14 0 -17 0 14 1 -1 0 -6 1 -1 0 -6 
1 17 0 -7 1 -1 0 -7 1 -1 0 16 0 -17 0 13 
1 -1 0 -6 1 -1 1685 4549 100 MP stroke
0 12 0 -17 0 16 1 -1 0 -7 1 -1 0 -6 1 -1 
0 17 0 -6 1 -1 0 -6 1 -1 0 14 0 -17 0 15 
1 -1 0 -7 1 -1 0 -7 1 18 0 -7 1 -1 0 -6 
1 -1 0 14 0 -17 0 14 1 -1 0 -7 1 -1 0 12 
0 -17 0 16 1 -1 0 -6 1 -1 0 -6 1 -1 0 16 
0 -17 0 11 1 -1 0 -6 1 -1 0 14 0 -17 0 14 
1 -1 0 -7 1 -1 0 -5 0 17 1 -1 0 -7 1 -1 
0 -6 1 -1 0 17 0 -7 1 -1 0 -6 1 -1 0 15 
0 -17 0 14 1 -1 0 -7 1 -1 0 12 0 -17 0 16 
1 -1 0 -7 1 -1 0 -6 1 -1 0 17 0 -6 1 -1 
0 -6 1 -1 0 15 0 -17 0 13 1 -1 0 -7 1 -1 
0 13 0 -17 0 15 1 -1 0 -6 1 -1 0 -7 1 17 
0 -7 1 -1 0 -6 1648 4550 100 MP stroke
1 -1 0 15 0 -17 0 13 1 -1 0 -6 1 -1 0 12 
0 -17 0 15 1 -1 0 -6 1 -1 0 -6 1 17 0 -6 
1 -1 0 -6 1 -1 0 17 0 -19 0 15 1 -1 0 -6 
1 -1 0 19 0 -23 0 21 1 -1 0 -6 1 -1 0 -7 
1 32 0 -8 1 -1 0 -6 1 -1 0 62 0 -63 0 56 
1 -1 0 -9 1 -1 0 376 0 -381 0 372 1 -3 0 -31 
1 -3 0 -27 1 -3 0 -26 1 -2 0 -25 1 -2 0 -23 
1 -3 0 -24 1 -2 0 -21 1 -2 0 -20 1 -2 0 -19 
1 -2 0 -18 1 -1 0 -19 1 -2 0 -15 1 -2 0 -15 
1 -1 0 -14 1 -2 0 -13 1 -1 0 -13 1 -2 0 -11 
1 -1 0 -11 1 -1 0 -10 1 -1 0 -9 1 -1 0 -9 
1 -1 0 -7 1 -1 0 -7 1 -1 0 -6 1 -1 0 13 
0 -17 0 15 1 -1 1605 4541 100 MP stroke
0 -7 1 -1 0 -6 0 17 1 -1 0 -7 1 -1 0 -6 
1 -1 0 16 0 -17 0 12 1 -1 0 -7 1 -1 0 14 
0 -17 0 14 1 -1 0 -6 1 -1 0 -6 0 17 1 -1 
0 -6 1 -1 0 -7 1 -1 0 16 0 -17 0 12 1 -1 
0 -6 1 -1 0 13 0 -16 0 13 1 -1 0 -6 1 -1 
0 -5 0 16 1 -1 0 -7 1 -1 0 -6 1 -1 0 16 
0 -5 1 -1 0 -6 1 -1 0 14 0 -17 0 13 1 -1 
0 -6 1 -1 0 13 0 -18 0 17 1 -1 0 -6 1 -1 
0 -6 1 -1 0 18 0 -6 1 -1 0 -6 1 -1 0 20 
0 -22 0 18 1 -1 0 -6 1 -1 0 23 0 -28 0 27 
1 -1 0 -8 1 -1 0 -6 1 -1 0 45 0 -9 1 -1 
0 -8 1 -1 0 115 0 -119 0 111 1 -2 0 -17 1 -1 
0 -14 1 -2 0 -13 1568 4451 100 MP stroke
1 -2 0 -12 1 -1 0 -13 1 -1 0 -11 1 -1 0 -10 
1 -1 0 -10 1 -1 0 -8 1 -1 0 -9 1 -1 0 -7 
1 -1 0 -6 1 -1 0 -6 1 -1 0 16 0 -6 1 -1 
0 -6 1 -1 0 14 0 -16 0 12 1 -1 0 -6 1 -1 
0 12 0 -16 0 15 1 -1 0 -6 1 -1 0 -7 1 16 
0 -6 1 -1 0 -6 1 -1 0 14 0 -16 0 12 1 -1 
0 -6 1 -1 0 12 0 -16 0 14 1 -1 0 -6 1 -1 
0 -6 1 16 0 -7 1 -1 0 -5 1 -1 0 14 0 -16 
0 11 1 -1 0 -6 1 -1 0 13 0 -16 0 14 1 -1 
0 -6 1 -1 0 -6 1 16 0 -7 1 -1 0 -6 1 -1 
0 15 0 -16 0 11 1 -1 0 -6 1 -1 0 13 0 -16 
0 14 1 -1 0 -7 1 -1 0 -5 0 16 1 -1 0 -6 
1 -1 0 -6 1 -1 1527 4554 100 MP stroke
0 15 0 -16 0 11 1 -1 0 -6 1 -1 0 13 0 -16 
0 13 1 -1 0 -6 1 -1 0 -5 0 16 1 -1 0 -6 
1 -1 0 -7 1 -1 0 16 0 -17 0 11 1 -1 0 -6 
1 -1 0 13 0 -16 0 14 1 -1 0 -7 1 -1 0 -5 
0 15 1 -1 0 -6 1 -1 0 -6 1 -1 0 15 0 -5 
1 -1 0 -6 1 -1 0 14 0 -16 0 11 1 -1 0 -6 
1 -1 0 13 0 -16 0 13 1 -1 0 -6 1 -1 0 11 
0 -16 0 15 1 -1 0 -7 1 -1 0 -6 1 16 0 -7 
1 -1 0 -6 1 -1 0 15 0 -16 0 11 1 -1 0 -6 
1 -1 0 13 0 -16 0 13 1 -1 0 -6 1 -1 0 11 
0 -16 0 15 1 -1 0 -6 1 -1 0 -7 0 16 1 -1 
0 -6 1 -1 0 -6 1 -1 0 15 0 -16 0 11 1 -1 
0 -6 1 -1 0 13 1491 4540 100 MP stroke
0 -15 0 11 1 -1 0 -6 1 -1 0 12 0 -15 0 13 
1 -1 0 -6 1 -1 0 -5 0 1 1 14 0 -8 1 -1 
0 -5 1 -1 0 15 0 -5 1 -1 0 -6 1 -1 0 14 
0 -16 0 12 1 -1 0 -6 1 -1 0 13 0 -16 0 14 
1 -1 0 -6 1 -1 0 -5 0 18 1 -1 0 -7 1 -1 
0 -7 1 21 0 -6 1 -1 0 -6 1 -1 0 26 0 -28 
0 23 1 -1 0 -8 1 -1 0 42 0 -45 0 40 1 -1 
0 -9 1 -1 0 112 0 -117 0 114 1 -2 0 -15 1 -2 
0 -16 1 -1 0 -14 1 -1 0 -13 1 -1 0 -13 1 -1 
0 -11 1 -1 0 -11 1 -1 0 -10 1 -1 0 -9 1 -1 
0 -8 1 -1 0 -7 1 -1 0 -7 1 -1 0 -6 1 -1 
0 15 0 -16 0 11 1 -1 0 -6 1 -1 0 13 0 -16 
0 13 1 -1 0 -7 1452 4550 100 MP stroke
1 -1 0 12 0 -16 0 14 1 -1 0 -6 1 -1 0 -5 
0 1 1 14 0 -7 1 -1 0 -6 1 -1 0 16 0 -6 
1 -1 0 -6 1 -1 0 15 0 -17 0 13 1 -1 0 -6 
1 -1 0 15 0 -18 0 15 1 -1 0 -6 1 -1 0 -5 
0 21 1 -1 0 -7 1 -1 0 -6 1 -1 0 28 0 -7 
1 -1 0 -7 1 -1 0 46 0 -47 0 41 1 -1 0 -9 
1 -1 0 139 0 -143 0 136 1 -2 0 -18 1 -1 0 -15 
1 -2 0 -14 1 -1 0 -14 1 -1 0 -13 1 -1 0 -13 
1 -1 0 -11 1 -1 0 -10 1 -1 0 -10 1 -1 0 -8 
1 -1 0 -9 1 -1 0 -7 1 -1 0 -7 1 44 0 -9 
1 -1 0 -9 1 -1 0 112 0 -114 0 102 1 -2 0 -14 
1 -2 0 -14 1 -1 0 -13 1 -1 0 -13 1 -1 0 -12 
1 -1 0 -11 1 -1 1410 4498 100 MP stroke
0 -10 1 -1 0 -9 1 -1 0 -8 1 -1 0 -8 1 -1 
0 -7 1 -1 0 -6 1 -1 0 11 0 -15 0 14 1 -1 
0 -6 1 -1 0 -6 0 1 1 14 0 -7 1 -1 0 -6 
1 -1 0 15 0 -5 1 -1 0 -6 1 -1 0 13 0 -15 
0 11 1 -1 0 -6 1 -1 0 12 0 -15 0 14 1 -1 
0 -7 1 -1 0 -5 0 15 1 -1 0 -6 1 -1 0 -6 
1 -1 0 15 0 -5 1 -1 0 -6 1 -1 0 13 0 -15 
0 11 1 -1 0 -6 1 -1 0 13 0 -16 0 13 1 -1 
0 -6 1 -1 0 11 0 -16 0 15 1 -1 0 -7 1 -1 
0 -6 1 16 0 -7 1 -1 0 -6 1 -1 0 15 0 -16 
0 11 1 -1 0 -6 1 -1 0 13 0 -16 0 13 1 -1 
0 -6 1 -1 0 11 0 -16 0 15 1 -1 0 -6 1 -1 
0 -7 0 16 1 -1 1372 4541 100 MP stroke
0 -6 1 -1 0 -6 1 -1 0 15 0 -16 0 11 1 -1 
0 -6 1 -1 0 13 0 -15 0 11 1 -1 0 -6 1 -1 
0 12 0 -15 0 13 1 -1 0 -6 1 -1 0 -5 0 15 
1 -1 0 -7 1 -1 0 -6 1 -1 0 16 0 -6 1 -1 
0 -6 1 -1 0 13 0 -15 0 11 1 -1 0 -6 1 -1 
0 12 0 -15 0 12 1 -1 0 -6 1 -1 0 12 0 -15 
0 13 1 -1 0 -6 1 -1 0 11 0 -15 0 14 1 -1 
0 -6 1 -1 0 -5 0 17 1 -1 0 -6 1 -1 0 -6 
1 -1 0 21 0 -7 1 -1 0 -6 1 -1 0 26 0 -5 
1 -1 0 -7 1 -1 0 42 0 -44 0 39 1 -1 0 -10 
1 -1 0 120 0 -123 0 115 1 -1 0 -16 1 -1 0 -15 
1 -1 0 -13 1 -2 0 -14 1 -1 0 -11 1 -2 0 -11 
1 -1 0 -10 1 -1 1334 4496 100 MP stroke
0 -9 1 -1 0 -10 1 -1 0 -7 1 -1 0 -7 1 -1 
0 -7 1 -1 0 22 0 -27 0 26 1 -1 0 -8 1 -1 
0 -6 0 43 1 -1 0 -9 1 -1 0 -8 1 -1 0 113 
0 -14 1 -2 0 -16 1 -1 0 -14 1 -1 0 -13 1 -1 
0 -12 1 -1 0 -11 1 -1 0 -12 1 -1 0 -9 1 -1 
0 -9 1 -1 0 -8 1 -1 0 -7 1 -1 0 -7 1 -1 
0 -6 1 -1 0 16 0 -17 0 13 1 -1 0 -6 1 -1 
0 17 0 -20 0 17 1 -1 0 -6 1 -1 0 23 0 -27 
0 25 1 -1 0 -7 1 -1 0 39 0 -44 0 43 1 -1 
0 -10 1 -1 0 -7 0 121 1 -1 0 -16 1 -1 0 -15 
1 -1 0 -14 1 -1 0 -15 1 -1 0 -12 1 -1 0 -11 
1 -1 0 -11 1 -1 0 -9 1 -1 0 -10 1 -1 0 -8 
1 -1 0 -7 1 -1 1291 4530 100 MP stroke
0 -7 1 -1 0 -6 1 -1 0 25 0 -26 0 20 1 -1 
0 -6 1 -1 0 41 0 -44 0 38 1 -1 0 -9 1 -1 
0 108 0 -112 0 105 1 -1 0 -17 1 -1 0 -14 1 -1 
0 -14 1 -1 0 -12 1 -2 0 -11 1 -1 0 -12 1 -1 
0 -10 1 -1 0 -9 1 -1 0 -8 1 -1 0 -8 1 -1 
0 -7 1 -1 0 -7 1 -1 0 -4 0 14 1 -1 0 -6 
1 -1 0 -6 1 14 0 -7 1 -1 0 -5 1 -1 0 14 
0 -5 1 -1 0 -6 1 -1 0 14 0 -15 0 10 1 -1 
0 -6 1 -1 0 13 0 -15 0 11 1 -1 0 -5 1 -1 
0 12 0 -15 0 13 1 -1 0 -6 1 -1 0 13 0 -17 
0 15 1 -1 0 -6 1 -1 0 16 0 -20 0 19 1 -1 
0 -6 1 -1 0 -7 1 27 0 -8 1 -1 0 -7 1 -1 
0 43 0 -8 1 -1 1251 4503 100 MP stroke
0 -9 1 -1 0 108 0 -109 0 98 1 -1 0 -16 1 -2 
0 -13 1 -2 0 -12 1 -2 0 -12 1 -1 0 -11 1 -1 
0 -11 1 -1 0 -10 1 -1 0 -9 1 -1 0 -8 1 -1 
0 -7 1 -1 0 -7 1 -1 0 -6 1 -1 0 11 0 -14 
0 12 1 -1 0 -6 1 -1 0 10 0 -14 0 13 1 -1 
0 -6 1 -1 0 -5 0 14 1 -1 0 -6 1 -1 0 -6 
1 14 0 -7 1 -1 0 -5 1 -1 0 14 0 -5 1 -1 
0 -6 1 -1 0 13 0 -14 0 10 1 -1 0 -6 1 -1 
0 12 0 -14 0 11 1 -1 0 -6 1 -1 0 11 0 -14 
0 12 1 -1 0 -6 1 -1 0 10 0 -14 0 13 1 -1 
0 -6 1 -1 0 -5 0 14 1 -1 0 -6 1 -1 0 -6 
1 14 0 -7 1 -1 0 -5 1 -1 0 14 0 -5 1 -1 
0 -6 1 -1 0 13 1211 4543 100 MP stroke
0 -14 0 10 1 -1 0 -7 1 -1 0 13 0 -14 0 10 
1 -1 0 -5 1 -1 0 11 0 -14 0 12 1 -1 0 -6 
1 -1 0 10 0 -15 0 13 1 -1 0 -6 1 -1 0 -5 
0 14 1 -1 0 -6 1 -1 0 -6 1 14 0 -7 1 -1 
0 -6 1 14 0 -7 1 -1 0 -5 1 -1 0 14 0 -6 
1 -1 0 -6 1 -1 0 14 0 -6 1 -1 0 -6 1 -1 
0 14 0 -5 1 -1 0 -6 1 -1 0 13 0 -14 0 9 
1 -1 0 -6 1 -1 0 13 0 -14 0 9 1 -1 0 -5 
1 -1 0 12 0 -14 0 10 1 -1 0 -6 1 -1 0 12 
0 -14 0 10 1 -1 0 -6 1 -1 0 12 0 -14 0 11 
1 -1 0 -6 1 -1 0 11 0 -14 0 11 1 -1 0 -6 
1 -1 0 11 0 -14 0 11 1 -1 0 -6 1 -1 0 11 
0 -14 0 12 1 -1 1175 4547 100 MP stroke
0 -7 1 -1 0 11 0 -14 0 12 1 -1 0 -6 1 -1 
0 10 0 -14 0 13 1 -1 0 -6 1 -1 0 9 0 -14 
0 13 1 -1 0 -6 1 -1 0 9 0 -14 0 13 1 -1 
0 -6 1 -1 0 -5 0 14 1 -1 0 -7 1 -1 0 -5 
0 14 1 -1 0 -6 1 -1 0 -6 1 14 0 -6 1 -1 
0 -7 1 14 0 -6 1 -1 0 -6 1 -1 0 14 0 -5 
1 -1 0 -6 1 -1 0 13 0 -14 0 9 1 -1 0 -6 
1 -1 0 14 0 -15 0 10 1 -1 0 -6 1 -1 0 13 
0 -14 0 9 1 -1 0 -6 1 -1 0 13 0 -14 0 10 
1 -1 0 -6 1 -1 0 12 0 -14 0 10 1 -1 0 -6 
1 -1 0 12 0 -14 0 11 1 -1 0 -6 1 -1 0 12 
0 -15 0 11 1 -1 0 -6 1 -1 0 12 0 -15 0 12 
1 -1 0 -6 1 -1 1139 4553 100 MP stroke
0 11 0 -14 0 11 1 -1 0 -6 1 -1 0 11 0 -14 
0 12 1 -1 0 -7 1 -1 0 11 0 -14 0 12 1 -1 
0 -6 1 -1 0 11 0 -15 0 14 1 -1 0 -6 1 -1 
0 10 0 -15 0 14 1 -1 0 -6 1 -1 0 -5 0 17 
1 -1 0 -6 1 -1 0 -6 0 20 1 -1 0 -7 1 -1 
0 -5 0 1 1 26 0 -7 1 -1 0 -7 1 49 0 -9 
1 -1 0 -9 1 180 0 -19 1 -2 0 -17 1 -2 0 -17 
1 -1 0 -16 1 -1 0 -17 1 -1 0 -14 1 -1 0 -13 
1 -2 0 -12 1 -1 0 -11 1 -1 0 -12 1 -1 0 -10 
1 -1 0 -9 1 -1 0 -9 1 -1 0 105 0 -12 1 -2 
0 -15 1 -2 0 -13 1 -1 0 -13 1 -1 0 -12 1 -1 
0 -11 1 -1 0 -11 1 -1 0 -9 1 -1 0 -8 1 -1 
0 -8 1 -1 0 -7 1097 4541 100 MP stroke
1 -1 0 -7 1 -1 0 -6 1 -1 0 13 0 -14 0 9 
1 -1 0 -5 1 -1 0 12 0 -14 0 10 1 -1 0 -6 
1 -1 0 12 0 -14 0 10 1 -1 0 -6 1 -1 0 12 
0 -14 0 11 1 -1 0 -6 1 -1 0 11 0 -14 0 11 
1 -1 0 -6 1 -1 0 11 0 -14 0 11 1 -1 0 -6 
1 -1 0 11 0 -14 0 12 1 -1 0 -7 1 -1 0 11 
0 -14 0 12 1 -1 0 -6 1 -1 0 10 0 -14 0 13 
1 -1 0 -6 1 -1 0 9 0 -14 0 13 1 -1 0 -6 
1 -1 0 9 0 -14 0 13 1 -1 0 -6 1 -1 0 -5 
0 14 1 -1 0 -7 1 -1 0 -5 0 14 1 -1 0 -6 
1 -1 0 -6 1 14 0 -7 1 -1 0 -6 1 14 0 -7 
1 -1 0 -5 1 -1 0 14 0 -6 1 -1 0 -6 1 -1 
0 14 0 -6 1 -1 1060 4551 100 MP stroke
0 -6 1 -1 0 14 0 -5 1 -1 0 -6 1 -1 0 13 
0 -14 0 9 1 -1 0 -6 1 -1 0 13 0 -14 0 9 
1 -1 0 -6 1 -1 0 13 0 -14 0 10 1 -1 0 -7 
1 -1 0 13 0 -14 0 10 1 -1 0 -6 1 -1 0 12 
0 -14 0 11 1 -1 0 -6 1 -1 0 11 0 -14 0 11 
1 -1 0 -6 1 -1 0 11 0 -14 0 11 1 -1 0 -6 
1 -1 0 10 0 -13 0 12 1 -1 0 -7 1 -1 0 10 
0 -13 0 12 1 -1 0 -6 1 -1 0 9 0 -13 0 12 
1 -1 0 -6 1 -1 0 9 0 -14 0 13 1 -1 0 -6 
1 -1 0 9 0 -14 0 13 1 -1 0 -6 1 -1 0 -5 
0 13 1 -1 0 -6 1 -1 0 -5 0 13 1 -1 0 -6 
1 -1 0 -5 0 13 1 -1 0 -6 1 -1 0 8 0 -13 
0 12 1 -1 0 -6 1026 4554 100 MP stroke
1 -1 0 9 0 -13 0 12 1 -1 0 -6 1 -1 0 9 
0 -13 0 12 1 -1 0 -6 1 -1 0 9 0 -13 0 12 
1 -1 0 -6 1 -1 0 9 0 -13 0 12 1 -1 0 -6 
1 -1 0 9 0 -13 0 11 1 -1 0 -6 1 -1 0 11 
0 -14 0 11 1 -1 0 -6 1 -1 0 11 0 -14 0 11 
1 -1 0 -6 1 -1 0 11 0 -14 0 11 1 -1 0 -6 
1 -1 0 11 0 -14 0 11 1 -1 0 -6 1 -1 0 11 
0 -14 0 10 1 -1 0 -6 1 -1 0 12 0 -13 0 9 
1 -1 0 -6 1 -1 0 12 0 -13 0 9 1 -1 0 -6 
1 -1 0 12 0 -13 0 9 1 -1 0 -6 1 -1 0 13 
0 -14 0 10 1 -1 0 -6 1 -1 0 13 0 -14 0 9 
1 -1 0 -5 1 -1 0 15 0 -16 0 11 1 -1 0 -5 
1 -1 0 18 0 -19 993 4553 100 MP stroke
0 14 1 -1 0 -7 1 -1 0 25 0 -6 1 -1 0 -7 
1 -1 0 41 0 -8 1 -1 0 -9 1 -1 0 103 0 -15 
1 -2 0 -14 1 -1 0 -13 1 -2 0 -12 1 -1 0 -12 
1 -1 0 -11 1 -1 0 -10 1 -1 0 -9 1 -1 0 -9 
1 -1 0 -8 1 -1 0 -7 1 -1 0 -6 1 -1 0 -5 
0 13 1 -1 0 -6 1 -1 0 -5 0 13 1 -1 0 -6 
1 -1 0 -5 0 13 1 -1 0 -6 1 -1 0 -5 0 13 
1 -1 0 -7 1 -1 0 9 0 -13 0 12 1 -1 0 -5 
1 -1 0 9 0 -14 0 13 1 -1 0 -6 1 -1 0 9 
0 -13 0 12 1 -1 0 -6 1 -1 0 11 0 -14 0 12 
1 -1 0 -6 1 -1 0 13 0 -16 0 14 1 -1 0 -6 
1 -1 0 15 0 -18 0 16 1 -1 0 -6 1 -1 0 22 
0 -25 0 22 1 -1 954 4526 100 MP stroke
0 -7 1 -1 0 39 0 -42 0 37 1 -1 0 -8 1 -1 
0 109 0 -112 0 105 1 -2 0 -14 1 -2 0 -14 1 -1 
0 -14 1 -1 0 -12 1 -1 0 -11 1 -1 0 -11 1 -1 
0 -9 1 -1 0 -10 1 -1 0 -8 1 -1 0 -7 1 -1 
0 -7 1 -1 0 -6 1 -1 0 21 0 -24 0 20 1 -1 
0 -6 1 -1 0 36 0 -38 0 32 1 -1 0 -8 1 -1 
0 88 0 -90 0 82 1 -1 0 -15 1 -1 0 -13 1 -1 
0 -12 1 -1 0 -11 1 -1 0 -10 1 -1 0 -10 1 -1 
0 -9 1 -1 0 -7 1 -1 0 -7 1 -1 0 -7 1 -1 
0 -6 1 -1 0 -6 1 -1 0 10 0 -11 0 7 1 -1 
0 -5 1 -1 0 8 0 -9 0 6 1 -1 0 -6 1 -1 
0 9 0 -4 1 -1 0 -5 1 -1 0 7 0 -8 0 4 
1 -1 0 -4 1 -1 913 4572 100 MP stroke
0 6 0 -4 1 -1 0 -4 1 -1 0 6 0 -4 1 -1 
0 -4 1 -1 0 4 0 -3 1 -1 0 -4 1 -1 0 -3 
1 -1 0 -2 1 -1 0 -3 1 -1 0 -2 1 -1 0 -3 
1 -1 0 -2 1 -1 0 -2 1 -1 0 -1 1 -1 0 -3 
899 4614 33 MP stroke
gr

c8
0 sg
3316 4903 mt 
(Tempo [s]) s
 582 3064 mt  -90 rotate
(Tra\347o da Covari\342ncia) s
90 rotate
2498  294 mt 
(Tra\347o da Covari\342ncia do Erro de Kalman) s

end %%Color Dict

eplot
%%EndObject

epage
end

showpage

%%Trailer
%%EOF
