%!PS-Adobe-2.0 EPSF-1.2
%%Creator: MATLAB, The Mathworks, Inc. Version 7.9.0.529 (R2009b). Operating System: Darwin 10.8.0 Darwin Kernel Version 10.8.0: Tue Jun  7 16:33:36 PDT 2011; root:xnu-1504.15.3~1/RELEASE_I386 i386.
%%Title: ./vD_vV_falhas_tempos_boia_diver_zoom.eps
%%CreationDate: 08/28/2011  01:54:13
%%DocumentNeededFonts: Helvetica
%%DocumentProcessColors: Cyan Magenta Yellow Black
%%Extensions: CMYK
%%Pages: 1
%%BoundingBox:    60   199   549   602
%%EndComments

%%BeginProlog
% MathWorks dictionary
/MathWorks 160 dict begin
% definition operators
/bdef {bind def} bind def
/ldef {load def} bind def
/xdef {exch def} bdef
/xstore {exch store} bdef
% operator abbreviations
/c  /clip ldef
/cc /concat ldef
/cp /closepath ldef
/gr /grestore ldef
/gs /gsave ldef
/mt /moveto ldef
/np /newpath ldef
/cm /currentmatrix ldef
/sm /setmatrix ldef
/rm /rmoveto ldef
/rl /rlineto ldef
/s {show newpath} bdef
/sc {setcmykcolor} bdef
/sr /setrgbcolor ldef
/sg /setgray ldef
/w /setlinewidth ldef
/j /setlinejoin ldef
/cap /setlinecap ldef
/rc {rectclip} bdef
/rf {rectfill} bdef
% page state control
/pgsv () def
/bpage {/pgsv save def} bdef
/epage {pgsv restore} bdef
/bplot /gsave ldef
/eplot {stroke grestore} bdef
% orientation switch
/portraitMode 0 def /landscapeMode 1 def /rotateMode 2 def
% coordinate system mappings
/dpi2point 0 def
% font control
/FontSize 0 def
/FMS {/FontSize xstore findfont [FontSize 0 0 FontSize neg 0 0]
  makefont setfont} bdef
/reencode {exch dup where {pop load} {pop StandardEncoding} ifelse
  exch dup 3 1 roll findfont dup length dict begin
  { 1 index /FID ne {def}{pop pop} ifelse } forall
  /Encoding exch def currentdict end definefont pop} bdef
/isroman {findfont /CharStrings get /Agrave known} bdef
/FMSR {3 1 roll 1 index dup isroman {reencode} {pop pop} ifelse
  exch FMS} bdef
/csm {1 dpi2point div -1 dpi2point div scale neg translate
 dup landscapeMode eq {pop -90 rotate}
  {rotateMode eq {90 rotate} if} ifelse} bdef
% line types: solid, dotted, dashed, dotdash
/SO { [] 0 setdash } bdef
/DO { [.5 dpi2point mul 4 dpi2point mul] 0 setdash } bdef
/DA { [6 dpi2point mul] 0 setdash } bdef
/DD { [.5 dpi2point mul 4 dpi2point mul 6 dpi2point mul 4
  dpi2point mul] 0 setdash } bdef
% macros for lines and objects
/L {lineto stroke} bdef
/MP {3 1 roll moveto 1 sub {rlineto} repeat} bdef
/AP {{rlineto} repeat} bdef
/PDlw -1 def
/W {/PDlw currentlinewidth def setlinewidth} def
/PP {closepath eofill} bdef
/DP {closepath stroke} bdef
/MR {4 -2 roll moveto dup  0 exch rlineto exch 0 rlineto
  neg 0 exch rlineto closepath} bdef
/FR {MR stroke} bdef
/PR {MR fill} bdef
/L1i {{currentfile picstr readhexstring pop} image} bdef
/tMatrix matrix def
/MakeOval {newpath tMatrix currentmatrix pop translate scale
0 0 1 0 360 arc tMatrix setmatrix} bdef
/FO {MakeOval stroke} bdef
/PO {MakeOval fill} bdef
/PD {currentlinewidth 2 div 0 360 arc fill
   PDlw -1 eq not {PDlw w /PDlw -1 def} if} def
/FA {newpath tMatrix currentmatrix pop translate scale
  0 0 1 5 -2 roll arc tMatrix setmatrix stroke} bdef
/PA {newpath tMatrix currentmatrix pop	translate 0 0 moveto scale
  0 0 1 5 -2 roll arc closepath tMatrix setmatrix fill} bdef
/FAn {newpath tMatrix currentmatrix pop translate scale
  0 0 1 5 -2 roll arcn tMatrix setmatrix stroke} bdef
/PAn {newpath tMatrix currentmatrix pop translate 0 0 moveto scale
  0 0 1 5 -2 roll arcn closepath tMatrix setmatrix fill} bdef
/vradius 0 def /hradius 0 def /lry 0 def
/lrx 0 def /uly 0 def /ulx 0 def /rad 0 def
/MRR {/vradius xdef /hradius xdef /lry xdef /lrx xdef /uly xdef
  /ulx xdef newpath tMatrix currentmatrix pop ulx hradius add uly
  vradius add translate hradius vradius scale 0 0 1 180 270 arc 
  tMatrix setmatrix lrx hradius sub uly vradius add translate
  hradius vradius scale 0 0 1 270 360 arc tMatrix setmatrix
  lrx hradius sub lry vradius sub translate hradius vradius scale
  0 0 1 0 90 arc tMatrix setmatrix ulx hradius add lry vradius sub
  translate hradius vradius scale 0 0 1 90 180 arc tMatrix setmatrix
  closepath} bdef
/FRR {MRR stroke } bdef
/PRR {MRR fill } bdef
/MlrRR {/lry xdef /lrx xdef /uly xdef /ulx xdef /rad lry uly sub 2 div def
  newpath tMatrix currentmatrix pop ulx rad add uly rad add translate
  rad rad scale 0 0 1 90 270 arc tMatrix setmatrix lrx rad sub lry rad
  sub translate rad rad scale 0 0 1 270 90 arc tMatrix setmatrix
  closepath} bdef
/FlrRR {MlrRR stroke } bdef
/PlrRR {MlrRR fill } bdef
/MtbRR {/lry xdef /lrx xdef /uly xdef /ulx xdef /rad lrx ulx sub 2 div def
  newpath tMatrix currentmatrix pop ulx rad add uly rad add translate
  rad rad scale 0 0 1 180 360 arc tMatrix setmatrix lrx rad sub lry rad
  sub translate rad rad scale 0 0 1 0 180 arc tMatrix setmatrix
  closepath} bdef
/FtbRR {MtbRR stroke } bdef
/PtbRR {MtbRR fill } bdef
/stri 6 array def /dtri 6 array def
/smat 6 array def /dmat 6 array def
/tmat1 6 array def /tmat2 6 array def /dif 3 array def
/asub {/ind2 exch def /ind1 exch def dup dup
  ind1 get exch ind2 get sub exch } bdef
/tri_to_matrix {
  2 0 asub 3 1 asub 4 0 asub 5 1 asub
  dup 0 get exch 1 get 7 -1 roll astore } bdef
/compute_transform {
  dmat dtri tri_to_matrix tmat1 invertmatrix 
  smat stri tri_to_matrix tmat2 concatmatrix } bdef
/ds {stri astore pop} bdef
/dt {dtri astore pop} bdef
/db {2 copy /cols xdef /rows xdef mul dup 3 mul string
  currentfile exch readhexstring pop
  dup 0 3 index getinterval /rbmap xdef
  dup 2 index dup getinterval /gbmap xdef
  1 index dup 2 mul exch getinterval /bbmap xdef pop pop}bdef
/it {gs np dtri aload pop moveto lineto lineto cp c
  cols rows 8 compute_transform 
  rbmap gbmap bbmap true 3 colorimage gr}bdef
/il {newpath moveto lineto stroke}bdef
currentdict end def
%%EndProlog

%%BeginSetup
MathWorks begin

0 cap

end
%%EndSetup

%%Page: 1 1
%%BeginPageSetup
%%PageBoundingBox:    60   199   549   602
MathWorks begin
bpage
%%EndPageSetup

%%BeginObject: obj1
bplot

/dpi2point 12 def
portraitMode 0216 7344 csm

  510   110  5868  4845 MR c np
89 dict begin %Colortable dictionary
/c0 { 0.000000 0.000000 0.000000 sr} bdef
/c1 { 1.000000 1.000000 1.000000 sr} bdef
/c2 { 0.900000 0.000000 0.000000 sr} bdef
/c3 { 0.000000 0.820000 0.000000 sr} bdef
/c4 { 0.000000 0.000000 0.800000 sr} bdef
/c5 { 0.910000 0.820000 0.320000 sr} bdef
/c6 { 1.000000 0.260000 0.820000 sr} bdef
/c7 { 0.000000 0.820000 0.820000 sr} bdef
c0
1 j
1 sg
   0    0 6913 5186 PR
6 w
0 1769 5356 0 0 -1769 899 2158 4 MP
PP
-5356 0 0 1769 5356 0 0 -1769 899 2158 5 MP stroke
4 w
DO
0 sg
 899 2158 mt  899  389 L
 899  389 mt  899  389 L
1434 2158 mt 1434  389 L
1434  389 mt 1434  389 L
1970 2158 mt 1970  389 L
1970  389 mt 1970  389 L
2505 2158 mt 2505  389 L
2505  389 mt 2505  389 L
3041 2158 mt 3041  389 L
3041  389 mt 3041  389 L
3577 2158 mt 3577  389 L
3577  389 mt 3577  389 L
4112 2158 mt 4112  389 L
4112  389 mt 4112  389 L
4648 2158 mt 4648  389 L
4648  389 mt 4648  389 L
5183 2158 mt 5183  389 L
5183  389 mt 5183  389 L
5719 2158 mt 5719  389 L
5719  389 mt 5719  389 L
6255 2158 mt 6255  389 L
6255  389 mt 6255  389 L
 899 2158 mt 6255 2158 L
6255 2158 mt 6255 2158 L
 899 1715 mt 6255 1715 L
6255 1715 mt 6255 1715 L
 899 1273 mt 6255 1273 L
6255 1273 mt 6255 1273 L
 899  831 mt 6255  831 L
6255  831 mt 6255  831 L
 899  389 mt 6255  389 L
6255  389 mt 6255  389 L
SO
6 w
 899 2158 mt 6255 2158 L
 899  389 mt 6255  389 L
 899 2158 mt  899  389 L
6255 2158 mt 6255  389 L
 899 2158 mt 6255 2158 L
 899 2158 mt  899  389 L
 899 2158 mt  899 2104 L
 899  389 mt  899  442 L
%%IncludeResource: font Helvetica
/Helvetica /ISOLatin1Encoding 120 FMSR

 833 2303 mt 
(70) s
1434 2158 mt 1434 2104 L
1434  389 mt 1434  442 L
1368 2303 mt 
(71) s
1970 2158 mt 1970 2104 L
1970  389 mt 1970  442 L
1904 2303 mt 
(72) s
2505 2158 mt 2505 2104 L
2505  389 mt 2505  442 L
2439 2303 mt 
(73) s
3041 2158 mt 3041 2104 L
3041  389 mt 3041  442 L
2975 2303 mt 
(74) s
3577 2158 mt 3577 2104 L
3577  389 mt 3577  442 L
3511 2303 mt 
(75) s
4112 2158 mt 4112 2104 L
4112  389 mt 4112  442 L
4046 2303 mt 
(76) s
4648 2158 mt 4648 2104 L
4648  389 mt 4648  442 L
4582 2303 mt 
(77) s
5183 2158 mt 5183 2104 L
5183  389 mt 5183  442 L
5117 2303 mt 
(78) s
5719 2158 mt 5719 2104 L
5719  389 mt 5719  442 L
5653 2303 mt 
(79) s
6255 2158 mt 6255 2104 L
6255  389 mt 6255  442 L
6189 2303 mt 
(80) s
 899 2158 mt  952 2158 L
6255 2158 mt 6201 2158 L
 728 2202 mt 
(-2) s
 899 1715 mt  952 1715 L
6255 1715 mt 6201 1715 L
 728 1759 mt 
(-1) s
 899 1273 mt  952 1273 L
6255 1273 mt 6201 1273 L
 798 1317 mt 
(0) s
 899  831 mt  952  831 L
6255  831 mt 6201  831 L
 798  875 mt 
(1) s
 899  389 mt  952  389 L
6255  389 mt 6201  389 L
 798  433 mt 
(2) s
 899 2158 mt 6255 2158 L
 899  389 mt 6255  389 L
 899 2158 mt  899  389 L
6255 2158 mt 6255  389 L
gs 899 389 5357 1770 MR c np
12 w
gr

12 w
gs 826 758 5504 147 MR c np
/c8 { 0.000000 1.000000 1.000000 sr} bdef
c8
  36   36 1016  831 FO
  36   36 1691  831 FO
  36   36 1830  831 FO
  36   36 1970  831 FO
  36   36 2109  831 FO
  36   36 2248  831 FO
  36   36 2387  831 FO
  36   36 2527  831 FO
  36   36 2666  831 FO
  36   36 2805  831 FO
  36   36 2944  831 FO
  36   36 3625  831 FO
  36   36 3764  831 FO
  36   36 3903  831 FO
  36   36 4042  831 FO
  36   36 4723  831 FO
  36   36 5403  831 FO
  36   36 5542  831 FO
  36   36 5681  831 FO
  36   36 5821  831 FO
  36   36 5960  831 FO
  36   36 6099  831 FO
  36   36 6238  831 FO
gr

c8
gs 899 389 5357 1770 MR c np
DA
0 -442 1016 1273 2 MP stroke
0 -442 1691 1273 2 MP stroke
0 -442 1830 1273 2 MP stroke
0 -442 1970 1273 2 MP stroke
0 -442 2109 1273 2 MP stroke
0 -442 2248 1273 2 MP stroke
0 -442 2387 1273 2 MP stroke
0 -442 2527 1273 2 MP stroke
0 -442 2666 1273 2 MP stroke
0 -442 2805 1273 2 MP stroke
0 -442 2944 1273 2 MP stroke
0 -442 3625 1273 2 MP stroke
0 -442 3764 1273 2 MP stroke
0 -442 3903 1273 2 MP stroke
0 -442 4042 1273 2 MP stroke
0 -442 4723 1273 2 MP stroke
0 -442 5403 1273 2 MP stroke
0 -442 5542 1273 2 MP stroke
0 -442 5681 1273 2 MP stroke
0 -442 5821 1273 2 MP stroke
0 -442 5960 1273 2 MP stroke
0 -442 6099 1273 2 MP stroke
0 -442 6238 1273 2 MP stroke
SO
6 w
0 sg
5356 0 899 1273 2 MP stroke
12 w
gr

0 sg
gs 826 758 5504 147 MR c np
/c9 { 0.000000 0.000000 1.000000 sr} bdef
c9
  36   36 1016  831 FO
  36   36 1691  831 FO
  36   36 1830  831 FO
  36   36 1970  831 FO
  36   36 2109  831 FO
  36   36 2248  831 FO
  36   36 2387  831 FO
  36   36 2527  831 FO
  36   36 2666  831 FO
  36   36 2805  831 FO
  36   36 2944  831 FO
  36   36 3625  831 FO
  36   36 3764  831 FO
  36   36 3903  831 FO
  36   36 4042  831 FO
  36   36 4723  831 FO
  36   36 5403  831 FO
  36   36 5542  831 FO
  36   36 5681  831 FO
  36   36 5821  831 FO
  36   36 5960  831 FO
  36   36 6099  831 FO
  36   36 6238  831 FO
gr

c9
gs 899 389 5357 1770 MR c np
DD
0 -442 1016 1273 2 MP stroke
0 -442 1691 1273 2 MP stroke
0 -442 1830 1273 2 MP stroke
0 -442 1970 1273 2 MP stroke
0 -442 2109 1273 2 MP stroke
0 -442 2248 1273 2 MP stroke
0 -442 2387 1273 2 MP stroke
0 -442 2527 1273 2 MP stroke
0 -442 2666 1273 2 MP stroke
0 -442 2805 1273 2 MP stroke
0 -442 2944 1273 2 MP stroke
0 -442 3625 1273 2 MP stroke
0 -442 3764 1273 2 MP stroke
0 -442 3903 1273 2 MP stroke
0 -442 4042 1273 2 MP stroke
0 -442 4723 1273 2 MP stroke
0 -442 5403 1273 2 MP stroke
0 -442 5542 1273 2 MP stroke
0 -442 5681 1273 2 MP stroke
0 -442 5821 1273 2 MP stroke
0 -442 5960 1273 2 MP stroke
0 -442 6099 1273 2 MP stroke
0 -442 6238 1273 2 MP stroke
SO
gr

gs 826 1642 5504 147 MR c np
/c10 { 1.000000 0.000000 0.000000 sr} bdef
c10
 937 1715 mt 1009 1715 L
 973 1679 mt  973 1751 L
1077 1715 mt 1149 1715 L
1113 1679 mt 1113 1751 L
1752 1715 mt 1824 1715 L
1788 1679 mt 1788 1751 L
1892 1715 mt 1964 1715 L
1928 1679 mt 1928 1751 L
2031 1715 mt 2103 1715 L
2067 1679 mt 2067 1751 L
2171 1715 mt 2243 1715 L
2207 1679 mt 2207 1751 L
2310 1715 mt 2382 1715 L
2346 1679 mt 2346 1751 L
2449 1715 mt 2521 1715 L
2485 1679 mt 2485 1751 L
2589 1715 mt 2661 1715 L
2625 1679 mt 2625 1751 L
2728 1715 mt 2800 1715 L
2764 1679 mt 2764 1751 L
2868 1715 mt 2940 1715 L
2904 1679 mt 2904 1751 L
3007 1715 mt 3079 1715 L
3043 1679 mt 3043 1751 L
3688 1715 mt 3760 1715 L
3724 1679 mt 3724 1751 L
3827 1715 mt 3899 1715 L
3863 1679 mt 3863 1751 L
3967 1715 mt 4039 1715 L
4003 1679 mt 4003 1751 L
4106 1715 mt 4178 1715 L
4142 1679 mt 4142 1751 L
4787 1715 mt 4859 1715 L
4823 1679 mt 4823 1751 L
5468 1715 mt 5540 1715 L
5504 1679 mt 5504 1751 L
5608 1715 mt 5680 1715 L
5644 1679 mt 5644 1751 L
5747 1715 mt 5819 1715 L
5783 1679 mt 5783 1751 L
5886 1715 mt 5958 1715 L
5922 1679 mt 5922 1751 L
6026 1715 mt 6098 1715 L
6062 1679 mt 6062 1751 L
6165 1715 mt 6237 1715 L
6201 1679 mt 6201 1751 L
 948 1690 mt  998 1740 L
 998 1690 mt  948 1740 L
1088 1690 mt 1138 1740 L
1138 1690 mt 1088 1740 L
1763 1690 mt 1813 1740 L
1813 1690 mt 1763 1740 L
1903 1690 mt 1953 1740 L
1953 1690 mt 1903 1740 L
2042 1690 mt 2092 1740 L
2092 1690 mt 2042 1740 L
2182 1690 mt 2232 1740 L
2232 1690 mt 2182 1740 L
2321 1690 mt 2371 1740 L
2371 1690 mt 2321 1740 L
2460 1690 mt 2510 1740 L
2510 1690 mt 2460 1740 L
2600 1690 mt 2650 1740 L
2650 1690 mt 2600 1740 L
2739 1690 mt 2789 1740 L
2789 1690 mt 2739 1740 L
2879 1690 mt 2929 1740 L
2929 1690 mt 2879 1740 L
3018 1690 mt 3068 1740 L
3068 1690 mt 3018 1740 L
3699 1690 mt 3749 1740 L
3749 1690 mt 3699 1740 L
3838 1690 mt 3888 1740 L
3888 1690 mt 3838 1740 L
3978 1690 mt 4028 1740 L
4028 1690 mt 3978 1740 L
4117 1690 mt 4167 1740 L
4167 1690 mt 4117 1740 L
4798 1690 mt 4848 1740 L
4848 1690 mt 4798 1740 L
5479 1690 mt 5529 1740 L
5529 1690 mt 5479 1740 L
5619 1690 mt 5669 1740 L
5669 1690 mt 5619 1740 L
5758 1690 mt 5808 1740 L
5808 1690 mt 5758 1740 L
5897 1690 mt 5947 1740 L
5947 1690 mt 5897 1740 L
6037 1690 mt 6087 1740 L
6087 1690 mt 6037 1740 L
6176 1690 mt 6226 1740 L
6226 1690 mt 6176 1740 L
gr

c10
gs 899 389 5357 1770 MR c np
0 442 973 1273 2 MP stroke
0 442 1113 1273 2 MP stroke
0 442 1788 1273 2 MP stroke
0 442 1928 1273 2 MP stroke
0 442 2067 1273 2 MP stroke
0 442 2207 1273 2 MP stroke
0 442 2346 1273 2 MP stroke
0 442 2485 1273 2 MP stroke
0 442 2625 1273 2 MP stroke
0 442 2764 1273 2 MP stroke
0 442 2904 1273 2 MP stroke
0 442 3043 1273 2 MP stroke
0 442 3724 1273 2 MP stroke
0 442 3863 1273 2 MP stroke
0 442 4003 1273 2 MP stroke
0 442 4142 1273 2 MP stroke
0 442 4823 1273 2 MP stroke
0 442 5504 1273 2 MP stroke
0 442 5644 1273 2 MP stroke
0 442 5783 1273 2 MP stroke
0 442 5922 1273 2 MP stroke
0 442 6062 1273 2 MP stroke
0 442 6201 1273 2 MP stroke
gr

0 sg
 882 2201 mt 
( ) s
6239  431 mt 
( ) s
/c11 { 1.000000 1.000000 0.933333 sr} bdef
c11
-531 0 0 -344 531 0 1063 784 4 MP
PP
6 w
0 j
0.8 sg
1063  440  531  344 FR
1 j
0 sg
%%IncludeResource: font Helvetica
/Helvetica /ISOLatin1Encoding 108 FMSR

1111  588 mt 
(X= 70.22) s
1111  712 mt 
(Y= 1) s
24 w
gs 870 685 293 293 MR c np
0 j
0 -94 -94 0 0 94 94 0 969 784 5 MP
gs
PP
gr
/c12 { 1.000000 1.000000 0.862745 sr} bdef
c12
DP
gr

c12
c11
-531 0 0 -344 531 0 1738 784 4 MP
PP
6 w
0 j
0.8 sg
1738  440  531  344 FR
1 j
0 sg
1786  588 mt 
(X= 71.48) s
1786  712 mt 
(Y= 1) s
24 w
gs 1545 685 293 293 MR c np
0 j
0 -94 -94 0 0 94 94 0 1644 784 5 MP
gs
PP
gr
c12
DP
gr

c12
0 sg
%%IncludeResource: font Helvetica
/Helvetica /ISOLatin1Encoding 120 FMSR

3316 2446 mt 
(Tempo [s]) s
 646 1407 mt  -90 rotate
(Sinal) s
90 rotate
2799  294 mt 
(Troca de Mensagens da B\363ia) s
6 w
1 sg
0 520 1964 0 0 -520 4263 1514 4 MP
PP
-1964 0 0 520 1964 0 0 -520 4263 1514 5 MP stroke
4 w
DO
SO
6 w
0 sg
4263 1514 mt 6227 1514 L
4263  994 mt 6227  994 L
4263 1514 mt 4263  994 L
6227 1514 mt 6227  994 L
4263 1514 mt 6227 1514 L
4263 1514 mt 4263  994 L
4263 1514 mt 6227 1514 L
4263  994 mt 6227  994 L
4263 1514 mt 4263  994 L
6227 1514 mt 6227  994 L
4738 1137 mt 
(1: Avisa Ve\355culos - R) s
gs 4263 994 1965 521 MR c np
DA
12 w
c8
255 0 4336 1094 2 MP stroke
4591 1094 PD
gs 4518 1021 147 147 MR c np
SO
  36   36 4591 1094 FO
DA
gr

gr

12 w
c8
DA
0 sg
4738 1297 mt 
(2: Ping ao Mergulhador - A) s
gs 4263 994 1965 521 MR c np
DD
c9
255 0 4336 1254 2 MP stroke
4591 1254 PD
gs 4518 1181 147 147 MR c np
SO
  36   36 4591 1254 FO
DD
gr

gr

c9
DD
0 sg
4738 1456 mt 
(6: Recebe resposta - A) s
gs 4263 994 1965 521 MR c np
SO
c10
255 0 4336 1413 2 MP stroke
4591 1413 PD
gs 4518 1340 147 147 MR c np
4555 1413 mt 4627 1413 L
4591 1377 mt 4591 1449 L
4566 1388 mt 4616 1438 L
4616 1388 mt 4566 1438 L
gr

6 w
gr

6 w
c10
SO
1 sg
0 1769 5356 0 0 -1769 899 4615 4 MP
PP
-5356 0 0 1769 5356 0 0 -1769 899 4615 5 MP stroke
4 w
DO
0 sg
 899 4615 mt  899 2846 L
 899 2846 mt  899 2846 L
1434 4615 mt 1434 2846 L
1434 2846 mt 1434 2846 L
1970 4615 mt 1970 2846 L
1970 2846 mt 1970 2846 L
2505 4615 mt 2505 2846 L
2505 2846 mt 2505 2846 L
3041 4615 mt 3041 2846 L
3041 2846 mt 3041 2846 L
3577 4615 mt 3577 2846 L
3577 2846 mt 3577 2846 L
4112 4615 mt 4112 2846 L
4112 2846 mt 4112 2846 L
4648 4615 mt 4648 2846 L
4648 2846 mt 4648 2846 L
5183 4615 mt 5183 2846 L
5183 2846 mt 5183 2846 L
5719 4615 mt 5719 2846 L
5719 2846 mt 5719 2846 L
6255 4615 mt 6255 2846 L
6255 2846 mt 6255 2846 L
 899 4615 mt 6255 4615 L
6255 4615 mt 6255 4615 L
 899 4172 mt 6255 4172 L
6255 4172 mt 6255 4172 L
 899 3730 mt 6255 3730 L
6255 3730 mt 6255 3730 L
 899 3288 mt 6255 3288 L
6255 3288 mt 6255 3288 L
 899 2846 mt 6255 2846 L
6255 2846 mt 6255 2846 L
SO
6 w
 899 4615 mt 6255 4615 L
 899 2846 mt 6255 2846 L
 899 4615 mt  899 2846 L
6255 4615 mt 6255 2846 L
 899 4615 mt 6255 4615 L
 899 4615 mt  899 2846 L
 899 4615 mt  899 4561 L
 899 2846 mt  899 2899 L
 833 4760 mt 
(70) s
1434 4615 mt 1434 4561 L
1434 2846 mt 1434 2899 L
1368 4760 mt 
(71) s
1970 4615 mt 1970 4561 L
1970 2846 mt 1970 2899 L
1904 4760 mt 
(72) s
2505 4615 mt 2505 4561 L
2505 2846 mt 2505 2899 L
2439 4760 mt 
(73) s
3041 4615 mt 3041 4561 L
3041 2846 mt 3041 2899 L
2975 4760 mt 
(74) s
3577 4615 mt 3577 4561 L
3577 2846 mt 3577 2899 L
3511 4760 mt 
(75) s
4112 4615 mt 4112 4561 L
4112 2846 mt 4112 2899 L
4046 4760 mt 
(76) s
4648 4615 mt 4648 4561 L
4648 2846 mt 4648 2899 L
4582 4760 mt 
(77) s
5183 4615 mt 5183 4561 L
5183 2846 mt 5183 2899 L
5117 4760 mt 
(78) s
5719 4615 mt 5719 4561 L
5719 2846 mt 5719 2899 L
5653 4760 mt 
(79) s
6255 4615 mt 6255 4561 L
6255 2846 mt 6255 2899 L
6189 4760 mt 
(80) s
 899 4615 mt  952 4615 L
6255 4615 mt 6201 4615 L
 728 4659 mt 
(-2) s
 899 4172 mt  952 4172 L
6255 4172 mt 6201 4172 L
 728 4216 mt 
(-1) s
 899 3730 mt  952 3730 L
6255 3730 mt 6201 3730 L
 798 3774 mt 
(0) s
 899 3288 mt  952 3288 L
6255 3288 mt 6201 3288 L
 798 3332 mt 
(1) s
 899 2846 mt  952 2846 L
6255 2846 mt 6201 2846 L
 798 2890 mt 
(2) s
 899 4615 mt 6255 4615 L
 899 2846 mt 6255 2846 L
 899 4615 mt  899 2846 L
6255 4615 mt 6255 2846 L
gs 899 2846 5357 1770 MR c np
12 w
gr

12 w
gs 826 4099 5504 147 MR c np
c9
1002 4172 mt 1074 4172 L
1038 4136 mt 1038 4208 L
1677 4172 mt 1749 4172 L
1713 4136 mt 1713 4208 L
1816 4172 mt 1888 4172 L
1852 4136 mt 1852 4208 L
1956 4172 mt 2028 4172 L
1992 4136 mt 1992 4208 L
2095 4172 mt 2167 4172 L
2131 4136 mt 2131 4208 L
2234 4172 mt 2306 4172 L
2270 4136 mt 2270 4208 L
2374 4172 mt 2446 4172 L
2410 4136 mt 2410 4208 L
2513 4172 mt 2585 4172 L
2549 4136 mt 2549 4208 L
2652 4172 mt 2724 4172 L
2688 4136 mt 2688 4208 L
2792 4172 mt 2864 4172 L
2828 4136 mt 2828 4208 L
2931 4172 mt 3003 4172 L
2967 4136 mt 2967 4208 L
3612 4172 mt 3684 4172 L
3648 4136 mt 3648 4208 L
3751 4172 mt 3823 4172 L
3787 4136 mt 3787 4208 L
3890 4172 mt 3962 4172 L
3926 4136 mt 3926 4208 L
4030 4172 mt 4102 4172 L
4066 4136 mt 4066 4208 L
4710 4172 mt 4782 4172 L
4746 4136 mt 4746 4208 L
5391 4172 mt 5463 4172 L
5427 4136 mt 5427 4208 L
5530 4172 mt 5602 4172 L
5566 4136 mt 5566 4208 L
5669 4172 mt 5741 4172 L
5705 4136 mt 5705 4208 L
5809 4172 mt 5881 4172 L
5845 4136 mt 5845 4208 L
5948 4172 mt 6020 4172 L
5984 4136 mt 5984 4208 L
6087 4172 mt 6159 4172 L
6123 4136 mt 6123 4208 L
1013 4147 mt 1063 4197 L
1063 4147 mt 1013 4197 L
1688 4147 mt 1738 4197 L
1738 4147 mt 1688 4197 L
1827 4147 mt 1877 4197 L
1877 4147 mt 1827 4197 L
1967 4147 mt 2017 4197 L
2017 4147 mt 1967 4197 L
2106 4147 mt 2156 4197 L
2156 4147 mt 2106 4197 L
2245 4147 mt 2295 4197 L
2295 4147 mt 2245 4197 L
2385 4147 mt 2435 4197 L
2435 4147 mt 2385 4197 L
2524 4147 mt 2574 4197 L
2574 4147 mt 2524 4197 L
2663 4147 mt 2713 4197 L
2713 4147 mt 2663 4197 L
2803 4147 mt 2853 4197 L
2853 4147 mt 2803 4197 L
2942 4147 mt 2992 4197 L
2992 4147 mt 2942 4197 L
3623 4147 mt 3673 4197 L
3673 4147 mt 3623 4197 L
3762 4147 mt 3812 4197 L
3812 4147 mt 3762 4197 L
3901 4147 mt 3951 4197 L
3951 4147 mt 3901 4197 L
4041 4147 mt 4091 4197 L
4091 4147 mt 4041 4197 L
4721 4147 mt 4771 4197 L
4771 4147 mt 4721 4197 L
5402 4147 mt 5452 4197 L
5452 4147 mt 5402 4197 L
5541 4147 mt 5591 4197 L
5591 4147 mt 5541 4197 L
5680 4147 mt 5730 4197 L
5730 4147 mt 5680 4197 L
5820 4147 mt 5870 4197 L
5870 4147 mt 5820 4197 L
5959 4147 mt 6009 4197 L
6009 4147 mt 5959 4197 L
6098 4147 mt 6148 4197 L
6148 4147 mt 6098 4197 L
gr

c9
gs 899 2846 5357 1770 MR c np
0 442 1038 3730 2 MP stroke
0 442 1713 3730 2 MP stroke
0 442 1852 3730 2 MP stroke
0 442 1992 3730 2 MP stroke
0 442 2131 3730 2 MP stroke
0 442 2270 3730 2 MP stroke
0 442 2410 3730 2 MP stroke
0 442 2549 3730 2 MP stroke
0 442 2688 3730 2 MP stroke
0 442 2828 3730 2 MP stroke
0 442 2967 3730 2 MP stroke
0 442 3648 3730 2 MP stroke
0 442 3787 3730 2 MP stroke
0 442 3926 3730 2 MP stroke
0 442 4066 3730 2 MP stroke
0 442 4746 3730 2 MP stroke
0 442 5427 3730 2 MP stroke
0 442 5566 3730 2 MP stroke
0 442 5705 3730 2 MP stroke
0 442 5845 3730 2 MP stroke
0 442 5984 3730 2 MP stroke
0 442 6123 3730 2 MP stroke
6 w
0 sg
5356 0 899 3730 2 MP stroke
12 w
gr

0 sg
gs 826 3215 5504 147 MR c np
c10
  36   36  952 3288 FO
  36   36 1091 3288 FO
  36   36 1767 3288 FO
  36   36 1906 3288 FO
  36   36 2045 3288 FO
  36   36 2185 3288 FO
  36   36 2324 3288 FO
  36   36 2463 3288 FO
  36   36 2603 3288 FO
  36   36 2742 3288 FO
  36   36 2881 3288 FO
  36   36 3021 3288 FO
  36   36 3701 3288 FO
  36   36 3840 3288 FO
  36   36 3980 3288 FO
  36   36 4119 3288 FO
  36   36 4800 3288 FO
  36   36 5480 3288 FO
  36   36 5620 3288 FO
  36   36 5759 3288 FO
  36   36 5898 3288 FO
  36   36 6038 3288 FO
  36   36 6177 3288 FO
gr

c10
gs 899 2846 5357 1770 MR c np
0 -442 952 3730 2 MP stroke
0 -442 1091 3730 2 MP stroke
0 -442 1767 3730 2 MP stroke
0 -442 1906 3730 2 MP stroke
0 -442 2045 3730 2 MP stroke
0 -442 2185 3730 2 MP stroke
0 -442 2324 3730 2 MP stroke
0 -442 2463 3730 2 MP stroke
0 -442 2603 3730 2 MP stroke
0 -442 2742 3730 2 MP stroke
0 -442 2881 3730 2 MP stroke
0 -442 3021 3730 2 MP stroke
0 -442 3701 3730 2 MP stroke
0 -442 3840 3730 2 MP stroke
0 -442 3980 3730 2 MP stroke
0 -442 4119 3730 2 MP stroke
0 -442 4800 3730 2 MP stroke
0 -442 5480 3730 2 MP stroke
0 -442 5620 3730 2 MP stroke
0 -442 5759 3730 2 MP stroke
0 -442 5898 3730 2 MP stroke
0 -442 6038 3730 2 MP stroke
0 -442 6177 3730 2 MP stroke
gr

0 sg
 882 4658 mt 
( ) s
6239 2888 mt 
( ) s
c11
-531 0 0 -344 531 0 1138 3669 4 MP
PP
6 w
0 j
0.8 sg
1138 3325  531  344 FR
1 j
0 sg
%%IncludeResource: font Helvetica
/Helvetica /ISOLatin1Encoding 108 FMSR

1186 3473 mt 
(X= 70.36) s
1186 3597 mt 
(Y= 1) s
24 w
gs 945 3142 293 293 MR c np
0 j
0 -94 -94 0 0 94 94 0 1044 3241 5 MP
gs
PP
gr
c12
DP
gr

c12
0 sg
%%IncludeResource: font Helvetica
/Helvetica /ISOLatin1Encoding 120 FMSR

3316 4903 mt 
(Tempo [s]) s
 646 3864 mt  -90 rotate
(Sinal) s
90 rotate
2583 2751 mt 
(Troca de Mensagens do Mergulhador) s
6 w
1 sg
0 362 1641 0 0 -362 4585 3929 4 MP
PP
-1641 0 0 362 1641 0 0 -362 4585 3929 5 MP stroke
4 w
DO
SO
6 w
0 sg
4585 3929 mt 6226 3929 L
4585 3567 mt 6226 3567 L
4585 3929 mt 4585 3567 L
6226 3929 mt 6226 3567 L
4585 3929 mt 6226 3929 L
4585 3929 mt 4585 3567 L
4585 3929 mt 6226 3929 L
4585 3567 mt 6226 3567 L
4585 3929 mt 4585 3567 L
6226 3929 mt 6226 3567 L
5063 3710 mt 
(4: Recebe ping - A) s
gs 4585 3567 1642 363 MR c np
12 w
c9
257 0 4658 3668 2 MP stroke
4915 3668 PD
gs 4842 3595 147 147 MR c np
4879 3668 mt 4951 3668 L
4915 3632 mt 4915 3704 L
4890 3643 mt 4940 3693 L
4940 3643 mt 4890 3693 L
gr

gr

12 w
c9
0 sg
5063 3871 mt 
(5: Envia resposta - A) s
gs 4585 3567 1642 363 MR c np
c10
257 0 4658 3827 2 MP stroke
4915 3827 PD
gs 4842 3754 147 147 MR c np
  36   36 4915 3827 FO
gr

6 w
gr

6 w
c10

end %%Color Dict

eplot
%%EndObject

epage
end

showpage

%%Trailer
%%EOF
