%!PS-Adobe-2.0 EPSF-1.2
%%Creator: MATLAB, The Mathworks, Inc. Version 7.9.0.529 (R2009b). Operating System: Darwin 10.8.0 Darwin Kernel Version 10.8.0: Tue Jun  7 16:33:36 PDT 2011; root:xnu-1504.15.3~1/RELEASE_I386 i386.
%%Title: ./vD_vV_falhas_trajectoria_x_zoom.eps
%%CreationDate: 08/27/2011  23:33:23
%%DocumentNeededFonts: Helvetica
%%DocumentProcessColors: Cyan Magenta Yellow Black
%%Extensions: CMYK
%%Pages: 1
%%BoundingBox:    60   199   549   602
%%EndComments

%%BeginProlog
% MathWorks dictionary
/MathWorks 160 dict begin
% definition operators
/bdef {bind def} bind def
/ldef {load def} bind def
/xdef {exch def} bdef
/xstore {exch store} bdef
% operator abbreviations
/c  /clip ldef
/cc /concat ldef
/cp /closepath ldef
/gr /grestore ldef
/gs /gsave ldef
/mt /moveto ldef
/np /newpath ldef
/cm /currentmatrix ldef
/sm /setmatrix ldef
/rm /rmoveto ldef
/rl /rlineto ldef
/s {show newpath} bdef
/sc {setcmykcolor} bdef
/sr /setrgbcolor ldef
/sg /setgray ldef
/w /setlinewidth ldef
/j /setlinejoin ldef
/cap /setlinecap ldef
/rc {rectclip} bdef
/rf {rectfill} bdef
% page state control
/pgsv () def
/bpage {/pgsv save def} bdef
/epage {pgsv restore} bdef
/bplot /gsave ldef
/eplot {stroke grestore} bdef
% orientation switch
/portraitMode 0 def /landscapeMode 1 def /rotateMode 2 def
% coordinate system mappings
/dpi2point 0 def
% font control
/FontSize 0 def
/FMS {/FontSize xstore findfont [FontSize 0 0 FontSize neg 0 0]
  makefont setfont} bdef
/reencode {exch dup where {pop load} {pop StandardEncoding} ifelse
  exch dup 3 1 roll findfont dup length dict begin
  { 1 index /FID ne {def}{pop pop} ifelse } forall
  /Encoding exch def currentdict end definefont pop} bdef
/isroman {findfont /CharStrings get /Agrave known} bdef
/FMSR {3 1 roll 1 index dup isroman {reencode} {pop pop} ifelse
  exch FMS} bdef
/csm {1 dpi2point div -1 dpi2point div scale neg translate
 dup landscapeMode eq {pop -90 rotate}
  {rotateMode eq {90 rotate} if} ifelse} bdef
% line types: solid, dotted, dashed, dotdash
/SO { [] 0 setdash } bdef
/DO { [.5 dpi2point mul 4 dpi2point mul] 0 setdash } bdef
/DA { [6 dpi2point mul] 0 setdash } bdef
/DD { [.5 dpi2point mul 4 dpi2point mul 6 dpi2point mul 4
  dpi2point mul] 0 setdash } bdef
% macros for lines and objects
/L {lineto stroke} bdef
/MP {3 1 roll moveto 1 sub {rlineto} repeat} bdef
/AP {{rlineto} repeat} bdef
/PDlw -1 def
/W {/PDlw currentlinewidth def setlinewidth} def
/PP {closepath eofill} bdef
/DP {closepath stroke} bdef
/MR {4 -2 roll moveto dup  0 exch rlineto exch 0 rlineto
  neg 0 exch rlineto closepath} bdef
/FR {MR stroke} bdef
/PR {MR fill} bdef
/L1i {{currentfile picstr readhexstring pop} image} bdef
/tMatrix matrix def
/MakeOval {newpath tMatrix currentmatrix pop translate scale
0 0 1 0 360 arc tMatrix setmatrix} bdef
/FO {MakeOval stroke} bdef
/PO {MakeOval fill} bdef
/PD {currentlinewidth 2 div 0 360 arc fill
   PDlw -1 eq not {PDlw w /PDlw -1 def} if} def
/FA {newpath tMatrix currentmatrix pop translate scale
  0 0 1 5 -2 roll arc tMatrix setmatrix stroke} bdef
/PA {newpath tMatrix currentmatrix pop	translate 0 0 moveto scale
  0 0 1 5 -2 roll arc closepath tMatrix setmatrix fill} bdef
/FAn {newpath tMatrix currentmatrix pop translate scale
  0 0 1 5 -2 roll arcn tMatrix setmatrix stroke} bdef
/PAn {newpath tMatrix currentmatrix pop translate 0 0 moveto scale
  0 0 1 5 -2 roll arcn closepath tMatrix setmatrix fill} bdef
/vradius 0 def /hradius 0 def /lry 0 def
/lrx 0 def /uly 0 def /ulx 0 def /rad 0 def
/MRR {/vradius xdef /hradius xdef /lry xdef /lrx xdef /uly xdef
  /ulx xdef newpath tMatrix currentmatrix pop ulx hradius add uly
  vradius add translate hradius vradius scale 0 0 1 180 270 arc 
  tMatrix setmatrix lrx hradius sub uly vradius add translate
  hradius vradius scale 0 0 1 270 360 arc tMatrix setmatrix
  lrx hradius sub lry vradius sub translate hradius vradius scale
  0 0 1 0 90 arc tMatrix setmatrix ulx hradius add lry vradius sub
  translate hradius vradius scale 0 0 1 90 180 arc tMatrix setmatrix
  closepath} bdef
/FRR {MRR stroke } bdef
/PRR {MRR fill } bdef
/MlrRR {/lry xdef /lrx xdef /uly xdef /ulx xdef /rad lry uly sub 2 div def
  newpath tMatrix currentmatrix pop ulx rad add uly rad add translate
  rad rad scale 0 0 1 90 270 arc tMatrix setmatrix lrx rad sub lry rad
  sub translate rad rad scale 0 0 1 270 90 arc tMatrix setmatrix
  closepath} bdef
/FlrRR {MlrRR stroke } bdef
/PlrRR {MlrRR fill } bdef
/MtbRR {/lry xdef /lrx xdef /uly xdef /ulx xdef /rad lrx ulx sub 2 div def
  newpath tMatrix currentmatrix pop ulx rad add uly rad add translate
  rad rad scale 0 0 1 180 360 arc tMatrix setmatrix lrx rad sub lry rad
  sub translate rad rad scale 0 0 1 0 180 arc tMatrix setmatrix
  closepath} bdef
/FtbRR {MtbRR stroke } bdef
/PtbRR {MtbRR fill } bdef
/stri 6 array def /dtri 6 array def
/smat 6 array def /dmat 6 array def
/tmat1 6 array def /tmat2 6 array def /dif 3 array def
/asub {/ind2 exch def /ind1 exch def dup dup
  ind1 get exch ind2 get sub exch } bdef
/tri_to_matrix {
  2 0 asub 3 1 asub 4 0 asub 5 1 asub
  dup 0 get exch 1 get 7 -1 roll astore } bdef
/compute_transform {
  dmat dtri tri_to_matrix tmat1 invertmatrix 
  smat stri tri_to_matrix tmat2 concatmatrix } bdef
/ds {stri astore pop} bdef
/dt {dtri astore pop} bdef
/db {2 copy /cols xdef /rows xdef mul dup 3 mul string
  currentfile exch readhexstring pop
  dup 0 3 index getinterval /rbmap xdef
  dup 2 index dup getinterval /gbmap xdef
  1 index dup 2 mul exch getinterval /bbmap xdef pop pop}bdef
/it {gs np dtri aload pop moveto lineto lineto cp c
  cols rows 8 compute_transform 
  rbmap gbmap bbmap true 3 colorimage gr}bdef
/il {newpath moveto lineto stroke}bdef
currentdict end def
%%EndProlog

%%BeginSetup
MathWorks begin

0 cap

end
%%EndSetup

%%Page: 1 1
%%BeginPageSetup
%%PageBoundingBox:    60   199   549   602
MathWorks begin
bpage
%%EndPageSetup

%%BeginObject: obj1
bplot

/dpi2point 12 def
portraitMode 0216 7344 csm

  513   110  5865  4845 MR c np
86 dict begin %Colortable dictionary
/c0 { 0.000000 0.000000 0.000000 sr} bdef
/c1 { 1.000000 1.000000 1.000000 sr} bdef
/c2 { 0.900000 0.000000 0.000000 sr} bdef
/c3 { 0.000000 0.820000 0.000000 sr} bdef
/c4 { 0.000000 0.000000 0.800000 sr} bdef
/c5 { 0.910000 0.820000 0.320000 sr} bdef
/c6 { 1.000000 0.260000 0.820000 sr} bdef
/c7 { 0.000000 0.820000 0.820000 sr} bdef
c0
1 j
1 sg
   0    0 6913 5186 PR
6 w
0 4226 5356 0 0 -4226 899 4615 4 MP
PP
-5356 0 0 4226 5356 0 0 -4226 899 4615 5 MP stroke
4 w
DO
0 sg
 899 4615 mt  899  389 L
 899  389 mt  899  389 L
1434 4615 mt 1434  389 L
1434  389 mt 1434  389 L
1970 4615 mt 1970  389 L
1970  389 mt 1970  389 L
2505 4615 mt 2505  389 L
2505  389 mt 2505  389 L
3041 4615 mt 3041  389 L
3041  389 mt 3041  389 L
3577 4615 mt 3577  389 L
3577  389 mt 3577  389 L
4112 4615 mt 4112  389 L
4112  389 mt 4112  389 L
4648 4615 mt 4648  389 L
4648  389 mt 4648  389 L
5183 4615 mt 5183  389 L
5183  389 mt 5183  389 L
5719 4615 mt 5719  389 L
5719  389 mt 5719  389 L
6255 4615 mt 6255  389 L
6255  389 mt 6255  389 L
 899 4615 mt 6255 4615 L
6255 4615 mt 6255 4615 L
 899 4086 mt 6255 4086 L
6255 4086 mt 6255 4086 L
 899 3558 mt 6255 3558 L
6255 3558 mt 6255 3558 L
 899 3030 mt 6255 3030 L
6255 3030 mt 6255 3030 L
 899 2502 mt 6255 2502 L
6255 2502 mt 6255 2502 L
 899 1973 mt 6255 1973 L
6255 1973 mt 6255 1973 L
 899 1445 mt 6255 1445 L
6255 1445 mt 6255 1445 L
 899  917 mt 6255  917 L
6255  917 mt 6255  917 L
 899  389 mt 6255  389 L
6255  389 mt 6255  389 L
SO
6 w
 899 4615 mt 6255 4615 L
 899  389 mt 6255  389 L
 899 4615 mt  899  389 L
6255 4615 mt 6255  389 L
 899 4615 mt 6255 4615 L
 899 4615 mt  899  389 L
 899 4615 mt  899 4561 L
 899  389 mt  899  442 L
%%IncludeResource: font Helvetica
/Helvetica /ISOLatin1Encoding 120 FMSR

 833 4760 mt 
(70) s
1434 4615 mt 1434 4561 L
1434  389 mt 1434  442 L
1368 4760 mt 
(71) s
1970 4615 mt 1970 4561 L
1970  389 mt 1970  442 L
1904 4760 mt 
(72) s
2505 4615 mt 2505 4561 L
2505  389 mt 2505  442 L
2439 4760 mt 
(73) s
3041 4615 mt 3041 4561 L
3041  389 mt 3041  442 L
2975 4760 mt 
(74) s
3577 4615 mt 3577 4561 L
3577  389 mt 3577  442 L
3511 4760 mt 
(75) s
4112 4615 mt 4112 4561 L
4112  389 mt 4112  442 L
4046 4760 mt 
(76) s
4648 4615 mt 4648 4561 L
4648  389 mt 4648  442 L
4582 4760 mt 
(77) s
5183 4615 mt 5183 4561 L
5183  389 mt 5183  442 L
5117 4760 mt 
(78) s
5719 4615 mt 5719 4561 L
5719  389 mt 5719  442 L
5653 4760 mt 
(79) s
6255 4615 mt 6255 4561 L
6255  389 mt 6255  442 L
6189 4760 mt 
(80) s
 899 4615 mt  952 4615 L
6255 4615 mt 6201 4615 L
 731 4659 mt 
(56) s
 899 4086 mt  952 4086 L
6255 4086 mt 6201 4086 L
 731 4130 mt 
(57) s
 899 3558 mt  952 3558 L
6255 3558 mt 6201 3558 L
 731 3602 mt 
(58) s
 899 3030 mt  952 3030 L
6255 3030 mt 6201 3030 L
 731 3074 mt 
(59) s
 899 2502 mt  952 2502 L
6255 2502 mt 6201 2502 L
 731 2546 mt 
(60) s
 899 1973 mt  952 1973 L
6255 1973 mt 6201 1973 L
 731 2017 mt 
(61) s
 899 1445 mt  952 1445 L
6255 1445 mt 6201 1445 L
 731 1489 mt 
(62) s
 899  917 mt  952  917 L
6255  917 mt 6201  917 L
 731  961 mt 
(63) s
 899  389 mt  952  389 L
6255  389 mt 6201  389 L
 731  433 mt 
(64) s
 899 4615 mt 6255 4615 L
 899  389 mt 6255  389 L
 899 4615 mt  899  389 L
6255 4615 mt 6255  389 L
gs 899 389 5357 4227 MR c np
gr

gs 826 364 5504 4185 MR c np
/c8 { 0.000000 0.000000 1.000000 sr} bdef
c8
  36   36  904 4471 FO
  36   36  909 4467 FO
  36   36  915 4463 FO
  36   36  920 4459 FO
  36   36  925 4455 FO
  36   36  931 4451 FO
  36   36  936 4447 FO
  36   36  941 4442 FO
  36   36  947 4438 FO
  36   36  952 4434 FO
  36   36  957 4430 FO
  36   36  963 4426 FO
  36   36  968 4422 FO
  36   36  973 4418 FO
  36   36  979 4414 FO
  36   36  984 4410 FO
  36   36  990 4406 FO
  36   36  995 4402 FO
  36   36 1000 4398 FO
  36   36 1006 4394 FO
  36   36 1011 4390 FO
  36   36 1016 4385 FO
  36   36 1022 4381 FO
  36   36 1027 4377 FO
  36   36 1032 4373 FO
  36   36 1038 4369 FO
  36   36 1043 4365 FO
  36   36 1048 4361 FO
  36   36 1054 4357 FO
  36   36 1059 4353 FO
  36   36 1065 4349 FO
  36   36 1070 4345 FO
  36   36 1075 4341 FO
  36   36 1081 4337 FO
  36   36 1086 4333 FO
  36   36 1091 4328 FO
  36   36 1097 4324 FO
  36   36 1102 4320 FO
  36   36 1107 4316 FO
  36   36 1113 4312 FO
  36   36 1118 4308 FO
  36   36 1123 4304 FO
  36   36 1129 4300 FO
  36   36 1134 4296 FO
  36   36 1140 4292 FO
  36   36 1145 4288 FO
  36   36 1150 4284 FO
  36   36 1156 4280 FO
  36   36 1161 4275 FO
  36   36 1166 4271 FO
  36   36 1172 4267 FO
  36   36 1177 4263 FO
  36   36 1182 4259 FO
  36   36 1188 4255 FO
  36   36 1193 4251 FO
  36   36 1198 4247 FO
  36   36 1204 4243 FO
  36   36 1209 4239 FO
  36   36 1215 4235 FO
  36   36 1220 4231 FO
  36   36 1225 4227 FO
  36   36 1231 4223 FO
  36   36 1236 4218 FO
  36   36 1241 4214 FO
  36   36 1247 4210 FO
  36   36 1252 4206 FO
  36   36 1257 4202 FO
  36   36 1263 4198 FO
  36   36 1268 4194 FO
  36   36 1273 4190 FO
  36   36 1279 4186 FO
  36   36 1284 4182 FO
  36   36 1289 4178 FO
  36   36 1295 4174 FO
  36   36 1300 4170 FO
  36   36 1306 4166 FO
  36   36 1311 4162 FO
  36   36 1316 4157 FO
  36   36 1322 4153 FO
  36   36 1327 4149 FO
  36   36 1332 4145 FO
  36   36 1338 4141 FO
  36   36 1343 4137 FO
  36   36 1348 4133 FO
  36   36 1354 4129 FO
  36   36 1359 4125 FO
  36   36 1364 4121 FO
  36   36 1370 4117 FO
  36   36 1375 4113 FO
  36   36 1381 4109 FO
  36   36 1386 4105 FO
  36   36 1391 4100 FO
  36   36 1397 4096 FO
  36   36 1402 4092 FO
  36   36 1407 4088 FO
  36   36 1413 4084 FO
  36   36 1418 4080 FO
  36   36 1423 4076 FO
  36   36 1429 4072 FO
  36   36 1434 4068 FO
  36   36 1439 4064 FO
  36   36 1445 4060 FO
  36   36 1450 4056 FO
  36   36 1456 4052 FO
  36   36 1461 4048 FO
  36   36 1466 4044 FO
  36   36 1472 4039 FO
  36   36 1477 4035 FO
  36   36 1482 4031 FO
  36   36 1488 4027 FO
  36   36 1493 4023 FO
  36   36 1498 4019 FO
  36   36 1504 4015 FO
  36   36 1509 4011 FO
  36   36 1514 4007 FO
  36   36 1520 4003 FO
  36   36 1525 3999 FO
  36   36 1531 3995 FO
  36   36 1536 3991 FO
  36   36 1541 3987 FO
  36   36 1547 3982 FO
  36   36 1552 3978 FO
  36   36 1557 3974 FO
  36   36 1563 3970 FO
  36   36 1568 3966 FO
  36   36 1573 3962 FO
  36   36 1579 3958 FO
  36   36 1584 3954 FO
  36   36 1589 3950 FO
  36   36 1595 3946 FO
  36   36 1600 3942 FO
  36   36 1605 3938 FO
  36   36 1611 3934 FO
  36   36 1616 3930 FO
  36   36 1622 3926 FO
  36   36 1627 3922 FO
  36   36 1632 3917 FO
  36   36 1638 3913 FO
  36   36 1643 3909 FO
  36   36 1648 3905 FO
  36   36 1654 3901 FO
  36   36 1659 3897 FO
  36   36 1664 3893 FO
  36   36 1670 3889 FO
  36   36 1675 3885 FO
  36   36 1680 3881 FO
  36   36 1686 3877 FO
  36   36 1691 3873 FO
  36   36 1697 3869 FO
  36   36 1702 3865 FO
  36   36 1707 3861 FO
  36   36 1713 3856 FO
  36   36 1718 3852 FO
  36   36 1723 3848 FO
  36   36 1729 3844 FO
  36   36 1734 3840 FO
  36   36 1739 3836 FO
  36   36 1745 3832 FO
  36   36 1750 3828 FO
  36   36 1755 3824 FO
  36   36 1761 3820 FO
  36   36 1766 3816 FO
  36   36 1772 3812 FO
  36   36 1777 3808 FO
  36   36 1782 3804 FO
  36   36 1788 3800 FO
  36   36 1793 3796 FO
  36   36 1798 3791 FO
  36   36 1804 3787 FO
  36   36 1809 3783 FO
  36   36 1814 3779 FO
  36   36 1820 3775 FO
  36   36 1825 3771 FO
  36   36 1830 3767 FO
  36   36 1836 3763 FO
  36   36 1841 3759 FO
  36   36 1847 3755 FO
  36   36 1852 3751 FO
  36   36 1857 3747 FO
  36   36 1863 3743 FO
  36   36 1868 3739 FO
  36   36 1873 3735 FO
  36   36 1879 3731 FO
  36   36 1884 3726 FO
  36   36 1889 3722 FO
  36   36 1895 3718 FO
  36   36 1900 3714 FO
  36   36 1905 3710 FO
  36   36 1911 3706 FO
  36   36 1916 3702 FO
  36   36 1921 3698 FO
  36   36 1927 3694 FO
  36   36 1932 3690 FO
  36   36 1938 3686 FO
  36   36 1943 3682 FO
  36   36 1948 3678 FO
  36   36 1954 3674 FO
  36   36 1959 3670 FO
  36   36 1964 3666 FO
  36   36 1970 3661 FO
  36   36 1975 3657 FO
  36   36 1980 3653 FO
  36   36 1986 3649 FO
  36   36 1991 3645 FO
  36   36 1996 3641 FO
  36   36 2002 3637 FO
  36   36 2007 3633 FO
  36   36 2013 3629 FO
  36   36 2018 3625 FO
  36   36 2023 3621 FO
  36   36 2029 3617 FO
  36   36 2034 3613 FO
  36   36 2039 3609 FO
  36   36 2045 3605 FO
  36   36 2050 3601 FO
  36   36 2055 3597 FO
  36   36 2061 3592 FO
  36   36 2066 3588 FO
  36   36 2071 3584 FO
  36   36 2077 3580 FO
  36   36 2082 3576 FO
  36   36 2088 3572 FO
  36   36 2093 3568 FO
  36   36 2098 3564 FO
  36   36 2104 3560 FO
  36   36 2109 3556 FO
  36   36 2114 3552 FO
  36   36 2120 3548 FO
  36   36 2125 3544 FO
  36   36 2130 3540 FO
  36   36 2136 3536 FO
  36   36 2141 3532 FO
  36   36 2146 3528 FO
  36   36 2152 3523 FO
  36   36 2157 3519 FO
  36   36 2163 3515 FO
  36   36 2168 3511 FO
  36   36 2173 3507 FO
  36   36 2179 3503 FO
  36   36 2184 3499 FO
  36   36 2189 3495 FO
  36   36 2195 3491 FO
  36   36 2200 3487 FO
  36   36 2205 3483 FO
  36   36 2211 3479 FO
  36   36 2216 3475 FO
  36   36 2221 3471 FO
  36   36 2227 3467 FO
  36   36 2232 3463 FO
  36   36 2238 3459 FO
  36   36 2243 3454 FO
  36   36 2248 3450 FO
  36   36 2254 3446 FO
  36   36 2259 3442 FO
  36   36 2264 3438 FO
  36   36 2270 3434 FO
  36   36 2275 3430 FO
  36   36 2280 3426 FO
  36   36 2286 3422 FO
  36   36 2291 3418 FO
  36   36 2296 3414 FO
  36   36 2302 3410 FO
  36   36 2307 3406 FO
  36   36 2312 3402 FO
  36   36 2318 3398 FO
  36   36 2323 3394 FO
  36   36 2329 3390 FO
  36   36 2334 3386 FO
  36   36 2339 3381 FO
  36   36 2345 3377 FO
  36   36 2350 3373 FO
  36   36 2355 3369 FO
  36   36 2361 3365 FO
  36   36 2366 3361 FO
  36   36 2371 3357 FO
  36   36 2377 3353 FO
  36   36 2382 3349 FO
  36   36 2387 3345 FO
  36   36 2393 3341 FO
  36   36 2398 3337 FO
  36   36 2404 3333 FO
  36   36 2409 3329 FO
  36   36 2414 3325 FO
  36   36 2420 3321 FO
  36   36 2425 3317 FO
  36   36 2430 3313 FO
  36   36 2436 3308 FO
  36   36 2441 3304 FO
  36   36 2446 3300 FO
  36   36 2452 3296 FO
  36   36 2457 3292 FO
  36   36 2462 3288 FO
  36   36 2468 3284 FO
  36   36 2473 3280 FO
  36   36 2479 3276 FO
  36   36 2484 3272 FO
  36   36 2489 3268 FO
  36   36 2495 3264 FO
  36   36 2500 3260 FO
  36   36 2505 3256 FO
  36   36 2511 3252 FO
  36   36 2516 3248 FO
  36   36 2521 3244 FO
  36   36 2527 3240 FO
  36   36 2532 3235 FO
  36   36 2537 3231 FO
  36   36 2543 3227 FO
  36   36 2548 3223 FO
  36   36 2554 3219 FO
  36   36 2559 3215 FO
  36   36 2564 3211 FO
  36   36 2570 3207 FO
  36   36 2575 3203 FO
  36   36 2580 3199 FO
  36   36 2586 3195 FO
  36   36 2591 3191 FO
  36   36 2596 3187 FO
  36   36 2602 3183 FO
  36   36 2607 3179 FO
  36   36 2612 3175 FO
  36   36 2618 3171 FO
  36   36 2623 3167 FO
  36   36 2628 3163 FO
  36   36 2634 3159 FO
  36   36 2639 3154 FO
  36   36 2645 3150 FO
  36   36 2650 3146 FO
  36   36 2655 3142 FO
  36   36 2661 3138 FO
  36   36 2666 3134 FO
  36   36 2671 3130 FO
  36   36 2677 3126 FO
  36   36 2682 3122 FO
  36   36 2687 3118 FO
  36   36 2693 3114 FO
  36   36 2698 3110 FO
  36   36 2703 3106 FO
  36   36 2709 3102 FO
  36   36 2714 3098 FO
  36   36 2720 3094 FO
  36   36 2725 3090 FO
  36   36 2730 3086 FO
  36   36 2736 3082 FO
  36   36 2741 3077 FO
  36   36 2746 3073 FO
  36   36 2752 3069 FO
  36   36 2757 3065 FO
  36   36 2762 3061 FO
  36   36 2768 3057 FO
  36   36 2773 3053 FO
  36   36 2778 3049 FO
  36   36 2784 3045 FO
  36   36 2789 3041 FO
  36   36 2795 3037 FO
  36   36 2800 3033 FO
  36   36 2805 3029 FO
  36   36 2811 3025 FO
  36   36 2816 3021 FO
  36   36 2821 3017 FO
  36   36 2827 3013 FO
  36   36 2832 3009 FO
  36   36 2837 3005 FO
  36   36 2843 3001 FO
  36   36 2848 2997 FO
  36   36 2853 2992 FO
  36   36 2859 2988 FO
  36   36 2864 2984 FO
  36   36 2870 2980 FO
  36   36 2875 2976 FO
  36   36 2880 2972 FO
  36   36 2886 2968 FO
  36   36 2891 2964 FO
  36   36 2896 2960 FO
  36   36 2902 2956 FO
  36   36 2907 2952 FO
  36   36 2912 2948 FO
  36   36 2918 2944 FO
  36   36 2923 2940 FO
  36   36 2928 2936 FO
  36   36 2934 2932 FO
  36   36 2939 2928 FO
  36   36 2944 2924 FO
  36   36 2950 2920 FO
  36   36 2955 2916 FO
  36   36 2961 2912 FO
  36   36 2966 2907 FO
  36   36 2971 2903 FO
  36   36 2977 2899 FO
  36   36 2982 2895 FO
  36   36 2987 2891 FO
  36   36 2993 2887 FO
  36   36 2998 2883 FO
  36   36 3003 2879 FO
  36   36 3009 2875 FO
  36   36 3014 2871 FO
  36   36 3019 2867 FO
  36   36 3025 2863 FO
  36   36 3030 2859 FO
  36   36 3036 2855 FO
  36   36 3041 2851 FO
  36   36 3046 2847 FO
  36   36 3052 2843 FO
  36   36 3057 2839 FO
  36   36 3062 2835 FO
  36   36 3068 2831 FO
  36   36 3073 2827 FO
  36   36 3078 2822 FO
  36   36 3084 2818 FO
  36   36 3089 2814 FO
  36   36 3094 2810 FO
  36   36 3100 2806 FO
  36   36 3105 2802 FO
  36   36 3111 2798 FO
  36   36 3116 2794 FO
  36   36 3121 2790 FO
  36   36 3127 2786 FO
  36   36 3132 2782 FO
  36   36 3137 2778 FO
  36   36 3143 2774 FO
  36   36 3148 2770 FO
  36   36 3153 2766 FO
  36   36 3159 2762 FO
  36   36 3164 2758 FO
  36   36 3169 2754 FO
  36   36 3175 2750 FO
  36   36 3180 2746 FO
  36   36 3186 2742 FO
  36   36 3191 2738 FO
  36   36 3196 2734 FO
  36   36 3202 2729 FO
  36   36 3207 2725 FO
  36   36 3212 2721 FO
  36   36 3218 2717 FO
  36   36 3223 2713 FO
  36   36 3228 2709 FO
  36   36 3234 2705 FO
  36   36 3239 2701 FO
  36   36 3244 2697 FO
  36   36 3250 2693 FO
  36   36 3255 2689 FO
  36   36 3260 2685 FO
  36   36 3266 2681 FO
  36   36 3271 2677 FO
  36   36 3277 2673 FO
  36   36 3282 2669 FO
  36   36 3287 2665 FO
  36   36 3293 2661 FO
  36   36 3298 2657 FO
  36   36 3303 2653 FO
  36   36 3309 2649 FO
  36   36 3314 2645 FO
  36   36 3319 2641 FO
  36   36 3325 2636 FO
  36   36 3330 2632 FO
  36   36 3335 2628 FO
  36   36 3341 2624 FO
  36   36 3346 2620 FO
  36   36 3352 2616 FO
  36   36 3357 2612 FO
  36   36 3362 2608 FO
  36   36 3368 2604 FO
  36   36 3373 2600 FO
  36   36 3378 2596 FO
  36   36 3384 2592 FO
  36   36 3389 2588 FO
  36   36 3394 2584 FO
  36   36 3400 2580 FO
  36   36 3405 2576 FO
  36   36 3410 2572 FO
  36   36 3416 2568 FO
  36   36 3421 2564 FO
  36   36 3427 2560 FO
  36   36 3432 2556 FO
  36   36 3437 2552 FO
  36   36 3443 2548 FO
  36   36 3448 2544 FO
  36   36 3453 2540 FO
  36   36 3459 2535 FO
  36   36 3464 2531 FO
  36   36 3469 2527 FO
  36   36 3475 2523 FO
  36   36 3480 2519 FO
  36   36 3485 2515 FO
  36   36 3491 2511 FO
  36   36 3496 2507 FO
  36   36 3502 2503 FO
  36   36 3507 2499 FO
  36   36 3512 2495 FO
  36   36 3518 2491 FO
  36   36 3523 2487 FO
  36   36 3528 2483 FO
  36   36 3534 2479 FO
  36   36 3539 2475 FO
  36   36 3544 2471 FO
  36   36 3550 2467 FO
  36   36 3555 2463 FO
  36   36 3560 2459 FO
  36   36 3566 2455 FO
  36   36 3571 2451 FO
  36   36 3577 2447 FO
  36   36 3582 2443 FO
  36   36 3587 2439 FO
  36   36 3593 2435 FO
  36   36 3598 2430 FO
  36   36 3603 2426 FO
  36   36 3609 2422 FO
  36   36 3614 2418 FO
  36   36 3619 2414 FO
  36   36 3625 2410 FO
  36   36 3630 2406 FO
  36   36 3635 2402 FO
  36   36 3641 2398 FO
  36   36 3646 2394 FO
  36   36 3651 2390 FO
  36   36 3657 2386 FO
  36   36 3662 2382 FO
  36   36 3668 2378 FO
  36   36 3673 2374 FO
  36   36 3678 2370 FO
  36   36 3684 2366 FO
  36   36 3689 2362 FO
  36   36 3694 2358 FO
  36   36 3700 2354 FO
  36   36 3705 2350 FO
  36   36 3710 2346 FO
  36   36 3716 2342 FO
  36   36 3721 2338 FO
  36   36 3726 2334 FO
  36   36 3732 2330 FO
  36   36 3737 2326 FO
  36   36 3743 2321 FO
  36   36 3748 2317 FO
  36   36 3753 2313 FO
  36   36 3759 2309 FO
  36   36 3764 2305 FO
  36   36 3769 2301 FO
  36   36 3775 2297 FO
  36   36 3780 2293 FO
  36   36 3785 2289 FO
  36   36 3791 2285 FO
  36   36 3796 2281 FO
  36   36 3801 2277 FO
  36   36 3807 2273 FO
  36   36 3812 2269 FO
  36   36 3818 2265 FO
  36   36 3823 2261 FO
  36   36 3828 2257 FO
  36   36 3834 2253 FO
  36   36 3839 2249 FO
  36   36 3844 2245 FO
  36   36 3850 2241 FO
  36   36 3855 2237 FO
  36   36 3860 2233 FO
  36   36 3866 2229 FO
  36   36 3871 2225 FO
  36   36 3876 2221 FO
  36   36 3882 2217 FO
  36   36 3887 2213 FO
  36   36 3893 2209 FO
  36   36 3898 2204 FO
  36   36 3903 2200 FO
  36   36 3909 2196 FO
  36   36 3914 2192 FO
  36   36 3919 2188 FO
  36   36 3925 2184 FO
  36   36 3930 2180 FO
  36   36 3935 2176 FO
  36   36 3941 2172 FO
  36   36 3946 2168 FO
  36   36 3951 2164 FO
  36   36 3957 2160 FO
  36   36 3962 2156 FO
  36   36 3967 2152 FO
  36   36 3973 2148 FO
  36   36 3978 2144 FO
  36   36 3984 2140 FO
  36   36 3989 2136 FO
  36   36 3994 2132 FO
  36   36 4000 2128 FO
  36   36 4005 2124 FO
  36   36 4010 2120 FO
  36   36 4016 2116 FO
  36   36 4021 2112 FO
  36   36 4026 2108 FO
  36   36 4032 2104 FO
  36   36 4037 2100 FO
  36   36 4042 2096 FO
  36   36 4048 2092 FO
  36   36 4053 2088 FO
  36   36 4059 2084 FO
  36   36 4064 2079 FO
  36   36 4069 2075 FO
  36   36 4075 2071 FO
  36   36 4080 2067 FO
  36   36 4085 2063 FO
  36   36 4091 2059 FO
  36   36 4096 2055 FO
  36   36 4101 2051 FO
  36   36 4107 2047 FO
  36   36 4112 2043 FO
  36   36 4117 2039 FO
  36   36 4123 2035 FO
  36   36 4128 2031 FO
  36   36 4134 2027 FO
  36   36 4139 2023 FO
  36   36 4144 2019 FO
  36   36 4150 2015 FO
  36   36 4155 2011 FO
  36   36 4160 2007 FO
  36   36 4166 2003 FO
  36   36 4171 1999 FO
  36   36 4176 1995 FO
  36   36 4182 1991 FO
  36   36 4187 1987 FO
  36   36 4192 1983 FO
  36   36 4198 1979 FO
  36   36 4203 1975 FO
  36   36 4209 1971 FO
  36   36 4214 1967 FO
  36   36 4219 1963 FO
  36   36 4225 1959 FO
  36   36 4230 1955 FO
  36   36 4235 1951 FO
  36   36 4241 1947 FO
  36   36 4246 1942 FO
  36   36 4251 1938 FO
  36   36 4257 1934 FO
  36   36 4262 1930 FO
  36   36 4267 1926 FO
  36   36 4273 1922 FO
  36   36 4278 1918 FO
  36   36 4283 1914 FO
  36   36 4289 1910 FO
  36   36 4294 1906 FO
  36   36 4300 1902 FO
  36   36 4305 1898 FO
  36   36 4310 1894 FO
  36   36 4316 1890 FO
  36   36 4321 1886 FO
  36   36 4326 1882 FO
  36   36 4332 1878 FO
  36   36 4337 1874 FO
  36   36 4342 1870 FO
  36   36 4348 1866 FO
  36   36 4353 1862 FO
  36   36 4358 1858 FO
  36   36 4364 1854 FO
  36   36 4369 1850 FO
  36   36 4375 1846 FO
  36   36 4380 1842 FO
  36   36 4385 1838 FO
  36   36 4391 1834 FO
  36   36 4396 1830 FO
  36   36 4401 1826 FO
  36   36 4407 1822 FO
  36   36 4412 1818 FO
  36   36 4417 1814 FO
  36   36 4423 1810 FO
  36   36 4428 1806 FO
  36   36 4433 1802 FO
  36   36 4439 1798 FO
  36   36 4444 1793 FO
  36   36 4450 1789 FO
  36   36 4455 1785 FO
  36   36 4460 1781 FO
  36   36 4466 1777 FO
  36   36 4471 1773 FO
  36   36 4476 1769 FO
  36   36 4482 1765 FO
  36   36 4487 1761 FO
  36   36 4492 1757 FO
  36   36 4498 1753 FO
  36   36 4503 1749 FO
  36   36 4508 1745 FO
  36   36 4514 1741 FO
  36   36 4519 1737 FO
  36   36 4525 1733 FO
  36   36 4530 1729 FO
  36   36 4535 1725 FO
  36   36 4541 1721 FO
  36   36 4546 1717 FO
  36   36 4551 1713 FO
  36   36 4557 1709 FO
  36   36 4562 1705 FO
  36   36 4567 1701 FO
  36   36 4573 1697 FO
  36   36 4578 1693 FO
  36   36 4583 1689 FO
  36   36 4589 1685 FO
  36   36 4594 1681 FO
  36   36 4599 1677 FO
  36   36 4605 1673 FO
  36   36 4610 1669 FO
  36   36 4616 1665 FO
  36   36 4621 1661 FO
  36   36 4626 1657 FO
  36   36 4632 1653 FO
  36   36 4637 1649 FO
  36   36 4642 1645 FO
  36   36 4648 1641 FO
  36   36 4653 1637 FO
  36   36 4658 1633 FO
  36   36 4664 1629 FO
  36   36 4669 1624 FO
  36   36 4674 1620 FO
  36   36 4680 1616 FO
  36   36 4685 1612 FO
  36   36 4691 1608 FO
  36   36 4696 1604 FO
  36   36 4701 1600 FO
  36   36 4707 1596 FO
  36   36 4712 1592 FO
  36   36 4717 1588 FO
  36   36 4723 1584 FO
  36   36 4728 1580 FO
  36   36 4733 1576 FO
  36   36 4739 1572 FO
  36   36 4744 1568 FO
  36   36 4749 1564 FO
  36   36 4755 1560 FO
  36   36 4760 1556 FO
  36   36 4766 1552 FO
  36   36 4771 1548 FO
  36   36 4776 1544 FO
  36   36 4782 1540 FO
  36   36 4787 1536 FO
  36   36 4792 1532 FO
  36   36 4798 1528 FO
  36   36 4803 1524 FO
  36   36 4808 1520 FO
  36   36 4814 1516 FO
  36   36 4819 1512 FO
  36   36 4824 1508 FO
  36   36 4830 1504 FO
  36   36 4835 1500 FO
  36   36 4841 1496 FO
  36   36 4846 1492 FO
  36   36 4851 1488 FO
  36   36 4857 1484 FO
  36   36 4862 1480 FO
  36   36 4867 1476 FO
  36   36 4873 1472 FO
  36   36 4878 1468 FO
  36   36 4883 1464 FO
  36   36 4889 1460 FO
  36   36 4894 1456 FO
  36   36 4899 1452 FO
  36   36 4905 1448 FO
  36   36 4910 1444 FO
  36   36 4916 1440 FO
  36   36 4921 1436 FO
  36   36 4926 1432 FO
  36   36 4932 1428 FO
  36   36 4937 1423 FO
  36   36 4942 1419 FO
  36   36 4948 1415 FO
  36   36 4953 1411 FO
  36   36 4958 1407 FO
  36   36 4964 1403 FO
  36   36 4969 1399 FO
  36   36 4974 1395 FO
  36   36 4980 1391 FO
  36   36 4985 1387 FO
  36   36 4990 1383 FO
  36   36 4996 1379 FO
  36   36 5001 1375 FO
  36   36 5007 1371 FO
  36   36 5012 1367 FO
  36   36 5017 1363 FO
  36   36 5023 1359 FO
  36   36 5028 1355 FO
  36   36 5033 1351 FO
  36   36 5039 1347 FO
  36   36 5044 1343 FO
  36   36 5049 1339 FO
  36   36 5055 1335 FO
  36   36 5060 1331 FO
  36   36 5065 1327 FO
  36   36 5071 1323 FO
  36   36 5076 1319 FO
  36   36 5082 1315 FO
  36   36 5087 1311 FO
  36   36 5092 1307 FO
  36   36 5098 1303 FO
  36   36 5103 1299 FO
  36   36 5108 1295 FO
  36   36 5114 1291 FO
  36   36 5119 1287 FO
  36   36 5124 1283 FO
  36   36 5130 1279 FO
  36   36 5135 1275 FO
  36   36 5140 1271 FO
  36   36 5146 1267 FO
  36   36 5151 1263 FO
  36   36 5157 1259 FO
  36   36 5162 1255 FO
  36   36 5167 1251 FO
  36   36 5173 1247 FO
  36   36 5178 1243 FO
  36   36 5183 1239 FO
  36   36 5189 1235 FO
  36   36 5194 1231 FO
  36   36 5199 1227 FO
  36   36 5205 1223 FO
  36   36 5210 1219 FO
  36   36 5215 1215 FO
  36   36 5221 1211 FO
  36   36 5226 1207 FO
  36   36 5232 1203 FO
  36   36 5237 1199 FO
  36   36 5242 1195 FO
  36   36 5248 1191 FO
  36   36 5253 1187 FO
  36   36 5258 1183 FO
  36   36 5264 1179 FO
  36   36 5269 1175 FO
  36   36 5274 1171 FO
  36   36 5280 1167 FO
  36   36 5285 1162 FO
  36   36 5290 1158 FO
  36   36 5296 1154 FO
  36   36 5301 1150 FO
  36   36 5306 1146 FO
  36   36 5312 1142 FO
  36   36 5317 1138 FO
  36   36 5323 1134 FO
  36   36 5328 1130 FO
  36   36 5333 1126 FO
  36   36 5339 1122 FO
  36   36 5344 1118 FO
  36   36 5349 1114 FO
  36   36 5355 1110 FO
  36   36 5360 1106 FO
  36   36 5365 1102 FO
  36   36 5371 1098 FO
  36   36 5376 1094 FO
  36   36 5381 1090 FO
  36   36 5387 1086 FO
  36   36 5392 1082 FO
  36   36 5398 1078 FO
  36   36 5403 1074 FO
  36   36 5408 1070 FO
  36   36 5414 1066 FO
  36   36 5419 1062 FO
  36   36 5424 1058 FO
  36   36 5430 1054 FO
  36   36 5435 1050 FO
  36   36 5440 1046 FO
  36   36 5446 1042 FO
  36   36 5451 1038 FO
  36   36 5456 1034 FO
  36   36 5462 1030 FO
  36   36 5467 1026 FO
  36   36 5473 1022 FO
  36   36 5478 1018 FO
  36   36 5483 1014 FO
  36   36 5489 1010 FO
  36   36 5494 1006 FO
  36   36 5499 1002 FO
  36   36 5505  998 FO
  36   36 5510  994 FO
  36   36 5515  990 FO
  36   36 5521  986 FO
  36   36 5526  982 FO
  36   36 5531  978 FO
  36   36 5537  974 FO
  36   36 5542  970 FO
  36   36 5548  966 FO
  36   36 5553  962 FO
  36   36 5558  958 FO
  36   36 5564  954 FO
  36   36 5569  950 FO
  36   36 5574  946 FO
  36   36 5580  942 FO
  36   36 5585  938 FO
  36   36 5590  934 FO
  36   36 5596  930 FO
  36   36 5601  926 FO
  36   36 5606  922 FO
  36   36 5612  918 FO
  36   36 5617  914 FO
  36   36 5622  910 FO
  36   36 5628  906 FO
  36   36 5633  902 FO
  36   36 5639  898 FO
  36   36 5644  894 FO
  36   36 5649  890 FO
  36   36 5655  886 FO
  36   36 5660  882 FO
  36   36 5665  878 FO
  36   36 5671  874 FO
  36   36 5676  870 FO
  36   36 5681  866 FO
  36   36 5687  862 FO
  36   36 5692  858 FO
  36   36 5697  854 FO
  36   36 5703  850 FO
  36   36 5708  846 FO
  36   36 5714  842 FO
  36   36 5719  838 FO
  36   36 5724  834 FO
  36   36 5730  830 FO
  36   36 5735  826 FO
  36   36 5740  822 FO
  36   36 5746  818 FO
  36   36 5751  814 FO
  36   36 5756  810 FO
  36   36 5762  806 FO
  36   36 5767  802 FO
  36   36 5772  798 FO
  36   36 5778  794 FO
  36   36 5783  790 FO
  36   36 5789  786 FO
  36   36 5794  782 FO
  36   36 5799  778 FO
  36   36 5805  774 FO
  36   36 5810  770 FO
  36   36 5815  766 FO
  36   36 5821  762 FO
  36   36 5826  758 FO
  36   36 5831  754 FO
  36   36 5837  750 FO
  36   36 5842  746 FO
  36   36 5847  742 FO
  36   36 5853  738 FO
  36   36 5858  734 FO
  36   36 5864  730 FO
  36   36 5869  726 FO
  36   36 5874  722 FO
  36   36 5880  718 FO
  36   36 5885  714 FO
  36   36 5890  710 FO
  36   36 5896  706 FO
  36   36 5901  702 FO
  36   36 5906  698 FO
  36   36 5912  694 FO
  36   36 5917  690 FO
  36   36 5922  686 FO
  36   36 5928  682 FO
  36   36 5933  678 FO
  36   36 5938  674 FO
  36   36 5944  670 FO
  36   36 5949  666 FO
  36   36 5955  662 FO
  36   36 5960  658 FO
  36   36 5965  654 FO
  36   36 5971  650 FO
  36   36 5976  646 FO
  36   36 5981  642 FO
  36   36 5987  638 FO
  36   36 5992  634 FO
  36   36 5997  629 FO
  36   36 6003  625 FO
  36   36 6008  621 FO
  36   36 6013  617 FO
  36   36 6019  613 FO
  36   36 6024  609 FO
  36   36 6030  605 FO
  36   36 6035  601 FO
  36   36 6040  597 FO
  36   36 6046  593 FO
  36   36 6051  589 FO
  36   36 6056  585 FO
  36   36 6062  581 FO
  36   36 6067  577 FO
  36   36 6072  573 FO
  36   36 6078  569 FO
  36   36 6083  565 FO
  36   36 6088  561 FO
  36   36 6094  557 FO
  36   36 6099  553 FO
  36   36 6105  549 FO
  36   36 6110  545 FO
  36   36 6115  541 FO
  36   36 6121  537 FO
  36   36 6126  533 FO
  36   36 6131  529 FO
  36   36 6137  525 FO
  36   36 6142  521 FO
  36   36 6147  517 FO
  36   36 6153  513 FO
  36   36 6158  509 FO
  36   36 6163  505 FO
  36   36 6169  501 FO
  36   36 6174  497 FO
  36   36 6180  493 FO
  36   36 6185  489 FO
  36   36 6190  485 FO
  36   36 6196  481 FO
  36   36 6201  477 FO
  36   36 6206  473 FO
  36   36 6212  469 FO
  36   36 6217  465 FO
  36   36 6222  461 FO
  36   36 6228  457 FO
  36   36 6233  453 FO
  36   36 6238  449 FO
  36   36 6244  445 FO
  36   36 6249  441 FO
  36   36 6255  437 FO
gr

c8
gs 899 389 5357 4227 MR c np
gr

gs 826 374 5504 4184 MR c np
/c9 { 0.000000 1.000000 0.000000 sr} bdef
c9
 879 4455 mt  929 4505 L
 929 4455 mt  879 4505 L
 884 4451 mt  934 4501 L
 934 4451 mt  884 4501 L
 890 4446 mt  940 4496 L
 940 4446 mt  890 4496 L
 895 4442 mt  945 4492 L
 945 4442 mt  895 4492 L
 900 4438 mt  950 4488 L
 950 4438 mt  900 4488 L
 906 4434 mt  956 4484 L
 956 4434 mt  906 4484 L
 911 4429 mt  961 4479 L
 961 4429 mt  911 4479 L
 916 4425 mt  966 4475 L
 966 4425 mt  916 4475 L
 922 4421 mt  972 4471 L
 972 4421 mt  922 4471 L
 927 4417 mt  977 4467 L
 977 4417 mt  927 4467 L
 932 4413 mt  982 4463 L
 982 4413 mt  932 4463 L
 938 4408 mt  988 4458 L
 988 4408 mt  938 4458 L
 943 4404 mt  993 4454 L
 993 4404 mt  943 4454 L
 948 4400 mt  998 4450 L
 998 4400 mt  948 4450 L
 954 4396 mt 1004 4446 L
1004 4396 mt  954 4446 L
 959 4391 mt 1009 4441 L
1009 4391 mt  959 4441 L
 965 4387 mt 1015 4437 L
1015 4387 mt  965 4437 L
 970 4383 mt 1020 4433 L
1020 4383 mt  970 4433 L
 975 4379 mt 1025 4429 L
1025 4379 mt  975 4429 L
 981 4374 mt 1031 4424 L
1031 4374 mt  981 4424 L
 986 4370 mt 1036 4420 L
1036 4370 mt  986 4420 L
 991 4370 mt 1041 4420 L
1041 4370 mt  991 4420 L
 997 4366 mt 1047 4416 L
1047 4366 mt  997 4416 L
1002 4361 mt 1052 4411 L
1052 4361 mt 1002 4411 L
1007 4357 mt 1057 4407 L
1057 4357 mt 1007 4407 L
1013 4353 mt 1063 4403 L
1063 4353 mt 1013 4403 L
1018 4349 mt 1068 4399 L
1068 4349 mt 1018 4399 L
1023 4344 mt 1073 4394 L
1073 4344 mt 1023 4394 L
1029 4340 mt 1079 4390 L
1079 4340 mt 1029 4390 L
1034 4336 mt 1084 4386 L
1084 4336 mt 1034 4386 L
1040 4332 mt 1090 4382 L
1090 4332 mt 1040 4382 L
1045 4327 mt 1095 4377 L
1095 4327 mt 1045 4377 L
1050 4323 mt 1100 4373 L
1100 4323 mt 1050 4373 L
1056 4319 mt 1106 4369 L
1106 4319 mt 1056 4369 L
1061 4315 mt 1111 4365 L
1111 4315 mt 1061 4365 L
1066 4310 mt 1116 4360 L
1116 4310 mt 1066 4360 L
1072 4306 mt 1122 4356 L
1122 4306 mt 1072 4356 L
1077 4302 mt 1127 4352 L
1127 4302 mt 1077 4352 L
1082 4298 mt 1132 4348 L
1132 4298 mt 1082 4348 L
1088 4294 mt 1138 4344 L
1138 4294 mt 1088 4344 L
1093 4289 mt 1143 4339 L
1143 4289 mt 1093 4339 L
1098 4285 mt 1148 4335 L
1148 4285 mt 1098 4335 L
1104 4281 mt 1154 4331 L
1154 4281 mt 1104 4331 L
1109 4277 mt 1159 4327 L
1159 4277 mt 1109 4327 L
1115 4272 mt 1165 4322 L
1165 4272 mt 1115 4322 L
1120 4268 mt 1170 4318 L
1170 4268 mt 1120 4318 L
1125 4264 mt 1175 4314 L
1175 4264 mt 1125 4314 L
1131 4260 mt 1181 4310 L
1181 4260 mt 1131 4310 L
1136 4255 mt 1186 4305 L
1186 4255 mt 1136 4305 L
1141 4251 mt 1191 4301 L
1191 4251 mt 1141 4301 L
1147 4247 mt 1197 4297 L
1197 4247 mt 1147 4297 L
1152 4243 mt 1202 4293 L
1202 4243 mt 1152 4293 L
1157 4238 mt 1207 4288 L
1207 4238 mt 1157 4288 L
1163 4234 mt 1213 4284 L
1213 4234 mt 1163 4284 L
1168 4230 mt 1218 4280 L
1218 4230 mt 1168 4280 L
1173 4226 mt 1223 4276 L
1223 4226 mt 1173 4276 L
1179 4222 mt 1229 4272 L
1229 4222 mt 1179 4272 L
1184 4217 mt 1234 4267 L
1234 4217 mt 1184 4267 L
1190 4213 mt 1240 4263 L
1240 4213 mt 1190 4263 L
1195 4209 mt 1245 4259 L
1245 4209 mt 1195 4259 L
1200 4205 mt 1250 4255 L
1250 4205 mt 1200 4255 L
1206 4200 mt 1256 4250 L
1256 4200 mt 1206 4250 L
1211 4196 mt 1261 4246 L
1261 4196 mt 1211 4246 L
1216 4192 mt 1266 4242 L
1266 4192 mt 1216 4242 L
1222 4188 mt 1272 4238 L
1272 4188 mt 1222 4238 L
1227 4183 mt 1277 4233 L
1277 4183 mt 1227 4233 L
1232 4179 mt 1282 4229 L
1282 4179 mt 1232 4229 L
1238 4175 mt 1288 4225 L
1288 4175 mt 1238 4225 L
1243 4171 mt 1293 4221 L
1293 4171 mt 1243 4221 L
1248 4167 mt 1298 4217 L
1298 4167 mt 1248 4217 L
1254 4162 mt 1304 4212 L
1304 4162 mt 1254 4212 L
1259 4158 mt 1309 4208 L
1309 4158 mt 1259 4208 L
1264 4154 mt 1314 4204 L
1314 4154 mt 1264 4204 L
1270 4150 mt 1320 4200 L
1320 4150 mt 1270 4200 L
1275 4145 mt 1325 4195 L
1325 4145 mt 1275 4195 L
1281 4141 mt 1331 4191 L
1331 4141 mt 1281 4191 L
1286 4137 mt 1336 4187 L
1336 4137 mt 1286 4187 L
1291 4133 mt 1341 4183 L
1341 4133 mt 1291 4183 L
1297 4128 mt 1347 4178 L
1347 4128 mt 1297 4178 L
1302 4124 mt 1352 4174 L
1352 4124 mt 1302 4174 L
1307 4120 mt 1357 4170 L
1357 4120 mt 1307 4170 L
1313 4116 mt 1363 4166 L
1363 4116 mt 1313 4166 L
1318 4111 mt 1368 4161 L
1368 4111 mt 1318 4161 L
1323 4107 mt 1373 4157 L
1373 4107 mt 1323 4157 L
1329 4103 mt 1379 4153 L
1379 4103 mt 1329 4153 L
1334 4099 mt 1384 4149 L
1384 4099 mt 1334 4149 L
1339 4095 mt 1389 4145 L
1389 4095 mt 1339 4145 L
1345 4090 mt 1395 4140 L
1395 4090 mt 1345 4140 L
1350 4086 mt 1400 4136 L
1400 4086 mt 1350 4136 L
1356 4082 mt 1406 4132 L
1406 4082 mt 1356 4132 L
1361 4078 mt 1411 4128 L
1411 4078 mt 1361 4128 L
1366 4073 mt 1416 4123 L
1416 4073 mt 1366 4123 L
1372 4069 mt 1422 4119 L
1422 4069 mt 1372 4119 L
1377 4065 mt 1427 4115 L
1427 4065 mt 1377 4115 L
1382 4061 mt 1432 4111 L
1432 4061 mt 1382 4111 L
1388 4056 mt 1438 4106 L
1438 4056 mt 1388 4106 L
1393 4052 mt 1443 4102 L
1443 4052 mt 1393 4102 L
1398 4048 mt 1448 4098 L
1448 4048 mt 1398 4098 L
1404 4044 mt 1454 4094 L
1454 4044 mt 1404 4094 L
1409 4039 mt 1459 4089 L
1459 4039 mt 1409 4089 L
1414 4035 mt 1464 4085 L
1464 4035 mt 1414 4085 L
1420 4031 mt 1470 4081 L
1470 4031 mt 1420 4081 L
1425 4027 mt 1475 4077 L
1475 4027 mt 1425 4077 L
1431 4023 mt 1481 4073 L
1481 4023 mt 1431 4073 L
1436 4018 mt 1486 4068 L
1486 4018 mt 1436 4068 L
1441 4014 mt 1491 4064 L
1491 4014 mt 1441 4064 L
1447 4010 mt 1497 4060 L
1497 4010 mt 1447 4060 L
1452 4006 mt 1502 4056 L
1502 4006 mt 1452 4056 L
1457 4001 mt 1507 4051 L
1507 4001 mt 1457 4051 L
1463 3997 mt 1513 4047 L
1513 3997 mt 1463 4047 L
1468 3993 mt 1518 4043 L
1518 3993 mt 1468 4043 L
1473 3989 mt 1523 4039 L
1523 3989 mt 1473 4039 L
1479 3984 mt 1529 4034 L
1529 3984 mt 1479 4034 L
1484 3980 mt 1534 4030 L
1534 3980 mt 1484 4030 L
1489 3976 mt 1539 4026 L
1539 3976 mt 1489 4026 L
1495 3972 mt 1545 4022 L
1545 3972 mt 1495 4022 L
1500 3967 mt 1550 4017 L
1550 3967 mt 1500 4017 L
1506 3963 mt 1556 4013 L
1556 3963 mt 1506 4013 L
1511 3959 mt 1561 4009 L
1561 3959 mt 1511 4009 L
1516 3955 mt 1566 4005 L
1566 3955 mt 1516 4005 L
1522 3951 mt 1572 4001 L
1572 3951 mt 1522 4001 L
1527 3946 mt 1577 3996 L
1577 3946 mt 1527 3996 L
1532 3942 mt 1582 3992 L
1582 3942 mt 1532 3992 L
1538 3938 mt 1588 3988 L
1588 3938 mt 1538 3988 L
1543 3934 mt 1593 3984 L
1593 3934 mt 1543 3984 L
1548 3929 mt 1598 3979 L
1598 3929 mt 1548 3979 L
1554 3925 mt 1604 3975 L
1604 3925 mt 1554 3975 L
1559 3921 mt 1609 3971 L
1609 3921 mt 1559 3971 L
1564 3917 mt 1614 3967 L
1614 3917 mt 1564 3967 L
1570 3912 mt 1620 3962 L
1620 3912 mt 1570 3962 L
1575 3908 mt 1625 3958 L
1625 3908 mt 1575 3958 L
1580 3904 mt 1630 3954 L
1630 3904 mt 1580 3954 L
1586 3900 mt 1636 3950 L
1636 3900 mt 1586 3950 L
1591 3895 mt 1641 3945 L
1641 3895 mt 1591 3945 L
1597 3891 mt 1647 3941 L
1647 3891 mt 1597 3941 L
1602 3887 mt 1652 3937 L
1652 3887 mt 1602 3937 L
1607 3883 mt 1657 3933 L
1657 3883 mt 1607 3933 L
1613 3879 mt 1663 3929 L
1663 3879 mt 1613 3929 L
1618 3874 mt 1668 3924 L
1668 3874 mt 1618 3924 L
1623 3870 mt 1673 3920 L
1673 3870 mt 1623 3920 L
1629 3866 mt 1679 3916 L
1679 3866 mt 1629 3916 L
1634 3862 mt 1684 3912 L
1684 3862 mt 1634 3912 L
1639 3857 mt 1689 3907 L
1689 3857 mt 1639 3907 L
1645 3853 mt 1695 3903 L
1695 3853 mt 1645 3903 L
1650 3849 mt 1700 3899 L
1700 3849 mt 1650 3899 L
1655 3845 mt 1705 3895 L
1705 3845 mt 1655 3895 L
1661 3840 mt 1711 3890 L
1711 3840 mt 1661 3890 L
1666 3836 mt 1716 3886 L
1716 3836 mt 1666 3886 L
1672 3832 mt 1722 3882 L
1722 3832 mt 1672 3882 L
1677 3828 mt 1727 3878 L
1727 3828 mt 1677 3878 L
1682 3824 mt 1732 3874 L
1732 3824 mt 1682 3874 L
1688 3819 mt 1738 3869 L
1738 3819 mt 1688 3869 L
1693 3815 mt 1743 3865 L
1743 3815 mt 1693 3865 L
1698 3811 mt 1748 3861 L
1748 3811 mt 1698 3861 L
1704 3807 mt 1754 3857 L
1754 3807 mt 1704 3857 L
1709 3802 mt 1759 3852 L
1759 3802 mt 1709 3852 L
1714 3798 mt 1764 3848 L
1764 3798 mt 1714 3848 L
1720 3794 mt 1770 3844 L
1770 3794 mt 1720 3844 L
1725 3790 mt 1775 3840 L
1775 3790 mt 1725 3840 L
1730 3785 mt 1780 3835 L
1780 3785 mt 1730 3835 L
1736 3781 mt 1786 3831 L
1786 3781 mt 1736 3831 L
1741 3777 mt 1791 3827 L
1791 3777 mt 1741 3827 L
1747 3773 mt 1797 3823 L
1797 3773 mt 1747 3823 L
1752 3768 mt 1802 3818 L
1802 3768 mt 1752 3818 L
1757 3764 mt 1807 3814 L
1807 3764 mt 1757 3814 L
1763 3760 mt 1813 3810 L
1813 3760 mt 1763 3810 L
1768 3756 mt 1818 3806 L
1818 3756 mt 1768 3806 L
1773 3752 mt 1823 3802 L
1823 3752 mt 1773 3802 L
1779 3747 mt 1829 3797 L
1829 3747 mt 1779 3797 L
1784 3743 mt 1834 3793 L
1834 3743 mt 1784 3793 L
1789 3739 mt 1839 3789 L
1839 3739 mt 1789 3789 L
1795 3735 mt 1845 3785 L
1845 3735 mt 1795 3785 L
1800 3730 mt 1850 3780 L
1850 3730 mt 1800 3780 L
1805 3740 mt 1855 3790 L
1855 3740 mt 1805 3790 L
1811 3736 mt 1861 3786 L
1861 3736 mt 1811 3786 L
1816 3732 mt 1866 3782 L
1866 3732 mt 1816 3782 L
1822 3727 mt 1872 3777 L
1872 3727 mt 1822 3777 L
1827 3723 mt 1877 3773 L
1877 3723 mt 1827 3773 L
1832 3719 mt 1882 3769 L
1882 3719 mt 1832 3769 L
1838 3715 mt 1888 3765 L
1888 3715 mt 1838 3765 L
1843 3711 mt 1893 3761 L
1893 3711 mt 1843 3761 L
1848 3706 mt 1898 3756 L
1898 3706 mt 1848 3756 L
1854 3702 mt 1904 3752 L
1904 3702 mt 1854 3752 L
1859 3698 mt 1909 3748 L
1909 3698 mt 1859 3748 L
1864 3694 mt 1914 3744 L
1914 3694 mt 1864 3744 L
1870 3690 mt 1920 3740 L
1920 3690 mt 1870 3740 L
1875 3685 mt 1925 3735 L
1925 3685 mt 1875 3735 L
1880 3681 mt 1930 3731 L
1930 3681 mt 1880 3731 L
1886 3677 mt 1936 3727 L
1936 3677 mt 1886 3727 L
1891 3673 mt 1941 3723 L
1941 3673 mt 1891 3723 L
1896 3669 mt 1946 3719 L
1946 3669 mt 1896 3719 L
1902 3664 mt 1952 3714 L
1952 3664 mt 1902 3714 L
1907 3660 mt 1957 3710 L
1957 3660 mt 1907 3710 L
1913 3656 mt 1963 3706 L
1963 3656 mt 1913 3706 L
1918 3652 mt 1968 3702 L
1968 3652 mt 1918 3702 L
1923 3648 mt 1973 3698 L
1973 3648 mt 1923 3698 L
1929 3643 mt 1979 3693 L
1979 3643 mt 1929 3693 L
1934 3639 mt 1984 3689 L
1984 3639 mt 1934 3689 L
1939 3635 mt 1989 3685 L
1989 3635 mt 1939 3685 L
1945 3638 mt 1995 3688 L
1995 3638 mt 1945 3688 L
1950 3633 mt 2000 3683 L
2000 3633 mt 1950 3683 L
1955 3629 mt 2005 3679 L
2005 3629 mt 1955 3679 L
1961 3625 mt 2011 3675 L
2011 3625 mt 1961 3675 L
1966 3621 mt 2016 3671 L
2016 3621 mt 1966 3671 L
1971 3617 mt 2021 3667 L
2021 3617 mt 1971 3667 L
1977 3613 mt 2027 3663 L
2027 3613 mt 1977 3663 L
1982 3608 mt 2032 3658 L
2032 3608 mt 1982 3658 L
1988 3604 mt 2038 3654 L
2038 3604 mt 1988 3654 L
1993 3600 mt 2043 3650 L
2043 3600 mt 1993 3650 L
1998 3596 mt 2048 3646 L
2048 3596 mt 1998 3646 L
2004 3592 mt 2054 3642 L
2054 3592 mt 2004 3642 L
2009 3587 mt 2059 3637 L
2059 3587 mt 2009 3637 L
2014 3583 mt 2064 3633 L
2064 3583 mt 2014 3633 L
2020 3579 mt 2070 3629 L
2070 3579 mt 2020 3629 L
2025 3575 mt 2075 3625 L
2075 3575 mt 2025 3625 L
2030 3571 mt 2080 3621 L
2080 3571 mt 2030 3621 L
2036 3566 mt 2086 3616 L
2086 3566 mt 2036 3616 L
2041 3562 mt 2091 3612 L
2091 3562 mt 2041 3612 L
2046 3558 mt 2096 3608 L
2096 3558 mt 2046 3608 L
2052 3554 mt 2102 3604 L
2102 3554 mt 2052 3604 L
2057 3550 mt 2107 3600 L
2107 3550 mt 2057 3600 L
2063 3546 mt 2113 3596 L
2113 3546 mt 2063 3596 L
2068 3541 mt 2118 3591 L
2118 3541 mt 2068 3591 L
2073 3537 mt 2123 3587 L
2123 3537 mt 2073 3587 L
2079 3533 mt 2129 3583 L
2129 3533 mt 2079 3583 L
2084 3534 mt 2134 3584 L
2134 3534 mt 2084 3584 L
2089 3530 mt 2139 3580 L
2139 3530 mt 2089 3580 L
2095 3526 mt 2145 3576 L
2145 3526 mt 2095 3576 L
2100 3521 mt 2150 3571 L
2150 3521 mt 2100 3571 L
2105 3517 mt 2155 3567 L
2155 3517 mt 2105 3567 L
2111 3513 mt 2161 3563 L
2161 3513 mt 2111 3563 L
2116 3509 mt 2166 3559 L
2166 3509 mt 2116 3559 L
2121 3505 mt 2171 3555 L
2171 3505 mt 2121 3555 L
2127 3501 mt 2177 3551 L
2177 3501 mt 2127 3551 L
2132 3496 mt 2182 3546 L
2182 3496 mt 2132 3546 L
2138 3492 mt 2188 3542 L
2188 3492 mt 2138 3542 L
2143 3488 mt 2193 3538 L
2193 3488 mt 2143 3538 L
2148 3484 mt 2198 3534 L
2198 3484 mt 2148 3534 L
2154 3480 mt 2204 3530 L
2204 3480 mt 2154 3530 L
2159 3475 mt 2209 3525 L
2209 3475 mt 2159 3525 L
2164 3471 mt 2214 3521 L
2214 3471 mt 2164 3521 L
2170 3467 mt 2220 3517 L
2220 3467 mt 2170 3517 L
2175 3463 mt 2225 3513 L
2225 3463 mt 2175 3513 L
2180 3459 mt 2230 3509 L
2230 3459 mt 2180 3509 L
2186 3455 mt 2236 3505 L
2236 3455 mt 2186 3505 L
2191 3450 mt 2241 3500 L
2241 3450 mt 2191 3500 L
2196 3446 mt 2246 3496 L
2246 3446 mt 2196 3496 L
2202 3442 mt 2252 3492 L
2252 3442 mt 2202 3492 L
2207 3438 mt 2257 3488 L
2257 3438 mt 2207 3488 L
2213 3434 mt 2263 3484 L
2263 3434 mt 2213 3484 L
2218 3429 mt 2268 3479 L
2268 3429 mt 2218 3479 L
2223 3430 mt 2273 3480 L
2273 3430 mt 2223 3480 L
2229 3426 mt 2279 3476 L
2279 3426 mt 2229 3476 L
2234 3421 mt 2284 3471 L
2284 3421 mt 2234 3471 L
2239 3417 mt 2289 3467 L
2289 3417 mt 2239 3467 L
2245 3413 mt 2295 3463 L
2295 3413 mt 2245 3463 L
2250 3409 mt 2300 3459 L
2300 3409 mt 2250 3459 L
2255 3405 mt 2305 3455 L
2305 3405 mt 2255 3455 L
2261 3400 mt 2311 3450 L
2311 3400 mt 2261 3450 L
2266 3396 mt 2316 3446 L
2316 3396 mt 2266 3446 L
2271 3392 mt 2321 3442 L
2321 3392 mt 2271 3442 L
2277 3388 mt 2327 3438 L
2327 3388 mt 2277 3438 L
2282 3384 mt 2332 3434 L
2332 3384 mt 2282 3434 L
2287 3380 mt 2337 3430 L
2337 3380 mt 2287 3430 L
2293 3375 mt 2343 3425 L
2343 3375 mt 2293 3425 L
2298 3371 mt 2348 3421 L
2348 3371 mt 2298 3421 L
2304 3367 mt 2354 3417 L
2354 3367 mt 2304 3417 L
2309 3363 mt 2359 3413 L
2359 3363 mt 2309 3413 L
2314 3359 mt 2364 3409 L
2364 3359 mt 2314 3409 L
2320 3354 mt 2370 3404 L
2370 3354 mt 2320 3404 L
2325 3350 mt 2375 3400 L
2375 3350 mt 2325 3400 L
2330 3346 mt 2380 3396 L
2380 3346 mt 2330 3396 L
2336 3342 mt 2386 3392 L
2386 3342 mt 2336 3392 L
2341 3338 mt 2391 3388 L
2391 3338 mt 2341 3388 L
2346 3334 mt 2396 3384 L
2396 3334 mt 2346 3384 L
2352 3329 mt 2402 3379 L
2402 3329 mt 2352 3379 L
2357 3325 mt 2407 3375 L
2407 3325 mt 2357 3375 L
2362 3325 mt 2412 3375 L
2412 3325 mt 2362 3375 L
2368 3321 mt 2418 3371 L
2418 3321 mt 2368 3371 L
2373 3317 mt 2423 3367 L
2423 3317 mt 2373 3367 L
2379 3313 mt 2429 3363 L
2429 3313 mt 2379 3363 L
2384 3308 mt 2434 3358 L
2434 3308 mt 2384 3358 L
2389 3304 mt 2439 3354 L
2439 3304 mt 2389 3354 L
2395 3300 mt 2445 3350 L
2445 3300 mt 2395 3350 L
2400 3296 mt 2450 3346 L
2450 3296 mt 2400 3346 L
2405 3292 mt 2455 3342 L
2455 3292 mt 2405 3342 L
2411 3287 mt 2461 3337 L
2461 3287 mt 2411 3337 L
2416 3283 mt 2466 3333 L
2466 3283 mt 2416 3333 L
2421 3279 mt 2471 3329 L
2471 3279 mt 2421 3329 L
2427 3275 mt 2477 3325 L
2477 3275 mt 2427 3325 L
2432 3271 mt 2482 3321 L
2482 3271 mt 2432 3321 L
2437 3267 mt 2487 3317 L
2487 3267 mt 2437 3317 L
2443 3262 mt 2493 3312 L
2493 3262 mt 2443 3312 L
2448 3258 mt 2498 3308 L
2498 3258 mt 2448 3308 L
2454 3254 mt 2504 3304 L
2504 3254 mt 2454 3304 L
2459 3250 mt 2509 3300 L
2509 3250 mt 2459 3300 L
2464 3246 mt 2514 3296 L
2514 3246 mt 2464 3296 L
2470 3241 mt 2520 3291 L
2520 3241 mt 2470 3291 L
2475 3237 mt 2525 3287 L
2525 3237 mt 2475 3287 L
2480 3233 mt 2530 3283 L
2530 3233 mt 2480 3283 L
2486 3229 mt 2536 3279 L
2536 3229 mt 2486 3279 L
2491 3225 mt 2541 3275 L
2541 3225 mt 2491 3275 L
2496 3221 mt 2546 3271 L
2546 3221 mt 2496 3271 L
2502 3220 mt 2552 3270 L
2552 3220 mt 2502 3270 L
2507 3216 mt 2557 3266 L
2557 3216 mt 2507 3266 L
2512 3212 mt 2562 3262 L
2562 3212 mt 2512 3262 L
2518 3208 mt 2568 3258 L
2568 3208 mt 2518 3258 L
2523 3204 mt 2573 3254 L
2573 3204 mt 2523 3254 L
2529 3199 mt 2579 3249 L
2579 3199 mt 2529 3249 L
2534 3195 mt 2584 3245 L
2584 3195 mt 2534 3245 L
2539 3191 mt 2589 3241 L
2589 3191 mt 2539 3241 L
2545 3187 mt 2595 3237 L
2595 3187 mt 2545 3237 L
2550 3183 mt 2600 3233 L
2600 3183 mt 2550 3233 L
2555 3178 mt 2605 3228 L
2605 3178 mt 2555 3228 L
2561 3174 mt 2611 3224 L
2611 3174 mt 2561 3224 L
2566 3170 mt 2616 3220 L
2616 3170 mt 2566 3220 L
2571 3166 mt 2621 3216 L
2621 3166 mt 2571 3216 L
2577 3162 mt 2627 3212 L
2627 3162 mt 2577 3212 L
2582 3158 mt 2632 3208 L
2632 3158 mt 2582 3208 L
2587 3153 mt 2637 3203 L
2637 3153 mt 2587 3203 L
2593 3149 mt 2643 3199 L
2643 3149 mt 2593 3199 L
2598 3145 mt 2648 3195 L
2648 3145 mt 2598 3195 L
2603 3141 mt 2653 3191 L
2653 3141 mt 2603 3191 L
2609 3137 mt 2659 3187 L
2659 3137 mt 2609 3187 L
2614 3132 mt 2664 3182 L
2664 3132 mt 2614 3182 L
2620 3128 mt 2670 3178 L
2670 3128 mt 2620 3178 L
2625 3124 mt 2675 3174 L
2675 3124 mt 2625 3174 L
2630 3120 mt 2680 3170 L
2680 3120 mt 2630 3170 L
2636 3116 mt 2686 3166 L
2686 3116 mt 2636 3166 L
2641 3115 mt 2691 3165 L
2691 3115 mt 2641 3165 L
2646 3111 mt 2696 3161 L
2696 3111 mt 2646 3161 L
2652 3107 mt 2702 3157 L
2702 3107 mt 2652 3157 L
2657 3103 mt 2707 3153 L
2707 3103 mt 2657 3153 L
2662 3099 mt 2712 3149 L
2712 3099 mt 2662 3149 L
2668 3094 mt 2718 3144 L
2718 3094 mt 2668 3144 L
2673 3090 mt 2723 3140 L
2723 3090 mt 2673 3140 L
2678 3086 mt 2728 3136 L
2728 3086 mt 2678 3136 L
2684 3082 mt 2734 3132 L
2734 3082 mt 2684 3132 L
2689 3078 mt 2739 3128 L
2739 3078 mt 2689 3128 L
2695 3073 mt 2745 3123 L
2745 3073 mt 2695 3123 L
2700 3069 mt 2750 3119 L
2750 3069 mt 2700 3119 L
2705 3065 mt 2755 3115 L
2755 3065 mt 2705 3115 L
2711 3061 mt 2761 3111 L
2761 3061 mt 2711 3111 L
2716 3057 mt 2766 3107 L
2766 3057 mt 2716 3107 L
2721 3053 mt 2771 3103 L
2771 3053 mt 2721 3103 L
2727 3048 mt 2777 3098 L
2777 3048 mt 2727 3098 L
2732 3044 mt 2782 3094 L
2782 3044 mt 2732 3094 L
2737 3040 mt 2787 3090 L
2787 3040 mt 2737 3090 L
2743 3036 mt 2793 3086 L
2793 3036 mt 2743 3086 L
2748 3032 mt 2798 3082 L
2798 3032 mt 2748 3082 L
2753 3027 mt 2803 3077 L
2803 3027 mt 2753 3077 L
2759 3023 mt 2809 3073 L
2809 3023 mt 2759 3073 L
2764 3019 mt 2814 3069 L
2814 3019 mt 2764 3069 L
2770 3015 mt 2820 3065 L
2820 3015 mt 2770 3065 L
2775 3011 mt 2825 3061 L
2825 3011 mt 2775 3061 L
2780 3010 mt 2830 3060 L
2830 3010 mt 2780 3060 L
2786 3006 mt 2836 3056 L
2836 3006 mt 2786 3056 L
2791 3002 mt 2841 3052 L
2841 3002 mt 2791 3052 L
2796 2998 mt 2846 3048 L
2846 2998 mt 2796 3048 L
2802 2994 mt 2852 3044 L
2852 2994 mt 2802 3044 L
2807 2989 mt 2857 3039 L
2857 2989 mt 2807 3039 L
2812 2985 mt 2862 3035 L
2862 2985 mt 2812 3035 L
2818 2981 mt 2868 3031 L
2868 2981 mt 2818 3031 L
2823 2977 mt 2873 3027 L
2873 2977 mt 2823 3027 L
2828 2973 mt 2878 3023 L
2878 2973 mt 2828 3023 L
2834 2968 mt 2884 3018 L
2884 2968 mt 2834 3018 L
2839 2964 mt 2889 3014 L
2889 2964 mt 2839 3014 L
2845 2960 mt 2895 3010 L
2895 2960 mt 2845 3010 L
2850 2956 mt 2900 3006 L
2900 2956 mt 2850 3006 L
2855 2952 mt 2905 3002 L
2905 2952 mt 2855 3002 L
2861 2947 mt 2911 2997 L
2911 2947 mt 2861 2997 L
2866 2943 mt 2916 2993 L
2916 2943 mt 2866 2993 L
2871 2939 mt 2921 2989 L
2921 2939 mt 2871 2989 L
2877 2935 mt 2927 2985 L
2927 2935 mt 2877 2985 L
2882 2931 mt 2932 2981 L
2932 2931 mt 2882 2981 L
2887 2927 mt 2937 2977 L
2937 2927 mt 2887 2977 L
2893 2922 mt 2943 2972 L
2943 2922 mt 2893 2972 L
2898 2918 mt 2948 2968 L
2948 2918 mt 2898 2968 L
2903 2914 mt 2953 2964 L
2953 2914 mt 2903 2964 L
2909 2910 mt 2959 2960 L
2959 2910 mt 2909 2960 L
2914 2906 mt 2964 2956 L
2964 2906 mt 2914 2956 L
2919 2905 mt 2969 2955 L
2969 2905 mt 2919 2955 L
2925 2901 mt 2975 2951 L
2975 2901 mt 2925 2951 L
2930 2897 mt 2980 2947 L
2980 2897 mt 2930 2947 L
2936 2893 mt 2986 2943 L
2986 2893 mt 2936 2943 L
2941 2888 mt 2991 2938 L
2991 2888 mt 2941 2938 L
2946 2884 mt 2996 2934 L
2996 2884 mt 2946 2934 L
2952 2880 mt 3002 2930 L
3002 2880 mt 2952 2930 L
2957 2876 mt 3007 2926 L
3007 2876 mt 2957 2926 L
2962 2872 mt 3012 2922 L
3012 2872 mt 2962 2922 L
2968 2867 mt 3018 2917 L
3018 2867 mt 2968 2917 L
2973 2863 mt 3023 2913 L
3023 2863 mt 2973 2913 L
2978 2859 mt 3028 2909 L
3028 2859 mt 2978 2909 L
2984 2855 mt 3034 2905 L
3034 2855 mt 2984 2905 L
2989 2851 mt 3039 2901 L
3039 2851 mt 2989 2901 L
2994 2846 mt 3044 2896 L
3044 2846 mt 2994 2896 L
3000 2842 mt 3050 2892 L
3050 2842 mt 3000 2892 L
3005 2838 mt 3055 2888 L
3055 2838 mt 3005 2888 L
3011 2834 mt 3061 2884 L
3061 2834 mt 3011 2884 L
3016 2830 mt 3066 2880 L
3066 2830 mt 3016 2880 L
3021 2826 mt 3071 2876 L
3071 2826 mt 3021 2876 L
3027 2821 mt 3077 2871 L
3077 2821 mt 3027 2871 L
3032 2817 mt 3082 2867 L
3082 2817 mt 3032 2867 L
3037 2813 mt 3087 2863 L
3087 2813 mt 3037 2863 L
3043 2809 mt 3093 2859 L
3093 2809 mt 3043 2859 L
3048 2805 mt 3098 2855 L
3098 2805 mt 3048 2855 L
3053 2800 mt 3103 2850 L
3103 2800 mt 3053 2850 L
3059 2796 mt 3109 2846 L
3109 2796 mt 3059 2846 L
3064 2792 mt 3114 2842 L
3114 2792 mt 3064 2842 L
3069 2788 mt 3119 2838 L
3119 2788 mt 3069 2838 L
3075 2784 mt 3125 2834 L
3125 2784 mt 3075 2834 L
3080 2779 mt 3130 2829 L
3130 2779 mt 3080 2829 L
3086 2775 mt 3136 2825 L
3136 2775 mt 3086 2825 L
3091 2771 mt 3141 2821 L
3141 2771 mt 3091 2821 L
3096 2767 mt 3146 2817 L
3146 2767 mt 3096 2817 L
3102 2763 mt 3152 2813 L
3152 2763 mt 3102 2813 L
3107 2759 mt 3157 2809 L
3157 2759 mt 3107 2809 L
3112 2754 mt 3162 2804 L
3162 2754 mt 3112 2804 L
3118 2750 mt 3168 2800 L
3168 2750 mt 3118 2800 L
3123 2746 mt 3173 2796 L
3173 2746 mt 3123 2796 L
3128 2742 mt 3178 2792 L
3178 2742 mt 3128 2792 L
3134 2738 mt 3184 2788 L
3184 2738 mt 3134 2788 L
3139 2733 mt 3189 2783 L
3189 2733 mt 3139 2783 L
3144 2729 mt 3194 2779 L
3194 2729 mt 3144 2779 L
3150 2725 mt 3200 2775 L
3200 2725 mt 3150 2775 L
3155 2721 mt 3205 2771 L
3205 2721 mt 3155 2771 L
3161 2717 mt 3211 2767 L
3211 2717 mt 3161 2767 L
3166 2712 mt 3216 2762 L
3216 2712 mt 3166 2762 L
3171 2708 mt 3221 2758 L
3221 2708 mt 3171 2758 L
3177 2704 mt 3227 2754 L
3227 2704 mt 3177 2754 L
3182 2700 mt 3232 2750 L
3232 2700 mt 3182 2750 L
3187 2696 mt 3237 2746 L
3237 2696 mt 3187 2746 L
3193 2691 mt 3243 2741 L
3243 2691 mt 3193 2741 L
3198 2687 mt 3248 2737 L
3248 2687 mt 3198 2737 L
3203 2683 mt 3253 2733 L
3253 2683 mt 3203 2733 L
3209 2679 mt 3259 2729 L
3259 2679 mt 3209 2729 L
3214 2675 mt 3264 2725 L
3264 2675 mt 3214 2725 L
3219 2671 mt 3269 2721 L
3269 2671 mt 3219 2721 L
3225 2666 mt 3275 2716 L
3275 2666 mt 3225 2716 L
3230 2662 mt 3280 2712 L
3280 2662 mt 3230 2712 L
3235 2658 mt 3285 2708 L
3285 2658 mt 3235 2708 L
3241 2654 mt 3291 2704 L
3291 2654 mt 3241 2704 L
3246 2650 mt 3296 2700 L
3296 2650 mt 3246 2700 L
3252 2645 mt 3302 2695 L
3302 2645 mt 3252 2695 L
3257 2641 mt 3307 2691 L
3307 2641 mt 3257 2691 L
3262 2637 mt 3312 2687 L
3312 2637 mt 3262 2687 L
3268 2633 mt 3318 2683 L
3318 2633 mt 3268 2683 L
3273 2629 mt 3323 2679 L
3323 2629 mt 3273 2679 L
3278 2624 mt 3328 2674 L
3328 2624 mt 3278 2674 L
3284 2620 mt 3334 2670 L
3334 2620 mt 3284 2670 L
3289 2616 mt 3339 2666 L
3339 2616 mt 3289 2666 L
3294 2612 mt 3344 2662 L
3344 2612 mt 3294 2662 L
3300 2608 mt 3350 2658 L
3350 2608 mt 3300 2658 L
3305 2604 mt 3355 2654 L
3355 2604 mt 3305 2654 L
3310 2599 mt 3360 2649 L
3360 2599 mt 3310 2649 L
3316 2595 mt 3366 2645 L
3366 2595 mt 3316 2645 L
3321 2591 mt 3371 2641 L
3371 2591 mt 3321 2641 L
3327 2587 mt 3377 2637 L
3377 2587 mt 3327 2637 L
3332 2583 mt 3382 2633 L
3382 2583 mt 3332 2633 L
3337 2578 mt 3387 2628 L
3387 2578 mt 3337 2628 L
3343 2574 mt 3393 2624 L
3393 2574 mt 3343 2624 L
3348 2570 mt 3398 2620 L
3398 2570 mt 3348 2620 L
3353 2566 mt 3403 2616 L
3403 2566 mt 3353 2616 L
3359 2562 mt 3409 2612 L
3409 2562 mt 3359 2612 L
3364 2557 mt 3414 2607 L
3414 2557 mt 3364 2607 L
3369 2553 mt 3419 2603 L
3419 2553 mt 3369 2603 L
3375 2549 mt 3425 2599 L
3425 2549 mt 3375 2599 L
3380 2545 mt 3430 2595 L
3430 2545 mt 3380 2595 L
3385 2541 mt 3435 2591 L
3435 2541 mt 3385 2591 L
3391 2536 mt 3441 2586 L
3441 2536 mt 3391 2586 L
3396 2532 mt 3446 2582 L
3446 2532 mt 3396 2582 L
3402 2528 mt 3452 2578 L
3452 2528 mt 3402 2578 L
3407 2524 mt 3457 2574 L
3457 2524 mt 3407 2574 L
3412 2520 mt 3462 2570 L
3462 2520 mt 3412 2570 L
3418 2516 mt 3468 2566 L
3468 2516 mt 3418 2566 L
3423 2511 mt 3473 2561 L
3473 2511 mt 3423 2561 L
3428 2507 mt 3478 2557 L
3478 2507 mt 3428 2557 L
3434 2503 mt 3484 2553 L
3484 2503 mt 3434 2553 L
3439 2499 mt 3489 2549 L
3489 2499 mt 3439 2549 L
3444 2495 mt 3494 2545 L
3494 2495 mt 3444 2545 L
3450 2490 mt 3500 2540 L
3500 2490 mt 3450 2540 L
3455 2486 mt 3505 2536 L
3505 2486 mt 3455 2536 L
3460 2482 mt 3510 2532 L
3510 2482 mt 3460 2532 L
3466 2478 mt 3516 2528 L
3516 2478 mt 3466 2528 L
3471 2474 mt 3521 2524 L
3521 2474 mt 3471 2524 L
3477 2469 mt 3527 2519 L
3527 2469 mt 3477 2519 L
3482 2465 mt 3532 2515 L
3532 2465 mt 3482 2515 L
3487 2461 mt 3537 2511 L
3537 2461 mt 3487 2511 L
3493 2457 mt 3543 2507 L
3543 2457 mt 3493 2507 L
3498 2453 mt 3548 2503 L
3548 2453 mt 3498 2503 L
3503 2449 mt 3553 2499 L
3553 2449 mt 3503 2499 L
3509 2444 mt 3559 2494 L
3559 2444 mt 3509 2494 L
3514 2440 mt 3564 2490 L
3564 2440 mt 3514 2490 L
3519 2436 mt 3569 2486 L
3569 2436 mt 3519 2486 L
3525 2432 mt 3575 2482 L
3575 2432 mt 3525 2482 L
3530 2428 mt 3580 2478 L
3580 2428 mt 3530 2478 L
3535 2423 mt 3585 2473 L
3585 2423 mt 3535 2473 L
3541 2419 mt 3591 2469 L
3591 2419 mt 3541 2469 L
3546 2415 mt 3596 2465 L
3596 2415 mt 3546 2465 L
3552 2411 mt 3602 2461 L
3602 2411 mt 3552 2461 L
3557 2407 mt 3607 2457 L
3607 2407 mt 3557 2457 L
3562 2402 mt 3612 2452 L
3612 2402 mt 3562 2452 L
3568 2398 mt 3618 2448 L
3618 2398 mt 3568 2448 L
3573 2394 mt 3623 2444 L
3623 2394 mt 3573 2444 L
3578 2390 mt 3628 2440 L
3628 2390 mt 3578 2440 L
3584 2386 mt 3634 2436 L
3634 2386 mt 3584 2436 L
3589 2381 mt 3639 2431 L
3639 2381 mt 3589 2431 L
3594 2377 mt 3644 2427 L
3644 2377 mt 3594 2427 L
3600 2373 mt 3650 2423 L
3650 2373 mt 3600 2423 L
3605 2369 mt 3655 2419 L
3655 2369 mt 3605 2419 L
3610 2365 mt 3660 2415 L
3660 2365 mt 3610 2415 L
3616 2361 mt 3666 2411 L
3666 2361 mt 3616 2411 L
3621 2356 mt 3671 2406 L
3671 2356 mt 3621 2406 L
3626 2352 mt 3676 2402 L
3676 2352 mt 3626 2402 L
3632 2348 mt 3682 2398 L
3682 2348 mt 3632 2398 L
3637 2344 mt 3687 2394 L
3687 2344 mt 3637 2394 L
3643 2340 mt 3693 2390 L
3693 2340 mt 3643 2390 L
3648 2335 mt 3698 2385 L
3698 2335 mt 3648 2385 L
3653 2331 mt 3703 2381 L
3703 2331 mt 3653 2381 L
3659 2327 mt 3709 2377 L
3709 2327 mt 3659 2377 L
3664 2323 mt 3714 2373 L
3714 2323 mt 3664 2373 L
3669 2319 mt 3719 2369 L
3719 2319 mt 3669 2369 L
3675 2314 mt 3725 2364 L
3725 2314 mt 3675 2364 L
3680 2310 mt 3730 2360 L
3730 2310 mt 3680 2360 L
3685 2306 mt 3735 2356 L
3735 2306 mt 3685 2356 L
3691 2302 mt 3741 2352 L
3741 2302 mt 3691 2352 L
3696 2298 mt 3746 2348 L
3746 2298 mt 3696 2348 L
3701 2294 mt 3751 2344 L
3751 2294 mt 3701 2344 L
3707 2289 mt 3757 2339 L
3757 2289 mt 3707 2339 L
3712 2285 mt 3762 2335 L
3762 2285 mt 3712 2335 L
3718 2281 mt 3768 2331 L
3768 2281 mt 3718 2331 L
3723 2277 mt 3773 2327 L
3773 2277 mt 3723 2327 L
3728 2273 mt 3778 2323 L
3778 2273 mt 3728 2323 L
3734 2268 mt 3784 2318 L
3784 2268 mt 3734 2318 L
3739 2279 mt 3789 2329 L
3789 2279 mt 3739 2329 L
3744 2275 mt 3794 2325 L
3794 2275 mt 3744 2325 L
3750 2270 mt 3800 2320 L
3800 2270 mt 3750 2320 L
3755 2266 mt 3805 2316 L
3805 2266 mt 3755 2316 L
3760 2262 mt 3810 2312 L
3810 2262 mt 3760 2312 L
3766 2258 mt 3816 2308 L
3816 2258 mt 3766 2308 L
3771 2254 mt 3821 2304 L
3821 2254 mt 3771 2304 L
3776 2250 mt 3826 2300 L
3826 2250 mt 3776 2300 L
3782 2246 mt 3832 2296 L
3832 2246 mt 3782 2296 L
3787 2241 mt 3837 2291 L
3837 2241 mt 3787 2291 L
3793 2237 mt 3843 2287 L
3843 2237 mt 3793 2287 L
3798 2233 mt 3848 2283 L
3848 2233 mt 3798 2283 L
3803 2229 mt 3853 2279 L
3853 2229 mt 3803 2279 L
3809 2225 mt 3859 2275 L
3859 2225 mt 3809 2275 L
3814 2221 mt 3864 2271 L
3864 2221 mt 3814 2271 L
3819 2216 mt 3869 2266 L
3869 2216 mt 3819 2266 L
3825 2212 mt 3875 2262 L
3875 2212 mt 3825 2262 L
3830 2208 mt 3880 2258 L
3880 2208 mt 3830 2258 L
3835 2204 mt 3885 2254 L
3885 2204 mt 3835 2254 L
3841 2200 mt 3891 2250 L
3891 2200 mt 3841 2250 L
3846 2196 mt 3896 2246 L
3896 2196 mt 3846 2246 L
3851 2192 mt 3901 2242 L
3901 2192 mt 3851 2242 L
3857 2187 mt 3907 2237 L
3907 2187 mt 3857 2237 L
3862 2183 mt 3912 2233 L
3912 2183 mt 3862 2233 L
3868 2179 mt 3918 2229 L
3918 2179 mt 3868 2229 L
3873 2175 mt 3923 2225 L
3923 2175 mt 3873 2225 L
3878 2178 mt 3928 2228 L
3928 2178 mt 3878 2228 L
3884 2173 mt 3934 2223 L
3934 2173 mt 3884 2223 L
3889 2169 mt 3939 2219 L
3939 2169 mt 3889 2219 L
3894 2165 mt 3944 2215 L
3944 2165 mt 3894 2215 L
3900 2161 mt 3950 2211 L
3950 2161 mt 3900 2211 L
3905 2157 mt 3955 2207 L
3955 2157 mt 3905 2207 L
3910 2153 mt 3960 2203 L
3960 2153 mt 3910 2203 L
3916 2149 mt 3966 2199 L
3966 2149 mt 3916 2199 L
3921 2145 mt 3971 2195 L
3971 2145 mt 3921 2195 L
3926 2140 mt 3976 2190 L
3976 2140 mt 3926 2190 L
3932 2136 mt 3982 2186 L
3982 2136 mt 3932 2186 L
3937 2132 mt 3987 2182 L
3987 2132 mt 3937 2182 L
3942 2128 mt 3992 2178 L
3992 2128 mt 3942 2178 L
3948 2124 mt 3998 2174 L
3998 2124 mt 3948 2174 L
3953 2120 mt 4003 2170 L
4003 2120 mt 3953 2170 L
3959 2116 mt 4009 2166 L
4009 2116 mt 3959 2166 L
3964 2111 mt 4014 2161 L
4014 2111 mt 3964 2161 L
3969 2107 mt 4019 2157 L
4019 2107 mt 3969 2157 L
3975 2103 mt 4025 2153 L
4025 2103 mt 3975 2153 L
3980 2099 mt 4030 2149 L
4030 2099 mt 3980 2149 L
3985 2095 mt 4035 2145 L
4035 2095 mt 3985 2145 L
3991 2091 mt 4041 2141 L
4041 2091 mt 3991 2141 L
3996 2087 mt 4046 2137 L
4046 2087 mt 3996 2137 L
4001 2082 mt 4051 2132 L
4051 2082 mt 4001 2132 L
4007 2078 mt 4057 2128 L
4057 2078 mt 4007 2128 L
4012 2074 mt 4062 2124 L
4062 2074 mt 4012 2124 L
4017 2075 mt 4067 2125 L
4067 2075 mt 4017 2125 L
4023 2071 mt 4073 2121 L
4073 2071 mt 4023 2121 L
4028 2067 mt 4078 2117 L
4078 2067 mt 4028 2117 L
4034 2063 mt 4084 2113 L
4084 2063 mt 4034 2113 L
4039 2058 mt 4089 2108 L
4089 2058 mt 4039 2108 L
4044 2054 mt 4094 2104 L
4094 2054 mt 4044 2104 L
4050 2050 mt 4100 2100 L
4100 2050 mt 4050 2100 L
4055 2046 mt 4105 2096 L
4105 2046 mt 4055 2096 L
4060 2042 mt 4110 2092 L
4110 2042 mt 4060 2092 L
4066 2038 mt 4116 2088 L
4116 2038 mt 4066 2088 L
4071 2034 mt 4121 2084 L
4121 2034 mt 4071 2084 L
4076 2029 mt 4126 2079 L
4126 2029 mt 4076 2079 L
4082 2025 mt 4132 2075 L
4132 2025 mt 4082 2075 L
4087 2021 mt 4137 2071 L
4137 2021 mt 4087 2071 L
4092 2017 mt 4142 2067 L
4142 2017 mt 4092 2067 L
4098 2013 mt 4148 2063 L
4148 2013 mt 4098 2063 L
4103 2009 mt 4153 2059 L
4153 2009 mt 4103 2059 L
4109 2005 mt 4159 2055 L
4159 2005 mt 4109 2055 L
4114 2001 mt 4164 2051 L
4164 2001 mt 4114 2051 L
4119 1996 mt 4169 2046 L
4169 1996 mt 4119 2046 L
4125 1992 mt 4175 2042 L
4175 1992 mt 4125 2042 L
4130 1988 mt 4180 2038 L
4180 1988 mt 4130 2038 L
4135 1984 mt 4185 2034 L
4185 1984 mt 4135 2034 L
4141 1980 mt 4191 2030 L
4191 1980 mt 4141 2030 L
4146 1976 mt 4196 2026 L
4196 1976 mt 4146 2026 L
4151 1972 mt 4201 2022 L
4201 1972 mt 4151 2022 L
4157 1967 mt 4207 2017 L
4207 1967 mt 4157 2017 L
4162 1963 mt 4212 2013 L
4212 1963 mt 4162 2013 L
4167 1959 mt 4217 2009 L
4217 1959 mt 4167 2009 L
4173 1955 mt 4223 2005 L
4223 1955 mt 4173 2005 L
4178 1951 mt 4228 2001 L
4228 1951 mt 4178 2001 L
4184 1947 mt 4234 1997 L
4234 1947 mt 4184 1997 L
4189 1943 mt 4239 1993 L
4239 1943 mt 4189 1993 L
4194 1938 mt 4244 1988 L
4244 1938 mt 4194 1988 L
4200 1934 mt 4250 1984 L
4250 1934 mt 4200 1984 L
4205 1930 mt 4255 1980 L
4255 1930 mt 4205 1980 L
4210 1926 mt 4260 1976 L
4260 1926 mt 4210 1976 L
4216 1922 mt 4266 1972 L
4266 1922 mt 4216 1972 L
4221 1918 mt 4271 1968 L
4271 1918 mt 4221 1968 L
4226 1914 mt 4276 1964 L
4276 1914 mt 4226 1964 L
4232 1910 mt 4282 1960 L
4282 1910 mt 4232 1960 L
4237 1905 mt 4287 1955 L
4287 1905 mt 4237 1955 L
4242 1901 mt 4292 1951 L
4292 1901 mt 4242 1951 L
4248 1897 mt 4298 1947 L
4298 1897 mt 4248 1947 L
4253 1893 mt 4303 1943 L
4303 1893 mt 4253 1943 L
4258 1889 mt 4308 1939 L
4308 1889 mt 4258 1939 L
4264 1885 mt 4314 1935 L
4314 1885 mt 4264 1935 L
4269 1881 mt 4319 1931 L
4319 1881 mt 4269 1931 L
4275 1876 mt 4325 1926 L
4325 1876 mt 4275 1926 L
4280 1872 mt 4330 1922 L
4330 1872 mt 4280 1922 L
4285 1868 mt 4335 1918 L
4335 1868 mt 4285 1918 L
4291 1864 mt 4341 1914 L
4341 1864 mt 4291 1914 L
4296 1860 mt 4346 1910 L
4346 1860 mt 4296 1910 L
4301 1856 mt 4351 1906 L
4351 1856 mt 4301 1906 L
4307 1852 mt 4357 1902 L
4357 1852 mt 4307 1902 L
4312 1848 mt 4362 1898 L
4362 1848 mt 4312 1898 L
4317 1843 mt 4367 1893 L
4367 1843 mt 4317 1893 L
4323 1839 mt 4373 1889 L
4373 1839 mt 4323 1889 L
4328 1835 mt 4378 1885 L
4378 1835 mt 4328 1885 L
4333 1831 mt 4383 1881 L
4383 1831 mt 4333 1881 L
4339 1827 mt 4389 1877 L
4389 1827 mt 4339 1877 L
4344 1823 mt 4394 1873 L
4394 1823 mt 4344 1873 L
4350 1819 mt 4400 1869 L
4400 1819 mt 4350 1869 L
4355 1814 mt 4405 1864 L
4405 1814 mt 4355 1864 L
4360 1810 mt 4410 1860 L
4410 1810 mt 4360 1860 L
4366 1806 mt 4416 1856 L
4416 1806 mt 4366 1856 L
4371 1802 mt 4421 1852 L
4421 1802 mt 4371 1852 L
4376 1798 mt 4426 1848 L
4426 1798 mt 4376 1848 L
4382 1794 mt 4432 1844 L
4432 1794 mt 4382 1844 L
4387 1790 mt 4437 1840 L
4437 1790 mt 4387 1840 L
4392 1785 mt 4442 1835 L
4442 1785 mt 4392 1835 L
4398 1781 mt 4448 1831 L
4448 1781 mt 4398 1831 L
4403 1777 mt 4453 1827 L
4453 1777 mt 4403 1827 L
4408 1773 mt 4458 1823 L
4458 1773 mt 4408 1823 L
4414 1769 mt 4464 1819 L
4464 1769 mt 4414 1819 L
4419 1765 mt 4469 1815 L
4469 1765 mt 4419 1815 L
4425 1761 mt 4475 1811 L
4475 1761 mt 4425 1811 L
4430 1757 mt 4480 1807 L
4480 1757 mt 4430 1807 L
4435 1752 mt 4485 1802 L
4485 1752 mt 4435 1802 L
4441 1748 mt 4491 1798 L
4491 1748 mt 4441 1798 L
4446 1744 mt 4496 1794 L
4496 1744 mt 4446 1794 L
4451 1740 mt 4501 1790 L
4501 1740 mt 4451 1790 L
4457 1736 mt 4507 1786 L
4507 1736 mt 4457 1786 L
4462 1732 mt 4512 1782 L
4512 1732 mt 4462 1782 L
4467 1728 mt 4517 1778 L
4517 1728 mt 4467 1778 L
4473 1723 mt 4523 1773 L
4523 1723 mt 4473 1773 L
4478 1719 mt 4528 1769 L
4528 1719 mt 4478 1769 L
4483 1715 mt 4533 1765 L
4533 1715 mt 4483 1765 L
4489 1711 mt 4539 1761 L
4539 1711 mt 4489 1761 L
4494 1707 mt 4544 1757 L
4544 1707 mt 4494 1757 L
4500 1703 mt 4550 1753 L
4550 1703 mt 4500 1753 L
4505 1699 mt 4555 1749 L
4555 1699 mt 4505 1749 L
4510 1695 mt 4560 1745 L
4560 1695 mt 4510 1745 L
4516 1690 mt 4566 1740 L
4566 1690 mt 4516 1740 L
4521 1686 mt 4571 1736 L
4571 1686 mt 4521 1736 L
4526 1682 mt 4576 1732 L
4576 1682 mt 4526 1732 L
4532 1678 mt 4582 1728 L
4582 1678 mt 4532 1728 L
4537 1674 mt 4587 1724 L
4587 1674 mt 4537 1724 L
4542 1670 mt 4592 1720 L
4592 1670 mt 4542 1720 L
4548 1666 mt 4598 1716 L
4598 1666 mt 4548 1716 L
4553 1661 mt 4603 1711 L
4603 1661 mt 4553 1711 L
4558 1657 mt 4608 1707 L
4608 1657 mt 4558 1707 L
4564 1653 mt 4614 1703 L
4614 1653 mt 4564 1703 L
4569 1649 mt 4619 1699 L
4619 1649 mt 4569 1699 L
4574 1645 mt 4624 1695 L
4624 1645 mt 4574 1695 L
4580 1641 mt 4630 1691 L
4630 1641 mt 4580 1691 L
4585 1637 mt 4635 1687 L
4635 1637 mt 4585 1687 L
4591 1632 mt 4641 1682 L
4641 1632 mt 4591 1682 L
4596 1628 mt 4646 1678 L
4646 1628 mt 4596 1678 L
4601 1624 mt 4651 1674 L
4651 1624 mt 4601 1674 L
4607 1620 mt 4657 1670 L
4657 1620 mt 4607 1670 L
4612 1616 mt 4662 1666 L
4662 1616 mt 4612 1666 L
4617 1612 mt 4667 1662 L
4667 1612 mt 4617 1662 L
4623 1608 mt 4673 1658 L
4673 1608 mt 4623 1658 L
4628 1604 mt 4678 1654 L
4678 1604 mt 4628 1654 L
4633 1599 mt 4683 1649 L
4683 1599 mt 4633 1649 L
4639 1595 mt 4689 1645 L
4689 1595 mt 4639 1645 L
4644 1591 mt 4694 1641 L
4694 1591 mt 4644 1641 L
4649 1587 mt 4699 1637 L
4699 1587 mt 4649 1637 L
4655 1583 mt 4705 1633 L
4705 1583 mt 4655 1633 L
4660 1579 mt 4710 1629 L
4710 1579 mt 4660 1629 L
4666 1575 mt 4716 1625 L
4716 1575 mt 4666 1625 L
4671 1570 mt 4721 1620 L
4721 1570 mt 4671 1620 L
4676 1566 mt 4726 1616 L
4726 1566 mt 4676 1616 L
4682 1562 mt 4732 1612 L
4732 1562 mt 4682 1612 L
4687 1558 mt 4737 1608 L
4737 1558 mt 4687 1608 L
4692 1554 mt 4742 1604 L
4742 1554 mt 4692 1604 L
4698 1550 mt 4748 1600 L
4748 1550 mt 4698 1600 L
4703 1546 mt 4753 1596 L
4753 1546 mt 4703 1596 L
4708 1542 mt 4758 1592 L
4758 1542 mt 4708 1592 L
4714 1537 mt 4764 1587 L
4764 1537 mt 4714 1587 L
4719 1533 mt 4769 1583 L
4769 1533 mt 4719 1583 L
4724 1529 mt 4774 1579 L
4774 1529 mt 4724 1579 L
4730 1525 mt 4780 1575 L
4780 1525 mt 4730 1575 L
4735 1521 mt 4785 1571 L
4785 1521 mt 4735 1571 L
4741 1517 mt 4791 1567 L
4791 1517 mt 4741 1567 L
4746 1513 mt 4796 1563 L
4796 1513 mt 4746 1563 L
4751 1508 mt 4801 1558 L
4801 1508 mt 4751 1558 L
4757 1504 mt 4807 1554 L
4807 1504 mt 4757 1554 L
4762 1500 mt 4812 1550 L
4812 1500 mt 4762 1550 L
4767 1496 mt 4817 1546 L
4817 1496 mt 4767 1546 L
4773 1492 mt 4823 1542 L
4823 1492 mt 4773 1542 L
4778 1488 mt 4828 1538 L
4828 1488 mt 4778 1538 L
4783 1484 mt 4833 1534 L
4833 1484 mt 4783 1534 L
4789 1479 mt 4839 1529 L
4839 1479 mt 4789 1529 L
4794 1475 mt 4844 1525 L
4844 1475 mt 4794 1525 L
4799 1471 mt 4849 1521 L
4849 1471 mt 4799 1521 L
4805 1467 mt 4855 1517 L
4855 1467 mt 4805 1517 L
4810 1463 mt 4860 1513 L
4860 1463 mt 4810 1513 L
4816 1459 mt 4866 1509 L
4866 1459 mt 4816 1509 L
4821 1455 mt 4871 1505 L
4871 1455 mt 4821 1505 L
4826 1451 mt 4876 1501 L
4876 1451 mt 4826 1501 L
4832 1446 mt 4882 1496 L
4882 1446 mt 4832 1496 L
4837 1442 mt 4887 1492 L
4887 1442 mt 4837 1492 L
4842 1438 mt 4892 1488 L
4892 1438 mt 4842 1488 L
4848 1434 mt 4898 1484 L
4898 1434 mt 4848 1484 L
4853 1430 mt 4903 1480 L
4903 1430 mt 4853 1480 L
4858 1426 mt 4908 1476 L
4908 1426 mt 4858 1476 L
4864 1422 mt 4914 1472 L
4914 1422 mt 4864 1472 L
4869 1417 mt 4919 1467 L
4919 1417 mt 4869 1467 L
4874 1413 mt 4924 1463 L
4924 1413 mt 4874 1463 L
4880 1409 mt 4930 1459 L
4930 1409 mt 4880 1459 L
4885 1405 mt 4935 1455 L
4935 1405 mt 4885 1455 L
4891 1401 mt 4941 1451 L
4941 1401 mt 4891 1451 L
4896 1397 mt 4946 1447 L
4946 1397 mt 4896 1447 L
4901 1393 mt 4951 1443 L
4951 1393 mt 4901 1443 L
4907 1389 mt 4957 1439 L
4957 1389 mt 4907 1439 L
4912 1384 mt 4962 1434 L
4962 1384 mt 4912 1434 L
4917 1380 mt 4967 1430 L
4967 1380 mt 4917 1430 L
4923 1376 mt 4973 1426 L
4973 1376 mt 4923 1426 L
4928 1372 mt 4978 1422 L
4978 1372 mt 4928 1422 L
4933 1368 mt 4983 1418 L
4983 1368 mt 4933 1418 L
4939 1364 mt 4989 1414 L
4989 1364 mt 4939 1414 L
4944 1360 mt 4994 1410 L
4994 1360 mt 4944 1410 L
4949 1355 mt 4999 1405 L
4999 1355 mt 4949 1405 L
4955 1351 mt 5005 1401 L
5005 1351 mt 4955 1401 L
4960 1347 mt 5010 1397 L
5010 1347 mt 4960 1397 L
4965 1343 mt 5015 1393 L
5015 1343 mt 4965 1393 L
4971 1339 mt 5021 1389 L
5021 1339 mt 4971 1389 L
4976 1335 mt 5026 1385 L
5026 1335 mt 4976 1385 L
4982 1331 mt 5032 1381 L
5032 1331 mt 4982 1381 L
4987 1326 mt 5037 1376 L
5037 1326 mt 4987 1376 L
4992 1322 mt 5042 1372 L
5042 1322 mt 4992 1372 L
4998 1318 mt 5048 1368 L
5048 1318 mt 4998 1368 L
5003 1314 mt 5053 1364 L
5053 1314 mt 5003 1364 L
5008 1310 mt 5058 1360 L
5058 1310 mt 5008 1360 L
5014 1306 mt 5064 1356 L
5064 1306 mt 5014 1356 L
5019 1302 mt 5069 1352 L
5069 1302 mt 5019 1352 L
5024 1298 mt 5074 1348 L
5074 1298 mt 5024 1348 L
5030 1293 mt 5080 1343 L
5080 1293 mt 5030 1343 L
5035 1289 mt 5085 1339 L
5085 1289 mt 5035 1339 L
5040 1285 mt 5090 1335 L
5090 1285 mt 5040 1335 L
5046 1281 mt 5096 1331 L
5096 1281 mt 5046 1331 L
5051 1277 mt 5101 1327 L
5101 1277 mt 5051 1327 L
5057 1273 mt 5107 1323 L
5107 1273 mt 5057 1323 L
5062 1269 mt 5112 1319 L
5112 1269 mt 5062 1319 L
5067 1264 mt 5117 1314 L
5117 1264 mt 5067 1314 L
5073 1260 mt 5123 1310 L
5123 1260 mt 5073 1310 L
5078 1256 mt 5128 1306 L
5128 1256 mt 5078 1306 L
5083 1252 mt 5133 1302 L
5133 1252 mt 5083 1302 L
5089 1248 mt 5139 1298 L
5139 1248 mt 5089 1298 L
5094 1244 mt 5144 1294 L
5144 1244 mt 5094 1294 L
5099 1240 mt 5149 1290 L
5149 1240 mt 5099 1290 L
5105 1236 mt 5155 1286 L
5155 1236 mt 5105 1286 L
5110 1231 mt 5160 1281 L
5160 1231 mt 5110 1281 L
5115 1227 mt 5165 1277 L
5165 1227 mt 5115 1277 L
5121 1223 mt 5171 1273 L
5171 1223 mt 5121 1273 L
5126 1219 mt 5176 1269 L
5176 1219 mt 5126 1269 L
5132 1215 mt 5182 1265 L
5182 1215 mt 5132 1265 L
5137 1211 mt 5187 1261 L
5187 1211 mt 5137 1261 L
5142 1207 mt 5192 1257 L
5192 1207 mt 5142 1257 L
5148 1202 mt 5198 1252 L
5198 1202 mt 5148 1252 L
5153 1198 mt 5203 1248 L
5203 1198 mt 5153 1248 L
5158 1194 mt 5208 1244 L
5208 1194 mt 5158 1244 L
5164 1190 mt 5214 1240 L
5214 1190 mt 5164 1240 L
5169 1186 mt 5219 1236 L
5219 1186 mt 5169 1236 L
5174 1182 mt 5224 1232 L
5224 1182 mt 5174 1232 L
5180 1178 mt 5230 1228 L
5230 1178 mt 5180 1228 L
5185 1173 mt 5235 1223 L
5235 1173 mt 5185 1223 L
5190 1169 mt 5240 1219 L
5240 1169 mt 5190 1219 L
5196 1165 mt 5246 1215 L
5246 1165 mt 5196 1215 L
5201 1161 mt 5251 1211 L
5251 1161 mt 5201 1211 L
5207 1157 mt 5257 1207 L
5257 1157 mt 5207 1207 L
5212 1153 mt 5262 1203 L
5262 1153 mt 5212 1203 L
5217 1149 mt 5267 1199 L
5267 1149 mt 5217 1199 L
5223 1145 mt 5273 1195 L
5273 1145 mt 5223 1195 L
5228 1140 mt 5278 1190 L
5278 1140 mt 5228 1190 L
5233 1136 mt 5283 1186 L
5283 1136 mt 5233 1186 L
5239 1132 mt 5289 1182 L
5289 1132 mt 5239 1182 L
5244 1128 mt 5294 1178 L
5294 1128 mt 5244 1178 L
5249 1124 mt 5299 1174 L
5299 1124 mt 5249 1174 L
5255 1120 mt 5305 1170 L
5305 1120 mt 5255 1170 L
5260 1116 mt 5310 1166 L
5310 1116 mt 5260 1166 L
5265 1111 mt 5315 1161 L
5315 1111 mt 5265 1161 L
5271 1107 mt 5321 1157 L
5321 1107 mt 5271 1157 L
5276 1103 mt 5326 1153 L
5326 1103 mt 5276 1153 L
5281 1099 mt 5331 1149 L
5331 1099 mt 5281 1149 L
5287 1095 mt 5337 1145 L
5337 1095 mt 5287 1145 L
5292 1091 mt 5342 1141 L
5342 1091 mt 5292 1141 L
5298 1087 mt 5348 1137 L
5348 1087 mt 5298 1137 L
5303 1083 mt 5353 1133 L
5353 1083 mt 5303 1133 L
5308 1078 mt 5358 1128 L
5358 1078 mt 5308 1128 L
5314 1074 mt 5364 1124 L
5364 1074 mt 5314 1124 L
5319 1070 mt 5369 1120 L
5369 1070 mt 5319 1120 L
5324 1066 mt 5374 1116 L
5374 1066 mt 5324 1116 L
5330 1062 mt 5380 1112 L
5380 1062 mt 5330 1112 L
5335 1058 mt 5385 1108 L
5385 1058 mt 5335 1108 L
5340 1054 mt 5390 1104 L
5390 1054 mt 5340 1104 L
5346 1049 mt 5396 1099 L
5396 1049 mt 5346 1099 L
5351 1045 mt 5401 1095 L
5401 1045 mt 5351 1095 L
5356 1041 mt 5406 1091 L
5406 1041 mt 5356 1091 L
5362 1037 mt 5412 1087 L
5412 1037 mt 5362 1087 L
5367 1033 mt 5417 1083 L
5417 1033 mt 5367 1083 L
5373 1029 mt 5423 1079 L
5423 1029 mt 5373 1079 L
5378 1025 mt 5428 1075 L
5428 1025 mt 5378 1075 L
5383 1020 mt 5433 1070 L
5433 1020 mt 5383 1070 L
5389 1016 mt 5439 1066 L
5439 1016 mt 5389 1066 L
5394 1012 mt 5444 1062 L
5444 1012 mt 5394 1062 L
5399 1008 mt 5449 1058 L
5449 1008 mt 5399 1058 L
5405 1004 mt 5455 1054 L
5455 1004 mt 5405 1054 L
5410 1000 mt 5460 1050 L
5460 1000 mt 5410 1050 L
5415  996 mt 5465 1046 L
5465  996 mt 5415 1046 L
5421  992 mt 5471 1042 L
5471  992 mt 5421 1042 L
5426  987 mt 5476 1037 L
5476  987 mt 5426 1037 L
5431  983 mt 5481 1033 L
5481  983 mt 5431 1033 L
5437  979 mt 5487 1029 L
5487  979 mt 5437 1029 L
5442  975 mt 5492 1025 L
5492  975 mt 5442 1025 L
5448  971 mt 5498 1021 L
5498  971 mt 5448 1021 L
5453  967 mt 5503 1017 L
5503  967 mt 5453 1017 L
5458  963 mt 5508 1013 L
5508  963 mt 5458 1013 L
5464  958 mt 5514 1008 L
5514  958 mt 5464 1008 L
5469  954 mt 5519 1004 L
5519  954 mt 5469 1004 L
5474  950 mt 5524 1000 L
5524  950 mt 5474 1000 L
5480  946 mt 5530  996 L
5530  946 mt 5480  996 L
5485  942 mt 5535  992 L
5535  942 mt 5485  992 L
5490  938 mt 5540  988 L
5540  938 mt 5490  988 L
5496  934 mt 5546  984 L
5546  934 mt 5496  984 L
5501  929 mt 5551  979 L
5551  929 mt 5501  979 L
5506  925 mt 5556  975 L
5556  925 mt 5506  975 L
5512  921 mt 5562  971 L
5562  921 mt 5512  971 L
5517  945 mt 5567  995 L
5567  945 mt 5517  995 L
5523  941 mt 5573  991 L
5573  941 mt 5523  991 L
5528  937 mt 5578  987 L
5578  937 mt 5528  987 L
5533  933 mt 5583  983 L
5583  933 mt 5533  983 L
5539  929 mt 5589  979 L
5589  929 mt 5539  979 L
5544  925 mt 5594  975 L
5594  925 mt 5544  975 L
5549  921 mt 5599  971 L
5599  921 mt 5549  971 L
5555  917 mt 5605  967 L
5605  917 mt 5555  967 L
5560  912 mt 5610  962 L
5610  912 mt 5560  962 L
5565  908 mt 5615  958 L
5615  908 mt 5565  958 L
5571  904 mt 5621  954 L
5621  904 mt 5571  954 L
5576  900 mt 5626  950 L
5626  900 mt 5576  950 L
5581  896 mt 5631  946 L
5631  896 mt 5581  946 L
5587  892 mt 5637  942 L
5637  892 mt 5587  942 L
5592  888 mt 5642  938 L
5642  888 mt 5592  938 L
5597  884 mt 5647  934 L
5647  884 mt 5597  934 L
5603  880 mt 5653  930 L
5653  880 mt 5603  930 L
5608  876 mt 5658  926 L
5658  876 mt 5608  926 L
5614  872 mt 5664  922 L
5664  872 mt 5614  922 L
5619  868 mt 5669  918 L
5669  868 mt 5619  918 L
5624  864 mt 5674  914 L
5674  864 mt 5624  914 L
5630  860 mt 5680  910 L
5680  860 mt 5630  910 L
5635  856 mt 5685  906 L
5685  856 mt 5635  906 L
5640  852 mt 5690  902 L
5690  852 mt 5640  902 L
5646  847 mt 5696  897 L
5696  847 mt 5646  897 L
5651  843 mt 5701  893 L
5701  843 mt 5651  893 L
5656  845 mt 5706  895 L
5706  845 mt 5656  895 L
5662  841 mt 5712  891 L
5712  841 mt 5662  891 L
5667  837 mt 5717  887 L
5717  837 mt 5667  887 L
5672  833 mt 5722  883 L
5722  833 mt 5672  883 L
5678  829 mt 5728  879 L
5728  829 mt 5678  879 L
5683  825 mt 5733  875 L
5733  825 mt 5683  875 L
5689  821 mt 5739  871 L
5739  821 mt 5689  871 L
5694  817 mt 5744  867 L
5744  817 mt 5694  867 L
5699  813 mt 5749  863 L
5749  813 mt 5699  863 L
5705  809 mt 5755  859 L
5755  809 mt 5705  859 L
5710  805 mt 5760  855 L
5760  805 mt 5710  855 L
5715  801 mt 5765  851 L
5765  801 mt 5715  851 L
5721  797 mt 5771  847 L
5771  797 mt 5721  847 L
5726  793 mt 5776  843 L
5776  793 mt 5726  843 L
5731  788 mt 5781  838 L
5781  788 mt 5731  838 L
5737  784 mt 5787  834 L
5787  784 mt 5737  834 L
5742  780 mt 5792  830 L
5792  780 mt 5742  830 L
5747  776 mt 5797  826 L
5797  776 mt 5747  826 L
5753  772 mt 5803  822 L
5803  772 mt 5753  822 L
5758  768 mt 5808  818 L
5808  768 mt 5758  818 L
5764  764 mt 5814  814 L
5814  764 mt 5764  814 L
5769  760 mt 5819  810 L
5819  760 mt 5769  810 L
5774  756 mt 5824  806 L
5824  756 mt 5774  806 L
5780  752 mt 5830  802 L
5830  752 mt 5780  802 L
5785  748 mt 5835  798 L
5835  748 mt 5785  798 L
5790  744 mt 5840  794 L
5840  744 mt 5790  794 L
5796  744 mt 5846  794 L
5846  744 mt 5796  794 L
5801  740 mt 5851  790 L
5851  740 mt 5801  790 L
5806  736 mt 5856  786 L
5856  736 mt 5806  786 L
5812  731 mt 5862  781 L
5862  731 mt 5812  781 L
5817  727 mt 5867  777 L
5867  727 mt 5817  777 L
5822  723 mt 5872  773 L
5872  723 mt 5822  773 L
5828  719 mt 5878  769 L
5878  719 mt 5828  769 L
5833  715 mt 5883  765 L
5883  715 mt 5833  765 L
5839  711 mt 5889  761 L
5889  711 mt 5839  761 L
5844  707 mt 5894  757 L
5894  707 mt 5844  757 L
5849  703 mt 5899  753 L
5899  703 mt 5849  753 L
5855  699 mt 5905  749 L
5905  699 mt 5855  749 L
5860  695 mt 5910  745 L
5910  695 mt 5860  745 L
5865  691 mt 5915  741 L
5915  691 mt 5865  741 L
5871  687 mt 5921  737 L
5921  687 mt 5871  737 L
5876  683 mt 5926  733 L
5926  683 mt 5876  733 L
5881  679 mt 5931  729 L
5931  679 mt 5881  729 L
5887  675 mt 5937  725 L
5937  675 mt 5887  725 L
5892  671 mt 5942  721 L
5942  671 mt 5892  721 L
5897  666 mt 5947  716 L
5947  666 mt 5897  716 L
5903  662 mt 5953  712 L
5953  662 mt 5903  712 L
5908  658 mt 5958  708 L
5958  658 mt 5908  708 L
5913  654 mt 5963  704 L
5963  654 mt 5913  704 L
5919  650 mt 5969  700 L
5969  650 mt 5919  700 L
5924  646 mt 5974  696 L
5974  646 mt 5924  696 L
5930  642 mt 5980  692 L
5980  642 mt 5930  692 L
5935  641 mt 5985  691 L
5985  641 mt 5935  691 L
5940  637 mt 5990  687 L
5990  637 mt 5940  687 L
5946  633 mt 5996  683 L
5996  633 mt 5946  683 L
5951  629 mt 6001  679 L
6001  629 mt 5951  679 L
5956  625 mt 6006  675 L
6006  625 mt 5956  675 L
5962  621 mt 6012  671 L
6012  621 mt 5962  671 L
5967  617 mt 6017  667 L
6017  617 mt 5967  667 L
5972  613 mt 6022  663 L
6022  613 mt 5972  663 L
5978  609 mt 6028  659 L
6028  609 mt 5978  659 L
5983  605 mt 6033  655 L
6033  605 mt 5983  655 L
5988  601 mt 6038  651 L
6038  601 mt 5988  651 L
5994  597 mt 6044  647 L
6044  597 mt 5994  647 L
5999  592 mt 6049  642 L
6049  592 mt 5999  642 L
6005  588 mt 6055  638 L
6055  588 mt 6005  638 L
6010  584 mt 6060  634 L
6060  584 mt 6010  634 L
6015  580 mt 6065  630 L
6065  580 mt 6015  630 L
6021  576 mt 6071  626 L
6071  576 mt 6021  626 L
6026  572 mt 6076  622 L
6076  572 mt 6026  622 L
6031  568 mt 6081  618 L
6081  568 mt 6031  618 L
6037  564 mt 6087  614 L
6087  564 mt 6037  614 L
6042  560 mt 6092  610 L
6092  560 mt 6042  610 L
6047  556 mt 6097  606 L
6097  556 mt 6047  606 L
6053  552 mt 6103  602 L
6103  552 mt 6053  602 L
6058  548 mt 6108  598 L
6108  548 mt 6058  598 L
6063  544 mt 6113  594 L
6113  544 mt 6063  594 L
6069  540 mt 6119  590 L
6119  540 mt 6069  590 L
6074  538 mt 6124  588 L
6124  538 mt 6074  588 L
6080  534 mt 6130  584 L
6130  534 mt 6080  584 L
6085  530 mt 6135  580 L
6135  530 mt 6085  580 L
6090  526 mt 6140  576 L
6140  526 mt 6090  576 L
6096  522 mt 6146  572 L
6146  522 mt 6096  572 L
6101  518 mt 6151  568 L
6151  518 mt 6101  568 L
6106  514 mt 6156  564 L
6156  514 mt 6106  564 L
6112  510 mt 6162  560 L
6162  510 mt 6112  560 L
6117  506 mt 6167  556 L
6167  506 mt 6117  556 L
6122  502 mt 6172  552 L
6172  502 mt 6122  552 L
6128  498 mt 6178  548 L
6178  498 mt 6128  548 L
6133  494 mt 6183  544 L
6183  494 mt 6133  544 L
6138  490 mt 6188  540 L
6188  490 mt 6138  540 L
6144  485 mt 6194  535 L
6194  485 mt 6144  535 L
6149  481 mt 6199  531 L
6199  481 mt 6149  531 L
6155  477 mt 6205  527 L
6205  477 mt 6155  527 L
6160  473 mt 6210  523 L
6210  473 mt 6160  523 L
6165  469 mt 6215  519 L
6215  469 mt 6165  519 L
6171  465 mt 6221  515 L
6221  465 mt 6171  515 L
6176  461 mt 6226  511 L
6226  461 mt 6176  511 L
6181  457 mt 6231  507 L
6231  457 mt 6181  507 L
6187  453 mt 6237  503 L
6237  453 mt 6187  503 L
6192  449 mt 6242  499 L
6242  449 mt 6192  499 L
6197  445 mt 6247  495 L
6247  445 mt 6197  495 L
6203  441 mt 6253  491 L
6253  441 mt 6203  491 L
6208  437 mt 6258  487 L
6258  437 mt 6208  487 L
6213  435 mt 6263  485 L
6263  435 mt 6213  485 L
6219  431 mt 6269  481 L
6269  431 mt 6219  481 L
6224  427 mt 6274  477 L
6274  427 mt 6224  477 L
6230  423 mt 6280  473 L
6280  423 mt 6230  473 L
gr

c9
gs 899 389 5357 4227 MR c np
12 w
gr

12 w
gs 826 371 5504 4186 MR c np
/c10 { 1.000000 0.000000 0.000000 sr} bdef
c10
  36   36 1016 4394 FO
  36   36 1830 3772 FO
  36   36 1970 3666 FO
  36   36 2109 3561 FO
  36   36 2248 3455 FO
  36   36 2387 3350 FO
  36   36 2527 3245 FO
  36   36 2666 3139 FO
  36   36 2805 3034 FO
  36   36 2944 2929 FO
  36   36 3764 2311 FO
  36   36 3903 2206 FO
  36   36 4042 2101 FO
  36   36 5542  977 FO
  36   36 5681  872 FO
  36   36 5821  768 FO
  36   36 5960  664 FO
  36   36 6099  560 FO
  36   36 6238  456 FO
gr

c10
gs 899 389 5357 4227 MR c np
gr

0 sg
3316 4903 mt 
(Tempo [s]) s
 649 2813 mt  -90 rotate
(Posi\347\343o [m]) s
90 rotate
2227  294 mt 
(Traject\363ria do Mergulhador: Real e Estimada, em x) s
 870 4670 mt 
( ) s
6227  443 mt 
( ) s
6 w
1 sg
0 521 1156 0 0 -521 5089 4413 4 MP
PP
-1156 0 0 521 1156 0 0 -521 5089 4413 5 MP stroke
4 w
DO
SO
6 w
0 sg
5089 4413 mt 6245 4413 L
5089 3892 mt 6245 3892 L
5089 4413 mt 5089 3892 L
6245 4413 mt 6245 3892 L
5089 4413 mt 6245 4413 L
5089 4413 mt 5089 3892 L
5089 4413 mt 6245 4413 L
5089 3892 mt 6245 3892 L
5089 4413 mt 5089 3892 L
6245 4413 mt 6245 3892 L
5557 4035 mt 
(Real) s
gs 5089 3892 1157 522 MR c np
gs 5267 3919 147 147 MR c np
c8
  36   36 5340 3992 FO
gr

c8
gr

c8
0 sg
5557 4195 mt 
(Kalman) s
gs 5089 3892 1157 522 MR c np
gs 5267 4079 147 147 MR c np
c9
5315 4127 mt 5365 4177 L
5365 4127 mt 5315 4177 L
gr

c9
gr

c9
0 sg
5557 4355 mt 
(Trilatera\347\343o) s
gs 5089 3892 1157 522 MR c np
12 w
gs 5267 4239 147 147 MR c np
c10
  36   36 5340 4312 FO
gr

c10
6 w
gr

c10

end %%Color Dict

eplot
%%EndObject

epage
end

showpage

%%Trailer
%%EOF
