%!PS-Adobe-2.0 EPSF-1.2
%%Creator: MATLAB, The Mathworks, Inc. Version 7.9.0.529 (R2009b). Operating System: Darwin 10.8.0 Darwin Kernel Version 10.8.0: Tue Jun  7 16:33:36 PDT 2011; root:xnu-1504.15.3~1/RELEASE_I386 i386.
%%Title: ./vD_vV_miss_time_master_diver_zoom.eps
%%CreationDate: 10/12/2011  19:56:56
%%DocumentNeededFonts: Helvetica
%%DocumentProcessColors: Cyan Magenta Yellow Black
%%Extensions: CMYK
%%Pages: 1
%%BoundingBox:    60   199   575   602
%%EndComments

%%BeginProlog
% MathWorks dictionary
/MathWorks 160 dict begin
% definition operators
/bdef {bind def} bind def
/ldef {load def} bind def
/xdef {exch def} bdef
/xstore {exch store} bdef
% operator abbreviations
/c  /clip ldef
/cc /concat ldef
/cp /closepath ldef
/gr /grestore ldef
/gs /gsave ldef
/mt /moveto ldef
/np /newpath ldef
/cm /currentmatrix ldef
/sm /setmatrix ldef
/rm /rmoveto ldef
/rl /rlineto ldef
/s {show newpath} bdef
/sc {setcmykcolor} bdef
/sr /setrgbcolor ldef
/sg /setgray ldef
/w /setlinewidth ldef
/j /setlinejoin ldef
/cap /setlinecap ldef
/rc {rectclip} bdef
/rf {rectfill} bdef
% page state control
/pgsv () def
/bpage {/pgsv save def} bdef
/epage {pgsv restore} bdef
/bplot /gsave ldef
/eplot {stroke grestore} bdef
% orientation switch
/portraitMode 0 def /landscapeMode 1 def /rotateMode 2 def
% coordinate system mappings
/dpi2point 0 def
% font control
/FontSize 0 def
/FMS {/FontSize xstore findfont [FontSize 0 0 FontSize neg 0 0]
  makefont setfont} bdef
/reencode {exch dup where {pop load} {pop StandardEncoding} ifelse
  exch dup 3 1 roll findfont dup length dict begin
  { 1 index /FID ne {def}{pop pop} ifelse } forall
  /Encoding exch def currentdict end definefont pop} bdef
/isroman {findfont /CharStrings get /Agrave known} bdef
/FMSR {3 1 roll 1 index dup isroman {reencode} {pop pop} ifelse
  exch FMS} bdef
/csm {1 dpi2point div -1 dpi2point div scale neg translate
 dup landscapeMode eq {pop -90 rotate}
  {rotateMode eq {90 rotate} if} ifelse} bdef
% line types: solid, dotted, dashed, dotdash
/SO { [] 0 setdash } bdef
/DO { [.5 dpi2point mul 4 dpi2point mul] 0 setdash } bdef
/DA { [6 dpi2point mul] 0 setdash } bdef
/DD { [.5 dpi2point mul 4 dpi2point mul 6 dpi2point mul 4
  dpi2point mul] 0 setdash } bdef
% macros for lines and objects
/L {lineto stroke} bdef
/MP {3 1 roll moveto 1 sub {rlineto} repeat} bdef
/AP {{rlineto} repeat} bdef
/PDlw -1 def
/W {/PDlw currentlinewidth def setlinewidth} def
/PP {closepath eofill} bdef
/DP {closepath stroke} bdef
/MR {4 -2 roll moveto dup  0 exch rlineto exch 0 rlineto
  neg 0 exch rlineto closepath} bdef
/FR {MR stroke} bdef
/PR {MR fill} bdef
/L1i {{currentfile picstr readhexstring pop} image} bdef
/tMatrix matrix def
/MakeOval {newpath tMatrix currentmatrix pop translate scale
0 0 1 0 360 arc tMatrix setmatrix} bdef
/FO {MakeOval stroke} bdef
/PO {MakeOval fill} bdef
/PD {currentlinewidth 2 div 0 360 arc fill
   PDlw -1 eq not {PDlw w /PDlw -1 def} if} def
/FA {newpath tMatrix currentmatrix pop translate scale
  0 0 1 5 -2 roll arc tMatrix setmatrix stroke} bdef
/PA {newpath tMatrix currentmatrix pop	translate 0 0 moveto scale
  0 0 1 5 -2 roll arc closepath tMatrix setmatrix fill} bdef
/FAn {newpath tMatrix currentmatrix pop translate scale
  0 0 1 5 -2 roll arcn tMatrix setmatrix stroke} bdef
/PAn {newpath tMatrix currentmatrix pop translate 0 0 moveto scale
  0 0 1 5 -2 roll arcn closepath tMatrix setmatrix fill} bdef
/vradius 0 def /hradius 0 def /lry 0 def
/lrx 0 def /uly 0 def /ulx 0 def /rad 0 def
/MRR {/vradius xdef /hradius xdef /lry xdef /lrx xdef /uly xdef
  /ulx xdef newpath tMatrix currentmatrix pop ulx hradius add uly
  vradius add translate hradius vradius scale 0 0 1 180 270 arc 
  tMatrix setmatrix lrx hradius sub uly vradius add translate
  hradius vradius scale 0 0 1 270 360 arc tMatrix setmatrix
  lrx hradius sub lry vradius sub translate hradius vradius scale
  0 0 1 0 90 arc tMatrix setmatrix ulx hradius add lry vradius sub
  translate hradius vradius scale 0 0 1 90 180 arc tMatrix setmatrix
  closepath} bdef
/FRR {MRR stroke } bdef
/PRR {MRR fill } bdef
/MlrRR {/lry xdef /lrx xdef /uly xdef /ulx xdef /rad lry uly sub 2 div def
  newpath tMatrix currentmatrix pop ulx rad add uly rad add translate
  rad rad scale 0 0 1 90 270 arc tMatrix setmatrix lrx rad sub lry rad
  sub translate rad rad scale 0 0 1 270 90 arc tMatrix setmatrix
  closepath} bdef
/FlrRR {MlrRR stroke } bdef
/PlrRR {MlrRR fill } bdef
/MtbRR {/lry xdef /lrx xdef /uly xdef /ulx xdef /rad lrx ulx sub 2 div def
  newpath tMatrix currentmatrix pop ulx rad add uly rad add translate
  rad rad scale 0 0 1 180 360 arc tMatrix setmatrix lrx rad sub lry rad
  sub translate rad rad scale 0 0 1 0 180 arc tMatrix setmatrix
  closepath} bdef
/FtbRR {MtbRR stroke } bdef
/PtbRR {MtbRR fill } bdef
/stri 6 array def /dtri 6 array def
/smat 6 array def /dmat 6 array def
/tmat1 6 array def /tmat2 6 array def /dif 3 array def
/asub {/ind2 exch def /ind1 exch def dup dup
  ind1 get exch ind2 get sub exch } bdef
/tri_to_matrix {
  2 0 asub 3 1 asub 4 0 asub 5 1 asub
  dup 0 get exch 1 get 7 -1 roll astore } bdef
/compute_transform {
  dmat dtri tri_to_matrix tmat1 invertmatrix 
  smat stri tri_to_matrix tmat2 concatmatrix } bdef
/ds {stri astore pop} bdef
/dt {dtri astore pop} bdef
/db {2 copy /cols xdef /rows xdef mul dup 3 mul string
  currentfile exch readhexstring pop
  dup 0 3 index getinterval /rbmap xdef
  dup 2 index dup getinterval /gbmap xdef
  1 index dup 2 mul exch getinterval /bbmap xdef pop pop}bdef
/it {gs np dtri aload pop moveto lineto lineto cp c
  cols rows 8 compute_transform 
  rbmap gbmap bbmap true 3 colorimage gr}bdef
/il {newpath moveto lineto stroke}bdef
currentdict end def
%%EndProlog

%%BeginSetup
MathWorks begin

0 cap

end
%%EndSetup

%%Page: 1 1
%%BeginPageSetup
%%PageBoundingBox:    60   199   575   602
MathWorks begin
bpage
%%EndPageSetup

%%BeginObject: obj1
bplot

/dpi2point 12 def
portraitMode 0216 7344 csm

  510   110  6180  4845 MR c np
89 dict begin %Colortable dictionary
/c0 { 0.000000 0.000000 0.000000 sr} bdef
/c1 { 1.000000 1.000000 1.000000 sr} bdef
/c2 { 0.900000 0.000000 0.000000 sr} bdef
/c3 { 0.000000 0.820000 0.000000 sr} bdef
/c4 { 0.000000 0.000000 0.800000 sr} bdef
/c5 { 0.910000 0.820000 0.320000 sr} bdef
/c6 { 1.000000 0.260000 0.820000 sr} bdef
/c7 { 0.000000 0.820000 0.820000 sr} bdef
c0
1 j
1 sg
   0    0 6913 5186 PR
6 w
0 1769 5356 0 0 -1769 899 2158 4 MP
PP
-5356 0 0 1769 5356 0 0 -1769 899 2158 5 MP stroke
4 w
DO
0 sg
 899 2158 mt  899  389 L
 899  389 mt  899  389 L
1434 2158 mt 1434  389 L
1434  389 mt 1434  389 L
1970 2158 mt 1970  389 L
1970  389 mt 1970  389 L
2505 2158 mt 2505  389 L
2505  389 mt 2505  389 L
3041 2158 mt 3041  389 L
3041  389 mt 3041  389 L
3577 2158 mt 3577  389 L
3577  389 mt 3577  389 L
4112 2158 mt 4112  389 L
4112  389 mt 4112  389 L
4648 2158 mt 4648  389 L
4648  389 mt 4648  389 L
5183 2158 mt 5183  389 L
5183  389 mt 5183  389 L
5719 2158 mt 5719  389 L
5719  389 mt 5719  389 L
6255 2158 mt 6255  389 L
6255  389 mt 6255  389 L
 899 2158 mt 6255 2158 L
6255 2158 mt 6255 2158 L
 899 1715 mt 6255 1715 L
6255 1715 mt 6255 1715 L
 899 1273 mt 6255 1273 L
6255 1273 mt 6255 1273 L
 899  831 mt 6255  831 L
6255  831 mt 6255  831 L
 899  389 mt 6255  389 L
6255  389 mt 6255  389 L
SO
6 w
 899 2158 mt 6255 2158 L
 899  389 mt 6255  389 L
 899 2158 mt  899  389 L
6255 2158 mt 6255  389 L
 899 2158 mt 6255 2158 L
 899 2158 mt  899  389 L
 899 2158 mt  899 2104 L
 899  389 mt  899  442 L
%%IncludeResource: font Helvetica
/Helvetica /ISOLatin1Encoding 120 FMSR

 833 2303 mt 
(70) s
1434 2158 mt 1434 2104 L
1434  389 mt 1434  442 L
1368 2303 mt 
(71) s
1970 2158 mt 1970 2104 L
1970  389 mt 1970  442 L
1904 2303 mt 
(72) s
2505 2158 mt 2505 2104 L
2505  389 mt 2505  442 L
2439 2303 mt 
(73) s
3041 2158 mt 3041 2104 L
3041  389 mt 3041  442 L
2975 2303 mt 
(74) s
3577 2158 mt 3577 2104 L
3577  389 mt 3577  442 L
3511 2303 mt 
(75) s
4112 2158 mt 4112 2104 L
4112  389 mt 4112  442 L
4046 2303 mt 
(76) s
4648 2158 mt 4648 2104 L
4648  389 mt 4648  442 L
4582 2303 mt 
(77) s
5183 2158 mt 5183 2104 L
5183  389 mt 5183  442 L
5117 2303 mt 
(78) s
5719 2158 mt 5719 2104 L
5719  389 mt 5719  442 L
5653 2303 mt 
(79) s
6255 2158 mt 6255 2104 L
6255  389 mt 6255  442 L
6189 2303 mt 
(80) s
 899 2158 mt  952 2158 L
6255 2158 mt 6201 2158 L
 728 2202 mt 
(-2) s
 899 1715 mt  952 1715 L
6255 1715 mt 6201 1715 L
 728 1759 mt 
(-1) s
 899 1273 mt  952 1273 L
6255 1273 mt 6201 1273 L
 798 1317 mt 
(0) s
 899  831 mt  952  831 L
6255  831 mt 6201  831 L
 798  875 mt 
(1) s
 899  389 mt  952  389 L
6255  389 mt 6201  389 L
 798  433 mt 
(2) s
 899 2158 mt 6255 2158 L
 899  389 mt 6255  389 L
 899 2158 mt  899  389 L
6255 2158 mt 6255  389 L
gs 899 389 5357 1770 MR c np
12 w
gr

12 w
/c8 { 0.000000 1.000000 1.000000 sr} bdef
c8
  36   36  995  831 FO
  36   36 1134  831 FO
  36   36 1273  831 FO
  36   36 1413  831 FO
  36   36 1552  831 FO
  36   36 1691  831 FO
  36   36 1830  831 FO
  36   36 1970  831 FO
  36   36 2109  831 FO
  36   36 2248  831 FO
  36   36 2387  831 FO
  36   36 2527  831 FO
  36   36 2666  831 FO
  36   36 2805  831 FO
  36   36 2944  831 FO
  36   36 3625  831 FO
  36   36 3764  831 FO
  36   36 3903  831 FO
  36   36 4042  831 FO
  36   36 4182  831 FO
  36   36 4321  831 FO
  36   36 4460  831 FO
  36   36 4599  831 FO
  36   36 4739  831 FO
  36   36 4878  831 FO
  36   36 5017  831 FO
  36   36 5157  831 FO
  36   36 5296  831 FO
  36   36 5435  831 FO
  36   36 5574  831 FO
  36   36 5714  831 FO
  36   36 5853  831 FO
gs 899 389 5357 1770 MR c np
DA
0 -442 995 1273 2 MP stroke
0 -442 1134 1273 2 MP stroke
0 -442 1273 1273 2 MP stroke
0 -442 1413 1273 2 MP stroke
0 -442 1552 1273 2 MP stroke
0 -442 1691 1273 2 MP stroke
0 -442 1830 1273 2 MP stroke
0 -442 1970 1273 2 MP stroke
0 -442 2109 1273 2 MP stroke
0 -442 2248 1273 2 MP stroke
0 -442 2387 1273 2 MP stroke
0 -442 2527 1273 2 MP stroke
0 -442 2666 1273 2 MP stroke
0 -442 2805 1273 2 MP stroke
0 -442 2944 1273 2 MP stroke
0 -442 3625 1273 2 MP stroke
0 -442 3764 1273 2 MP stroke
0 -442 3903 1273 2 MP stroke
0 -442 4042 1273 2 MP stroke
0 -442 4182 1273 2 MP stroke
0 -442 4321 1273 2 MP stroke
0 -442 4460 1273 2 MP stroke
0 -442 4599 1273 2 MP stroke
0 -442 4739 1273 2 MP stroke
0 -442 4878 1273 2 MP stroke
0 -442 5017 1273 2 MP stroke
0 -442 5157 1273 2 MP stroke
0 -442 5296 1273 2 MP stroke
0 -442 5435 1273 2 MP stroke
0 -442 5574 1273 2 MP stroke
0 -442 5714 1273 2 MP stroke
0 -442 5853 1273 2 MP stroke
SO
6 w
0 sg
5356 0 899 1273 2 MP stroke
12 w
gr

0 sg
/c9 { 0.000000 0.000000 1.000000 sr} bdef
c9
  36   36  995  831 FO
  36   36 1134  831 FO
  36   36 1273  831 FO
  36   36 1413  831 FO
  36   36 1552  831 FO
  36   36 1691  831 FO
  36   36 1830  831 FO
  36   36 1970  831 FO
  36   36 2109  831 FO
  36   36 2248  831 FO
  36   36 2387  831 FO
  36   36 2527  831 FO
  36   36 2666  831 FO
  36   36 2805  831 FO
  36   36 2944  831 FO
  36   36 3625  831 FO
  36   36 3764  831 FO
  36   36 3903  831 FO
  36   36 4042  831 FO
  36   36 4182  831 FO
  36   36 4321  831 FO
  36   36 4460  831 FO
  36   36 4599  831 FO
  36   36 4739  831 FO
  36   36 4878  831 FO
  36   36 5017  831 FO
  36   36 5157  831 FO
  36   36 5296  831 FO
  36   36 5435  831 FO
  36   36 5574  831 FO
  36   36 5714  831 FO
  36   36 5853  831 FO
gs 899 389 5357 1770 MR c np
DD
0 -442 995 1273 2 MP stroke
0 -442 1134 1273 2 MP stroke
0 -442 1273 1273 2 MP stroke
0 -442 1413 1273 2 MP stroke
0 -442 1552 1273 2 MP stroke
0 -442 1691 1273 2 MP stroke
0 -442 1830 1273 2 MP stroke
0 -442 1970 1273 2 MP stroke
0 -442 2109 1273 2 MP stroke
0 -442 2248 1273 2 MP stroke
0 -442 2387 1273 2 MP stroke
0 -442 2527 1273 2 MP stroke
0 -442 2666 1273 2 MP stroke
0 -442 2805 1273 2 MP stroke
0 -442 2944 1273 2 MP stroke
0 -442 3625 1273 2 MP stroke
0 -442 3764 1273 2 MP stroke
0 -442 3903 1273 2 MP stroke
0 -442 4042 1273 2 MP stroke
0 -442 4182 1273 2 MP stroke
0 -442 4321 1273 2 MP stroke
0 -442 4460 1273 2 MP stroke
0 -442 4599 1273 2 MP stroke
0 -442 4739 1273 2 MP stroke
0 -442 4878 1273 2 MP stroke
0 -442 5017 1273 2 MP stroke
0 -442 5157 1273 2 MP stroke
0 -442 5296 1273 2 MP stroke
0 -442 5435 1273 2 MP stroke
0 -442 5574 1273 2 MP stroke
0 -442 5714 1273 2 MP stroke
0 -442 5853 1273 2 MP stroke
SO
gr

/c10 { 1.000000 0.000000 0.000000 sr} bdef
c10
 916 1715 mt  988 1715 L
 952 1679 mt  952 1751 L
1055 1715 mt 1127 1715 L
1091 1679 mt 1091 1751 L
1195 1715 mt 1267 1715 L
1231 1679 mt 1231 1751 L
1334 1715 mt 1406 1715 L
1370 1679 mt 1370 1751 L
1474 1715 mt 1546 1715 L
1510 1679 mt 1510 1751 L
1613 1715 mt 1685 1715 L
1649 1679 mt 1649 1751 L
1752 1715 mt 1824 1715 L
1788 1679 mt 1788 1751 L
1892 1715 mt 1964 1715 L
1928 1679 mt 1928 1751 L
2031 1715 mt 2103 1715 L
2067 1679 mt 2067 1751 L
2171 1715 mt 2243 1715 L
2207 1679 mt 2207 1751 L
2310 1715 mt 2382 1715 L
2346 1679 mt 2346 1751 L
2449 1715 mt 2521 1715 L
2485 1679 mt 2485 1751 L
2589 1715 mt 2661 1715 L
2625 1679 mt 2625 1751 L
2728 1715 mt 2800 1715 L
2764 1679 mt 2764 1751 L
2868 1715 mt 2940 1715 L
2904 1679 mt 2904 1751 L
3007 1715 mt 3079 1715 L
3043 1679 mt 3043 1751 L
3688 1715 mt 3760 1715 L
3724 1679 mt 3724 1751 L
3827 1715 mt 3899 1715 L
3863 1679 mt 3863 1751 L
3967 1715 mt 4039 1715 L
4003 1679 mt 4003 1751 L
4106 1715 mt 4178 1715 L
4142 1679 mt 4142 1751 L
4246 1715 mt 4318 1715 L
4282 1679 mt 4282 1751 L
4385 1715 mt 4457 1715 L
4421 1679 mt 4421 1751 L
4525 1715 mt 4597 1715 L
4561 1679 mt 4561 1751 L
4664 1715 mt 4736 1715 L
4700 1679 mt 4700 1751 L
4803 1715 mt 4875 1715 L
4839 1679 mt 4839 1751 L
4943 1715 mt 5015 1715 L
4979 1679 mt 4979 1751 L
5082 1715 mt 5154 1715 L
5118 1679 mt 5118 1751 L
5222 1715 mt 5294 1715 L
5258 1679 mt 5258 1751 L
5361 1715 mt 5433 1715 L
5397 1679 mt 5397 1751 L
5500 1715 mt 5572 1715 L
5536 1679 mt 5536 1751 L
5640 1715 mt 5712 1715 L
5676 1679 mt 5676 1751 L
5779 1715 mt 5851 1715 L
5815 1679 mt 5815 1751 L
5919 1715 mt 5991 1715 L
5955 1679 mt 5955 1751 L
 927 1690 mt  977 1740 L
 977 1690 mt  927 1740 L
1066 1690 mt 1116 1740 L
1116 1690 mt 1066 1740 L
1206 1690 mt 1256 1740 L
1256 1690 mt 1206 1740 L
1345 1690 mt 1395 1740 L
1395 1690 mt 1345 1740 L
1485 1690 mt 1535 1740 L
1535 1690 mt 1485 1740 L
1624 1690 mt 1674 1740 L
1674 1690 mt 1624 1740 L
1763 1690 mt 1813 1740 L
1813 1690 mt 1763 1740 L
1903 1690 mt 1953 1740 L
1953 1690 mt 1903 1740 L
2042 1690 mt 2092 1740 L
2092 1690 mt 2042 1740 L
2182 1690 mt 2232 1740 L
2232 1690 mt 2182 1740 L
2321 1690 mt 2371 1740 L
2371 1690 mt 2321 1740 L
2460 1690 mt 2510 1740 L
2510 1690 mt 2460 1740 L
2600 1690 mt 2650 1740 L
2650 1690 mt 2600 1740 L
2739 1690 mt 2789 1740 L
2789 1690 mt 2739 1740 L
2879 1690 mt 2929 1740 L
2929 1690 mt 2879 1740 L
3018 1690 mt 3068 1740 L
3068 1690 mt 3018 1740 L
3699 1690 mt 3749 1740 L
3749 1690 mt 3699 1740 L
3838 1690 mt 3888 1740 L
3888 1690 mt 3838 1740 L
3978 1690 mt 4028 1740 L
4028 1690 mt 3978 1740 L
4117 1690 mt 4167 1740 L
4167 1690 mt 4117 1740 L
4257 1690 mt 4307 1740 L
4307 1690 mt 4257 1740 L
4396 1690 mt 4446 1740 L
4446 1690 mt 4396 1740 L
4536 1690 mt 4586 1740 L
4586 1690 mt 4536 1740 L
4675 1690 mt 4725 1740 L
4725 1690 mt 4675 1740 L
4814 1690 mt 4864 1740 L
4864 1690 mt 4814 1740 L
4954 1690 mt 5004 1740 L
5004 1690 mt 4954 1740 L
5093 1690 mt 5143 1740 L
5143 1690 mt 5093 1740 L
5233 1690 mt 5283 1740 L
5283 1690 mt 5233 1740 L
5372 1690 mt 5422 1740 L
5422 1690 mt 5372 1740 L
5511 1690 mt 5561 1740 L
5561 1690 mt 5511 1740 L
5651 1690 mt 5701 1740 L
5701 1690 mt 5651 1740 L
5790 1690 mt 5840 1740 L
5840 1690 mt 5790 1740 L
5930 1690 mt 5980 1740 L
5980 1690 mt 5930 1740 L
gs 899 389 5357 1770 MR c np
0 442 952 1273 2 MP stroke
0 442 1091 1273 2 MP stroke
0 442 1231 1273 2 MP stroke
0 442 1370 1273 2 MP stroke
0 442 1510 1273 2 MP stroke
0 442 1649 1273 2 MP stroke
0 442 1788 1273 2 MP stroke
0 442 1928 1273 2 MP stroke
0 442 2067 1273 2 MP stroke
0 442 2207 1273 2 MP stroke
0 442 2346 1273 2 MP stroke
0 442 2485 1273 2 MP stroke
0 442 2625 1273 2 MP stroke
0 442 2764 1273 2 MP stroke
0 442 2904 1273 2 MP stroke
0 442 3043 1273 2 MP stroke
0 442 3724 1273 2 MP stroke
0 442 3863 1273 2 MP stroke
0 442 4003 1273 2 MP stroke
0 442 4142 1273 2 MP stroke
0 442 4282 1273 2 MP stroke
0 442 4421 1273 2 MP stroke
0 442 4561 1273 2 MP stroke
0 442 4700 1273 2 MP stroke
0 442 4839 1273 2 MP stroke
0 442 4979 1273 2 MP stroke
0 442 5118 1273 2 MP stroke
0 442 5258 1273 2 MP stroke
0 442 5397 1273 2 MP stroke
0 442 5536 1273 2 MP stroke
0 442 5676 1273 2 MP stroke
0 442 5815 1273 2 MP stroke
0 442 5955 1273 2 MP stroke
gr

0 sg
 882 2201 mt 
( ) s
6239  431 mt 
( ) s
/c11 { 1.000000 1.000000 0.933333 sr} bdef
c11
-531 0 0 -344 531 0 2991 784 4 MP
PP
6 w
0 j
0.8 sg
2991  440  531  344 FR
1 j
0 sg
%%IncludeResource: font Helvetica
/Helvetica /ISOLatin1Encoding 108 FMSR

3039  588 mt 
(X= 73.82) s
3039  712 mt 
(Y= 1) s
24 w
0 j
0 -94 -94 0 0 94 94 0 2897 784 5 MP
gs
PP
gr
/c12 { 1.000000 1.000000 0.862745 sr} bdef
c12
DP
c11
-531 0 0 -344 531 0 3672 784 4 MP
PP
6 w
0.8 sg
3672  440  531  344 FR
1 j
0 sg
3720  588 mt 
(X= 75.09) s
3720  712 mt 
(Y= 1) s
24 w
0 j
0 -94 -94 0 0 94 94 0 3578 784 5 MP
gs
PP
gr
c12
DP
0 sg
%%IncludeResource: font Helvetica
/Helvetica /ISOLatin1Encoding 120 FMSR

3363 2446 mt 
(Time [s]) s
 646 1441 mt  -90 rotate
(Signal) s
90 rotate
2485  294 mt 
(Message exchange of the Master Vehicle) s
6 w
1 sg
0 521 1928 0 0 -521 4712 1503 4 MP
PP
-1928 0 0 521 1928 0 0 -521 4712 1503 5 MP stroke
4 w
DO
SO
6 w
0 sg
4712 1503 mt 6640 1503 L
4712  982 mt 6640  982 L
4712 1503 mt 4712  982 L
6640 1503 mt 6640  982 L
4712 1503 mt 6640 1503 L
4712 1503 mt 4712  982 L
4712 1503 mt 6640 1503 L
4712  982 mt 6640  982 L
4712 1503 mt 4712  982 L
6640 1503 mt 6640  982 L
5186 1125 mt 
(1: Ping alert - R) s
gs 4712 982 1929 522 MR c np
DA
12 w
c8
255 0 4784 1082 2 MP stroke
5039 1082 PD
gs 4966 1009 147 147 MR c np
SO
  36   36 5039 1082 FO
DA
gr

gr

12 w
c8
DA
0 sg
5186 1285 mt 
(2: Ping - A) s
gs 4712 982 1929 522 MR c np
DD
c9
255 0 4784 1242 2 MP stroke
5039 1242 PD
gs 4966 1169 147 147 MR c np
SO
  36   36 5039 1242 FO
DD
gr

gr

c9
DD
0 sg
5186 1445 mt 
(6: Signal from Vehicles - A) s
gs 4712 982 1929 522 MR c np
SO
c10
255 0 4784 1402 2 MP stroke
5039 1402 PD
gs 4966 1329 147 147 MR c np
5003 1402 mt 5075 1402 L
5039 1366 mt 5039 1438 L
5014 1377 mt 5064 1427 L
5064 1377 mt 5014 1427 L
gr

6 w
gr

6 w
c10
SO
1 sg
0 1769 5356 0 0 -1769 899 4615 4 MP
PP
-5356 0 0 1769 5356 0 0 -1769 899 4615 5 MP stroke
4 w
DO
0 sg
 899 4615 mt  899 2846 L
 899 2846 mt  899 2846 L
1434 4615 mt 1434 2846 L
1434 2846 mt 1434 2846 L
1970 4615 mt 1970 2846 L
1970 2846 mt 1970 2846 L
2505 4615 mt 2505 2846 L
2505 2846 mt 2505 2846 L
3041 4615 mt 3041 2846 L
3041 2846 mt 3041 2846 L
3577 4615 mt 3577 2846 L
3577 2846 mt 3577 2846 L
4112 4615 mt 4112 2846 L
4112 2846 mt 4112 2846 L
4648 4615 mt 4648 2846 L
4648 2846 mt 4648 2846 L
5183 4615 mt 5183 2846 L
5183 2846 mt 5183 2846 L
5719 4615 mt 5719 2846 L
5719 2846 mt 5719 2846 L
6255 4615 mt 6255 2846 L
6255 2846 mt 6255 2846 L
 899 4615 mt 6255 4615 L
6255 4615 mt 6255 4615 L
 899 4172 mt 6255 4172 L
6255 4172 mt 6255 4172 L
 899 3730 mt 6255 3730 L
6255 3730 mt 6255 3730 L
 899 3288 mt 6255 3288 L
6255 3288 mt 6255 3288 L
 899 2846 mt 6255 2846 L
6255 2846 mt 6255 2846 L
SO
6 w
 899 4615 mt 6255 4615 L
 899 2846 mt 6255 2846 L
 899 4615 mt  899 2846 L
6255 4615 mt 6255 2846 L
 899 4615 mt 6255 4615 L
 899 4615 mt  899 2846 L
 899 4615 mt  899 4561 L
 899 2846 mt  899 2899 L
 833 4760 mt 
(70) s
1434 4615 mt 1434 4561 L
1434 2846 mt 1434 2899 L
1368 4760 mt 
(71) s
1970 4615 mt 1970 4561 L
1970 2846 mt 1970 2899 L
1904 4760 mt 
(72) s
2505 4615 mt 2505 4561 L
2505 2846 mt 2505 2899 L
2439 4760 mt 
(73) s
3041 4615 mt 3041 4561 L
3041 2846 mt 3041 2899 L
2975 4760 mt 
(74) s
3577 4615 mt 3577 4561 L
3577 2846 mt 3577 2899 L
3511 4760 mt 
(75) s
4112 4615 mt 4112 4561 L
4112 2846 mt 4112 2899 L
4046 4760 mt 
(76) s
4648 4615 mt 4648 4561 L
4648 2846 mt 4648 2899 L
4582 4760 mt 
(77) s
5183 4615 mt 5183 4561 L
5183 2846 mt 5183 2899 L
5117 4760 mt 
(78) s
5719 4615 mt 5719 4561 L
5719 2846 mt 5719 2899 L
5653 4760 mt 
(79) s
6255 4615 mt 6255 4561 L
6255 2846 mt 6255 2899 L
6189 4760 mt 
(80) s
 899 4615 mt  952 4615 L
6255 4615 mt 6201 4615 L
 728 4659 mt 
(-2) s
 899 4172 mt  952 4172 L
6255 4172 mt 6201 4172 L
 728 4216 mt 
(-1) s
 899 3730 mt  952 3730 L
6255 3730 mt 6201 3730 L
 798 3774 mt 
(0) s
 899 3288 mt  952 3288 L
6255 3288 mt 6201 3288 L
 798 3332 mt 
(1) s
 899 2846 mt  952 2846 L
6255 2846 mt 6201 2846 L
 798 2890 mt 
(2) s
 899 4615 mt 6255 4615 L
 899 2846 mt 6255 2846 L
 899 4615 mt  899 2846 L
6255 4615 mt 6255 2846 L
gs 899 2846 5357 1770 MR c np
12 w
gr

12 w
c9
 980 4172 mt 1052 4172 L
1016 4136 mt 1016 4208 L
1120 4172 mt 1192 4172 L
1156 4136 mt 1156 4208 L
1259 4172 mt 1331 4172 L
1295 4136 mt 1295 4208 L
1398 4172 mt 1470 4172 L
1434 4136 mt 1434 4208 L
1538 4172 mt 1610 4172 L
1574 4136 mt 1574 4208 L
1677 4172 mt 1749 4172 L
1713 4136 mt 1713 4208 L
1816 4172 mt 1888 4172 L
1852 4136 mt 1852 4208 L
1956 4172 mt 2028 4172 L
1992 4136 mt 1992 4208 L
2095 4172 mt 2167 4172 L
2131 4136 mt 2131 4208 L
2234 4172 mt 2306 4172 L
2270 4136 mt 2270 4208 L
2374 4172 mt 2446 4172 L
2410 4136 mt 2410 4208 L
2513 4172 mt 2585 4172 L
2549 4136 mt 2549 4208 L
2652 4172 mt 2724 4172 L
2688 4136 mt 2688 4208 L
2792 4172 mt 2864 4172 L
2828 4136 mt 2828 4208 L
2931 4172 mt 3003 4172 L
2967 4136 mt 2967 4208 L
3612 4172 mt 3684 4172 L
3648 4136 mt 3648 4208 L
3751 4172 mt 3823 4172 L
3787 4136 mt 3787 4208 L
3890 4172 mt 3962 4172 L
3926 4136 mt 3926 4208 L
4030 4172 mt 4102 4172 L
4066 4136 mt 4066 4208 L
4169 4172 mt 4241 4172 L
4205 4136 mt 4205 4208 L
4308 4172 mt 4380 4172 L
4344 4136 mt 4344 4208 L
4448 4172 mt 4520 4172 L
4484 4136 mt 4484 4208 L
4587 4172 mt 4659 4172 L
4623 4136 mt 4623 4208 L
4726 4172 mt 4798 4172 L
4762 4136 mt 4762 4208 L
4866 4172 mt 4938 4172 L
4902 4136 mt 4902 4208 L
5005 4172 mt 5077 4172 L
5041 4136 mt 5041 4208 L
5144 4172 mt 5216 4172 L
5180 4136 mt 5180 4208 L
5284 4172 mt 5356 4172 L
5320 4136 mt 5320 4208 L
5423 4172 mt 5495 4172 L
5459 4136 mt 5459 4208 L
5562 4172 mt 5634 4172 L
5598 4136 mt 5598 4208 L
5702 4172 mt 5774 4172 L
5738 4136 mt 5738 4208 L
5841 4172 mt 5913 4172 L
5877 4136 mt 5877 4208 L
 991 4147 mt 1041 4197 L
1041 4147 mt  991 4197 L
1131 4147 mt 1181 4197 L
1181 4147 mt 1131 4197 L
1270 4147 mt 1320 4197 L
1320 4147 mt 1270 4197 L
1409 4147 mt 1459 4197 L
1459 4147 mt 1409 4197 L
1549 4147 mt 1599 4197 L
1599 4147 mt 1549 4197 L
1688 4147 mt 1738 4197 L
1738 4147 mt 1688 4197 L
1827 4147 mt 1877 4197 L
1877 4147 mt 1827 4197 L
1967 4147 mt 2017 4197 L
2017 4147 mt 1967 4197 L
2106 4147 mt 2156 4197 L
2156 4147 mt 2106 4197 L
2245 4147 mt 2295 4197 L
2295 4147 mt 2245 4197 L
2385 4147 mt 2435 4197 L
2435 4147 mt 2385 4197 L
2524 4147 mt 2574 4197 L
2574 4147 mt 2524 4197 L
2663 4147 mt 2713 4197 L
2713 4147 mt 2663 4197 L
2803 4147 mt 2853 4197 L
2853 4147 mt 2803 4197 L
2942 4147 mt 2992 4197 L
2992 4147 mt 2942 4197 L
3623 4147 mt 3673 4197 L
3673 4147 mt 3623 4197 L
3762 4147 mt 3812 4197 L
3812 4147 mt 3762 4197 L
3901 4147 mt 3951 4197 L
3951 4147 mt 3901 4197 L
4041 4147 mt 4091 4197 L
4091 4147 mt 4041 4197 L
4180 4147 mt 4230 4197 L
4230 4147 mt 4180 4197 L
4319 4147 mt 4369 4197 L
4369 4147 mt 4319 4197 L
4459 4147 mt 4509 4197 L
4509 4147 mt 4459 4197 L
4598 4147 mt 4648 4197 L
4648 4147 mt 4598 4197 L
4737 4147 mt 4787 4197 L
4787 4147 mt 4737 4197 L
4877 4147 mt 4927 4197 L
4927 4147 mt 4877 4197 L
5016 4147 mt 5066 4197 L
5066 4147 mt 5016 4197 L
5155 4147 mt 5205 4197 L
5205 4147 mt 5155 4197 L
5295 4147 mt 5345 4197 L
5345 4147 mt 5295 4197 L
5434 4147 mt 5484 4197 L
5484 4147 mt 5434 4197 L
5573 4147 mt 5623 4197 L
5623 4147 mt 5573 4197 L
5713 4147 mt 5763 4197 L
5763 4147 mt 5713 4197 L
5852 4147 mt 5902 4197 L
5902 4147 mt 5852 4197 L
gs 899 2846 5357 1770 MR c np
0 442 1016 3730 2 MP stroke
0 442 1156 3730 2 MP stroke
0 442 1295 3730 2 MP stroke
0 442 1434 3730 2 MP stroke
0 442 1574 3730 2 MP stroke
0 442 1713 3730 2 MP stroke
0 442 1852 3730 2 MP stroke
0 442 1992 3730 2 MP stroke
0 442 2131 3730 2 MP stroke
0 442 2270 3730 2 MP stroke
0 442 2410 3730 2 MP stroke
0 442 2549 3730 2 MP stroke
0 442 2688 3730 2 MP stroke
0 442 2828 3730 2 MP stroke
0 442 2967 3730 2 MP stroke
0 442 3648 3730 2 MP stroke
0 442 3787 3730 2 MP stroke
0 442 3926 3730 2 MP stroke
0 442 4066 3730 2 MP stroke
0 442 4205 3730 2 MP stroke
0 442 4344 3730 2 MP stroke
0 442 4484 3730 2 MP stroke
0 442 4623 3730 2 MP stroke
0 442 4762 3730 2 MP stroke
0 442 4902 3730 2 MP stroke
0 442 5041 3730 2 MP stroke
0 442 5180 3730 2 MP stroke
0 442 5320 3730 2 MP stroke
0 442 5459 3730 2 MP stroke
0 442 5598 3730 2 MP stroke
0 442 5738 3730 2 MP stroke
0 442 5877 3730 2 MP stroke
6 w
0 sg
5356 0 899 3730 2 MP stroke
12 w
gr

0 sg
c10
  36   36  931 3288 FO
  36   36 1070 3288 FO
  36   36 1209 3288 FO
  36   36 1349 3288 FO
  36   36 1488 3288 FO
  36   36 1627 3288 FO
  36   36 1767 3288 FO
  36   36 1906 3288 FO
  36   36 2045 3288 FO
  36   36 2185 3288 FO
  36   36 2324 3288 FO
  36   36 2463 3288 FO
  36   36 2603 3288 FO
  36   36 2742 3288 FO
  36   36 2881 3288 FO
  36   36 3021 3288 FO
  36   36 3701 3288 FO
  36   36 3840 3288 FO
  36   36 3980 3288 FO
  36   36 4119 3288 FO
  36   36 4258 3288 FO
  36   36 4398 3288 FO
  36   36 4537 3288 FO
  36   36 4676 3288 FO
  36   36 4816 3288 FO
  36   36 4955 3288 FO
  36   36 5094 3288 FO
  36   36 5234 3288 FO
  36   36 5373 3288 FO
  36   36 5512 3288 FO
  36   36 5652 3288 FO
  36   36 5791 3288 FO
  36   36 5930 3288 FO
gs 899 2846 5357 1770 MR c np
0 -442 931 3730 2 MP stroke
0 -442 1070 3730 2 MP stroke
0 -442 1209 3730 2 MP stroke
0 -442 1349 3730 2 MP stroke
0 -442 1488 3730 2 MP stroke
0 -442 1627 3730 2 MP stroke
0 -442 1767 3730 2 MP stroke
0 -442 1906 3730 2 MP stroke
0 -442 2045 3730 2 MP stroke
0 -442 2185 3730 2 MP stroke
0 -442 2324 3730 2 MP stroke
0 -442 2463 3730 2 MP stroke
0 -442 2603 3730 2 MP stroke
0 -442 2742 3730 2 MP stroke
0 -442 2881 3730 2 MP stroke
0 -442 3021 3730 2 MP stroke
0 -442 3701 3730 2 MP stroke
0 -442 3840 3730 2 MP stroke
0 -442 3980 3730 2 MP stroke
0 -442 4119 3730 2 MP stroke
0 -442 4258 3730 2 MP stroke
0 -442 4398 3730 2 MP stroke
0 -442 4537 3730 2 MP stroke
0 -442 4676 3730 2 MP stroke
0 -442 4816 3730 2 MP stroke
0 -442 4955 3730 2 MP stroke
0 -442 5094 3730 2 MP stroke
0 -442 5234 3730 2 MP stroke
0 -442 5373 3730 2 MP stroke
0 -442 5512 3730 2 MP stroke
0 -442 5652 3730 2 MP stroke
0 -442 5791 3730 2 MP stroke
0 -442 5930 3730 2 MP stroke
gr

0 sg
 882 4658 mt 
( ) s
6239 2888 mt 
( ) s
c11
-591 0 0 -344 591 0 3068 3669 4 MP
PP
6 w
0.8 sg
3068 3325  591  344 FR
1 j
0 sg
%%IncludeResource: font Helvetica
/Helvetica /ISOLatin1Encoding 108 FMSR

3116 3473 mt 
(X= 73.962) s
3116 3597 mt 
(Y= 1) s
24 w
0 j
0 -94 -94 0 0 94 94 0 2974 3241 5 MP
gs
PP
gr
c12
DP
0 sg
%%IncludeResource: font Helvetica
/Helvetica /ISOLatin1Encoding 120 FMSR

3363 4903 mt 
(Time [s]) s
 646 3898 mt  -90 rotate
(Signal) s
90 rotate
2736 2751 mt 
(Message exchange of the Diver) s
6 w
1 sg
0 361 1574 0 0 -361 4963 3930 4 MP
PP
-1574 0 0 361 1574 0 0 -361 4963 3930 5 MP stroke
4 w
DO
SO
6 w
0 sg
4963 3930 mt 6537 3930 L
4963 3569 mt 6537 3569 L
4963 3930 mt 4963 3569 L
6537 3930 mt 6537 3569 L
4963 3930 mt 6537 3930 L
4963 3930 mt 4963 3569 L
4963 3930 mt 6537 3930 L
4963 3569 mt 6537 3569 L
4963 3930 mt 4963 3569 L
6537 3930 mt 6537 3569 L
5438 3712 mt 
(4: Ping received - A) s
gs 4963 3569 1575 362 MR c np
12 w
c9
255 0 5036 3669 2 MP stroke
5291 3669 PD
gs 5218 3596 147 147 MR c np
5255 3669 mt 5327 3669 L
5291 3633 mt 5291 3705 L
5266 3644 mt 5316 3694 L
5316 3644 mt 5266 3694 L
gr

gr

12 w
c9
0 sg
5438 3872 mt 
(5: Pong - A) s
gs 4963 3569 1575 362 MR c np
c10
255 0 5036 3829 2 MP stroke
5291 3829 PD
gs 5218 3756 147 147 MR c np
  36   36 5291 3829 FO
gr

6 w
gr

6 w
c10

end %%Color Dict

eplot
%%EndObject

epage
end

showpage

%%Trailer
%%EOF
