%!PS-Adobe-2.0 EPSF-1.2
%%Creator: MATLAB, The Mathworks, Inc. Version 7.9.0.529 (R2009b). Operating System: Darwin 10.8.0 Darwin Kernel Version 10.8.0: Tue Jun  7 16:33:36 PDT 2011; root:xnu-1504.15.3~1/RELEASE_I386 i386.
%%Title: ./vD_vV_falhas_aleatorias_zoom.eps
%%CreationDate: 08/27/2011  23:24:13
%%DocumentNeededFonts: Helvetica
%%DocumentProcessColors: Cyan Magenta Yellow Black
%%Extensions: CMYK
%%Pages: 1
%%BoundingBox:    84   208   550   595
%%EndComments

%%BeginProlog
% MathWorks dictionary
/MathWorks 160 dict begin
% definition operators
/bdef {bind def} bind def
/ldef {load def} bind def
/xdef {exch def} bdef
/xstore {exch store} bdef
% operator abbreviations
/c  /clip ldef
/cc /concat ldef
/cp /closepath ldef
/gr /grestore ldef
/gs /gsave ldef
/mt /moveto ldef
/np /newpath ldef
/cm /currentmatrix ldef
/sm /setmatrix ldef
/rm /rmoveto ldef
/rl /rlineto ldef
/s {show newpath} bdef
/sc {setcmykcolor} bdef
/sr /setrgbcolor ldef
/sg /setgray ldef
/w /setlinewidth ldef
/j /setlinejoin ldef
/cap /setlinecap ldef
/rc {rectclip} bdef
/rf {rectfill} bdef
% page state control
/pgsv () def
/bpage {/pgsv save def} bdef
/epage {pgsv restore} bdef
/bplot /gsave ldef
/eplot {stroke grestore} bdef
% orientation switch
/portraitMode 0 def /landscapeMode 1 def /rotateMode 2 def
% coordinate system mappings
/dpi2point 0 def
% font control
/FontSize 0 def
/FMS {/FontSize xstore findfont [FontSize 0 0 FontSize neg 0 0]
  makefont setfont} bdef
/reencode {exch dup where {pop load} {pop StandardEncoding} ifelse
  exch dup 3 1 roll findfont dup length dict begin
  { 1 index /FID ne {def}{pop pop} ifelse } forall
  /Encoding exch def currentdict end definefont pop} bdef
/isroman {findfont /CharStrings get /Agrave known} bdef
/FMSR {3 1 roll 1 index dup isroman {reencode} {pop pop} ifelse
  exch FMS} bdef
/csm {1 dpi2point div -1 dpi2point div scale neg translate
 dup landscapeMode eq {pop -90 rotate}
  {rotateMode eq {90 rotate} if} ifelse} bdef
% line types: solid, dotted, dashed, dotdash
/SO { [] 0 setdash } bdef
/DO { [.5 dpi2point mul 4 dpi2point mul] 0 setdash } bdef
/DA { [6 dpi2point mul] 0 setdash } bdef
/DD { [.5 dpi2point mul 4 dpi2point mul 6 dpi2point mul 4
  dpi2point mul] 0 setdash } bdef
% macros for lines and objects
/L {lineto stroke} bdef
/MP {3 1 roll moveto 1 sub {rlineto} repeat} bdef
/AP {{rlineto} repeat} bdef
/PDlw -1 def
/W {/PDlw currentlinewidth def setlinewidth} def
/PP {closepath eofill} bdef
/DP {closepath stroke} bdef
/MR {4 -2 roll moveto dup  0 exch rlineto exch 0 rlineto
  neg 0 exch rlineto closepath} bdef
/FR {MR stroke} bdef
/PR {MR fill} bdef
/L1i {{currentfile picstr readhexstring pop} image} bdef
/tMatrix matrix def
/MakeOval {newpath tMatrix currentmatrix pop translate scale
0 0 1 0 360 arc tMatrix setmatrix} bdef
/FO {MakeOval stroke} bdef
/PO {MakeOval fill} bdef
/PD {currentlinewidth 2 div 0 360 arc fill
   PDlw -1 eq not {PDlw w /PDlw -1 def} if} def
/FA {newpath tMatrix currentmatrix pop translate scale
  0 0 1 5 -2 roll arc tMatrix setmatrix stroke} bdef
/PA {newpath tMatrix currentmatrix pop	translate 0 0 moveto scale
  0 0 1 5 -2 roll arc closepath tMatrix setmatrix fill} bdef
/FAn {newpath tMatrix currentmatrix pop translate scale
  0 0 1 5 -2 roll arcn tMatrix setmatrix stroke} bdef
/PAn {newpath tMatrix currentmatrix pop translate 0 0 moveto scale
  0 0 1 5 -2 roll arcn closepath tMatrix setmatrix fill} bdef
/vradius 0 def /hradius 0 def /lry 0 def
/lrx 0 def /uly 0 def /ulx 0 def /rad 0 def
/MRR {/vradius xdef /hradius xdef /lry xdef /lrx xdef /uly xdef
  /ulx xdef newpath tMatrix currentmatrix pop ulx hradius add uly
  vradius add translate hradius vradius scale 0 0 1 180 270 arc 
  tMatrix setmatrix lrx hradius sub uly vradius add translate
  hradius vradius scale 0 0 1 270 360 arc tMatrix setmatrix
  lrx hradius sub lry vradius sub translate hradius vradius scale
  0 0 1 0 90 arc tMatrix setmatrix ulx hradius add lry vradius sub
  translate hradius vradius scale 0 0 1 90 180 arc tMatrix setmatrix
  closepath} bdef
/FRR {MRR stroke } bdef
/PRR {MRR fill } bdef
/MlrRR {/lry xdef /lrx xdef /uly xdef /ulx xdef /rad lry uly sub 2 div def
  newpath tMatrix currentmatrix pop ulx rad add uly rad add translate
  rad rad scale 0 0 1 90 270 arc tMatrix setmatrix lrx rad sub lry rad
  sub translate rad rad scale 0 0 1 270 90 arc tMatrix setmatrix
  closepath} bdef
/FlrRR {MlrRR stroke } bdef
/PlrRR {MlrRR fill } bdef
/MtbRR {/lry xdef /lrx xdef /uly xdef /ulx xdef /rad lrx ulx sub 2 div def
  newpath tMatrix currentmatrix pop ulx rad add uly rad add translate
  rad rad scale 0 0 1 180 360 arc tMatrix setmatrix lrx rad sub lry rad
  sub translate rad rad scale 0 0 1 0 180 arc tMatrix setmatrix
  closepath} bdef
/FtbRR {MtbRR stroke } bdef
/PtbRR {MtbRR fill } bdef
/stri 6 array def /dtri 6 array def
/smat 6 array def /dmat 6 array def
/tmat1 6 array def /tmat2 6 array def /dif 3 array def
/asub {/ind2 exch def /ind1 exch def dup dup
  ind1 get exch ind2 get sub exch } bdef
/tri_to_matrix {
  2 0 asub 3 1 asub 4 0 asub 5 1 asub
  dup 0 get exch 1 get 7 -1 roll astore } bdef
/compute_transform {
  dmat dtri tri_to_matrix tmat1 invertmatrix 
  smat stri tri_to_matrix tmat2 concatmatrix } bdef
/ds {stri astore pop} bdef
/dt {dtri astore pop} bdef
/db {2 copy /cols xdef /rows xdef mul dup 3 mul string
  currentfile exch readhexstring pop
  dup 0 3 index getinterval /rbmap xdef
  dup 2 index dup getinterval /gbmap xdef
  1 index dup 2 mul exch getinterval /bbmap xdef pop pop}bdef
/it {gs np dtri aload pop moveto lineto lineto cp c
  cols rows 8 compute_transform 
  rbmap gbmap bbmap true 3 colorimage gr}bdef
/il {newpath moveto lineto stroke}bdef
currentdict end def
%%EndProlog

%%BeginSetup
MathWorks begin

0 cap

end
%%EndSetup

%%Page: 1 1
%%BeginPageSetup
%%PageBoundingBox:    84   208   550   595
MathWorks begin
bpage
%%EndPageSetup

%%BeginObject: obj1
bplot

/dpi2point 12 def
portraitMode 0216 7344 csm

  798   202  5595  4640 MR c np
85 dict begin %Colortable dictionary
/c0 { 0.000000 0.000000 0.000000 sr} bdef
/c1 { 1.000000 1.000000 1.000000 sr} bdef
/c2 { 0.900000 0.000000 0.000000 sr} bdef
/c3 { 0.000000 0.820000 0.000000 sr} bdef
/c4 { 0.000000 0.000000 0.800000 sr} bdef
/c5 { 0.910000 0.820000 0.320000 sr} bdef
/c6 { 1.000000 0.260000 0.820000 sr} bdef
/c7 { 0.000000 0.820000 0.820000 sr} bdef
c0
1 j
1 sg
   0    0 6913 5186 PR
6 w
0 613 5356 0 0 -613 899 1094 4 MP
PP
-5356 0 0 613 5356 0 0 -613 899 1094 5 MP stroke
4 w
DO
0 sg
 899 1094 mt  899  481 L
 899  481 mt  899  481 L
1434 1094 mt 1434  481 L
1434  481 mt 1434  481 L
1970 1094 mt 1970  481 L
1970  481 mt 1970  481 L
2505 1094 mt 2505  481 L
2505  481 mt 2505  481 L
3041 1094 mt 3041  481 L
3041  481 mt 3041  481 L
3577 1094 mt 3577  481 L
3577  481 mt 3577  481 L
4112 1094 mt 4112  481 L
4112  481 mt 4112  481 L
4648 1094 mt 4648  481 L
4648  481 mt 4648  481 L
5183 1094 mt 5183  481 L
5183  481 mt 5183  481 L
5719 1094 mt 5719  481 L
5719  481 mt 5719  481 L
6255 1094 mt 6255  481 L
6255  481 mt 6255  481 L
 899 1094 mt 6255 1094 L
6255 1094 mt 6255 1094 L
 899  787 mt 6255  787 L
6255  787 mt 6255  787 L
 899  481 mt 6255  481 L
6255  481 mt 6255  481 L
SO
6 w
 899 1094 mt 6255 1094 L
 899  481 mt 6255  481 L
 899 1094 mt  899  481 L
6255 1094 mt 6255  481 L
 899 1094 mt 6255 1094 L
 899 1094 mt  899  481 L
 899 1094 mt  899 1040 L
 899  481 mt  899  534 L
%%IncludeResource: font Helvetica
/Helvetica /ISOLatin1Encoding 120 FMSR

 833 1239 mt 
(70) s
1434 1094 mt 1434 1040 L
1434  481 mt 1434  534 L
1368 1239 mt 
(71) s
1970 1094 mt 1970 1040 L
1970  481 mt 1970  534 L
1904 1239 mt 
(72) s
2505 1094 mt 2505 1040 L
2505  481 mt 2505  534 L
2439 1239 mt 
(73) s
3041 1094 mt 3041 1040 L
3041  481 mt 3041  534 L
2975 1239 mt 
(74) s
3577 1094 mt 3577 1040 L
3577  481 mt 3577  534 L
3511 1239 mt 
(75) s
4112 1094 mt 4112 1040 L
4112  481 mt 4112  534 L
4046 1239 mt 
(76) s
4648 1094 mt 4648 1040 L
4648  481 mt 4648  534 L
4582 1239 mt 
(77) s
5183 1094 mt 5183 1040 L
5183  481 mt 5183  534 L
5117 1239 mt 
(78) s
5719 1094 mt 5719 1040 L
5719  481 mt 5719  534 L
5653 1239 mt 
(79) s
6255 1094 mt 6255 1040 L
6255  481 mt 6255  534 L
6189 1239 mt 
(80) s
 899 1094 mt  952 1094 L
6255 1094 mt 6201 1094 L
 798 1138 mt 
(0) s
 899  787 mt  952  787 L
6255  787 mt 6201  787 L
 798  831 mt 
(1) s
 899  481 mt  952  481 L
6255  481 mt 6201  481 L
 798  525 mt 
(2) s
 899 1094 mt 6255 1094 L
 899  481 mt 6255  481 L
 899 1094 mt  899  481 L
6255 1094 mt 6255  481 L
gs 899 481 5357 614 MR c np
14.4 w
gr

14.4 w
gs 810 699 5535 177 MR c np
gr

gs 899 481 5357 614 MR c np
gr

3316 1382 mt 
(Tempo [s]) s
2785  386 mt 
(Perda de mensagens para V2) s
6 w
1 sg
0 613 5356 0 0 -613 899 2230 4 MP
PP
-5356 0 0 613 5356 0 0 -613 899 2230 5 MP stroke
4 w
DO
0 sg
 899 2230 mt  899 1617 L
 899 1617 mt  899 1617 L
1434 2230 mt 1434 1617 L
1434 1617 mt 1434 1617 L
1970 2230 mt 1970 1617 L
1970 1617 mt 1970 1617 L
2505 2230 mt 2505 1617 L
2505 1617 mt 2505 1617 L
3041 2230 mt 3041 1617 L
3041 1617 mt 3041 1617 L
3577 2230 mt 3577 1617 L
3577 1617 mt 3577 1617 L
4112 2230 mt 4112 1617 L
4112 1617 mt 4112 1617 L
4648 2230 mt 4648 1617 L
4648 1617 mt 4648 1617 L
5183 2230 mt 5183 1617 L
5183 1617 mt 5183 1617 L
5719 2230 mt 5719 1617 L
5719 1617 mt 5719 1617 L
6255 2230 mt 6255 1617 L
6255 1617 mt 6255 1617 L
 899 2230 mt 6255 2230 L
6255 2230 mt 6255 2230 L
 899 1923 mt 6255 1923 L
6255 1923 mt 6255 1923 L
 899 1617 mt 6255 1617 L
6255 1617 mt 6255 1617 L
SO
6 w
 899 2230 mt 6255 2230 L
 899 1617 mt 6255 1617 L
 899 2230 mt  899 1617 L
6255 2230 mt 6255 1617 L
 899 2230 mt 6255 2230 L
 899 2230 mt  899 1617 L
 899 2230 mt  899 2176 L
 899 1617 mt  899 1670 L
 833 2375 mt 
(70) s
1434 2230 mt 1434 2176 L
1434 1617 mt 1434 1670 L
1368 2375 mt 
(71) s
1970 2230 mt 1970 2176 L
1970 1617 mt 1970 1670 L
1904 2375 mt 
(72) s
2505 2230 mt 2505 2176 L
2505 1617 mt 2505 1670 L
2439 2375 mt 
(73) s
3041 2230 mt 3041 2176 L
3041 1617 mt 3041 1670 L
2975 2375 mt 
(74) s
3577 2230 mt 3577 2176 L
3577 1617 mt 3577 1670 L
3511 2375 mt 
(75) s
4112 2230 mt 4112 2176 L
4112 1617 mt 4112 1670 L
4046 2375 mt 
(76) s
4648 2230 mt 4648 2176 L
4648 1617 mt 4648 1670 L
4582 2375 mt 
(77) s
5183 2230 mt 5183 2176 L
5183 1617 mt 5183 1670 L
5117 2375 mt 
(78) s
5719 2230 mt 5719 2176 L
5719 1617 mt 5719 1670 L
5653 2375 mt 
(79) s
6255 2230 mt 6255 2176 L
6255 1617 mt 6255 1670 L
6189 2375 mt 
(80) s
 899 2230 mt  952 2230 L
6255 2230 mt 6201 2230 L
 798 2274 mt 
(0) s
 899 1923 mt  952 1923 L
6255 1923 mt 6201 1923 L
 798 1967 mt 
(1) s
 899 1617 mt  952 1617 L
6255 1617 mt 6201 1617 L
 798 1661 mt 
(2) s
 899 2230 mt 6255 2230 L
 899 1617 mt 6255 1617 L
 899 2230 mt  899 1617 L
6255 2230 mt 6255 1617 L
gs 899 1617 5357 614 MR c np
14.4 w
gr

14.4 w
gs 810 1835 5535 177 MR c np
/c8 { 1.000000 0.000000 0.000000 sr} bdef
c8
3005 1898 mt 3055 1948 L
3055 1898 mt 3005 1948 L
gr

c8
gs 899 1617 5357 614 MR c np
gr

0 sg
3316 2518 mt 
(Tempo [s]) s
2785 1522 mt 
(Perda de mensagens para V3) s
6 w
1 sg
0 613 5356 0 0 -613 899 3366 4 MP
PP
-5356 0 0 613 5356 0 0 -613 899 3366 5 MP stroke
4 w
DO
0 sg
 899 3366 mt  899 2753 L
 899 2753 mt  899 2753 L
1434 3366 mt 1434 2753 L
1434 2753 mt 1434 2753 L
1970 3366 mt 1970 2753 L
1970 2753 mt 1970 2753 L
2505 3366 mt 2505 2753 L
2505 2753 mt 2505 2753 L
3041 3366 mt 3041 2753 L
3041 2753 mt 3041 2753 L
3577 3366 mt 3577 2753 L
3577 2753 mt 3577 2753 L
4112 3366 mt 4112 2753 L
4112 2753 mt 4112 2753 L
4648 3366 mt 4648 2753 L
4648 2753 mt 4648 2753 L
5183 3366 mt 5183 2753 L
5183 2753 mt 5183 2753 L
5719 3366 mt 5719 2753 L
5719 2753 mt 5719 2753 L
6255 3366 mt 6255 2753 L
6255 2753 mt 6255 2753 L
 899 3366 mt 6255 3366 L
6255 3366 mt 6255 3366 L
 899 3059 mt 6255 3059 L
6255 3059 mt 6255 3059 L
 899 2753 mt 6255 2753 L
6255 2753 mt 6255 2753 L
SO
6 w
 899 3366 mt 6255 3366 L
 899 2753 mt 6255 2753 L
 899 3366 mt  899 2753 L
6255 3366 mt 6255 2753 L
 899 3366 mt 6255 3366 L
 899 3366 mt  899 2753 L
 899 3366 mt  899 3312 L
 899 2753 mt  899 2806 L
 833 3511 mt 
(70) s
1434 3366 mt 1434 3312 L
1434 2753 mt 1434 2806 L
1368 3511 mt 
(71) s
1970 3366 mt 1970 3312 L
1970 2753 mt 1970 2806 L
1904 3511 mt 
(72) s
2505 3366 mt 2505 3312 L
2505 2753 mt 2505 2806 L
2439 3511 mt 
(73) s
3041 3366 mt 3041 3312 L
3041 2753 mt 3041 2806 L
2975 3511 mt 
(74) s
3577 3366 mt 3577 3312 L
3577 2753 mt 3577 2806 L
3511 3511 mt 
(75) s
4112 3366 mt 4112 3312 L
4112 2753 mt 4112 2806 L
4046 3511 mt 
(76) s
4648 3366 mt 4648 3312 L
4648 2753 mt 4648 2806 L
4582 3511 mt 
(77) s
5183 3366 mt 5183 3312 L
5183 2753 mt 5183 2806 L
5117 3511 mt 
(78) s
5719 3366 mt 5719 3312 L
5719 2753 mt 5719 2806 L
5653 3511 mt 
(79) s
6255 3366 mt 6255 3312 L
6255 2753 mt 6255 2806 L
6189 3511 mt 
(80) s
 899 3366 mt  952 3366 L
6255 3366 mt 6201 3366 L
 798 3410 mt 
(0) s
 899 3059 mt  952 3059 L
6255 3059 mt 6201 3059 L
 798 3103 mt 
(1) s
 899 2753 mt  952 2753 L
6255 2753 mt 6201 2753 L
 798 2797 mt 
(2) s
 899 3366 mt 6255 3366 L
 899 2753 mt 6255 2753 L
 899 3366 mt  899 2753 L
6255 3366 mt 6255 2753 L
gs 899 2753 5357 614 MR c np
14.4 w
gr

14.4 w
gs 810 2971 5535 177 MR c np
c8
4103 3034 mt 4153 3084 L
4153 3034 mt 4103 3084 L
gr

c8
gs 899 2753 5357 614 MR c np
gr

0 sg
3316 3654 mt 
(Tempo [s]) s
2785 2658 mt 
(Perda de mensagens para V4) s
6 w
1 sg
0 613 5356 0 0 -613 899 4502 4 MP
PP
-5356 0 0 613 5356 0 0 -613 899 4502 5 MP stroke
4 w
DO
0 sg
 899 4502 mt  899 3889 L
 899 3889 mt  899 3889 L
1434 4502 mt 1434 3889 L
1434 3889 mt 1434 3889 L
1970 4502 mt 1970 3889 L
1970 3889 mt 1970 3889 L
2505 4502 mt 2505 3889 L
2505 3889 mt 2505 3889 L
3041 4502 mt 3041 3889 L
3041 3889 mt 3041 3889 L
3577 4502 mt 3577 3889 L
3577 3889 mt 3577 3889 L
4112 4502 mt 4112 3889 L
4112 3889 mt 4112 3889 L
4648 4502 mt 4648 3889 L
4648 3889 mt 4648 3889 L
5183 4502 mt 5183 3889 L
5183 3889 mt 5183 3889 L
5719 4502 mt 5719 3889 L
5719 3889 mt 5719 3889 L
6255 4502 mt 6255 3889 L
6255 3889 mt 6255 3889 L
 899 4502 mt 6255 4502 L
6255 4502 mt 6255 4502 L
 899 4195 mt 6255 4195 L
6255 4195 mt 6255 4195 L
 899 3889 mt 6255 3889 L
6255 3889 mt 6255 3889 L
SO
6 w
 899 4502 mt 6255 4502 L
 899 3889 mt 6255 3889 L
 899 4502 mt  899 3889 L
6255 4502 mt 6255 3889 L
 899 4502 mt 6255 4502 L
 899 4502 mt  899 3889 L
 899 4502 mt  899 4448 L
 899 3889 mt  899 3942 L
 833 4647 mt 
(70) s
1434 4502 mt 1434 4448 L
1434 3889 mt 1434 3942 L
1368 4647 mt 
(71) s
1970 4502 mt 1970 4448 L
1970 3889 mt 1970 3942 L
1904 4647 mt 
(72) s
2505 4502 mt 2505 4448 L
2505 3889 mt 2505 3942 L
2439 4647 mt 
(73) s
3041 4502 mt 3041 4448 L
3041 3889 mt 3041 3942 L
2975 4647 mt 
(74) s
3577 4502 mt 3577 4448 L
3577 3889 mt 3577 3942 L
3511 4647 mt 
(75) s
4112 4502 mt 4112 4448 L
4112 3889 mt 4112 3942 L
4046 4647 mt 
(76) s
4648 4502 mt 4648 4448 L
4648 3889 mt 4648 3942 L
4582 4647 mt 
(77) s
5183 4502 mt 5183 4448 L
5183 3889 mt 5183 3942 L
5117 4647 mt 
(78) s
5719 4502 mt 5719 4448 L
5719 3889 mt 5719 3942 L
5653 4647 mt 
(79) s
6255 4502 mt 6255 4448 L
6255 3889 mt 6255 3942 L
6189 4647 mt 
(80) s
 899 4502 mt  952 4502 L
6255 4502 mt 6201 4502 L
 798 4546 mt 
(0) s
 899 4195 mt  952 4195 L
6255 4195 mt 6201 4195 L
 798 4239 mt 
(1) s
 899 3889 mt  952 3889 L
6255 3889 mt 6201 3889 L
 798 3933 mt 
(2) s
 899 4502 mt 6255 4502 L
 899 3889 mt 6255 3889 L
 899 4502 mt  899 3889 L
6255 4502 mt 6255 3889 L
gs 899 3889 5357 614 MR c np
14.4 w
gr

14.4 w
gs 810 4107 5535 177 MR c np
c8
1077 4170 mt 1127 4220 L
1127 4170 mt 1077 4220 L
4783 4170 mt 4833 4220 L
4833 4170 mt 4783 4220 L
gr

c8
gs 899 3889 5357 614 MR c np
gr

0 sg
3316 4790 mt 
(Tempo [s]) s
2785 3794 mt 
(Perda de mensagens para V5) s
6 w

end %%Color Dict

eplot
%%EndObject

epage
end

showpage

%%Trailer
%%EOF
