%!PS-Adobe-2.0 EPSF-1.2
%%Creator: MATLAB, The Mathworks, Inc. Version 7.9.0.529 (R2009b). Operating System: Darwin 10.8.0 Darwin Kernel Version 10.8.0: Tue Jun  7 16:33:36 PDT 2011; root:xnu-1504.15.3~1/RELEASE_I386 i386.
%%Title: ./vD_vV_falhas_trajectoria_z_zoom.eps
%%CreationDate: 08/27/2011  23:28:19
%%DocumentNeededFonts: Helvetica
%%DocumentProcessColors: Cyan Magenta Yellow Black
%%Extensions: CMYK
%%Pages: 1
%%BoundingBox:    46   199   549   602
%%EndComments

%%BeginProlog
% MathWorks dictionary
/MathWorks 160 dict begin
% definition operators
/bdef {bind def} bind def
/ldef {load def} bind def
/xdef {exch def} bdef
/xstore {exch store} bdef
% operator abbreviations
/c  /clip ldef
/cc /concat ldef
/cp /closepath ldef
/gr /grestore ldef
/gs /gsave ldef
/mt /moveto ldef
/np /newpath ldef
/cm /currentmatrix ldef
/sm /setmatrix ldef
/rm /rmoveto ldef
/rl /rlineto ldef
/s {show newpath} bdef
/sc {setcmykcolor} bdef
/sr /setrgbcolor ldef
/sg /setgray ldef
/w /setlinewidth ldef
/j /setlinejoin ldef
/cap /setlinecap ldef
/rc {rectclip} bdef
/rf {rectfill} bdef
% page state control
/pgsv () def
/bpage {/pgsv save def} bdef
/epage {pgsv restore} bdef
/bplot /gsave ldef
/eplot {stroke grestore} bdef
% orientation switch
/portraitMode 0 def /landscapeMode 1 def /rotateMode 2 def
% coordinate system mappings
/dpi2point 0 def
% font control
/FontSize 0 def
/FMS {/FontSize xstore findfont [FontSize 0 0 FontSize neg 0 0]
  makefont setfont} bdef
/reencode {exch dup where {pop load} {pop StandardEncoding} ifelse
  exch dup 3 1 roll findfont dup length dict begin
  { 1 index /FID ne {def}{pop pop} ifelse } forall
  /Encoding exch def currentdict end definefont pop} bdef
/isroman {findfont /CharStrings get /Agrave known} bdef
/FMSR {3 1 roll 1 index dup isroman {reencode} {pop pop} ifelse
  exch FMS} bdef
/csm {1 dpi2point div -1 dpi2point div scale neg translate
 dup landscapeMode eq {pop -90 rotate}
  {rotateMode eq {90 rotate} if} ifelse} bdef
% line types: solid, dotted, dashed, dotdash
/SO { [] 0 setdash } bdef
/DO { [.5 dpi2point mul 4 dpi2point mul] 0 setdash } bdef
/DA { [6 dpi2point mul] 0 setdash } bdef
/DD { [.5 dpi2point mul 4 dpi2point mul 6 dpi2point mul 4
  dpi2point mul] 0 setdash } bdef
% macros for lines and objects
/L {lineto stroke} bdef
/MP {3 1 roll moveto 1 sub {rlineto} repeat} bdef
/AP {{rlineto} repeat} bdef
/PDlw -1 def
/W {/PDlw currentlinewidth def setlinewidth} def
/PP {closepath eofill} bdef
/DP {closepath stroke} bdef
/MR {4 -2 roll moveto dup  0 exch rlineto exch 0 rlineto
  neg 0 exch rlineto closepath} bdef
/FR {MR stroke} bdef
/PR {MR fill} bdef
/L1i {{currentfile picstr readhexstring pop} image} bdef
/tMatrix matrix def
/MakeOval {newpath tMatrix currentmatrix pop translate scale
0 0 1 0 360 arc tMatrix setmatrix} bdef
/FO {MakeOval stroke} bdef
/PO {MakeOval fill} bdef
/PD {currentlinewidth 2 div 0 360 arc fill
   PDlw -1 eq not {PDlw w /PDlw -1 def} if} def
/FA {newpath tMatrix currentmatrix pop translate scale
  0 0 1 5 -2 roll arc tMatrix setmatrix stroke} bdef
/PA {newpath tMatrix currentmatrix pop	translate 0 0 moveto scale
  0 0 1 5 -2 roll arc closepath tMatrix setmatrix fill} bdef
/FAn {newpath tMatrix currentmatrix pop translate scale
  0 0 1 5 -2 roll arcn tMatrix setmatrix stroke} bdef
/PAn {newpath tMatrix currentmatrix pop translate 0 0 moveto scale
  0 0 1 5 -2 roll arcn closepath tMatrix setmatrix fill} bdef
/vradius 0 def /hradius 0 def /lry 0 def
/lrx 0 def /uly 0 def /ulx 0 def /rad 0 def
/MRR {/vradius xdef /hradius xdef /lry xdef /lrx xdef /uly xdef
  /ulx xdef newpath tMatrix currentmatrix pop ulx hradius add uly
  vradius add translate hradius vradius scale 0 0 1 180 270 arc 
  tMatrix setmatrix lrx hradius sub uly vradius add translate
  hradius vradius scale 0 0 1 270 360 arc tMatrix setmatrix
  lrx hradius sub lry vradius sub translate hradius vradius scale
  0 0 1 0 90 arc tMatrix setmatrix ulx hradius add lry vradius sub
  translate hradius vradius scale 0 0 1 90 180 arc tMatrix setmatrix
  closepath} bdef
/FRR {MRR stroke } bdef
/PRR {MRR fill } bdef
/MlrRR {/lry xdef /lrx xdef /uly xdef /ulx xdef /rad lry uly sub 2 div def
  newpath tMatrix currentmatrix pop ulx rad add uly rad add translate
  rad rad scale 0 0 1 90 270 arc tMatrix setmatrix lrx rad sub lry rad
  sub translate rad rad scale 0 0 1 270 90 arc tMatrix setmatrix
  closepath} bdef
/FlrRR {MlrRR stroke } bdef
/PlrRR {MlrRR fill } bdef
/MtbRR {/lry xdef /lrx xdef /uly xdef /ulx xdef /rad lrx ulx sub 2 div def
  newpath tMatrix currentmatrix pop ulx rad add uly rad add translate
  rad rad scale 0 0 1 180 360 arc tMatrix setmatrix lrx rad sub lry rad
  sub translate rad rad scale 0 0 1 0 180 arc tMatrix setmatrix
  closepath} bdef
/FtbRR {MtbRR stroke } bdef
/PtbRR {MtbRR fill } bdef
/stri 6 array def /dtri 6 array def
/smat 6 array def /dmat 6 array def
/tmat1 6 array def /tmat2 6 array def /dif 3 array def
/asub {/ind2 exch def /ind1 exch def dup dup
  ind1 get exch ind2 get sub exch } bdef
/tri_to_matrix {
  2 0 asub 3 1 asub 4 0 asub 5 1 asub
  dup 0 get exch 1 get 7 -1 roll astore } bdef
/compute_transform {
  dmat dtri tri_to_matrix tmat1 invertmatrix 
  smat stri tri_to_matrix tmat2 concatmatrix } bdef
/ds {stri astore pop} bdef
/dt {dtri astore pop} bdef
/db {2 copy /cols xdef /rows xdef mul dup 3 mul string
  currentfile exch readhexstring pop
  dup 0 3 index getinterval /rbmap xdef
  dup 2 index dup getinterval /gbmap xdef
  1 index dup 2 mul exch getinterval /bbmap xdef pop pop}bdef
/it {gs np dtri aload pop moveto lineto lineto cp c
  cols rows 8 compute_transform 
  rbmap gbmap bbmap true 3 colorimage gr}bdef
/il {newpath moveto lineto stroke}bdef
currentdict end def
%%EndProlog

%%BeginSetup
MathWorks begin

0 cap

end
%%EndSetup

%%Page: 1 1
%%BeginPageSetup
%%PageBoundingBox:    46   199   549   602
MathWorks begin
bpage
%%EndPageSetup

%%BeginObject: obj1
bplot

/dpi2point 12 def
portraitMode 0216 7344 csm

  343   110  6035  4845 MR c np
86 dict begin %Colortable dictionary
/c0 { 0.000000 0.000000 0.000000 sr} bdef
/c1 { 1.000000 1.000000 1.000000 sr} bdef
/c2 { 0.900000 0.000000 0.000000 sr} bdef
/c3 { 0.000000 0.820000 0.000000 sr} bdef
/c4 { 0.000000 0.000000 0.800000 sr} bdef
/c5 { 0.910000 0.820000 0.320000 sr} bdef
/c6 { 1.000000 0.260000 0.820000 sr} bdef
/c7 { 0.000000 0.820000 0.820000 sr} bdef
c0
1 j
1 sg
   0    0 6913 5186 PR
6 w
0 4226 5356 0 0 -4226 899 4615 4 MP
PP
-5356 0 0 4226 5356 0 0 -4226 899 4615 5 MP stroke
4 w
DO
0 sg
 899 4615 mt  899  389 L
 899  389 mt  899  389 L
1434 4615 mt 1434  389 L
1434  389 mt 1434  389 L
1970 4615 mt 1970  389 L
1970  389 mt 1970  389 L
2505 4615 mt 2505  389 L
2505  389 mt 2505  389 L
3041 4615 mt 3041  389 L
3041  389 mt 3041  389 L
3577 4615 mt 3577  389 L
3577  389 mt 3577  389 L
4112 4615 mt 4112  389 L
4112  389 mt 4112  389 L
4648 4615 mt 4648  389 L
4648  389 mt 4648  389 L
5183 4615 mt 5183  389 L
5183  389 mt 5183  389 L
5719 4615 mt 5719  389 L
5719  389 mt 5719  389 L
6255 4615 mt 6255  389 L
6255  389 mt 6255  389 L
 899 4615 mt 6255 4615 L
6255 4615 mt 6255 4615 L
 899 4192 mt 6255 4192 L
6255 4192 mt 6255 4192 L
 899 3769 mt 6255 3769 L
6255 3769 mt 6255 3769 L
 899 3347 mt 6255 3347 L
6255 3347 mt 6255 3347 L
 899 2924 mt 6255 2924 L
6255 2924 mt 6255 2924 L
 899 2502 mt 6255 2502 L
6255 2502 mt 6255 2502 L
 899 2079 mt 6255 2079 L
6255 2079 mt 6255 2079 L
 899 1656 mt 6255 1656 L
6255 1656 mt 6255 1656 L
 899 1234 mt 6255 1234 L
6255 1234 mt 6255 1234 L
 899  811 mt 6255  811 L
6255  811 mt 6255  811 L
 899  389 mt 6255  389 L
6255  389 mt 6255  389 L
SO
6 w
 899 4615 mt 6255 4615 L
 899  389 mt 6255  389 L
 899 4615 mt  899  389 L
6255 4615 mt 6255  389 L
 899 4615 mt 6255 4615 L
 899 4615 mt  899  389 L
 899 4615 mt  899 4561 L
 899  389 mt  899  442 L
%%IncludeResource: font Helvetica
/Helvetica /ISOLatin1Encoding 120 FMSR

 833 4760 mt 
(70) s
1434 4615 mt 1434 4561 L
1434  389 mt 1434  442 L
1368 4760 mt 
(71) s
1970 4615 mt 1970 4561 L
1970  389 mt 1970  442 L
1904 4760 mt 
(72) s
2505 4615 mt 2505 4561 L
2505  389 mt 2505  442 L
2439 4760 mt 
(73) s
3041 4615 mt 3041 4561 L
3041  389 mt 3041  442 L
2975 4760 mt 
(74) s
3577 4615 mt 3577 4561 L
3577  389 mt 3577  442 L
3511 4760 mt 
(75) s
4112 4615 mt 4112 4561 L
4112  389 mt 4112  442 L
4046 4760 mt 
(76) s
4648 4615 mt 4648 4561 L
4648  389 mt 4648  442 L
4582 4760 mt 
(77) s
5183 4615 mt 5183 4561 L
5183  389 mt 5183  442 L
5117 4760 mt 
(78) s
5719 4615 mt 5719 4561 L
5719  389 mt 5719  442 L
5653 4760 mt 
(79) s
6255 4615 mt 6255 4561 L
6255  389 mt 6255  442 L
6189 4760 mt 
(80) s
 899 4615 mt  952 4615 L
6255 4615 mt 6201 4615 L
 561 4659 mt 
(-9.66) s
 899 4192 mt  952 4192 L
6255 4192 mt 6201 4192 L
 561 4236 mt 
(-9.65) s
 899 3769 mt  952 3769 L
6255 3769 mt 6201 3769 L
 561 3813 mt 
(-9.64) s
 899 3347 mt  952 3347 L
6255 3347 mt 6201 3347 L
 561 3391 mt 
(-9.63) s
 899 2924 mt  952 2924 L
6255 2924 mt 6201 2924 L
 561 2968 mt 
(-9.62) s
 899 2502 mt  952 2502 L
6255 2502 mt 6201 2502 L
 561 2546 mt 
(-9.61) s
 899 2079 mt  952 2079 L
6255 2079 mt 6201 2079 L
 628 2123 mt 
(-9.6) s
 899 1656 mt  952 1656 L
6255 1656 mt 6201 1656 L
 561 1700 mt 
(-9.59) s
 899 1234 mt  952 1234 L
6255 1234 mt 6201 1234 L
 561 1278 mt 
(-9.58) s
 899  811 mt  952  811 L
6255  811 mt 6201  811 L
 561  855 mt 
(-9.57) s
 899  389 mt  952  389 L
6255  389 mt 6201  389 L
 561  433 mt 
(-9.56) s
 899 4615 mt 6255 4615 L
 899  389 mt 6255  389 L
 899 4615 mt  899  389 L
6255 4615 mt 6255  389 L
gs 899 389 5357 4227 MR c np
gr

gs 826 2006 5504 2260 MR c np
/c8 { 0.000000 0.000000 1.000000 sr} bdef
c8
  36   36  904 4190 FO
  36   36  909 4188 FO
  36   36  915 4186 FO
  36   36  920 4183 FO
  36   36  925 4181 FO
  36   36  931 4179 FO
  36   36  936 4177 FO
  36   36  941 4175 FO
  36   36  947 4173 FO
  36   36  952 4171 FO
  36   36  957 4169 FO
  36   36  963 4167 FO
  36   36  968 4164 FO
  36   36  973 4162 FO
  36   36  979 4160 FO
  36   36  984 4158 FO
  36   36  990 4156 FO
  36   36  995 4154 FO
  36   36 1000 4152 FO
  36   36 1006 4150 FO
  36   36 1011 4148 FO
  36   36 1016 4145 FO
  36   36 1022 4143 FO
  36   36 1027 4141 FO
  36   36 1032 4139 FO
  36   36 1038 4137 FO
  36   36 1043 4135 FO
  36   36 1048 4133 FO
  36   36 1054 4131 FO
  36   36 1059 4129 FO
  36   36 1065 4126 FO
  36   36 1070 4124 FO
  36   36 1075 4122 FO
  36   36 1081 4120 FO
  36   36 1086 4118 FO
  36   36 1091 4116 FO
  36   36 1097 4114 FO
  36   36 1102 4112 FO
  36   36 1107 4109 FO
  36   36 1113 4107 FO
  36   36 1118 4105 FO
  36   36 1123 4103 FO
  36   36 1129 4101 FO
  36   36 1134 4099 FO
  36   36 1140 4097 FO
  36   36 1145 4095 FO
  36   36 1150 4093 FO
  36   36 1156 4090 FO
  36   36 1161 4088 FO
  36   36 1166 4086 FO
  36   36 1172 4084 FO
  36   36 1177 4082 FO
  36   36 1182 4080 FO
  36   36 1188 4078 FO
  36   36 1193 4076 FO
  36   36 1198 4074 FO
  36   36 1204 4071 FO
  36   36 1209 4069 FO
  36   36 1215 4067 FO
  36   36 1220 4065 FO
  36   36 1225 4063 FO
  36   36 1231 4061 FO
  36   36 1236 4059 FO
  36   36 1241 4057 FO
  36   36 1247 4055 FO
  36   36 1252 4052 FO
  36   36 1257 4050 FO
  36   36 1263 4048 FO
  36   36 1268 4046 FO
  36   36 1273 4044 FO
  36   36 1279 4042 FO
  36   36 1284 4040 FO
  36   36 1289 4038 FO
  36   36 1295 4036 FO
  36   36 1300 4033 FO
  36   36 1306 4031 FO
  36   36 1311 4029 FO
  36   36 1316 4027 FO
  36   36 1322 4025 FO
  36   36 1327 4023 FO
  36   36 1332 4021 FO
  36   36 1338 4019 FO
  36   36 1343 4017 FO
  36   36 1348 4014 FO
  36   36 1354 4012 FO
  36   36 1359 4010 FO
  36   36 1364 4008 FO
  36   36 1370 4006 FO
  36   36 1375 4004 FO
  36   36 1381 4002 FO
  36   36 1386 4000 FO
  36   36 1391 3998 FO
  36   36 1397 3995 FO
  36   36 1402 3993 FO
  36   36 1407 3991 FO
  36   36 1413 3989 FO
  36   36 1418 3987 FO
  36   36 1423 3985 FO
  36   36 1429 3983 FO
  36   36 1434 3981 FO
  36   36 1439 3978 FO
  36   36 1445 3976 FO
  36   36 1450 3974 FO
  36   36 1456 3972 FO
  36   36 1461 3970 FO
  36   36 1466 3968 FO
  36   36 1472 3966 FO
  36   36 1477 3964 FO
  36   36 1482 3962 FO
  36   36 1488 3959 FO
  36   36 1493 3957 FO
  36   36 1498 3955 FO
  36   36 1504 3953 FO
  36   36 1509 3951 FO
  36   36 1514 3949 FO
  36   36 1520 3947 FO
  36   36 1525 3945 FO
  36   36 1531 3943 FO
  36   36 1536 3940 FO
  36   36 1541 3938 FO
  36   36 1547 3936 FO
  36   36 1552 3934 FO
  36   36 1557 3932 FO
  36   36 1563 3930 FO
  36   36 1568 3928 FO
  36   36 1573 3926 FO
  36   36 1579 3924 FO
  36   36 1584 3921 FO
  36   36 1589 3919 FO
  36   36 1595 3917 FO
  36   36 1600 3915 FO
  36   36 1605 3913 FO
  36   36 1611 3911 FO
  36   36 1616 3909 FO
  36   36 1622 3907 FO
  36   36 1627 3905 FO
  36   36 1632 3902 FO
  36   36 1638 3900 FO
  36   36 1643 3898 FO
  36   36 1648 3896 FO
  36   36 1654 3894 FO
  36   36 1659 3892 FO
  36   36 1664 3890 FO
  36   36 1670 3888 FO
  36   36 1675 3886 FO
  36   36 1680 3883 FO
  36   36 1686 3881 FO
  36   36 1691 3879 FO
  36   36 1697 3877 FO
  36   36 1702 3875 FO
  36   36 1707 3873 FO
  36   36 1713 3871 FO
  36   36 1718 3869 FO
  36   36 1723 3866 FO
  36   36 1729 3864 FO
  36   36 1734 3862 FO
  36   36 1739 3860 FO
  36   36 1745 3858 FO
  36   36 1750 3856 FO
  36   36 1755 3854 FO
  36   36 1761 3852 FO
  36   36 1766 3850 FO
  36   36 1772 3847 FO
  36   36 1777 3845 FO
  36   36 1782 3843 FO
  36   36 1788 3841 FO
  36   36 1793 3839 FO
  36   36 1798 3837 FO
  36   36 1804 3835 FO
  36   36 1809 3833 FO
  36   36 1814 3831 FO
  36   36 1820 3828 FO
  36   36 1825 3826 FO
  36   36 1830 3824 FO
  36   36 1836 3822 FO
  36   36 1841 3820 FO
  36   36 1847 3818 FO
  36   36 1852 3816 FO
  36   36 1857 3814 FO
  36   36 1863 3812 FO
  36   36 1868 3809 FO
  36   36 1873 3807 FO
  36   36 1879 3805 FO
  36   36 1884 3803 FO
  36   36 1889 3801 FO
  36   36 1895 3799 FO
  36   36 1900 3797 FO
  36   36 1905 3795 FO
  36   36 1911 3793 FO
  36   36 1916 3790 FO
  36   36 1921 3788 FO
  36   36 1927 3786 FO
  36   36 1932 3784 FO
  36   36 1938 3782 FO
  36   36 1943 3780 FO
  36   36 1948 3778 FO
  36   36 1954 3776 FO
  36   36 1959 3774 FO
  36   36 1964 3771 FO
  36   36 1970 3769 FO
  36   36 1975 3767 FO
  36   36 1980 3765 FO
  36   36 1986 3763 FO
  36   36 1991 3761 FO
  36   36 1996 3759 FO
  36   36 2002 3757 FO
  36   36 2007 3755 FO
  36   36 2013 3752 FO
  36   36 2018 3750 FO
  36   36 2023 3748 FO
  36   36 2029 3746 FO
  36   36 2034 3744 FO
  36   36 2039 3742 FO
  36   36 2045 3740 FO
  36   36 2050 3738 FO
  36   36 2055 3735 FO
  36   36 2061 3733 FO
  36   36 2066 3731 FO
  36   36 2071 3729 FO
  36   36 2077 3727 FO
  36   36 2082 3725 FO
  36   36 2088 3723 FO
  36   36 2093 3721 FO
  36   36 2098 3719 FO
  36   36 2104 3716 FO
  36   36 2109 3714 FO
  36   36 2114 3712 FO
  36   36 2120 3710 FO
  36   36 2125 3708 FO
  36   36 2130 3706 FO
  36   36 2136 3704 FO
  36   36 2141 3702 FO
  36   36 2146 3700 FO
  36   36 2152 3697 FO
  36   36 2157 3695 FO
  36   36 2163 3693 FO
  36   36 2168 3691 FO
  36   36 2173 3689 FO
  36   36 2179 3687 FO
  36   36 2184 3685 FO
  36   36 2189 3683 FO
  36   36 2195 3681 FO
  36   36 2200 3678 FO
  36   36 2205 3676 FO
  36   36 2211 3674 FO
  36   36 2216 3672 FO
  36   36 2221 3670 FO
  36   36 2227 3668 FO
  36   36 2232 3666 FO
  36   36 2238 3664 FO
  36   36 2243 3662 FO
  36   36 2248 3659 FO
  36   36 2254 3657 FO
  36   36 2259 3655 FO
  36   36 2264 3653 FO
  36   36 2270 3651 FO
  36   36 2275 3649 FO
  36   36 2280 3647 FO
  36   36 2286 3645 FO
  36   36 2291 3643 FO
  36   36 2296 3640 FO
  36   36 2302 3638 FO
  36   36 2307 3636 FO
  36   36 2312 3634 FO
  36   36 2318 3632 FO
  36   36 2323 3630 FO
  36   36 2329 3628 FO
  36   36 2334 3626 FO
  36   36 2339 3624 FO
  36   36 2345 3621 FO
  36   36 2350 3619 FO
  36   36 2355 3617 FO
  36   36 2361 3615 FO
  36   36 2366 3613 FO
  36   36 2371 3611 FO
  36   36 2377 3609 FO
  36   36 2382 3607 FO
  36   36 2387 3604 FO
  36   36 2393 3602 FO
  36   36 2398 3600 FO
  36   36 2404 3598 FO
  36   36 2409 3596 FO
  36   36 2414 3594 FO
  36   36 2420 3592 FO
  36   36 2425 3590 FO
  36   36 2430 3588 FO
  36   36 2436 3585 FO
  36   36 2441 3583 FO
  36   36 2446 3581 FO
  36   36 2452 3579 FO
  36   36 2457 3577 FO
  36   36 2462 3575 FO
  36   36 2468 3573 FO
  36   36 2473 3571 FO
  36   36 2479 3569 FO
  36   36 2484 3566 FO
  36   36 2489 3564 FO
  36   36 2495 3562 FO
  36   36 2500 3560 FO
  36   36 2505 3558 FO
  36   36 2511 3556 FO
  36   36 2516 3554 FO
  36   36 2521 3552 FO
  36   36 2527 3550 FO
  36   36 2532 3547 FO
  36   36 2537 3545 FO
  36   36 2543 3543 FO
  36   36 2548 3541 FO
  36   36 2554 3539 FO
  36   36 2559 3537 FO
  36   36 2564 3535 FO
  36   36 2570 3533 FO
  36   36 2575 3531 FO
  36   36 2580 3528 FO
  36   36 2586 3526 FO
  36   36 2591 3524 FO
  36   36 2596 3522 FO
  36   36 2602 3520 FO
  36   36 2607 3518 FO
  36   36 2612 3516 FO
  36   36 2618 3514 FO
  36   36 2623 3512 FO
  36   36 2628 3509 FO
  36   36 2634 3507 FO
  36   36 2639 3505 FO
  36   36 2645 3503 FO
  36   36 2650 3501 FO
  36   36 2655 3499 FO
  36   36 2661 3497 FO
  36   36 2666 3495 FO
  36   36 2671 3492 FO
  36   36 2677 3490 FO
  36   36 2682 3488 FO
  36   36 2687 3486 FO
  36   36 2693 3484 FO
  36   36 2698 3482 FO
  36   36 2703 3480 FO
  36   36 2709 3478 FO
  36   36 2714 3476 FO
  36   36 2720 3473 FO
  36   36 2725 3471 FO
  36   36 2730 3469 FO
  36   36 2736 3467 FO
  36   36 2741 3465 FO
  36   36 2746 3463 FO
  36   36 2752 3461 FO
  36   36 2757 3459 FO
  36   36 2762 3457 FO
  36   36 2768 3454 FO
  36   36 2773 3452 FO
  36   36 2778 3450 FO
  36   36 2784 3448 FO
  36   36 2789 3446 FO
  36   36 2795 3444 FO
  36   36 2800 3442 FO
  36   36 2805 3440 FO
  36   36 2811 3438 FO
  36   36 2816 3435 FO
  36   36 2821 3433 FO
  36   36 2827 3431 FO
  36   36 2832 3429 FO
  36   36 2837 3427 FO
  36   36 2843 3425 FO
  36   36 2848 3423 FO
  36   36 2853 3421 FO
  36   36 2859 3419 FO
  36   36 2864 3416 FO
  36   36 2870 3414 FO
  36   36 2875 3412 FO
  36   36 2880 3410 FO
  36   36 2886 3408 FO
  36   36 2891 3406 FO
  36   36 2896 3404 FO
  36   36 2902 3402 FO
  36   36 2907 3400 FO
  36   36 2912 3397 FO
  36   36 2918 3395 FO
  36   36 2923 3393 FO
  36   36 2928 3391 FO
  36   36 2934 3389 FO
  36   36 2939 3387 FO
  36   36 2944 3385 FO
  36   36 2950 3383 FO
  36   36 2955 3381 FO
  36   36 2961 3378 FO
  36   36 2966 3376 FO
  36   36 2971 3374 FO
  36   36 2977 3372 FO
  36   36 2982 3370 FO
  36   36 2987 3368 FO
  36   36 2993 3366 FO
  36   36 2998 3364 FO
  36   36 3003 3361 FO
  36   36 3009 3359 FO
  36   36 3014 3357 FO
  36   36 3019 3355 FO
  36   36 3025 3353 FO
  36   36 3030 3351 FO
  36   36 3036 3349 FO
  36   36 3041 3347 FO
  36   36 3046 3345 FO
  36   36 3052 3342 FO
  36   36 3057 3340 FO
  36   36 3062 3338 FO
  36   36 3068 3336 FO
  36   36 3073 3334 FO
  36   36 3078 3332 FO
  36   36 3084 3330 FO
  36   36 3089 3328 FO
  36   36 3094 3326 FO
  36   36 3100 3323 FO
  36   36 3105 3321 FO
  36   36 3111 3319 FO
  36   36 3116 3317 FO
  36   36 3121 3315 FO
  36   36 3127 3313 FO
  36   36 3132 3311 FO
  36   36 3137 3309 FO
  36   36 3143 3307 FO
  36   36 3148 3304 FO
  36   36 3153 3302 FO
  36   36 3159 3300 FO
  36   36 3164 3298 FO
  36   36 3169 3296 FO
  36   36 3175 3294 FO
  36   36 3180 3292 FO
  36   36 3186 3290 FO
  36   36 3191 3288 FO
  36   36 3196 3285 FO
  36   36 3202 3283 FO
  36   36 3207 3281 FO
  36   36 3212 3279 FO
  36   36 3218 3277 FO
  36   36 3223 3275 FO
  36   36 3228 3273 FO
  36   36 3234 3271 FO
  36   36 3239 3269 FO
  36   36 3244 3266 FO
  36   36 3250 3264 FO
  36   36 3255 3262 FO
  36   36 3260 3260 FO
  36   36 3266 3258 FO
  36   36 3271 3256 FO
  36   36 3277 3254 FO
  36   36 3282 3252 FO
  36   36 3287 3250 FO
  36   36 3293 3247 FO
  36   36 3298 3245 FO
  36   36 3303 3243 FO
  36   36 3309 3241 FO
  36   36 3314 3239 FO
  36   36 3319 3237 FO
  36   36 3325 3235 FO
  36   36 3330 3233 FO
  36   36 3335 3230 FO
  36   36 3341 3228 FO
  36   36 3346 3226 FO
  36   36 3352 3224 FO
  36   36 3357 3222 FO
  36   36 3362 3220 FO
  36   36 3368 3218 FO
  36   36 3373 3216 FO
  36   36 3378 3214 FO
  36   36 3384 3211 FO
  36   36 3389 3209 FO
  36   36 3394 3207 FO
  36   36 3400 3205 FO
  36   36 3405 3203 FO
  36   36 3410 3201 FO
  36   36 3416 3199 FO
  36   36 3421 3197 FO
  36   36 3427 3195 FO
  36   36 3432 3192 FO
  36   36 3437 3190 FO
  36   36 3443 3188 FO
  36   36 3448 3186 FO
  36   36 3453 3184 FO
  36   36 3459 3182 FO
  36   36 3464 3180 FO
  36   36 3469 3178 FO
  36   36 3475 3176 FO
  36   36 3480 3173 FO
  36   36 3485 3171 FO
  36   36 3491 3169 FO
  36   36 3496 3167 FO
  36   36 3502 3165 FO
  36   36 3507 3163 FO
  36   36 3512 3161 FO
  36   36 3518 3159 FO
  36   36 3523 3157 FO
  36   36 3528 3154 FO
  36   36 3534 3152 FO
  36   36 3539 3150 FO
  36   36 3544 3148 FO
  36   36 3550 3146 FO
  36   36 3555 3144 FO
  36   36 3560 3142 FO
  36   36 3566 3140 FO
  36   36 3571 3138 FO
  36   36 3577 3135 FO
  36   36 3582 3133 FO
  36   36 3587 3131 FO
  36   36 3593 3129 FO
  36   36 3598 3127 FO
  36   36 3603 3125 FO
  36   36 3609 3123 FO
  36   36 3614 3121 FO
  36   36 3619 3118 FO
  36   36 3625 3116 FO
  36   36 3630 3114 FO
  36   36 3635 3112 FO
  36   36 3641 3110 FO
  36   36 3646 3108 FO
  36   36 3651 3106 FO
  36   36 3657 3104 FO
  36   36 3662 3102 FO
  36   36 3668 3099 FO
  36   36 3673 3097 FO
  36   36 3678 3095 FO
  36   36 3684 3093 FO
  36   36 3689 3091 FO
  36   36 3694 3089 FO
  36   36 3700 3087 FO
  36   36 3705 3085 FO
  36   36 3710 3083 FO
  36   36 3716 3080 FO
  36   36 3721 3078 FO
  36   36 3726 3076 FO
  36   36 3732 3074 FO
  36   36 3737 3072 FO
  36   36 3743 3070 FO
  36   36 3748 3068 FO
  36   36 3753 3066 FO
  36   36 3759 3064 FO
  36   36 3764 3061 FO
  36   36 3769 3059 FO
  36   36 3775 3057 FO
  36   36 3780 3055 FO
  36   36 3785 3053 FO
  36   36 3791 3051 FO
  36   36 3796 3049 FO
  36   36 3801 3047 FO
  36   36 3807 3045 FO
  36   36 3812 3042 FO
  36   36 3818 3040 FO
  36   36 3823 3038 FO
  36   36 3828 3036 FO
  36   36 3834 3034 FO
  36   36 3839 3032 FO
  36   36 3844 3030 FO
  36   36 3850 3028 FO
  36   36 3855 3026 FO
  36   36 3860 3023 FO
  36   36 3866 3021 FO
  36   36 3871 3019 FO
  36   36 3876 3017 FO
  36   36 3882 3015 FO
  36   36 3887 3013 FO
  36   36 3893 3011 FO
  36   36 3898 3009 FO
  36   36 3903 3007 FO
  36   36 3909 3004 FO
  36   36 3914 3002 FO
  36   36 3919 3000 FO
  36   36 3925 2998 FO
  36   36 3930 2996 FO
  36   36 3935 2994 FO
  36   36 3941 2992 FO
  36   36 3946 2990 FO
  36   36 3951 2987 FO
  36   36 3957 2985 FO
  36   36 3962 2983 FO
  36   36 3967 2981 FO
  36   36 3973 2979 FO
  36   36 3978 2977 FO
  36   36 3984 2975 FO
  36   36 3989 2973 FO
  36   36 3994 2971 FO
  36   36 4000 2968 FO
  36   36 4005 2966 FO
  36   36 4010 2964 FO
  36   36 4016 2962 FO
  36   36 4021 2960 FO
  36   36 4026 2958 FO
  36   36 4032 2956 FO
  36   36 4037 2954 FO
  36   36 4042 2952 FO
  36   36 4048 2949 FO
  36   36 4053 2947 FO
  36   36 4059 2945 FO
  36   36 4064 2943 FO
  36   36 4069 2941 FO
  36   36 4075 2939 FO
  36   36 4080 2937 FO
  36   36 4085 2935 FO
  36   36 4091 2933 FO
  36   36 4096 2930 FO
  36   36 4101 2928 FO
  36   36 4107 2926 FO
  36   36 4112 2924 FO
  36   36 4117 2922 FO
  36   36 4123 2920 FO
  36   36 4128 2918 FO
  36   36 4134 2916 FO
  36   36 4139 2914 FO
  36   36 4144 2911 FO
  36   36 4150 2909 FO
  36   36 4155 2907 FO
  36   36 4160 2905 FO
  36   36 4166 2903 FO
  36   36 4171 2901 FO
  36   36 4176 2899 FO
  36   36 4182 2897 FO
  36   36 4187 2895 FO
  36   36 4192 2892 FO
  36   36 4198 2890 FO
  36   36 4203 2888 FO
  36   36 4209 2886 FO
  36   36 4214 2884 FO
  36   36 4219 2882 FO
  36   36 4225 2880 FO
  36   36 4230 2878 FO
  36   36 4235 2876 FO
  36   36 4241 2873 FO
  36   36 4246 2871 FO
  36   36 4251 2869 FO
  36   36 4257 2867 FO
  36   36 4262 2865 FO
  36   36 4267 2863 FO
  36   36 4273 2861 FO
  36   36 4278 2859 FO
  36   36 4283 2856 FO
  36   36 4289 2854 FO
  36   36 4294 2852 FO
  36   36 4300 2850 FO
  36   36 4305 2848 FO
  36   36 4310 2846 FO
  36   36 4316 2844 FO
  36   36 4321 2842 FO
  36   36 4326 2840 FO
  36   36 4332 2837 FO
  36   36 4337 2835 FO
  36   36 4342 2833 FO
  36   36 4348 2831 FO
  36   36 4353 2829 FO
  36   36 4358 2827 FO
  36   36 4364 2825 FO
  36   36 4369 2823 FO
  36   36 4375 2821 FO
  36   36 4380 2818 FO
  36   36 4385 2816 FO
  36   36 4391 2814 FO
  36   36 4396 2812 FO
  36   36 4401 2810 FO
  36   36 4407 2808 FO
  36   36 4412 2806 FO
  36   36 4417 2804 FO
  36   36 4423 2802 FO
  36   36 4428 2799 FO
  36   36 4433 2797 FO
  36   36 4439 2795 FO
  36   36 4444 2793 FO
  36   36 4450 2791 FO
  36   36 4455 2789 FO
  36   36 4460 2787 FO
  36   36 4466 2785 FO
  36   36 4471 2783 FO
  36   36 4476 2780 FO
  36   36 4482 2778 FO
  36   36 4487 2776 FO
  36   36 4492 2774 FO
  36   36 4498 2772 FO
  36   36 4503 2770 FO
  36   36 4508 2768 FO
  36   36 4514 2766 FO
  36   36 4519 2764 FO
  36   36 4525 2761 FO
  36   36 4530 2759 FO
  36   36 4535 2757 FO
  36   36 4541 2755 FO
  36   36 4546 2753 FO
  36   36 4551 2751 FO
  36   36 4557 2749 FO
  36   36 4562 2747 FO
  36   36 4567 2744 FO
  36   36 4573 2742 FO
  36   36 4578 2740 FO
  36   36 4583 2738 FO
  36   36 4589 2736 FO
  36   36 4594 2734 FO
  36   36 4599 2732 FO
  36   36 4605 2730 FO
  36   36 4610 2728 FO
  36   36 4616 2725 FO
  36   36 4621 2723 FO
  36   36 4626 2721 FO
  36   36 4632 2719 FO
  36   36 4637 2717 FO
  36   36 4642 2715 FO
  36   36 4648 2713 FO
  36   36 4653 2711 FO
  36   36 4658 2709 FO
  36   36 4664 2706 FO
  36   36 4669 2704 FO
  36   36 4674 2702 FO
  36   36 4680 2700 FO
  36   36 4685 2698 FO
  36   36 4691 2696 FO
  36   36 4696 2694 FO
  36   36 4701 2692 FO
  36   36 4707 2690 FO
  36   36 4712 2687 FO
  36   36 4717 2685 FO
  36   36 4723 2683 FO
  36   36 4728 2681 FO
  36   36 4733 2679 FO
  36   36 4739 2677 FO
  36   36 4744 2675 FO
  36   36 4749 2673 FO
  36   36 4755 2671 FO
  36   36 4760 2668 FO
  36   36 4766 2666 FO
  36   36 4771 2664 FO
  36   36 4776 2662 FO
  36   36 4782 2660 FO
  36   36 4787 2658 FO
  36   36 4792 2656 FO
  36   36 4798 2654 FO
  36   36 4803 2652 FO
  36   36 4808 2649 FO
  36   36 4814 2647 FO
  36   36 4819 2645 FO
  36   36 4824 2643 FO
  36   36 4830 2641 FO
  36   36 4835 2639 FO
  36   36 4841 2637 FO
  36   36 4846 2635 FO
  36   36 4851 2633 FO
  36   36 4857 2630 FO
  36   36 4862 2628 FO
  36   36 4867 2626 FO
  36   36 4873 2624 FO
  36   36 4878 2622 FO
  36   36 4883 2620 FO
  36   36 4889 2618 FO
  36   36 4894 2616 FO
  36   36 4899 2613 FO
  36   36 4905 2611 FO
  36   36 4910 2609 FO
  36   36 4916 2607 FO
  36   36 4921 2605 FO
  36   36 4926 2603 FO
  36   36 4932 2601 FO
  36   36 4937 2599 FO
  36   36 4942 2597 FO
  36   36 4948 2594 FO
  36   36 4953 2592 FO
  36   36 4958 2590 FO
  36   36 4964 2588 FO
  36   36 4969 2586 FO
  36   36 4974 2584 FO
  36   36 4980 2582 FO
  36   36 4985 2580 FO
  36   36 4990 2578 FO
  36   36 4996 2575 FO
  36   36 5001 2573 FO
  36   36 5007 2571 FO
  36   36 5012 2569 FO
  36   36 5017 2567 FO
  36   36 5023 2565 FO
  36   36 5028 2563 FO
  36   36 5033 2561 FO
  36   36 5039 2559 FO
  36   36 5044 2556 FO
  36   36 5049 2554 FO
  36   36 5055 2552 FO
  36   36 5060 2550 FO
  36   36 5065 2548 FO
  36   36 5071 2546 FO
  36   36 5076 2544 FO
  36   36 5082 2542 FO
  36   36 5087 2540 FO
  36   36 5092 2537 FO
  36   36 5098 2535 FO
  36   36 5103 2533 FO
  36   36 5108 2531 FO
  36   36 5114 2529 FO
  36   36 5119 2527 FO
  36   36 5124 2525 FO
  36   36 5130 2523 FO
  36   36 5135 2521 FO
  36   36 5140 2518 FO
  36   36 5146 2516 FO
  36   36 5151 2514 FO
  36   36 5157 2512 FO
  36   36 5162 2510 FO
  36   36 5167 2508 FO
  36   36 5173 2506 FO
  36   36 5178 2504 FO
  36   36 5183 2502 FO
  36   36 5189 2499 FO
  36   36 5194 2497 FO
  36   36 5199 2495 FO
  36   36 5205 2493 FO
  36   36 5210 2491 FO
  36   36 5215 2489 FO
  36   36 5221 2487 FO
  36   36 5226 2485 FO
  36   36 5232 2482 FO
  36   36 5237 2480 FO
  36   36 5242 2478 FO
  36   36 5248 2476 FO
  36   36 5253 2474 FO
  36   36 5258 2472 FO
  36   36 5264 2470 FO
  36   36 5269 2468 FO
  36   36 5274 2466 FO
  36   36 5280 2463 FO
  36   36 5285 2461 FO
  36   36 5290 2459 FO
  36   36 5296 2457 FO
  36   36 5301 2455 FO
  36   36 5306 2453 FO
  36   36 5312 2451 FO
  36   36 5317 2449 FO
  36   36 5323 2447 FO
  36   36 5328 2444 FO
  36   36 5333 2442 FO
  36   36 5339 2440 FO
  36   36 5344 2438 FO
  36   36 5349 2436 FO
  36   36 5355 2434 FO
  36   36 5360 2432 FO
  36   36 5365 2430 FO
  36   36 5371 2428 FO
  36   36 5376 2425 FO
  36   36 5381 2423 FO
  36   36 5387 2421 FO
  36   36 5392 2419 FO
  36   36 5398 2417 FO
  36   36 5403 2415 FO
  36   36 5408 2413 FO
  36   36 5414 2411 FO
  36   36 5419 2409 FO
  36   36 5424 2406 FO
  36   36 5430 2404 FO
  36   36 5435 2402 FO
  36   36 5440 2400 FO
  36   36 5446 2398 FO
  36   36 5451 2396 FO
  36   36 5456 2394 FO
  36   36 5462 2392 FO
  36   36 5467 2390 FO
  36   36 5473 2387 FO
  36   36 5478 2385 FO
  36   36 5483 2383 FO
  36   36 5489 2381 FO
  36   36 5494 2379 FO
  36   36 5499 2377 FO
  36   36 5505 2375 FO
  36   36 5510 2373 FO
  36   36 5515 2370 FO
  36   36 5521 2368 FO
  36   36 5526 2366 FO
  36   36 5531 2364 FO
  36   36 5537 2362 FO
  36   36 5542 2360 FO
  36   36 5548 2358 FO
  36   36 5553 2356 FO
  36   36 5558 2354 FO
  36   36 5564 2351 FO
  36   36 5569 2349 FO
  36   36 5574 2347 FO
  36   36 5580 2345 FO
  36   36 5585 2343 FO
  36   36 5590 2341 FO
  36   36 5596 2339 FO
  36   36 5601 2337 FO
  36   36 5606 2335 FO
  36   36 5612 2332 FO
  36   36 5617 2330 FO
  36   36 5622 2328 FO
  36   36 5628 2326 FO
  36   36 5633 2324 FO
  36   36 5639 2322 FO
  36   36 5644 2320 FO
  36   36 5649 2318 FO
  36   36 5655 2316 FO
  36   36 5660 2313 FO
  36   36 5665 2311 FO
  36   36 5671 2309 FO
  36   36 5676 2307 FO
  36   36 5681 2305 FO
  36   36 5687 2303 FO
  36   36 5692 2301 FO
  36   36 5697 2299 FO
  36   36 5703 2297 FO
  36   36 5708 2294 FO
  36   36 5714 2292 FO
  36   36 5719 2290 FO
  36   36 5724 2288 FO
  36   36 5730 2286 FO
  36   36 5735 2284 FO
  36   36 5740 2282 FO
  36   36 5746 2280 FO
  36   36 5751 2278 FO
  36   36 5756 2275 FO
  36   36 5762 2273 FO
  36   36 5767 2271 FO
  36   36 5772 2269 FO
  36   36 5778 2267 FO
  36   36 5783 2265 FO
  36   36 5789 2263 FO
  36   36 5794 2261 FO
  36   36 5799 2259 FO
  36   36 5805 2256 FO
  36   36 5810 2254 FO
  36   36 5815 2252 FO
  36   36 5821 2250 FO
  36   36 5826 2248 FO
  36   36 5831 2246 FO
  36   36 5837 2244 FO
  36   36 5842 2242 FO
  36   36 5847 2239 FO
  36   36 5853 2237 FO
  36   36 5858 2235 FO
  36   36 5864 2233 FO
  36   36 5869 2231 FO
  36   36 5874 2229 FO
  36   36 5880 2227 FO
  36   36 5885 2225 FO
  36   36 5890 2223 FO
  36   36 5896 2220 FO
  36   36 5901 2218 FO
  36   36 5906 2216 FO
  36   36 5912 2214 FO
  36   36 5917 2212 FO
  36   36 5922 2210 FO
  36   36 5928 2208 FO
  36   36 5933 2206 FO
  36   36 5938 2204 FO
  36   36 5944 2201 FO
  36   36 5949 2199 FO
  36   36 5955 2197 FO
  36   36 5960 2195 FO
  36   36 5965 2193 FO
  36   36 5971 2191 FO
  36   36 5976 2189 FO
  36   36 5981 2187 FO
  36   36 5987 2185 FO
  36   36 5992 2182 FO
  36   36 5997 2180 FO
  36   36 6003 2178 FO
  36   36 6008 2176 FO
  36   36 6013 2174 FO
  36   36 6019 2172 FO
  36   36 6024 2170 FO
  36   36 6030 2168 FO
  36   36 6035 2166 FO
  36   36 6040 2163 FO
  36   36 6046 2161 FO
  36   36 6051 2159 FO
  36   36 6056 2157 FO
  36   36 6062 2155 FO
  36   36 6067 2153 FO
  36   36 6072 2151 FO
  36   36 6078 2149 FO
  36   36 6083 2147 FO
  36   36 6088 2144 FO
  36   36 6094 2142 FO
  36   36 6099 2140 FO
  36   36 6105 2138 FO
  36   36 6110 2136 FO
  36   36 6115 2134 FO
  36   36 6121 2132 FO
  36   36 6126 2130 FO
  36   36 6131 2127 FO
  36   36 6137 2125 FO
  36   36 6142 2123 FO
  36   36 6147 2121 FO
  36   36 6153 2119 FO
  36   36 6158 2117 FO
  36   36 6163 2115 FO
  36   36 6169 2113 FO
  36   36 6174 2111 FO
  36   36 6180 2108 FO
  36   36 6185 2106 FO
  36   36 6190 2104 FO
  36   36 6196 2102 FO
  36   36 6201 2100 FO
  36   36 6206 2098 FO
  36   36 6212 2096 FO
  36   36 6217 2094 FO
  36   36 6222 2092 FO
  36   36 6228 2089 FO
  36   36 6233 2087 FO
  36   36 6238 2085 FO
  36   36 6244 2083 FO
  36   36 6249 2081 FO
  36   36 6255 2079 FO
gr

c8
gs 899 389 5357 4227 MR c np
gr

gs 826 427 5504 2450 MR c np
/c9 { 0.000000 1.000000 0.000000 sr} bdef
c9
 879 2775 mt  929 2825 L
 929 2775 mt  879 2825 L
 884 2773 mt  934 2823 L
 934 2773 mt  884 2823 L
 890 2771 mt  940 2821 L
 940 2771 mt  890 2821 L
 895 2769 mt  945 2819 L
 945 2769 mt  895 2819 L
 900 2767 mt  950 2817 L
 950 2767 mt  900 2817 L
 906 2764 mt  956 2814 L
 956 2764 mt  906 2814 L
 911 2762 mt  961 2812 L
 961 2762 mt  911 2812 L
 916 2760 mt  966 2810 L
 966 2760 mt  916 2810 L
 922 2758 mt  972 2808 L
 972 2758 mt  922 2808 L
 927 2756 mt  977 2806 L
 977 2756 mt  927 2806 L
 932 2753 mt  982 2803 L
 982 2753 mt  932 2803 L
 938 2751 mt  988 2801 L
 988 2751 mt  938 2801 L
 943 2749 mt  993 2799 L
 993 2749 mt  943 2799 L
 948 2747 mt  998 2797 L
 998 2747 mt  948 2797 L
 954 2745 mt 1004 2795 L
1004 2745 mt  954 2795 L
 959 2742 mt 1009 2792 L
1009 2742 mt  959 2792 L
 965 2740 mt 1015 2790 L
1015 2740 mt  965 2790 L
 970 2738 mt 1020 2788 L
1020 2738 mt  970 2788 L
 975 2736 mt 1025 2786 L
1025 2736 mt  975 2786 L
 981 2734 mt 1031 2784 L
1031 2734 mt  981 2784 L
 986 2731 mt 1036 2781 L
1036 2731 mt  986 2781 L
 991 2731 mt 1041 2781 L
1041 2731 mt  991 2781 L
 997 2729 mt 1047 2779 L
1047 2729 mt  997 2779 L
1002 2727 mt 1052 2777 L
1052 2727 mt 1002 2777 L
1007 2724 mt 1057 2774 L
1057 2724 mt 1007 2774 L
1013 2722 mt 1063 2772 L
1063 2722 mt 1013 2772 L
1018 2720 mt 1068 2770 L
1068 2720 mt 1018 2770 L
1023 2718 mt 1073 2768 L
1073 2718 mt 1023 2768 L
1029 2716 mt 1079 2766 L
1079 2716 mt 1029 2766 L
1034 2713 mt 1084 2763 L
1084 2713 mt 1034 2763 L
1040 2711 mt 1090 2761 L
1090 2711 mt 1040 2761 L
1045 2709 mt 1095 2759 L
1095 2709 mt 1045 2759 L
1050 2707 mt 1100 2757 L
1100 2707 mt 1050 2757 L
1056 2705 mt 1106 2755 L
1106 2705 mt 1056 2755 L
1061 2702 mt 1111 2752 L
1111 2702 mt 1061 2752 L
1066 2700 mt 1116 2750 L
1116 2700 mt 1066 2750 L
1072 2698 mt 1122 2748 L
1122 2698 mt 1072 2748 L
1077 2696 mt 1127 2746 L
1127 2696 mt 1077 2746 L
1082 2694 mt 1132 2744 L
1132 2694 mt 1082 2744 L
1088 2691 mt 1138 2741 L
1138 2691 mt 1088 2741 L
1093 2689 mt 1143 2739 L
1143 2689 mt 1093 2739 L
1098 2687 mt 1148 2737 L
1148 2687 mt 1098 2737 L
1104 2685 mt 1154 2735 L
1154 2685 mt 1104 2735 L
1109 2683 mt 1159 2733 L
1159 2683 mt 1109 2733 L
1115 2680 mt 1165 2730 L
1165 2680 mt 1115 2730 L
1120 2678 mt 1170 2728 L
1170 2678 mt 1120 2728 L
1125 2676 mt 1175 2726 L
1175 2676 mt 1125 2726 L
1131 2674 mt 1181 2724 L
1181 2674 mt 1131 2724 L
1136 2672 mt 1186 2722 L
1186 2672 mt 1136 2722 L
1141 2669 mt 1191 2719 L
1191 2669 mt 1141 2719 L
1147 2667 mt 1197 2717 L
1197 2667 mt 1147 2717 L
1152 2665 mt 1202 2715 L
1202 2665 mt 1152 2715 L
1157 2663 mt 1207 2713 L
1207 2663 mt 1157 2713 L
1163 2661 mt 1213 2711 L
1213 2661 mt 1163 2711 L
1168 2658 mt 1218 2708 L
1218 2658 mt 1168 2708 L
1173 2656 mt 1223 2706 L
1223 2656 mt 1173 2706 L
1179 2654 mt 1229 2704 L
1229 2654 mt 1179 2704 L
1184 2652 mt 1234 2702 L
1234 2652 mt 1184 2702 L
1190 2649 mt 1240 2699 L
1240 2649 mt 1190 2699 L
1195 2647 mt 1245 2697 L
1245 2647 mt 1195 2697 L
1200 2645 mt 1250 2695 L
1250 2645 mt 1200 2695 L
1206 2643 mt 1256 2693 L
1256 2643 mt 1206 2693 L
1211 2641 mt 1261 2691 L
1261 2641 mt 1211 2691 L
1216 2638 mt 1266 2688 L
1266 2638 mt 1216 2688 L
1222 2636 mt 1272 2686 L
1272 2636 mt 1222 2686 L
1227 2634 mt 1277 2684 L
1277 2634 mt 1227 2684 L
1232 2632 mt 1282 2682 L
1282 2632 mt 1232 2682 L
1238 2630 mt 1288 2680 L
1288 2630 mt 1238 2680 L
1243 2627 mt 1293 2677 L
1293 2627 mt 1243 2677 L
1248 2625 mt 1298 2675 L
1298 2625 mt 1248 2675 L
1254 2623 mt 1304 2673 L
1304 2623 mt 1254 2673 L
1259 2621 mt 1309 2671 L
1309 2621 mt 1259 2671 L
1264 2619 mt 1314 2669 L
1314 2619 mt 1264 2669 L
1270 2616 mt 1320 2666 L
1320 2616 mt 1270 2666 L
1275 2614 mt 1325 2664 L
1325 2614 mt 1275 2664 L
1281 2612 mt 1331 2662 L
1331 2612 mt 1281 2662 L
1286 2610 mt 1336 2660 L
1336 2610 mt 1286 2660 L
1291 2608 mt 1341 2658 L
1341 2608 mt 1291 2658 L
1297 2605 mt 1347 2655 L
1347 2605 mt 1297 2655 L
1302 2603 mt 1352 2653 L
1352 2603 mt 1302 2653 L
1307 2601 mt 1357 2651 L
1357 2601 mt 1307 2651 L
1313 2599 mt 1363 2649 L
1363 2599 mt 1313 2649 L
1318 2597 mt 1368 2647 L
1368 2597 mt 1318 2647 L
1323 2594 mt 1373 2644 L
1373 2594 mt 1323 2644 L
1329 2592 mt 1379 2642 L
1379 2592 mt 1329 2642 L
1334 2590 mt 1384 2640 L
1384 2590 mt 1334 2640 L
1339 2588 mt 1389 2638 L
1389 2588 mt 1339 2638 L
1345 2586 mt 1395 2636 L
1395 2586 mt 1345 2636 L
1350 2583 mt 1400 2633 L
1400 2583 mt 1350 2633 L
1356 2581 mt 1406 2631 L
1406 2581 mt 1356 2631 L
1361 2579 mt 1411 2629 L
1411 2579 mt 1361 2629 L
1366 2577 mt 1416 2627 L
1416 2577 mt 1366 2627 L
1372 2575 mt 1422 2625 L
1422 2575 mt 1372 2625 L
1377 2572 mt 1427 2622 L
1427 2572 mt 1377 2622 L
1382 2570 mt 1432 2620 L
1432 2570 mt 1382 2620 L
1388 2568 mt 1438 2618 L
1438 2568 mt 1388 2618 L
1393 2566 mt 1443 2616 L
1443 2566 mt 1393 2616 L
1398 2564 mt 1448 2614 L
1448 2564 mt 1398 2614 L
1404 2561 mt 1454 2611 L
1454 2561 mt 1404 2611 L
1409 2559 mt 1459 2609 L
1459 2559 mt 1409 2609 L
1414 2557 mt 1464 2607 L
1464 2557 mt 1414 2607 L
1420 2555 mt 1470 2605 L
1470 2555 mt 1420 2605 L
1425 2553 mt 1475 2603 L
1475 2553 mt 1425 2603 L
1431 2550 mt 1481 2600 L
1481 2550 mt 1431 2600 L
1436 2548 mt 1486 2598 L
1486 2548 mt 1436 2598 L
1441 2546 mt 1491 2596 L
1491 2546 mt 1441 2596 L
1447 2544 mt 1497 2594 L
1497 2544 mt 1447 2594 L
1452 2542 mt 1502 2592 L
1502 2542 mt 1452 2592 L
1457 2539 mt 1507 2589 L
1507 2539 mt 1457 2589 L
1463 2537 mt 1513 2587 L
1513 2537 mt 1463 2587 L
1468 2535 mt 1518 2585 L
1518 2535 mt 1468 2585 L
1473 2533 mt 1523 2583 L
1523 2533 mt 1473 2583 L
1479 2531 mt 1529 2581 L
1529 2531 mt 1479 2581 L
1484 2528 mt 1534 2578 L
1534 2528 mt 1484 2578 L
1489 2526 mt 1539 2576 L
1539 2526 mt 1489 2576 L
1495 2524 mt 1545 2574 L
1545 2524 mt 1495 2574 L
1500 2522 mt 1550 2572 L
1550 2522 mt 1500 2572 L
1506 2519 mt 1556 2569 L
1556 2519 mt 1506 2569 L
1511 2517 mt 1561 2567 L
1561 2517 mt 1511 2567 L
1516 2515 mt 1566 2565 L
1566 2515 mt 1516 2565 L
1522 2513 mt 1572 2563 L
1572 2513 mt 1522 2563 L
1527 2511 mt 1577 2561 L
1577 2511 mt 1527 2561 L
1532 2508 mt 1582 2558 L
1582 2508 mt 1532 2558 L
1538 2506 mt 1588 2556 L
1588 2506 mt 1538 2556 L
1543 2504 mt 1593 2554 L
1593 2504 mt 1543 2554 L
1548 2502 mt 1598 2552 L
1598 2502 mt 1548 2552 L
1554 2500 mt 1604 2550 L
1604 2500 mt 1554 2550 L
1559 2497 mt 1609 2547 L
1609 2497 mt 1559 2547 L
1564 2495 mt 1614 2545 L
1614 2495 mt 1564 2545 L
1570 2493 mt 1620 2543 L
1620 2493 mt 1570 2543 L
1575 2491 mt 1625 2541 L
1625 2491 mt 1575 2541 L
1580 2489 mt 1630 2539 L
1630 2489 mt 1580 2539 L
1586 2486 mt 1636 2536 L
1636 2486 mt 1586 2536 L
1591 2484 mt 1641 2534 L
1641 2484 mt 1591 2534 L
1597 2482 mt 1647 2532 L
1647 2482 mt 1597 2532 L
1602 2480 mt 1652 2530 L
1652 2480 mt 1602 2530 L
1607 2478 mt 1657 2528 L
1657 2478 mt 1607 2528 L
1613 2475 mt 1663 2525 L
1663 2475 mt 1613 2525 L
1618 2473 mt 1668 2523 L
1668 2473 mt 1618 2523 L
1623 2471 mt 1673 2521 L
1673 2471 mt 1623 2521 L
1629 2469 mt 1679 2519 L
1679 2469 mt 1629 2519 L
1634 2467 mt 1684 2517 L
1684 2467 mt 1634 2517 L
1639 2464 mt 1689 2514 L
1689 2464 mt 1639 2514 L
1645 2462 mt 1695 2512 L
1695 2462 mt 1645 2512 L
1650 2460 mt 1700 2510 L
1700 2460 mt 1650 2510 L
1655 2458 mt 1705 2508 L
1705 2458 mt 1655 2508 L
1661 2456 mt 1711 2506 L
1711 2456 mt 1661 2506 L
1666 2453 mt 1716 2503 L
1716 2453 mt 1666 2503 L
1672 2451 mt 1722 2501 L
1722 2451 mt 1672 2501 L
1677 2449 mt 1727 2499 L
1727 2449 mt 1677 2499 L
1682 2447 mt 1732 2497 L
1732 2447 mt 1682 2497 L
1688 2445 mt 1738 2495 L
1738 2445 mt 1688 2495 L
1693 2442 mt 1743 2492 L
1743 2442 mt 1693 2492 L
1698 2440 mt 1748 2490 L
1748 2440 mt 1698 2490 L
1704 2438 mt 1754 2488 L
1754 2438 mt 1704 2488 L
1709 2436 mt 1759 2486 L
1759 2436 mt 1709 2486 L
1714 2434 mt 1764 2484 L
1764 2434 mt 1714 2484 L
1720 2431 mt 1770 2481 L
1770 2431 mt 1720 2481 L
1725 2429 mt 1775 2479 L
1775 2429 mt 1725 2479 L
1730 2427 mt 1780 2477 L
1780 2427 mt 1730 2477 L
1736 2425 mt 1786 2475 L
1786 2425 mt 1736 2475 L
1741 2423 mt 1791 2473 L
1791 2423 mt 1741 2473 L
1747 2420 mt 1797 2470 L
1797 2420 mt 1747 2470 L
1752 2418 mt 1802 2468 L
1802 2418 mt 1752 2468 L
1757 2416 mt 1807 2466 L
1807 2416 mt 1757 2466 L
1763 2414 mt 1813 2464 L
1813 2414 mt 1763 2464 L
1768 2412 mt 1818 2462 L
1818 2412 mt 1768 2462 L
1773 2409 mt 1823 2459 L
1823 2409 mt 1773 2459 L
1779 2407 mt 1829 2457 L
1829 2407 mt 1779 2457 L
1784 2405 mt 1834 2455 L
1834 2405 mt 1784 2455 L
1789 2403 mt 1839 2453 L
1839 2403 mt 1789 2453 L
1795 2401 mt 1845 2451 L
1845 2401 mt 1795 2451 L
1800 2398 mt 1850 2448 L
1850 2398 mt 1800 2448 L
1805 2311 mt 1855 2361 L
1855 2311 mt 1805 2361 L
1811 2308 mt 1861 2358 L
1861 2308 mt 1811 2358 L
1816 2305 mt 1866 2355 L
1866 2305 mt 1816 2355 L
1822 2303 mt 1872 2353 L
1872 2303 mt 1822 2353 L
1827 2300 mt 1877 2350 L
1877 2300 mt 1827 2350 L
1832 2298 mt 1882 2348 L
1882 2298 mt 1832 2348 L
1838 2295 mt 1888 2345 L
1888 2295 mt 1838 2345 L
1843 2293 mt 1893 2343 L
1893 2293 mt 1843 2343 L
1848 2290 mt 1898 2340 L
1898 2290 mt 1848 2340 L
1854 2288 mt 1904 2338 L
1904 2288 mt 1854 2338 L
1859 2285 mt 1909 2335 L
1909 2285 mt 1859 2335 L
1864 2283 mt 1914 2333 L
1914 2283 mt 1864 2333 L
1870 2280 mt 1920 2330 L
1920 2280 mt 1870 2330 L
1875 2277 mt 1925 2327 L
1925 2277 mt 1875 2327 L
1880 2275 mt 1930 2325 L
1930 2275 mt 1880 2325 L
1886 2272 mt 1936 2322 L
1936 2272 mt 1886 2322 L
1891 2270 mt 1941 2320 L
1941 2270 mt 1891 2320 L
1896 2267 mt 1946 2317 L
1946 2267 mt 1896 2317 L
1902 2265 mt 1952 2315 L
1952 2265 mt 1902 2315 L
1907 2262 mt 1957 2312 L
1957 2262 mt 1907 2312 L
1913 2260 mt 1963 2310 L
1963 2260 mt 1913 2310 L
1918 2257 mt 1968 2307 L
1968 2257 mt 1918 2307 L
1923 2255 mt 1973 2305 L
1973 2255 mt 1923 2305 L
1929 2252 mt 1979 2302 L
1979 2252 mt 1929 2302 L
1934 2249 mt 1984 2299 L
1984 2249 mt 1934 2299 L
1939 2247 mt 1989 2297 L
1989 2247 mt 1939 2297 L
1945 2224 mt 1995 2274 L
1995 2224 mt 1945 2274 L
1950 2221 mt 2000 2271 L
2000 2221 mt 1950 2271 L
1955 2218 mt 2005 2268 L
2005 2218 mt 1955 2268 L
1961 2216 mt 2011 2266 L
2011 2216 mt 1961 2266 L
1966 2213 mt 2016 2263 L
2016 2213 mt 1966 2263 L
1971 2210 mt 2021 2260 L
2021 2210 mt 1971 2260 L
1977 2208 mt 2027 2258 L
2027 2208 mt 1977 2258 L
1982 2205 mt 2032 2255 L
2032 2205 mt 1982 2255 L
1988 2202 mt 2038 2252 L
2038 2202 mt 1988 2252 L
1993 2200 mt 2043 2250 L
2043 2200 mt 1993 2250 L
1998 2197 mt 2048 2247 L
2048 2197 mt 1998 2247 L
2004 2195 mt 2054 2245 L
2054 2195 mt 2004 2245 L
2009 2192 mt 2059 2242 L
2059 2192 mt 2009 2242 L
2014 2189 mt 2064 2239 L
2064 2189 mt 2014 2239 L
2020 2187 mt 2070 2237 L
2070 2187 mt 2020 2237 L
2025 2184 mt 2075 2234 L
2075 2184 mt 2025 2234 L
2030 2181 mt 2080 2231 L
2080 2181 mt 2030 2231 L
2036 2179 mt 2086 2229 L
2086 2179 mt 2036 2229 L
2041 2176 mt 2091 2226 L
2091 2176 mt 2041 2226 L
2046 2173 mt 2096 2223 L
2096 2173 mt 2046 2223 L
2052 2171 mt 2102 2221 L
2102 2171 mt 2052 2221 L
2057 2168 mt 2107 2218 L
2107 2168 mt 2057 2218 L
2063 2166 mt 2113 2216 L
2113 2166 mt 2063 2216 L
2068 2163 mt 2118 2213 L
2118 2163 mt 2068 2213 L
2073 2160 mt 2123 2210 L
2123 2160 mt 2073 2210 L
2079 2158 mt 2129 2208 L
2129 2158 mt 2079 2208 L
2084 2150 mt 2134 2200 L
2134 2150 mt 2084 2200 L
2089 2147 mt 2139 2197 L
2139 2147 mt 2089 2197 L
2095 2145 mt 2145 2195 L
2145 2145 mt 2095 2195 L
2100 2142 mt 2150 2192 L
2150 2142 mt 2100 2192 L
2105 2139 mt 2155 2189 L
2155 2139 mt 2105 2189 L
2111 2137 mt 2161 2187 L
2161 2137 mt 2111 2187 L
2116 2134 mt 2166 2184 L
2166 2134 mt 2116 2184 L
2121 2131 mt 2171 2181 L
2171 2131 mt 2121 2181 L
2127 2129 mt 2177 2179 L
2177 2129 mt 2127 2179 L
2132 2126 mt 2182 2176 L
2182 2126 mt 2132 2176 L
2138 2123 mt 2188 2173 L
2188 2123 mt 2138 2173 L
2143 2121 mt 2193 2171 L
2193 2121 mt 2143 2171 L
2148 2118 mt 2198 2168 L
2198 2118 mt 2148 2168 L
2154 2115 mt 2204 2165 L
2204 2115 mt 2154 2165 L
2159 2113 mt 2209 2163 L
2209 2113 mt 2159 2163 L
2164 2110 mt 2214 2160 L
2214 2110 mt 2164 2160 L
2170 2107 mt 2220 2157 L
2220 2107 mt 2170 2157 L
2175 2105 mt 2225 2155 L
2225 2105 mt 2175 2155 L
2180 2102 mt 2230 2152 L
2230 2102 mt 2180 2152 L
2186 2099 mt 2236 2149 L
2236 2099 mt 2186 2149 L
2191 2097 mt 2241 2147 L
2241 2097 mt 2191 2147 L
2196 2094 mt 2246 2144 L
2246 2094 mt 2196 2144 L
2202 2091 mt 2252 2141 L
2252 2091 mt 2202 2141 L
2207 2089 mt 2257 2139 L
2257 2089 mt 2207 2139 L
2213 2086 mt 2263 2136 L
2263 2086 mt 2213 2136 L
2218 2083 mt 2268 2133 L
2268 2083 mt 2218 2133 L
2223 2082 mt 2273 2132 L
2273 2082 mt 2223 2132 L
2229 2080 mt 2279 2130 L
2279 2080 mt 2229 2130 L
2234 2077 mt 2284 2127 L
2284 2077 mt 2234 2127 L
2239 2074 mt 2289 2124 L
2289 2074 mt 2239 2124 L
2245 2072 mt 2295 2122 L
2295 2072 mt 2245 2122 L
2250 2069 mt 2300 2119 L
2300 2069 mt 2250 2119 L
2255 2066 mt 2305 2116 L
2305 2066 mt 2255 2116 L
2261 2064 mt 2311 2114 L
2311 2064 mt 2261 2114 L
2266 2061 mt 2316 2111 L
2316 2061 mt 2266 2111 L
2271 2058 mt 2321 2108 L
2321 2058 mt 2271 2108 L
2277 2056 mt 2327 2106 L
2327 2056 mt 2277 2106 L
2282 2053 mt 2332 2103 L
2332 2053 mt 2282 2103 L
2287 2050 mt 2337 2100 L
2337 2050 mt 2287 2100 L
2293 2048 mt 2343 2098 L
2343 2048 mt 2293 2098 L
2298 2045 mt 2348 2095 L
2348 2045 mt 2298 2095 L
2304 2042 mt 2354 2092 L
2354 2042 mt 2304 2092 L
2309 2040 mt 2359 2090 L
2359 2040 mt 2309 2090 L
2314 2037 mt 2364 2087 L
2364 2037 mt 2314 2087 L
2320 2034 mt 2370 2084 L
2370 2034 mt 2320 2084 L
2325 2032 mt 2375 2082 L
2375 2032 mt 2325 2082 L
2330 2029 mt 2380 2079 L
2380 2029 mt 2330 2079 L
2336 2026 mt 2386 2076 L
2386 2026 mt 2336 2076 L
2341 2024 mt 2391 2074 L
2391 2024 mt 2341 2074 L
2346 2021 mt 2396 2071 L
2396 2021 mt 2346 2071 L
2352 2018 mt 2402 2068 L
2402 2018 mt 2352 2068 L
2357 2016 mt 2407 2066 L
2407 2016 mt 2357 2066 L
2362 2018 mt 2412 2068 L
2412 2018 mt 2362 2068 L
2368 2016 mt 2418 2066 L
2418 2016 mt 2368 2066 L
2373 2013 mt 2423 2063 L
2423 2013 mt 2373 2063 L
2379 2010 mt 2429 2060 L
2429 2010 mt 2379 2060 L
2384 2008 mt 2434 2058 L
2434 2008 mt 2384 2058 L
2389 2005 mt 2439 2055 L
2439 2005 mt 2389 2055 L
2395 2002 mt 2445 2052 L
2445 2002 mt 2395 2052 L
2400 2000 mt 2450 2050 L
2450 2000 mt 2400 2050 L
2405 1997 mt 2455 2047 L
2455 1997 mt 2405 2047 L
2411 1994 mt 2461 2044 L
2461 1994 mt 2411 2044 L
2416 1992 mt 2466 2042 L
2466 1992 mt 2416 2042 L
2421 1989 mt 2471 2039 L
2471 1989 mt 2421 2039 L
2427 1986 mt 2477 2036 L
2477 1986 mt 2427 2036 L
2432 1984 mt 2482 2034 L
2482 1984 mt 2432 2034 L
2437 1981 mt 2487 2031 L
2487 1981 mt 2437 2031 L
2443 1978 mt 2493 2028 L
2493 1978 mt 2443 2028 L
2448 1976 mt 2498 2026 L
2498 1976 mt 2448 2026 L
2454 1973 mt 2504 2023 L
2504 1973 mt 2454 2023 L
2459 1970 mt 2509 2020 L
2509 1970 mt 2459 2020 L
2464 1968 mt 2514 2018 L
2514 1968 mt 2464 2018 L
2470 1965 mt 2520 2015 L
2520 1965 mt 2470 2015 L
2475 1962 mt 2525 2012 L
2525 1962 mt 2475 2012 L
2480 1960 mt 2530 2010 L
2530 1960 mt 2480 2010 L
2486 1957 mt 2536 2007 L
2536 1957 mt 2486 2007 L
2491 1954 mt 2541 2004 L
2541 1954 mt 2491 2004 L
2496 1952 mt 2546 2002 L
2546 1952 mt 2496 2002 L
2502 1956 mt 2552 2006 L
2552 1956 mt 2502 2006 L
2507 1954 mt 2557 2004 L
2557 1954 mt 2507 2004 L
2512 1951 mt 2562 2001 L
2562 1951 mt 2512 2001 L
2518 1949 mt 2568 1999 L
2568 1949 mt 2518 1999 L
2523 1946 mt 2573 1996 L
2573 1946 mt 2523 1996 L
2529 1943 mt 2579 1993 L
2579 1943 mt 2529 1993 L
2534 1941 mt 2584 1991 L
2584 1941 mt 2534 1991 L
2539 1938 mt 2589 1988 L
2589 1938 mt 2539 1988 L
2545 1935 mt 2595 1985 L
2595 1935 mt 2545 1985 L
2550 1933 mt 2600 1983 L
2600 1933 mt 2550 1983 L
2555 1930 mt 2605 1980 L
2605 1930 mt 2555 1980 L
2561 1927 mt 2611 1977 L
2611 1927 mt 2561 1977 L
2566 1925 mt 2616 1975 L
2616 1925 mt 2566 1975 L
2571 1922 mt 2621 1972 L
2621 1922 mt 2571 1972 L
2577 1920 mt 2627 1970 L
2627 1920 mt 2577 1970 L
2582 1917 mt 2632 1967 L
2632 1917 mt 2582 1967 L
2587 1914 mt 2637 1964 L
2637 1914 mt 2587 1964 L
2593 1912 mt 2643 1962 L
2643 1912 mt 2593 1962 L
2598 1909 mt 2648 1959 L
2648 1909 mt 2598 1959 L
2603 1906 mt 2653 1956 L
2653 1906 mt 2603 1956 L
2609 1904 mt 2659 1954 L
2659 1904 mt 2609 1954 L
2614 1901 mt 2664 1951 L
2664 1901 mt 2614 1951 L
2620 1898 mt 2670 1948 L
2670 1898 mt 2620 1948 L
2625 1896 mt 2675 1946 L
2675 1896 mt 2625 1946 L
2630 1893 mt 2680 1943 L
2680 1893 mt 2630 1943 L
2636 1891 mt 2686 1941 L
2686 1891 mt 2636 1941 L
2641 1897 mt 2691 1947 L
2691 1897 mt 2641 1947 L
2646 1894 mt 2696 1944 L
2696 1894 mt 2646 1944 L
2652 1892 mt 2702 1942 L
2702 1892 mt 2652 1942 L
2657 1889 mt 2707 1939 L
2707 1889 mt 2657 1939 L
2662 1886 mt 2712 1936 L
2712 1886 mt 2662 1936 L
2668 1884 mt 2718 1934 L
2718 1884 mt 2668 1934 L
2673 1881 mt 2723 1931 L
2723 1881 mt 2673 1931 L
2678 1878 mt 2728 1928 L
2728 1878 mt 2678 1928 L
2684 1876 mt 2734 1926 L
2734 1876 mt 2684 1926 L
2689 1873 mt 2739 1923 L
2739 1873 mt 2689 1923 L
2695 1871 mt 2745 1921 L
2745 1871 mt 2695 1921 L
2700 1868 mt 2750 1918 L
2750 1868 mt 2700 1918 L
2705 1865 mt 2755 1915 L
2755 1865 mt 2705 1915 L
2711 1863 mt 2761 1913 L
2761 1863 mt 2711 1913 L
2716 1860 mt 2766 1910 L
2766 1860 mt 2716 1910 L
2721 1858 mt 2771 1908 L
2771 1858 mt 2721 1908 L
2727 1855 mt 2777 1905 L
2777 1855 mt 2727 1905 L
2732 1852 mt 2782 1902 L
2782 1852 mt 2732 1902 L
2737 1850 mt 2787 1900 L
2787 1850 mt 2737 1900 L
2743 1847 mt 2793 1897 L
2793 1847 mt 2743 1897 L
2748 1845 mt 2798 1895 L
2798 1845 mt 2748 1895 L
2753 1842 mt 2803 1892 L
2803 1842 mt 2753 1892 L
2759 1839 mt 2809 1889 L
2809 1839 mt 2759 1889 L
2764 1837 mt 2814 1887 L
2814 1837 mt 2764 1887 L
2770 1834 mt 2820 1884 L
2820 1834 mt 2770 1884 L
2775 1832 mt 2825 1882 L
2825 1832 mt 2775 1882 L
2780 1839 mt 2830 1889 L
2830 1839 mt 2780 1889 L
2786 1836 mt 2836 1886 L
2836 1836 mt 2786 1886 L
2791 1833 mt 2841 1883 L
2841 1833 mt 2791 1883 L
2796 1831 mt 2846 1881 L
2846 1831 mt 2796 1881 L
2802 1828 mt 2852 1878 L
2852 1828 mt 2802 1878 L
2807 1826 mt 2857 1876 L
2857 1826 mt 2807 1876 L
2812 1823 mt 2862 1873 L
2862 1823 mt 2812 1873 L
2818 1821 mt 2868 1871 L
2868 1821 mt 2818 1871 L
2823 1818 mt 2873 1868 L
2873 1818 mt 2823 1868 L
2828 1815 mt 2878 1865 L
2878 1815 mt 2828 1865 L
2834 1813 mt 2884 1863 L
2884 1813 mt 2834 1863 L
2839 1810 mt 2889 1860 L
2889 1810 mt 2839 1860 L
2845 1808 mt 2895 1858 L
2895 1808 mt 2845 1858 L
2850 1805 mt 2900 1855 L
2900 1805 mt 2850 1855 L
2855 1803 mt 2905 1853 L
2905 1803 mt 2855 1853 L
2861 1800 mt 2911 1850 L
2911 1800 mt 2861 1850 L
2866 1797 mt 2916 1847 L
2916 1797 mt 2866 1847 L
2871 1795 mt 2921 1845 L
2921 1795 mt 2871 1845 L
2877 1792 mt 2927 1842 L
2927 1792 mt 2877 1842 L
2882 1790 mt 2932 1840 L
2932 1790 mt 2882 1840 L
2887 1787 mt 2937 1837 L
2937 1787 mt 2887 1837 L
2893 1784 mt 2943 1834 L
2943 1784 mt 2893 1834 L
2898 1782 mt 2948 1832 L
2948 1782 mt 2898 1832 L
2903 1779 mt 2953 1829 L
2953 1779 mt 2903 1829 L
2909 1777 mt 2959 1827 L
2959 1777 mt 2909 1827 L
2914 1774 mt 2964 1824 L
2964 1774 mt 2914 1824 L
2919 1782 mt 2969 1832 L
2969 1782 mt 2919 1832 L
2925 1779 mt 2975 1829 L
2975 1779 mt 2925 1829 L
2930 1777 mt 2980 1827 L
2980 1777 mt 2930 1827 L
2936 1774 mt 2986 1824 L
2986 1774 mt 2936 1824 L
2941 1771 mt 2991 1821 L
2991 1771 mt 2941 1821 L
2946 1769 mt 2996 1819 L
2996 1769 mt 2946 1819 L
2952 1766 mt 3002 1816 L
3002 1766 mt 2952 1816 L
2957 1764 mt 3007 1814 L
3007 1764 mt 2957 1814 L
2962 1761 mt 3012 1811 L
3012 1761 mt 2962 1811 L
2968 1759 mt 3018 1809 L
3018 1759 mt 2968 1809 L
2973 1756 mt 3023 1806 L
3023 1756 mt 2973 1806 L
2978 1754 mt 3028 1804 L
3028 1754 mt 2978 1804 L
2984 1751 mt 3034 1801 L
3034 1751 mt 2984 1801 L
2989 1749 mt 3039 1799 L
3039 1749 mt 2989 1799 L
2994 1746 mt 3044 1796 L
3044 1746 mt 2994 1796 L
3000 1744 mt 3050 1794 L
3050 1744 mt 3000 1794 L
3005 1741 mt 3055 1791 L
3055 1741 mt 3005 1791 L
3011 1738 mt 3061 1788 L
3061 1738 mt 3011 1788 L
3016 1736 mt 3066 1786 L
3066 1736 mt 3016 1786 L
3021 1733 mt 3071 1783 L
3071 1733 mt 3021 1783 L
3027 1731 mt 3077 1781 L
3077 1731 mt 3027 1781 L
3032 1728 mt 3082 1778 L
3082 1728 mt 3032 1778 L
3037 1726 mt 3087 1776 L
3087 1726 mt 3037 1776 L
3043 1723 mt 3093 1773 L
3093 1723 mt 3043 1773 L
3048 1721 mt 3098 1771 L
3098 1721 mt 3048 1771 L
3053 1718 mt 3103 1768 L
3103 1718 mt 3053 1768 L
3059 1716 mt 3109 1766 L
3109 1716 mt 3059 1766 L
3064 1713 mt 3114 1763 L
3114 1713 mt 3064 1763 L
3069 1711 mt 3119 1761 L
3119 1711 mt 3069 1761 L
3075 1708 mt 3125 1758 L
3125 1708 mt 3075 1758 L
3080 1705 mt 3130 1755 L
3130 1705 mt 3080 1755 L
3086 1703 mt 3136 1753 L
3136 1703 mt 3086 1753 L
3091 1700 mt 3141 1750 L
3141 1700 mt 3091 1750 L
3096 1698 mt 3146 1748 L
3146 1698 mt 3096 1748 L
3102 1695 mt 3152 1745 L
3152 1695 mt 3102 1745 L
3107 1693 mt 3157 1743 L
3157 1693 mt 3107 1743 L
3112 1690 mt 3162 1740 L
3162 1690 mt 3112 1740 L
3118 1688 mt 3168 1738 L
3168 1688 mt 3118 1738 L
3123 1685 mt 3173 1735 L
3173 1685 mt 3123 1735 L
3128 1683 mt 3178 1733 L
3178 1683 mt 3128 1733 L
3134 1680 mt 3184 1730 L
3184 1680 mt 3134 1730 L
3139 1678 mt 3189 1728 L
3189 1678 mt 3139 1728 L
3144 1675 mt 3194 1725 L
3194 1675 mt 3144 1725 L
3150 1672 mt 3200 1722 L
3200 1672 mt 3150 1722 L
3155 1670 mt 3205 1720 L
3205 1670 mt 3155 1720 L
3161 1667 mt 3211 1717 L
3211 1667 mt 3161 1717 L
3166 1665 mt 3216 1715 L
3216 1665 mt 3166 1715 L
3171 1662 mt 3221 1712 L
3221 1662 mt 3171 1712 L
3177 1660 mt 3227 1710 L
3227 1660 mt 3177 1710 L
3182 1657 mt 3232 1707 L
3232 1657 mt 3182 1707 L
3187 1655 mt 3237 1705 L
3237 1655 mt 3187 1705 L
3193 1652 mt 3243 1702 L
3243 1652 mt 3193 1702 L
3198 1650 mt 3248 1700 L
3248 1650 mt 3198 1700 L
3203 1647 mt 3253 1697 L
3253 1647 mt 3203 1697 L
3209 1645 mt 3259 1695 L
3259 1645 mt 3209 1695 L
3214 1642 mt 3264 1692 L
3264 1642 mt 3214 1692 L
3219 1639 mt 3269 1689 L
3269 1639 mt 3219 1689 L
3225 1637 mt 3275 1687 L
3275 1637 mt 3225 1687 L
3230 1634 mt 3280 1684 L
3280 1634 mt 3230 1684 L
3235 1632 mt 3285 1682 L
3285 1632 mt 3235 1682 L
3241 1629 mt 3291 1679 L
3291 1629 mt 3241 1679 L
3246 1627 mt 3296 1677 L
3296 1627 mt 3246 1677 L
3252 1624 mt 3302 1674 L
3302 1624 mt 3252 1674 L
3257 1622 mt 3307 1672 L
3307 1622 mt 3257 1672 L
3262 1619 mt 3312 1669 L
3312 1619 mt 3262 1669 L
3268 1617 mt 3318 1667 L
3318 1617 mt 3268 1667 L
3273 1614 mt 3323 1664 L
3323 1614 mt 3273 1664 L
3278 1612 mt 3328 1662 L
3328 1612 mt 3278 1662 L
3284 1609 mt 3334 1659 L
3334 1609 mt 3284 1659 L
3289 1606 mt 3339 1656 L
3339 1606 mt 3289 1656 L
3294 1604 mt 3344 1654 L
3344 1604 mt 3294 1654 L
3300 1601 mt 3350 1651 L
3350 1601 mt 3300 1651 L
3305 1599 mt 3355 1649 L
3355 1599 mt 3305 1649 L
3310 1596 mt 3360 1646 L
3360 1596 mt 3310 1646 L
3316 1594 mt 3366 1644 L
3366 1594 mt 3316 1644 L
3321 1591 mt 3371 1641 L
3371 1591 mt 3321 1641 L
3327 1589 mt 3377 1639 L
3377 1589 mt 3327 1639 L
3332 1586 mt 3382 1636 L
3382 1586 mt 3332 1636 L
3337 1584 mt 3387 1634 L
3387 1584 mt 3337 1634 L
3343 1581 mt 3393 1631 L
3393 1581 mt 3343 1631 L
3348 1579 mt 3398 1629 L
3398 1579 mt 3348 1629 L
3353 1576 mt 3403 1626 L
3403 1576 mt 3353 1626 L
3359 1573 mt 3409 1623 L
3409 1573 mt 3359 1623 L
3364 1571 mt 3414 1621 L
3414 1571 mt 3364 1621 L
3369 1568 mt 3419 1618 L
3419 1568 mt 3369 1618 L
3375 1566 mt 3425 1616 L
3425 1566 mt 3375 1616 L
3380 1563 mt 3430 1613 L
3430 1563 mt 3380 1613 L
3385 1561 mt 3435 1611 L
3435 1561 mt 3385 1611 L
3391 1558 mt 3441 1608 L
3441 1558 mt 3391 1608 L
3396 1556 mt 3446 1606 L
3446 1556 mt 3396 1606 L
3402 1553 mt 3452 1603 L
3452 1553 mt 3402 1603 L
3407 1551 mt 3457 1601 L
3457 1551 mt 3407 1601 L
3412 1548 mt 3462 1598 L
3462 1548 mt 3412 1598 L
3418 1546 mt 3468 1596 L
3468 1546 mt 3418 1596 L
3423 1543 mt 3473 1593 L
3473 1543 mt 3423 1593 L
3428 1540 mt 3478 1590 L
3478 1540 mt 3428 1590 L
3434 1538 mt 3484 1588 L
3484 1538 mt 3434 1588 L
3439 1535 mt 3489 1585 L
3489 1535 mt 3439 1585 L
3444 1533 mt 3494 1583 L
3494 1533 mt 3444 1583 L
3450 1530 mt 3500 1580 L
3500 1530 mt 3450 1580 L
3455 1528 mt 3505 1578 L
3505 1528 mt 3455 1578 L
3460 1525 mt 3510 1575 L
3510 1525 mt 3460 1575 L
3466 1523 mt 3516 1573 L
3516 1523 mt 3466 1573 L
3471 1520 mt 3521 1570 L
3521 1520 mt 3471 1570 L
3477 1518 mt 3527 1568 L
3527 1518 mt 3477 1568 L
3482 1515 mt 3532 1565 L
3532 1515 mt 3482 1565 L
3487 1512 mt 3537 1562 L
3537 1512 mt 3487 1562 L
3493 1510 mt 3543 1560 L
3543 1510 mt 3493 1560 L
3498 1507 mt 3548 1557 L
3548 1507 mt 3498 1557 L
3503 1505 mt 3553 1555 L
3553 1505 mt 3503 1555 L
3509 1502 mt 3559 1552 L
3559 1502 mt 3509 1552 L
3514 1500 mt 3564 1550 L
3564 1500 mt 3514 1550 L
3519 1497 mt 3569 1547 L
3569 1497 mt 3519 1547 L
3525 1495 mt 3575 1545 L
3575 1495 mt 3525 1545 L
3530 1492 mt 3580 1542 L
3580 1492 mt 3530 1542 L
3535 1490 mt 3585 1540 L
3585 1490 mt 3535 1540 L
3541 1487 mt 3591 1537 L
3591 1487 mt 3541 1537 L
3546 1485 mt 3596 1535 L
3596 1485 mt 3546 1535 L
3552 1482 mt 3602 1532 L
3602 1482 mt 3552 1532 L
3557 1479 mt 3607 1529 L
3607 1479 mt 3557 1529 L
3562 1477 mt 3612 1527 L
3612 1477 mt 3562 1527 L
3568 1474 mt 3618 1524 L
3618 1474 mt 3568 1524 L
3573 1472 mt 3623 1522 L
3623 1472 mt 3573 1522 L
3578 1469 mt 3628 1519 L
3628 1469 mt 3578 1519 L
3584 1467 mt 3634 1517 L
3634 1467 mt 3584 1517 L
3589 1464 mt 3639 1514 L
3639 1464 mt 3589 1514 L
3594 1462 mt 3644 1512 L
3644 1462 mt 3594 1512 L
3600 1459 mt 3650 1509 L
3650 1459 mt 3600 1509 L
3605 1457 mt 3655 1507 L
3655 1457 mt 3605 1507 L
3610 1454 mt 3660 1504 L
3660 1454 mt 3610 1504 L
3616 1452 mt 3666 1502 L
3666 1452 mt 3616 1502 L
3621 1449 mt 3671 1499 L
3671 1449 mt 3621 1499 L
3626 1446 mt 3676 1496 L
3676 1446 mt 3626 1496 L
3632 1444 mt 3682 1494 L
3682 1444 mt 3632 1494 L
3637 1441 mt 3687 1491 L
3687 1441 mt 3637 1491 L
3643 1439 mt 3693 1489 L
3693 1439 mt 3643 1489 L
3648 1436 mt 3698 1486 L
3698 1436 mt 3648 1486 L
3653 1434 mt 3703 1484 L
3703 1434 mt 3653 1484 L
3659 1431 mt 3709 1481 L
3709 1431 mt 3659 1481 L
3664 1429 mt 3714 1479 L
3714 1429 mt 3664 1479 L
3669 1426 mt 3719 1476 L
3719 1426 mt 3669 1476 L
3675 1424 mt 3725 1474 L
3725 1424 mt 3675 1474 L
3680 1421 mt 3730 1471 L
3730 1421 mt 3680 1471 L
3685 1419 mt 3735 1469 L
3735 1419 mt 3685 1469 L
3691 1416 mt 3741 1466 L
3741 1416 mt 3691 1466 L
3696 1413 mt 3746 1463 L
3746 1413 mt 3696 1463 L
3701 1411 mt 3751 1461 L
3751 1411 mt 3701 1461 L
3707 1408 mt 3757 1458 L
3757 1408 mt 3707 1458 L
3712 1406 mt 3762 1456 L
3762 1406 mt 3712 1456 L
3718 1403 mt 3768 1453 L
3768 1403 mt 3718 1453 L
3723 1401 mt 3773 1451 L
3773 1401 mt 3723 1451 L
3728 1398 mt 3778 1448 L
3778 1398 mt 3728 1448 L
3734 1396 mt 3784 1446 L
3784 1396 mt 3734 1446 L
3739 1441 mt 3789 1491 L
3789 1441 mt 3739 1491 L
3744 1438 mt 3794 1488 L
3794 1438 mt 3744 1488 L
3750 1436 mt 3800 1486 L
3800 1436 mt 3750 1486 L
3755 1434 mt 3805 1484 L
3805 1434 mt 3755 1484 L
3760 1431 mt 3810 1481 L
3810 1431 mt 3760 1481 L
3766 1429 mt 3816 1479 L
3816 1429 mt 3766 1479 L
3771 1426 mt 3821 1476 L
3821 1426 mt 3771 1476 L
3776 1424 mt 3826 1474 L
3826 1424 mt 3776 1474 L
3782 1422 mt 3832 1472 L
3832 1422 mt 3782 1472 L
3787 1419 mt 3837 1469 L
3837 1419 mt 3787 1469 L
3793 1417 mt 3843 1467 L
3843 1417 mt 3793 1467 L
3798 1415 mt 3848 1465 L
3848 1415 mt 3798 1465 L
3803 1412 mt 3853 1462 L
3853 1412 mt 3803 1462 L
3809 1410 mt 3859 1460 L
3859 1410 mt 3809 1460 L
3814 1408 mt 3864 1458 L
3864 1408 mt 3814 1458 L
3819 1405 mt 3869 1455 L
3869 1405 mt 3819 1455 L
3825 1403 mt 3875 1453 L
3875 1403 mt 3825 1453 L
3830 1400 mt 3880 1450 L
3880 1400 mt 3830 1450 L
3835 1398 mt 3885 1448 L
3885 1398 mt 3835 1448 L
3841 1396 mt 3891 1446 L
3891 1396 mt 3841 1446 L
3846 1393 mt 3896 1443 L
3896 1393 mt 3846 1443 L
3851 1391 mt 3901 1441 L
3901 1391 mt 3851 1441 L
3857 1389 mt 3907 1439 L
3907 1389 mt 3857 1439 L
3862 1386 mt 3912 1436 L
3912 1386 mt 3862 1436 L
3868 1384 mt 3918 1434 L
3918 1384 mt 3868 1434 L
3873 1382 mt 3923 1432 L
3923 1382 mt 3873 1432 L
3878 1396 mt 3928 1446 L
3928 1396 mt 3878 1446 L
3884 1394 mt 3934 1444 L
3934 1394 mt 3884 1444 L
3889 1392 mt 3939 1442 L
3939 1392 mt 3889 1442 L
3894 1390 mt 3944 1440 L
3944 1390 mt 3894 1440 L
3900 1387 mt 3950 1437 L
3950 1387 mt 3900 1437 L
3905 1385 mt 3955 1435 L
3955 1385 mt 3905 1435 L
3910 1383 mt 3960 1433 L
3960 1383 mt 3910 1433 L
3916 1380 mt 3966 1430 L
3966 1380 mt 3916 1430 L
3921 1378 mt 3971 1428 L
3971 1378 mt 3921 1428 L
3926 1376 mt 3976 1426 L
3976 1376 mt 3926 1426 L
3932 1373 mt 3982 1423 L
3982 1373 mt 3932 1423 L
3937 1371 mt 3987 1421 L
3987 1371 mt 3937 1421 L
3942 1369 mt 3992 1419 L
3992 1369 mt 3942 1419 L
3948 1366 mt 3998 1416 L
3998 1366 mt 3948 1416 L
3953 1364 mt 4003 1414 L
4003 1364 mt 3953 1414 L
3959 1362 mt 4009 1412 L
4009 1362 mt 3959 1412 L
3964 1360 mt 4014 1410 L
4014 1360 mt 3964 1410 L
3969 1357 mt 4019 1407 L
4019 1357 mt 3969 1407 L
3975 1355 mt 4025 1405 L
4025 1355 mt 3975 1405 L
3980 1353 mt 4030 1403 L
4030 1353 mt 3980 1403 L
3985 1350 mt 4035 1400 L
4035 1350 mt 3985 1400 L
3991 1348 mt 4041 1398 L
4041 1348 mt 3991 1398 L
3996 1346 mt 4046 1396 L
4046 1346 mt 3996 1396 L
4001 1343 mt 4051 1393 L
4051 1343 mt 4001 1393 L
4007 1341 mt 4057 1391 L
4057 1341 mt 4007 1391 L
4012 1339 mt 4062 1389 L
4062 1339 mt 4012 1389 L
4017 1347 mt 4067 1397 L
4067 1347 mt 4017 1397 L
4023 1344 mt 4073 1394 L
4073 1344 mt 4023 1394 L
4028 1342 mt 4078 1392 L
4078 1342 mt 4028 1392 L
4034 1340 mt 4084 1390 L
4084 1340 mt 4034 1390 L
4039 1337 mt 4089 1387 L
4089 1337 mt 4039 1387 L
4044 1335 mt 4094 1385 L
4094 1335 mt 4044 1385 L
4050 1333 mt 4100 1383 L
4100 1333 mt 4050 1383 L
4055 1331 mt 4105 1381 L
4105 1331 mt 4055 1381 L
4060 1328 mt 4110 1378 L
4110 1328 mt 4060 1378 L
4066 1326 mt 4116 1376 L
4116 1326 mt 4066 1376 L
4071 1324 mt 4121 1374 L
4121 1324 mt 4071 1374 L
4076 1322 mt 4126 1372 L
4126 1322 mt 4076 1372 L
4082 1319 mt 4132 1369 L
4132 1319 mt 4082 1369 L
4087 1317 mt 4137 1367 L
4137 1317 mt 4087 1367 L
4092 1315 mt 4142 1365 L
4142 1315 mt 4092 1365 L
4098 1312 mt 4148 1362 L
4148 1312 mt 4098 1362 L
4103 1310 mt 4153 1360 L
4153 1310 mt 4103 1360 L
4109 1308 mt 4159 1358 L
4159 1308 mt 4109 1358 L
4114 1306 mt 4164 1356 L
4164 1306 mt 4114 1356 L
4119 1303 mt 4169 1353 L
4169 1303 mt 4119 1353 L
4125 1301 mt 4175 1351 L
4175 1301 mt 4125 1351 L
4130 1299 mt 4180 1349 L
4180 1299 mt 4130 1349 L
4135 1297 mt 4185 1347 L
4185 1297 mt 4135 1347 L
4141 1294 mt 4191 1344 L
4191 1294 mt 4141 1344 L
4146 1292 mt 4196 1342 L
4196 1292 mt 4146 1342 L
4151 1290 mt 4201 1340 L
4201 1290 mt 4151 1340 L
4157 1287 mt 4207 1337 L
4207 1287 mt 4157 1337 L
4162 1285 mt 4212 1335 L
4212 1285 mt 4162 1335 L
4167 1283 mt 4217 1333 L
4217 1283 mt 4167 1333 L
4173 1281 mt 4223 1331 L
4223 1281 mt 4173 1331 L
4178 1278 mt 4228 1328 L
4228 1278 mt 4178 1328 L
4184 1276 mt 4234 1326 L
4234 1276 mt 4184 1326 L
4189 1274 mt 4239 1324 L
4239 1274 mt 4189 1324 L
4194 1272 mt 4244 1322 L
4244 1272 mt 4194 1322 L
4200 1269 mt 4250 1319 L
4250 1269 mt 4200 1319 L
4205 1267 mt 4255 1317 L
4255 1267 mt 4205 1317 L
4210 1265 mt 4260 1315 L
4260 1265 mt 4210 1315 L
4216 1262 mt 4266 1312 L
4266 1262 mt 4216 1312 L
4221 1260 mt 4271 1310 L
4271 1260 mt 4221 1310 L
4226 1258 mt 4276 1308 L
4276 1258 mt 4226 1308 L
4232 1256 mt 4282 1306 L
4282 1256 mt 4232 1306 L
4237 1253 mt 4287 1303 L
4287 1253 mt 4237 1303 L
4242 1251 mt 4292 1301 L
4292 1251 mt 4242 1301 L
4248 1249 mt 4298 1299 L
4298 1249 mt 4248 1299 L
4253 1247 mt 4303 1297 L
4303 1247 mt 4253 1297 L
4258 1244 mt 4308 1294 L
4308 1244 mt 4258 1294 L
4264 1242 mt 4314 1292 L
4314 1242 mt 4264 1292 L
4269 1240 mt 4319 1290 L
4319 1240 mt 4269 1290 L
4275 1237 mt 4325 1287 L
4325 1237 mt 4275 1287 L
4280 1235 mt 4330 1285 L
4330 1235 mt 4280 1285 L
4285 1233 mt 4335 1283 L
4335 1233 mt 4285 1283 L
4291 1231 mt 4341 1281 L
4341 1231 mt 4291 1281 L
4296 1228 mt 4346 1278 L
4346 1228 mt 4296 1278 L
4301 1226 mt 4351 1276 L
4351 1226 mt 4301 1276 L
4307 1224 mt 4357 1274 L
4357 1224 mt 4307 1274 L
4312 1222 mt 4362 1272 L
4362 1222 mt 4312 1272 L
4317 1219 mt 4367 1269 L
4367 1219 mt 4317 1269 L
4323 1217 mt 4373 1267 L
4373 1217 mt 4323 1267 L
4328 1215 mt 4378 1265 L
4378 1215 mt 4328 1265 L
4333 1212 mt 4383 1262 L
4383 1212 mt 4333 1262 L
4339 1210 mt 4389 1260 L
4389 1210 mt 4339 1260 L
4344 1208 mt 4394 1258 L
4394 1208 mt 4344 1258 L
4350 1206 mt 4400 1256 L
4400 1206 mt 4350 1256 L
4355 1203 mt 4405 1253 L
4405 1203 mt 4355 1253 L
4360 1201 mt 4410 1251 L
4410 1201 mt 4360 1251 L
4366 1199 mt 4416 1249 L
4416 1199 mt 4366 1249 L
4371 1196 mt 4421 1246 L
4421 1196 mt 4371 1246 L
4376 1194 mt 4426 1244 L
4426 1194 mt 4376 1244 L
4382 1192 mt 4432 1242 L
4432 1192 mt 4382 1242 L
4387 1190 mt 4437 1240 L
4437 1190 mt 4387 1240 L
4392 1187 mt 4442 1237 L
4442 1187 mt 4392 1237 L
4398 1185 mt 4448 1235 L
4448 1185 mt 4398 1235 L
4403 1183 mt 4453 1233 L
4453 1183 mt 4403 1233 L
4408 1181 mt 4458 1231 L
4458 1181 mt 4408 1231 L
4414 1178 mt 4464 1228 L
4464 1178 mt 4414 1228 L
4419 1176 mt 4469 1226 L
4469 1176 mt 4419 1226 L
4425 1174 mt 4475 1224 L
4475 1174 mt 4425 1224 L
4430 1171 mt 4480 1221 L
4480 1171 mt 4430 1221 L
4435 1169 mt 4485 1219 L
4485 1169 mt 4435 1219 L
4441 1167 mt 4491 1217 L
4491 1167 mt 4441 1217 L
4446 1165 mt 4496 1215 L
4496 1165 mt 4446 1215 L
4451 1162 mt 4501 1212 L
4501 1162 mt 4451 1212 L
4457 1160 mt 4507 1210 L
4507 1160 mt 4457 1210 L
4462 1158 mt 4512 1208 L
4512 1158 mt 4462 1208 L
4467 1156 mt 4517 1206 L
4517 1156 mt 4467 1206 L
4473 1153 mt 4523 1203 L
4523 1153 mt 4473 1203 L
4478 1151 mt 4528 1201 L
4528 1151 mt 4478 1201 L
4483 1149 mt 4533 1199 L
4533 1149 mt 4483 1199 L
4489 1146 mt 4539 1196 L
4539 1146 mt 4489 1196 L
4494 1144 mt 4544 1194 L
4544 1144 mt 4494 1194 L
4500 1142 mt 4550 1192 L
4550 1142 mt 4500 1192 L
4505 1140 mt 4555 1190 L
4555 1140 mt 4505 1190 L
4510 1137 mt 4560 1187 L
4560 1137 mt 4510 1187 L
4516 1135 mt 4566 1185 L
4566 1135 mt 4516 1185 L
4521 1133 mt 4571 1183 L
4571 1133 mt 4521 1183 L
4526 1131 mt 4576 1181 L
4576 1131 mt 4526 1181 L
4532 1128 mt 4582 1178 L
4582 1128 mt 4532 1178 L
4537 1126 mt 4587 1176 L
4587 1126 mt 4537 1176 L
4542 1124 mt 4592 1174 L
4592 1124 mt 4542 1174 L
4548 1121 mt 4598 1171 L
4598 1121 mt 4548 1171 L
4553 1119 mt 4603 1169 L
4603 1119 mt 4553 1169 L
4558 1117 mt 4608 1167 L
4608 1117 mt 4558 1167 L
4564 1115 mt 4614 1165 L
4614 1115 mt 4564 1165 L
4569 1112 mt 4619 1162 L
4619 1112 mt 4569 1162 L
4574 1110 mt 4624 1160 L
4624 1110 mt 4574 1160 L
4580 1108 mt 4630 1158 L
4630 1108 mt 4580 1158 L
4585 1106 mt 4635 1156 L
4635 1106 mt 4585 1156 L
4591 1103 mt 4641 1153 L
4641 1103 mt 4591 1153 L
4596 1101 mt 4646 1151 L
4646 1101 mt 4596 1151 L
4601 1099 mt 4651 1149 L
4651 1099 mt 4601 1149 L
4607 1096 mt 4657 1146 L
4657 1096 mt 4607 1146 L
4612 1094 mt 4662 1144 L
4662 1094 mt 4612 1144 L
4617 1092 mt 4667 1142 L
4667 1092 mt 4617 1142 L
4623 1090 mt 4673 1140 L
4673 1090 mt 4623 1140 L
4628 1087 mt 4678 1137 L
4678 1087 mt 4628 1137 L
4633 1085 mt 4683 1135 L
4683 1085 mt 4633 1135 L
4639 1083 mt 4689 1133 L
4689 1083 mt 4639 1133 L
4644 1081 mt 4694 1131 L
4694 1081 mt 4644 1131 L
4649 1078 mt 4699 1128 L
4699 1078 mt 4649 1128 L
4655 1076 mt 4705 1126 L
4705 1076 mt 4655 1126 L
4660 1074 mt 4710 1124 L
4710 1074 mt 4660 1124 L
4666 1071 mt 4716 1121 L
4716 1071 mt 4666 1121 L
4671 1069 mt 4721 1119 L
4721 1069 mt 4671 1119 L
4676 1067 mt 4726 1117 L
4726 1067 mt 4676 1117 L
4682 1065 mt 4732 1115 L
4732 1065 mt 4682 1115 L
4687 1062 mt 4737 1112 L
4737 1062 mt 4687 1112 L
4692 1060 mt 4742 1110 L
4742 1060 mt 4692 1110 L
4698 1058 mt 4748 1108 L
4748 1058 mt 4698 1108 L
4703 1056 mt 4753 1106 L
4753 1056 mt 4703 1106 L
4708 1053 mt 4758 1103 L
4758 1053 mt 4708 1103 L
4714 1051 mt 4764 1101 L
4764 1051 mt 4714 1101 L
4719 1049 mt 4769 1099 L
4769 1049 mt 4719 1099 L
4724 1046 mt 4774 1096 L
4774 1046 mt 4724 1096 L
4730 1044 mt 4780 1094 L
4780 1044 mt 4730 1094 L
4735 1042 mt 4785 1092 L
4785 1042 mt 4735 1092 L
4741 1040 mt 4791 1090 L
4791 1040 mt 4741 1090 L
4746 1037 mt 4796 1087 L
4796 1037 mt 4746 1087 L
4751 1035 mt 4801 1085 L
4801 1035 mt 4751 1085 L
4757 1033 mt 4807 1083 L
4807 1033 mt 4757 1083 L
4762 1031 mt 4812 1081 L
4812 1031 mt 4762 1081 L
4767 1028 mt 4817 1078 L
4817 1028 mt 4767 1078 L
4773 1026 mt 4823 1076 L
4823 1026 mt 4773 1076 L
4778 1024 mt 4828 1074 L
4828 1024 mt 4778 1074 L
4783 1021 mt 4833 1071 L
4833 1021 mt 4783 1071 L
4789 1019 mt 4839 1069 L
4839 1019 mt 4789 1069 L
4794 1017 mt 4844 1067 L
4844 1017 mt 4794 1067 L
4799 1015 mt 4849 1065 L
4849 1015 mt 4799 1065 L
4805 1012 mt 4855 1062 L
4855 1012 mt 4805 1062 L
4810 1010 mt 4860 1060 L
4860 1010 mt 4810 1060 L
4816 1008 mt 4866 1058 L
4866 1008 mt 4816 1058 L
4821 1006 mt 4871 1056 L
4871 1006 mt 4821 1056 L
4826 1003 mt 4876 1053 L
4876 1003 mt 4826 1053 L
4832 1001 mt 4882 1051 L
4882 1001 mt 4832 1051 L
4837  999 mt 4887 1049 L
4887  999 mt 4837 1049 L
4842  996 mt 4892 1046 L
4892  996 mt 4842 1046 L
4848  994 mt 4898 1044 L
4898  994 mt 4848 1044 L
4853  992 mt 4903 1042 L
4903  992 mt 4853 1042 L
4858  990 mt 4908 1040 L
4908  990 mt 4858 1040 L
4864  987 mt 4914 1037 L
4914  987 mt 4864 1037 L
4869  985 mt 4919 1035 L
4919  985 mt 4869 1035 L
4874  983 mt 4924 1033 L
4924  983 mt 4874 1033 L
4880  980 mt 4930 1030 L
4930  980 mt 4880 1030 L
4885  978 mt 4935 1028 L
4935  978 mt 4885 1028 L
4891  976 mt 4941 1026 L
4941  976 mt 4891 1026 L
4896  974 mt 4946 1024 L
4946  974 mt 4896 1024 L
4901  971 mt 4951 1021 L
4951  971 mt 4901 1021 L
4907  969 mt 4957 1019 L
4957  969 mt 4907 1019 L
4912  967 mt 4962 1017 L
4962  967 mt 4912 1017 L
4917  965 mt 4967 1015 L
4967  965 mt 4917 1015 L
4923  962 mt 4973 1012 L
4973  962 mt 4923 1012 L
4928  960 mt 4978 1010 L
4978  960 mt 4928 1010 L
4933  958 mt 4983 1008 L
4983  958 mt 4933 1008 L
4939  955 mt 4989 1005 L
4989  955 mt 4939 1005 L
4944  953 mt 4994 1003 L
4994  953 mt 4944 1003 L
4949  951 mt 4999 1001 L
4999  951 mt 4949 1001 L
4955  949 mt 5005  999 L
5005  949 mt 4955  999 L
4960  946 mt 5010  996 L
5010  946 mt 4960  996 L
4965  944 mt 5015  994 L
5015  944 mt 4965  994 L
4971  942 mt 5021  992 L
5021  942 mt 4971  992 L
4976  940 mt 5026  990 L
5026  940 mt 4976  990 L
4982  937 mt 5032  987 L
5032  937 mt 4982  987 L
4987  935 mt 5037  985 L
5037  935 mt 4987  985 L
4992  933 mt 5042  983 L
5042  933 mt 4992  983 L
4998  930 mt 5048  980 L
5048  930 mt 4998  980 L
5003  928 mt 5053  978 L
5053  928 mt 5003  978 L
5008  926 mt 5058  976 L
5058  926 mt 5008  976 L
5014  924 mt 5064  974 L
5064  924 mt 5014  974 L
5019  921 mt 5069  971 L
5069  921 mt 5019  971 L
5024  919 mt 5074  969 L
5074  919 mt 5024  969 L
5030  917 mt 5080  967 L
5080  917 mt 5030  967 L
5035  915 mt 5085  965 L
5085  915 mt 5035  965 L
5040  912 mt 5090  962 L
5090  912 mt 5040  962 L
5046  910 mt 5096  960 L
5096  910 mt 5046  960 L
5051  908 mt 5101  958 L
5101  908 mt 5051  958 L
5057  905 mt 5107  955 L
5107  905 mt 5057  955 L
5062  903 mt 5112  953 L
5112  903 mt 5062  953 L
5067  901 mt 5117  951 L
5117  901 mt 5067  951 L
5073  899 mt 5123  949 L
5123  899 mt 5073  949 L
5078  896 mt 5128  946 L
5128  896 mt 5078  946 L
5083  894 mt 5133  944 L
5133  894 mt 5083  944 L
5089  892 mt 5139  942 L
5139  892 mt 5089  942 L
5094  890 mt 5144  940 L
5144  890 mt 5094  940 L
5099  887 mt 5149  937 L
5149  887 mt 5099  937 L
5105  885 mt 5155  935 L
5155  885 mt 5105  935 L
5110  883 mt 5160  933 L
5160  883 mt 5110  933 L
5115  880 mt 5165  930 L
5165  880 mt 5115  930 L
5121  878 mt 5171  928 L
5171  878 mt 5121  928 L
5126  876 mt 5176  926 L
5176  876 mt 5126  926 L
5132  874 mt 5182  924 L
5182  874 mt 5132  924 L
5137  871 mt 5187  921 L
5187  871 mt 5137  921 L
5142  869 mt 5192  919 L
5192  869 mt 5142  919 L
5148  867 mt 5198  917 L
5198  867 mt 5148  917 L
5153  865 mt 5203  915 L
5203  865 mt 5153  915 L
5158  862 mt 5208  912 L
5208  862 mt 5158  912 L
5164  860 mt 5214  910 L
5214  860 mt 5164  910 L
5169  858 mt 5219  908 L
5219  858 mt 5169  908 L
5174  855 mt 5224  905 L
5224  855 mt 5174  905 L
5180  853 mt 5230  903 L
5230  853 mt 5180  903 L
5185  851 mt 5235  901 L
5235  851 mt 5185  901 L
5190  849 mt 5240  899 L
5240  849 mt 5190  899 L
5196  846 mt 5246  896 L
5246  846 mt 5196  896 L
5201  844 mt 5251  894 L
5251  844 mt 5201  894 L
5207  842 mt 5257  892 L
5257  842 mt 5207  892 L
5212  840 mt 5262  890 L
5262  840 mt 5212  890 L
5217  837 mt 5267  887 L
5267  837 mt 5217  887 L
5223  835 mt 5273  885 L
5273  835 mt 5223  885 L
5228  833 mt 5278  883 L
5278  833 mt 5228  883 L
5233  830 mt 5283  880 L
5283  830 mt 5233  880 L
5239  828 mt 5289  878 L
5289  828 mt 5239  878 L
5244  826 mt 5294  876 L
5294  826 mt 5244  876 L
5249  824 mt 5299  874 L
5299  824 mt 5249  874 L
5255  821 mt 5305  871 L
5305  821 mt 5255  871 L
5260  819 mt 5310  869 L
5310  819 mt 5260  869 L
5265  817 mt 5315  867 L
5315  817 mt 5265  867 L
5271  815 mt 5321  865 L
5321  815 mt 5271  865 L
5276  812 mt 5326  862 L
5326  812 mt 5276  862 L
5281  810 mt 5331  860 L
5331  810 mt 5281  860 L
5287  808 mt 5337  858 L
5337  808 mt 5287  858 L
5292  805 mt 5342  855 L
5342  805 mt 5292  855 L
5298  803 mt 5348  853 L
5348  803 mt 5298  853 L
5303  801 mt 5353  851 L
5353  801 mt 5303  851 L
5308  799 mt 5358  849 L
5358  799 mt 5308  849 L
5314  796 mt 5364  846 L
5364  796 mt 5314  846 L
5319  794 mt 5369  844 L
5369  794 mt 5319  844 L
5324  792 mt 5374  842 L
5374  792 mt 5324  842 L
5330  790 mt 5380  840 L
5380  790 mt 5330  840 L
5335  787 mt 5385  837 L
5385  787 mt 5335  837 L
5340  785 mt 5390  835 L
5390  785 mt 5340  835 L
5346  783 mt 5396  833 L
5396  783 mt 5346  833 L
5351  780 mt 5401  830 L
5401  780 mt 5351  830 L
5356  778 mt 5406  828 L
5406  778 mt 5356  828 L
5362  776 mt 5412  826 L
5412  776 mt 5362  826 L
5367  774 mt 5417  824 L
5417  774 mt 5367  824 L
5373  771 mt 5423  821 L
5423  771 mt 5373  821 L
5378  769 mt 5428  819 L
5428  769 mt 5378  819 L
5383  767 mt 5433  817 L
5433  767 mt 5383  817 L
5389  764 mt 5439  814 L
5439  764 mt 5389  814 L
5394  762 mt 5444  812 L
5444  762 mt 5394  812 L
5399  760 mt 5449  810 L
5449  760 mt 5399  810 L
5405  758 mt 5455  808 L
5455  758 mt 5405  808 L
5410  755 mt 5460  805 L
5460  755 mt 5410  805 L
5415  753 mt 5465  803 L
5465  753 mt 5415  803 L
5421  751 mt 5471  801 L
5471  751 mt 5421  801 L
5426  749 mt 5476  799 L
5476  749 mt 5426  799 L
5431  746 mt 5481  796 L
5481  746 mt 5431  796 L
5437  744 mt 5487  794 L
5487  744 mt 5437  794 L
5442  742 mt 5492  792 L
5492  742 mt 5442  792 L
5448  739 mt 5498  789 L
5498  739 mt 5448  789 L
5453  737 mt 5503  787 L
5503  737 mt 5453  787 L
5458  735 mt 5508  785 L
5508  735 mt 5458  785 L
5464  733 mt 5514  783 L
5514  733 mt 5464  783 L
5469  730 mt 5519  780 L
5519  730 mt 5469  780 L
5474  728 mt 5524  778 L
5524  728 mt 5474  778 L
5480  726 mt 5530  776 L
5530  726 mt 5480  776 L
5485  724 mt 5535  774 L
5535  724 mt 5485  774 L
5490  721 mt 5540  771 L
5540  721 mt 5490  771 L
5496  719 mt 5546  769 L
5546  719 mt 5496  769 L
5501  717 mt 5551  767 L
5551  717 mt 5501  767 L
5506  714 mt 5556  764 L
5556  714 mt 5506  764 L
5512  712 mt 5562  762 L
5562  712 mt 5512  762 L
5517  749 mt 5567  799 L
5567  749 mt 5517  799 L
5523  747 mt 5573  797 L
5573  747 mt 5523  797 L
5528  745 mt 5578  795 L
5578  745 mt 5528  795 L
5533  742 mt 5583  792 L
5583  742 mt 5533  792 L
5539  740 mt 5589  790 L
5589  740 mt 5539  790 L
5544  738 mt 5594  788 L
5594  738 mt 5544  788 L
5549  736 mt 5599  786 L
5599  736 mt 5549  786 L
5555  734 mt 5605  784 L
5605  734 mt 5555  784 L
5560  732 mt 5610  782 L
5610  732 mt 5560  782 L
5565  729 mt 5615  779 L
5615  729 mt 5565  779 L
5571  727 mt 5621  777 L
5621  727 mt 5571  777 L
5576  725 mt 5626  775 L
5626  725 mt 5576  775 L
5581  723 mt 5631  773 L
5631  723 mt 5581  773 L
5587  721 mt 5637  771 L
5637  721 mt 5587  771 L
5592  719 mt 5642  769 L
5642  719 mt 5592  769 L
5597  716 mt 5647  766 L
5647  716 mt 5597  766 L
5603  714 mt 5653  764 L
5653  714 mt 5603  764 L
5608  712 mt 5658  762 L
5658  712 mt 5608  762 L
5614  710 mt 5664  760 L
5664  710 mt 5614  760 L
5619  708 mt 5669  758 L
5669  708 mt 5619  758 L
5624  706 mt 5674  756 L
5674  706 mt 5624  756 L
5630  703 mt 5680  753 L
5680  703 mt 5630  753 L
5635  701 mt 5685  751 L
5685  701 mt 5635  751 L
5640  699 mt 5690  749 L
5690  699 mt 5640  749 L
5646  697 mt 5696  747 L
5696  697 mt 5646  747 L
5651  695 mt 5701  745 L
5701  695 mt 5651  745 L
5656  699 mt 5706  749 L
5706  699 mt 5656  749 L
5662  697 mt 5712  747 L
5712  697 mt 5662  747 L
5667  694 mt 5717  744 L
5717  694 mt 5667  744 L
5672  692 mt 5722  742 L
5722  692 mt 5672  742 L
5678  690 mt 5728  740 L
5728  690 mt 5678  740 L
5683  688 mt 5733  738 L
5733  688 mt 5683  738 L
5689  686 mt 5739  736 L
5739  686 mt 5689  736 L
5694  684 mt 5744  734 L
5744  684 mt 5694  734 L
5699  682 mt 5749  732 L
5749  682 mt 5699  732 L
5705  679 mt 5755  729 L
5755  679 mt 5705  729 L
5710  677 mt 5760  727 L
5760  677 mt 5710  727 L
5715  675 mt 5765  725 L
5765  675 mt 5715  725 L
5721  673 mt 5771  723 L
5771  673 mt 5721  723 L
5726  671 mt 5776  721 L
5776  671 mt 5726  721 L
5731  669 mt 5781  719 L
5781  669 mt 5731  719 L
5737  667 mt 5787  717 L
5787  667 mt 5737  717 L
5742  664 mt 5792  714 L
5792  664 mt 5742  714 L
5747  662 mt 5797  712 L
5797  662 mt 5747  712 L
5753  660 mt 5803  710 L
5803  660 mt 5753  710 L
5758  658 mt 5808  708 L
5808  658 mt 5758  708 L
5764  656 mt 5814  706 L
5814  656 mt 5764  706 L
5769  654 mt 5819  704 L
5819  654 mt 5769  704 L
5774  651 mt 5824  701 L
5824  651 mt 5774  701 L
5780  649 mt 5830  699 L
5830  649 mt 5780  699 L
5785  647 mt 5835  697 L
5835  647 mt 5785  697 L
5790  645 mt 5840  695 L
5840  645 mt 5790  695 L
5796  646 mt 5846  696 L
5846  646 mt 5796  696 L
5801  644 mt 5851  694 L
5851  644 mt 5801  694 L
5806  641 mt 5856  691 L
5856  641 mt 5806  691 L
5812  639 mt 5862  689 L
5862  639 mt 5812  689 L
5817  637 mt 5867  687 L
5867  637 mt 5817  687 L
5822  635 mt 5872  685 L
5872  635 mt 5822  685 L
5828  633 mt 5878  683 L
5878  633 mt 5828  683 L
5833  631 mt 5883  681 L
5883  631 mt 5833  681 L
5839  629 mt 5889  679 L
5889  629 mt 5839  679 L
5844  626 mt 5894  676 L
5894  626 mt 5844  676 L
5849  624 mt 5899  674 L
5899  624 mt 5849  674 L
5855  622 mt 5905  672 L
5905  622 mt 5855  672 L
5860  620 mt 5910  670 L
5910  620 mt 5860  670 L
5865  618 mt 5915  668 L
5915  618 mt 5865  668 L
5871  616 mt 5921  666 L
5921  616 mt 5871  666 L
5876  613 mt 5926  663 L
5926  613 mt 5876  663 L
5881  611 mt 5931  661 L
5931  611 mt 5881  661 L
5887  609 mt 5937  659 L
5937  609 mt 5887  659 L
5892  607 mt 5942  657 L
5942  607 mt 5892  657 L
5897  605 mt 5947  655 L
5947  605 mt 5897  655 L
5903  603 mt 5953  653 L
5953  603 mt 5903  653 L
5908  601 mt 5958  651 L
5958  601 mt 5908  651 L
5913  598 mt 5963  648 L
5963  598 mt 5913  648 L
5919  596 mt 5969  646 L
5969  596 mt 5919  646 L
5924  594 mt 5974  644 L
5974  594 mt 5924  644 L
5930  592 mt 5980  642 L
5980  592 mt 5930  642 L
5935  592 mt 5985  642 L
5985  592 mt 5935  642 L
5940  590 mt 5990  640 L
5990  590 mt 5940  640 L
5946  587 mt 5996  637 L
5996  587 mt 5946  637 L
5951  585 mt 6001  635 L
6001  585 mt 5951  635 L
5956  583 mt 6006  633 L
6006  583 mt 5956  633 L
5962  581 mt 6012  631 L
6012  581 mt 5962  631 L
5967  579 mt 6017  629 L
6017  579 mt 5967  629 L
5972  577 mt 6022  627 L
6022  577 mt 5972  627 L
5978  574 mt 6028  624 L
6028  574 mt 5978  624 L
5983  572 mt 6033  622 L
6033  572 mt 5983  622 L
5988  570 mt 6038  620 L
6038  570 mt 5988  620 L
5994  568 mt 6044  618 L
6044  568 mt 5994  618 L
5999  566 mt 6049  616 L
6049  566 mt 5999  616 L
6005  564 mt 6055  614 L
6055  564 mt 6005  614 L
6010  562 mt 6060  612 L
6060  562 mt 6010  612 L
6015  559 mt 6065  609 L
6065  559 mt 6015  609 L
6021  557 mt 6071  607 L
6071  557 mt 6021  607 L
6026  555 mt 6076  605 L
6076  555 mt 6026  605 L
6031  553 mt 6081  603 L
6081  553 mt 6031  603 L
6037  551 mt 6087  601 L
6087  551 mt 6037  601 L
6042  549 mt 6092  599 L
6092  549 mt 6042  599 L
6047  546 mt 6097  596 L
6097  546 mt 6047  596 L
6053  544 mt 6103  594 L
6103  544 mt 6053  594 L
6058  542 mt 6108  592 L
6108  542 mt 6058  592 L
6063  540 mt 6113  590 L
6113  540 mt 6063  590 L
6069  538 mt 6119  588 L
6119  538 mt 6069  588 L
6074  537 mt 6124  587 L
6124  537 mt 6074  587 L
6080  535 mt 6130  585 L
6130  535 mt 6080  585 L
6085  533 mt 6135  583 L
6135  533 mt 6085  583 L
6090  531 mt 6140  581 L
6140  531 mt 6090  581 L
6096  528 mt 6146  578 L
6146  528 mt 6096  578 L
6101  526 mt 6151  576 L
6151  526 mt 6101  576 L
6106  524 mt 6156  574 L
6156  524 mt 6106  574 L
6112  522 mt 6162  572 L
6162  522 mt 6112  572 L
6117  520 mt 6167  570 L
6167  520 mt 6117  570 L
6122  518 mt 6172  568 L
6172  518 mt 6122  568 L
6128  515 mt 6178  565 L
6178  515 mt 6128  565 L
6133  513 mt 6183  563 L
6183  513 mt 6133  563 L
6138  511 mt 6188  561 L
6188  511 mt 6138  561 L
6144  509 mt 6194  559 L
6194  509 mt 6144  559 L
6149  507 mt 6199  557 L
6199  507 mt 6149  557 L
6155  505 mt 6205  555 L
6205  505 mt 6155  555 L
6160  503 mt 6210  553 L
6210  503 mt 6160  553 L
6165  500 mt 6215  550 L
6215  500 mt 6165  550 L
6171  498 mt 6221  548 L
6221  498 mt 6171  548 L
6176  496 mt 6226  546 L
6226  496 mt 6176  546 L
6181  494 mt 6231  544 L
6231  494 mt 6181  544 L
6187  492 mt 6237  542 L
6237  492 mt 6187  542 L
6192  490 mt 6242  540 L
6242  490 mt 6192  540 L
6197  487 mt 6247  537 L
6247  487 mt 6197  537 L
6203  485 mt 6253  535 L
6253  485 mt 6203  535 L
6208  483 mt 6258  533 L
6258  483 mt 6208  533 L
6213  482 mt 6263  532 L
6263  482 mt 6213  532 L
6219  480 mt 6269  530 L
6269  480 mt 6219  530 L
6224  478 mt 6274  528 L
6274  478 mt 6224  528 L
6230  475 mt 6280  525 L
6280  475 mt 6230  525 L
gr

c9
gs 899 389 5357 4227 MR c np
12 w
gr

12 w
gs 826 424 5504 2452 MR c np
/c10 { 1.000000 0.000000 0.000000 sr} bdef
c10
  36   36 1016 2755 FO
  36   36 1830 2273 FO
  36   36 1970 2217 FO
  36   36 2109 2161 FO
  36   36 2248 2105 FO
  36   36 2387 2049 FO
  36   36 2527 1994 FO
  36   36 2666 1938 FO
  36   36 2805 1882 FO
  36   36 2944 1826 FO
  36   36 3764 1498 FO
  36   36 3903 1442 FO
  36   36 4042 1386 FO
  36   36 5542  784 FO
  36   36 5681  728 FO
  36   36 5821  672 FO
  36   36 5960  616 FO
  36   36 6099  560 FO
  36   36 6238  504 FO
gr

c10
gs 899 389 5357 4227 MR c np
gr

0 sg
3316 4903 mt 
(Tempo [s]) s
 479 2813 mt  -90 rotate
(Posi\347\343o [m]) s
90 rotate
2227  294 mt 
(Traject\363ria do Mergulhador: Real e Estimada, em z) s
 870 4670 mt 
( ) s
6227  443 mt 
( ) s
6 w
1 sg
0 521 1157 0 0 -521 4619 3682 4 MP
PP
-1157 0 0 521 1157 0 0 -521 4619 3682 5 MP stroke
4 w
DO
SO
6 w
0 sg
4619 3682 mt 5776 3682 L
4619 3161 mt 5776 3161 L
4619 3682 mt 4619 3161 L
5776 3682 mt 5776 3161 L
4619 3682 mt 5776 3682 L
4619 3682 mt 4619 3161 L
4619 3682 mt 5776 3682 L
4619 3161 mt 5776 3161 L
4619 3682 mt 4619 3161 L
5776 3682 mt 5776 3161 L
5087 3304 mt 
(Real) s
gs 4619 3161 1158 522 MR c np
gs 4798 3188 147 147 MR c np
c8
  36   36 4871 3261 FO
gr

c8
gr

c8
0 sg
5087 3464 mt 
(Kalman) s
gs 4619 3161 1158 522 MR c np
gs 4798 3348 147 147 MR c np
c9
4846 3396 mt 4896 3446 L
4896 3396 mt 4846 3446 L
gr

c9
gr

c9
0 sg
5087 3624 mt 
(Trilatera\347\343o) s
gs 4619 3161 1158 522 MR c np
12 w
gs 4798 3508 147 147 MR c np
c10
  36   36 4871 3581 FO
gr

c10
6 w
gr

c10

end %%Color Dict

eplot
%%EndObject

epage
end

showpage

%%Trailer
%%EOF
