%!PS-Adobe-2.0 EPSF-1.2
%%Creator: MATLAB, The Mathworks, Inc. Version 7.9.0.529 (R2009b). Operating System: Darwin 10.8.0 Darwin Kernel Version 10.8.0: Tue Jun  7 16:33:36 PDT 2011; root:xnu-1504.15.3~1/RELEASE_I386 i386.
%%Title: ./vD_vV_miss_time_vehicle_zoom.eps
%%CreationDate: 10/12/2011  20:02:14
%%DocumentNeededFonts: Helvetica
%%DocumentProcessColors: Cyan Magenta Yellow Black
%%Extensions: CMYK
%%Pages: 1
%%BoundingBox:    60   208   577   595
%%EndComments

%%BeginProlog
% MathWorks dictionary
/MathWorks 160 dict begin
% definition operators
/bdef {bind def} bind def
/ldef {load def} bind def
/xdef {exch def} bdef
/xstore {exch store} bdef
% operator abbreviations
/c  /clip ldef
/cc /concat ldef
/cp /closepath ldef
/gr /grestore ldef
/gs /gsave ldef
/mt /moveto ldef
/np /newpath ldef
/cm /currentmatrix ldef
/sm /setmatrix ldef
/rm /rmoveto ldef
/rl /rlineto ldef
/s {show newpath} bdef
/sc {setcmykcolor} bdef
/sr /setrgbcolor ldef
/sg /setgray ldef
/w /setlinewidth ldef
/j /setlinejoin ldef
/cap /setlinecap ldef
/rc {rectclip} bdef
/rf {rectfill} bdef
% page state control
/pgsv () def
/bpage {/pgsv save def} bdef
/epage {pgsv restore} bdef
/bplot /gsave ldef
/eplot {stroke grestore} bdef
% orientation switch
/portraitMode 0 def /landscapeMode 1 def /rotateMode 2 def
% coordinate system mappings
/dpi2point 0 def
% font control
/FontSize 0 def
/FMS {/FontSize xstore findfont [FontSize 0 0 FontSize neg 0 0]
  makefont setfont} bdef
/reencode {exch dup where {pop load} {pop StandardEncoding} ifelse
  exch dup 3 1 roll findfont dup length dict begin
  { 1 index /FID ne {def}{pop pop} ifelse } forall
  /Encoding exch def currentdict end definefont pop} bdef
/isroman {findfont /CharStrings get /Agrave known} bdef
/FMSR {3 1 roll 1 index dup isroman {reencode} {pop pop} ifelse
  exch FMS} bdef
/csm {1 dpi2point div -1 dpi2point div scale neg translate
 dup landscapeMode eq {pop -90 rotate}
  {rotateMode eq {90 rotate} if} ifelse} bdef
% line types: solid, dotted, dashed, dotdash
/SO { [] 0 setdash } bdef
/DO { [.5 dpi2point mul 4 dpi2point mul] 0 setdash } bdef
/DA { [6 dpi2point mul] 0 setdash } bdef
/DD { [.5 dpi2point mul 4 dpi2point mul 6 dpi2point mul 4
  dpi2point mul] 0 setdash } bdef
% macros for lines and objects
/L {lineto stroke} bdef
/MP {3 1 roll moveto 1 sub {rlineto} repeat} bdef
/AP {{rlineto} repeat} bdef
/PDlw -1 def
/W {/PDlw currentlinewidth def setlinewidth} def
/PP {closepath eofill} bdef
/DP {closepath stroke} bdef
/MR {4 -2 roll moveto dup  0 exch rlineto exch 0 rlineto
  neg 0 exch rlineto closepath} bdef
/FR {MR stroke} bdef
/PR {MR fill} bdef
/L1i {{currentfile picstr readhexstring pop} image} bdef
/tMatrix matrix def
/MakeOval {newpath tMatrix currentmatrix pop translate scale
0 0 1 0 360 arc tMatrix setmatrix} bdef
/FO {MakeOval stroke} bdef
/PO {MakeOval fill} bdef
/PD {currentlinewidth 2 div 0 360 arc fill
   PDlw -1 eq not {PDlw w /PDlw -1 def} if} def
/FA {newpath tMatrix currentmatrix pop translate scale
  0 0 1 5 -2 roll arc tMatrix setmatrix stroke} bdef
/PA {newpath tMatrix currentmatrix pop	translate 0 0 moveto scale
  0 0 1 5 -2 roll arc closepath tMatrix setmatrix fill} bdef
/FAn {newpath tMatrix currentmatrix pop translate scale
  0 0 1 5 -2 roll arcn tMatrix setmatrix stroke} bdef
/PAn {newpath tMatrix currentmatrix pop translate 0 0 moveto scale
  0 0 1 5 -2 roll arcn closepath tMatrix setmatrix fill} bdef
/vradius 0 def /hradius 0 def /lry 0 def
/lrx 0 def /uly 0 def /ulx 0 def /rad 0 def
/MRR {/vradius xdef /hradius xdef /lry xdef /lrx xdef /uly xdef
  /ulx xdef newpath tMatrix currentmatrix pop ulx hradius add uly
  vradius add translate hradius vradius scale 0 0 1 180 270 arc 
  tMatrix setmatrix lrx hradius sub uly vradius add translate
  hradius vradius scale 0 0 1 270 360 arc tMatrix setmatrix
  lrx hradius sub lry vradius sub translate hradius vradius scale
  0 0 1 0 90 arc tMatrix setmatrix ulx hradius add lry vradius sub
  translate hradius vradius scale 0 0 1 90 180 arc tMatrix setmatrix
  closepath} bdef
/FRR {MRR stroke } bdef
/PRR {MRR fill } bdef
/MlrRR {/lry xdef /lrx xdef /uly xdef /ulx xdef /rad lry uly sub 2 div def
  newpath tMatrix currentmatrix pop ulx rad add uly rad add translate
  rad rad scale 0 0 1 90 270 arc tMatrix setmatrix lrx rad sub lry rad
  sub translate rad rad scale 0 0 1 270 90 arc tMatrix setmatrix
  closepath} bdef
/FlrRR {MlrRR stroke } bdef
/PlrRR {MlrRR fill } bdef
/MtbRR {/lry xdef /lrx xdef /uly xdef /ulx xdef /rad lrx ulx sub 2 div def
  newpath tMatrix currentmatrix pop ulx rad add uly rad add translate
  rad rad scale 0 0 1 180 360 arc tMatrix setmatrix lrx rad sub lry rad
  sub translate rad rad scale 0 0 1 0 180 arc tMatrix setmatrix
  closepath} bdef
/FtbRR {MtbRR stroke } bdef
/PtbRR {MtbRR fill } bdef
/stri 6 array def /dtri 6 array def
/smat 6 array def /dmat 6 array def
/tmat1 6 array def /tmat2 6 array def /dif 3 array def
/asub {/ind2 exch def /ind1 exch def dup dup
  ind1 get exch ind2 get sub exch } bdef
/tri_to_matrix {
  2 0 asub 3 1 asub 4 0 asub 5 1 asub
  dup 0 get exch 1 get 7 -1 roll astore } bdef
/compute_transform {
  dmat dtri tri_to_matrix tmat1 invertmatrix 
  smat stri tri_to_matrix tmat2 concatmatrix } bdef
/ds {stri astore pop} bdef
/dt {dtri astore pop} bdef
/db {2 copy /cols xdef /rows xdef mul dup 3 mul string
  currentfile exch readhexstring pop
  dup 0 3 index getinterval /rbmap xdef
  dup 2 index dup getinterval /gbmap xdef
  1 index dup 2 mul exch getinterval /bbmap xdef pop pop}bdef
/it {gs np dtri aload pop moveto lineto lineto cp c
  cols rows 8 compute_transform 
  rbmap gbmap bbmap true 3 colorimage gr}bdef
/il {newpath moveto lineto stroke}bdef
currentdict end def
%%EndProlog

%%BeginSetup
MathWorks begin

0 cap

end
%%EndSetup

%%Page: 1 1
%%BeginPageSetup
%%PageBoundingBox:    60   208   577   595
MathWorks begin
bpage
%%EndPageSetup

%%BeginObject: obj1
bplot

/dpi2point 12 def
portraitMode 0216 7344 csm

  510   202  6200  4640 MR c np
89 dict begin %Colortable dictionary
/c0 { 0.000000 0.000000 0.000000 sr} bdef
/c1 { 1.000000 1.000000 1.000000 sr} bdef
/c2 { 0.900000 0.000000 0.000000 sr} bdef
/c3 { 0.000000 0.820000 0.000000 sr} bdef
/c4 { 0.000000 0.000000 0.800000 sr} bdef
/c5 { 0.910000 0.820000 0.320000 sr} bdef
/c6 { 1.000000 0.260000 0.820000 sr} bdef
/c7 { 0.000000 0.820000 0.820000 sr} bdef
c0
1 j
1 sg
   0    0 6913 5186 PR
6 w
0 613 5356 0 0 -613 899 1094 4 MP
PP
-5356 0 0 613 5356 0 0 -613 899 1094 5 MP stroke
4 w
DO
0 sg
 899 1094 mt  899  481 L
 899  481 mt  899  481 L
1434 1094 mt 1434  481 L
1434  481 mt 1434  481 L
1970 1094 mt 1970  481 L
1970  481 mt 1970  481 L
2505 1094 mt 2505  481 L
2505  481 mt 2505  481 L
3041 1094 mt 3041  481 L
3041  481 mt 3041  481 L
3577 1094 mt 3577  481 L
3577  481 mt 3577  481 L
4112 1094 mt 4112  481 L
4112  481 mt 4112  481 L
4648 1094 mt 4648  481 L
4648  481 mt 4648  481 L
5183 1094 mt 5183  481 L
5183  481 mt 5183  481 L
5719 1094 mt 5719  481 L
5719  481 mt 5719  481 L
6255 1094 mt 6255  481 L
6255  481 mt 6255  481 L
 899 1094 mt 6255 1094 L
6255 1094 mt 6255 1094 L
 899  787 mt 6255  787 L
6255  787 mt 6255  787 L
 899  481 mt 6255  481 L
6255  481 mt 6255  481 L
SO
6 w
 899 1094 mt 6255 1094 L
 899  481 mt 6255  481 L
 899 1094 mt  899  481 L
6255 1094 mt 6255  481 L
 899 1094 mt 6255 1094 L
 899 1094 mt  899  481 L
 899 1094 mt  899 1040 L
 899  481 mt  899  534 L
%%IncludeResource: font Helvetica
/Helvetica /ISOLatin1Encoding 120 FMSR

 833 1239 mt 
(70) s
1434 1094 mt 1434 1040 L
1434  481 mt 1434  534 L
1368 1239 mt 
(71) s
1970 1094 mt 1970 1040 L
1970  481 mt 1970  534 L
1904 1239 mt 
(72) s
2505 1094 mt 2505 1040 L
2505  481 mt 2505  534 L
2439 1239 mt 
(73) s
3041 1094 mt 3041 1040 L
3041  481 mt 3041  534 L
2975 1239 mt 
(74) s
3577 1094 mt 3577 1040 L
3577  481 mt 3577  534 L
3511 1239 mt 
(75) s
4112 1094 mt 4112 1040 L
4112  481 mt 4112  534 L
4046 1239 mt 
(76) s
4648 1094 mt 4648 1040 L
4648  481 mt 4648  534 L
4582 1239 mt 
(77) s
5183 1094 mt 5183 1040 L
5183  481 mt 5183  534 L
5117 1239 mt 
(78) s
5719 1094 mt 5719 1040 L
5719  481 mt 5719  534 L
5653 1239 mt 
(79) s
6255 1094 mt 6255 1040 L
6255  481 mt 6255  534 L
6189 1239 mt 
(80) s
 899 1094 mt  952 1094 L
6255 1094 mt 6201 1094 L
 728 1138 mt 
(-2) s
 899  787 mt  952  787 L
6255  787 mt 6201  787 L
 798  831 mt 
(0) s
 899  481 mt  952  481 L
6255  481 mt 6201  481 L
 798  525 mt 
(2) s
 899 1094 mt 6255 1094 L
 899  481 mt 6255  481 L
 899 1094 mt  899  481 L
6255 1094 mt 6255  481 L
gs 899 481 5357 614 MR c np
12 w
gr

12 w
gs 826 867 5504 147 MR c np
/c8 { 0.000000 1.000000 1.000000 sr} bdef
c8
  36   36  995  940 FO
  36   36 1134  940 FO
  36   36 1273  940 FO
  36   36 1413  940 FO
  36   36 1552  940 FO
  36   36 1691  940 FO
  36   36 1830  940 FO
  36   36 1970  940 FO
  36   36 2109  940 FO
  36   36 2248  940 FO
  36   36 2387  940 FO
  36   36 2527  940 FO
  36   36 2666  940 FO
  36   36 2805  940 FO
  36   36 2944  940 FO
  36   36 3625  940 FO
  36   36 3764  940 FO
  36   36 3903  940 FO
  36   36 4042  940 FO
  36   36 4182  940 FO
  36   36 4321  940 FO
  36   36 4460  940 FO
  36   36 4599  940 FO
  36   36 4739  940 FO
  36   36 4878  940 FO
  36   36 5017  940 FO
  36   36 5157  940 FO
  36   36 5296  940 FO
  36   36 5435  940 FO
  36   36 5574  940 FO
  36   36 5714  940 FO
  36   36 5853  940 FO
gr

c8
gs 899 481 5357 614 MR c np
DA
0 153 995 787 2 MP stroke
0 153 1134 787 2 MP stroke
0 153 1273 787 2 MP stroke
0 153 1413 787 2 MP stroke
0 153 1552 787 2 MP stroke
0 153 1691 787 2 MP stroke
0 153 1830 787 2 MP stroke
0 153 1970 787 2 MP stroke
0 153 2109 787 2 MP stroke
0 153 2248 787 2 MP stroke
0 153 2387 787 2 MP stroke
0 153 2527 787 2 MP stroke
0 153 2666 787 2 MP stroke
0 153 2805 787 2 MP stroke
0 153 2944 787 2 MP stroke
0 153 3625 787 2 MP stroke
0 153 3764 787 2 MP stroke
0 153 3903 787 2 MP stroke
0 153 4042 787 2 MP stroke
0 153 4182 787 2 MP stroke
0 153 4321 787 2 MP stroke
0 153 4460 787 2 MP stroke
0 153 4599 787 2 MP stroke
0 153 4739 787 2 MP stroke
0 153 4878 787 2 MP stroke
0 153 5017 787 2 MP stroke
0 153 5157 787 2 MP stroke
0 153 5296 787 2 MP stroke
0 153 5435 787 2 MP stroke
0 153 5574 787 2 MP stroke
0 153 5714 787 2 MP stroke
0 153 5853 787 2 MP stroke
SO
6 w
0 sg
5356 0 899 787 2 MP stroke
12 w
gr

0 sg
gs 826 867 5504 147 MR c np
/c9 { 1.000000 0.000000 0.000000 sr} bdef
c9
 899  940 mt  971  940 L
 935  904 mt  935  976 L
1038  940 mt 1110  940 L
1074  904 mt 1074  976 L
1178  940 mt 1250  940 L
1214  904 mt 1214  976 L
1317  940 mt 1389  940 L
1353  904 mt 1353  976 L
1456  940 mt 1528  940 L
1492  904 mt 1492  976 L
1596  940 mt 1668  940 L
1632  904 mt 1632  976 L
1735  940 mt 1807  940 L
1771  904 mt 1771  976 L
1874  940 mt 1946  940 L
1910  904 mt 1910  976 L
2014  940 mt 2086  940 L
2050  904 mt 2050  976 L
2153  940 mt 2225  940 L
2189  904 mt 2189  976 L
2292  940 mt 2364  940 L
2328  904 mt 2328  976 L
2432  940 mt 2504  940 L
2468  904 mt 2468  976 L
2571  940 mt 2643  940 L
2607  904 mt 2607  976 L
2710  940 mt 2782  940 L
2746  904 mt 2746  976 L
2850  940 mt 2922  940 L
2886  904 mt 2886  976 L
2989  940 mt 3061  940 L
3025  904 mt 3025  976 L
3669  940 mt 3741  940 L
3705  904 mt 3705  976 L
3809  940 mt 3881  940 L
3845  904 mt 3845  976 L
3948  940 mt 4020  940 L
3984  904 mt 3984  976 L
4087  940 mt 4159  940 L
4123  904 mt 4123  976 L
4227  940 mt 4299  940 L
4263  904 mt 4263  976 L
4366  940 mt 4438  940 L
4402  904 mt 4402  976 L
4505  940 mt 4577  940 L
4541  904 mt 4541  976 L
4645  940 mt 4717  940 L
4681  904 mt 4681  976 L
4784  940 mt 4856  940 L
4820  904 mt 4820  976 L
4923  940 mt 4995  940 L
4959  904 mt 4959  976 L
5063  940 mt 5135  940 L
5099  904 mt 5099  976 L
5202  940 mt 5274  940 L
5238  904 mt 5238  976 L
5341  940 mt 5413  940 L
5377  904 mt 5377  976 L
5481  940 mt 5553  940 L
5517  904 mt 5517  976 L
5620  940 mt 5692  940 L
5656  904 mt 5656  976 L
5759  940 mt 5831  940 L
5795  904 mt 5795  976 L
5899  940 mt 5971  940 L
5935  904 mt 5935  976 L
 910  915 mt  960  965 L
 960  915 mt  910  965 L
1049  915 mt 1099  965 L
1099  915 mt 1049  965 L
1189  915 mt 1239  965 L
1239  915 mt 1189  965 L
1328  915 mt 1378  965 L
1378  915 mt 1328  965 L
1467  915 mt 1517  965 L
1517  915 mt 1467  965 L
1607  915 mt 1657  965 L
1657  915 mt 1607  965 L
1746  915 mt 1796  965 L
1796  915 mt 1746  965 L
1885  915 mt 1935  965 L
1935  915 mt 1885  965 L
2025  915 mt 2075  965 L
2075  915 mt 2025  965 L
2164  915 mt 2214  965 L
2214  915 mt 2164  965 L
2303  915 mt 2353  965 L
2353  915 mt 2303  965 L
2443  915 mt 2493  965 L
2493  915 mt 2443  965 L
2582  915 mt 2632  965 L
2632  915 mt 2582  965 L
2721  915 mt 2771  965 L
2771  915 mt 2721  965 L
2861  915 mt 2911  965 L
2911  915 mt 2861  965 L
3000  915 mt 3050  965 L
3050  915 mt 3000  965 L
3680  915 mt 3730  965 L
3730  915 mt 3680  965 L
3820  915 mt 3870  965 L
3870  915 mt 3820  965 L
3959  915 mt 4009  965 L
4009  915 mt 3959  965 L
4098  915 mt 4148  965 L
4148  915 mt 4098  965 L
4238  915 mt 4288  965 L
4288  915 mt 4238  965 L
4377  915 mt 4427  965 L
4427  915 mt 4377  965 L
4516  915 mt 4566  965 L
4566  915 mt 4516  965 L
4656  915 mt 4706  965 L
4706  915 mt 4656  965 L
4795  915 mt 4845  965 L
4845  915 mt 4795  965 L
4934  915 mt 4984  965 L
4984  915 mt 4934  965 L
5074  915 mt 5124  965 L
5124  915 mt 5074  965 L
5213  915 mt 5263  965 L
5263  915 mt 5213  965 L
5352  915 mt 5402  965 L
5402  915 mt 5352  965 L
5492  915 mt 5542  965 L
5542  915 mt 5492  965 L
5631  915 mt 5681  965 L
5681  915 mt 5631  965 L
5770  915 mt 5820  965 L
5820  915 mt 5770  965 L
5910  915 mt 5960  965 L
5960  915 mt 5910  965 L
gr

c9
gs 899 481 5357 614 MR c np
0 153 935 787 2 MP stroke
0 153 1074 787 2 MP stroke
0 153 1214 787 2 MP stroke
0 153 1353 787 2 MP stroke
0 153 1492 787 2 MP stroke
0 153 1632 787 2 MP stroke
0 153 1771 787 2 MP stroke
0 153 1910 787 2 MP stroke
0 153 2050 787 2 MP stroke
0 153 2189 787 2 MP stroke
0 153 2328 787 2 MP stroke
0 153 2468 787 2 MP stroke
0 153 2607 787 2 MP stroke
0 153 2746 787 2 MP stroke
0 153 2886 787 2 MP stroke
0 153 3025 787 2 MP stroke
0 153 3705 787 2 MP stroke
0 153 3845 787 2 MP stroke
0 153 3984 787 2 MP stroke
0 153 4123 787 2 MP stroke
0 153 4263 787 2 MP stroke
0 153 4402 787 2 MP stroke
0 153 4541 787 2 MP stroke
0 153 4681 787 2 MP stroke
0 153 4820 787 2 MP stroke
0 153 4959 787 2 MP stroke
0 153 5099 787 2 MP stroke
0 153 5238 787 2 MP stroke
0 153 5377 787 2 MP stroke
0 153 5517 787 2 MP stroke
0 153 5656 787 2 MP stroke
0 153 5795 787 2 MP stroke
0 153 5935 787 2 MP stroke
gr

gs 826 561 5504 147 MR c np
/c10 { 0.000000 0.000000 1.000000 sr} bdef
c10
  36   36  984  634 FO
  36   36 1123  634 FO
  36   36 1263  634 FO
  36   36 1402  634 FO
  36   36 1541  634 FO
  36   36 1680  634 FO
  36   36 1820  634 FO
  36   36 1959  634 FO
  36   36 2098  634 FO
  36   36 2238  634 FO
  36   36 2377  634 FO
  36   36 2516  634 FO
  36   36 2655  634 FO
  36   36 2795  634 FO
  36   36 2934  634 FO
  36   36 3078  634 FO
  36   36 3759  634 FO
  36   36 3898  634 FO
  36   36 4037  634 FO
  36   36 4176  634 FO
  36   36 4316  634 FO
  36   36 4455  634 FO
  36   36 4594  634 FO
  36   36 4733  634 FO
  36   36 4873  634 FO
  36   36 5012  634 FO
  36   36 5151  634 FO
  36   36 5290  634 FO
  36   36 5430  634 FO
  36   36 5569  634 FO
  36   36 5708  634 FO
  36   36 5847  634 FO
  36   36 5987  634 FO
gr

c10
gs 899 481 5357 614 MR c np
DA
0 -153 984 787 2 MP stroke
0 -153 1123 787 2 MP stroke
0 -153 1263 787 2 MP stroke
0 -153 1402 787 2 MP stroke
0 -153 1541 787 2 MP stroke
0 -153 1680 787 2 MP stroke
0 -153 1820 787 2 MP stroke
0 -153 1959 787 2 MP stroke
0 -153 2098 787 2 MP stroke
0 -153 2238 787 2 MP stroke
0 -153 2377 787 2 MP stroke
0 -153 2516 787 2 MP stroke
0 -153 2655 787 2 MP stroke
0 -153 2795 787 2 MP stroke
0 -153 2934 787 2 MP stroke
0 -153 3078 787 2 MP stroke
0 -153 3759 787 2 MP stroke
0 -153 3898 787 2 MP stroke
0 -153 4037 787 2 MP stroke
0 -153 4176 787 2 MP stroke
0 -153 4316 787 2 MP stroke
0 -153 4455 787 2 MP stroke
0 -153 4594 787 2 MP stroke
0 -153 4733 787 2 MP stroke
0 -153 4873 787 2 MP stroke
0 -153 5012 787 2 MP stroke
0 -153 5151 787 2 MP stroke
0 -153 5290 787 2 MP stroke
0 -153 5430 787 2 MP stroke
0 -153 5569 787 2 MP stroke
0 -153 5708 787 2 MP stroke
0 -153 5847 787 2 MP stroke
0 -153 5987 787 2 MP stroke
gr

DA
0 sg
3363 1382 mt 
(Time [s]) s
 646  955 mt  -90 rotate
(Signal) s
90 rotate
2635  386 mt 
(Message exchange of the Vehicle 2) s
SO
6 w
1 sg
0 613 5356 0 0 -613 899 2230 4 MP
PP
-5356 0 0 613 5356 0 0 -613 899 2230 5 MP stroke
4 w
DO
0 sg
 899 2230 mt  899 1617 L
 899 1617 mt  899 1617 L
1434 2230 mt 1434 1617 L
1434 1617 mt 1434 1617 L
1970 2230 mt 1970 1617 L
1970 1617 mt 1970 1617 L
2505 2230 mt 2505 1617 L
2505 1617 mt 2505 1617 L
3041 2230 mt 3041 1617 L
3041 1617 mt 3041 1617 L
3577 2230 mt 3577 1617 L
3577 1617 mt 3577 1617 L
4112 2230 mt 4112 1617 L
4112 1617 mt 4112 1617 L
4648 2230 mt 4648 1617 L
4648 1617 mt 4648 1617 L
5183 2230 mt 5183 1617 L
5183 1617 mt 5183 1617 L
5719 2230 mt 5719 1617 L
5719 1617 mt 5719 1617 L
6255 2230 mt 6255 1617 L
6255 1617 mt 6255 1617 L
 899 2230 mt 6255 2230 L
6255 2230 mt 6255 2230 L
 899 1923 mt 6255 1923 L
6255 1923 mt 6255 1923 L
 899 1617 mt 6255 1617 L
6255 1617 mt 6255 1617 L
SO
6 w
 899 2230 mt 6255 2230 L
 899 1617 mt 6255 1617 L
 899 2230 mt  899 1617 L
6255 2230 mt 6255 1617 L
 899 2230 mt 6255 2230 L
 899 2230 mt  899 1617 L
 899 2230 mt  899 2176 L
 899 1617 mt  899 1670 L
 833 2375 mt 
(70) s
1434 2230 mt 1434 2176 L
1434 1617 mt 1434 1670 L
1368 2375 mt 
(71) s
1970 2230 mt 1970 2176 L
1970 1617 mt 1970 1670 L
1904 2375 mt 
(72) s
2505 2230 mt 2505 2176 L
2505 1617 mt 2505 1670 L
2439 2375 mt 
(73) s
3041 2230 mt 3041 2176 L
3041 1617 mt 3041 1670 L
2975 2375 mt 
(74) s
3577 2230 mt 3577 2176 L
3577 1617 mt 3577 1670 L
3511 2375 mt 
(75) s
4112 2230 mt 4112 2176 L
4112 1617 mt 4112 1670 L
4046 2375 mt 
(76) s
4648 2230 mt 4648 2176 L
4648 1617 mt 4648 1670 L
4582 2375 mt 
(77) s
5183 2230 mt 5183 2176 L
5183 1617 mt 5183 1670 L
5117 2375 mt 
(78) s
5719 2230 mt 5719 2176 L
5719 1617 mt 5719 1670 L
5653 2375 mt 
(79) s
6255 2230 mt 6255 2176 L
6255 1617 mt 6255 1670 L
6189 2375 mt 
(80) s
 899 2230 mt  952 2230 L
6255 2230 mt 6201 2230 L
 728 2274 mt 
(-2) s
 899 1923 mt  952 1923 L
6255 1923 mt 6201 1923 L
 798 1967 mt 
(0) s
 899 1617 mt  952 1617 L
6255 1617 mt 6201 1617 L
 798 1661 mt 
(2) s
 899 2230 mt 6255 2230 L
 899 1617 mt 6255 1617 L
 899 2230 mt  899 1617 L
6255 2230 mt 6255 1617 L
gs 899 1617 5357 614 MR c np
12 w
gr

12 w
gs 826 2003 5504 147 MR c np
c8
  36   36  995 2076 FO
  36   36 1134 2076 FO
  36   36 1273 2076 FO
  36   36 1413 2076 FO
  36   36 1552 2076 FO
  36   36 1691 2076 FO
  36   36 1830 2076 FO
  36   36 1970 2076 FO
  36   36 2109 2076 FO
  36   36 2248 2076 FO
  36   36 2387 2076 FO
  36   36 2527 2076 FO
  36   36 2666 2076 FO
  36   36 2805 2076 FO
  36   36 2944 2076 FO
  36   36 3625 2076 FO
  36   36 3764 2076 FO
  36   36 3903 2076 FO
  36   36 4042 2076 FO
  36   36 4182 2076 FO
  36   36 4321 2076 FO
  36   36 4460 2076 FO
  36   36 4599 2076 FO
  36   36 4739 2076 FO
  36   36 4878 2076 FO
  36   36 5017 2076 FO
  36   36 5157 2076 FO
  36   36 5296 2076 FO
  36   36 5435 2076 FO
  36   36 5574 2076 FO
  36   36 5714 2076 FO
  36   36 5853 2076 FO
gr

c8
gs 899 1617 5357 614 MR c np
DA
0 153 995 1923 2 MP stroke
0 153 1134 1923 2 MP stroke
0 153 1273 1923 2 MP stroke
0 153 1413 1923 2 MP stroke
0 153 1552 1923 2 MP stroke
0 153 1691 1923 2 MP stroke
0 153 1830 1923 2 MP stroke
0 153 1970 1923 2 MP stroke
0 153 2109 1923 2 MP stroke
0 153 2248 1923 2 MP stroke
0 153 2387 1923 2 MP stroke
0 153 2527 1923 2 MP stroke
0 153 2666 1923 2 MP stroke
0 153 2805 1923 2 MP stroke
0 153 2944 1923 2 MP stroke
0 153 3625 1923 2 MP stroke
0 153 3764 1923 2 MP stroke
0 153 3903 1923 2 MP stroke
0 153 4042 1923 2 MP stroke
0 153 4182 1923 2 MP stroke
0 153 4321 1923 2 MP stroke
0 153 4460 1923 2 MP stroke
0 153 4599 1923 2 MP stroke
0 153 4739 1923 2 MP stroke
0 153 4878 1923 2 MP stroke
0 153 5017 1923 2 MP stroke
0 153 5157 1923 2 MP stroke
0 153 5296 1923 2 MP stroke
0 153 5435 1923 2 MP stroke
0 153 5574 1923 2 MP stroke
0 153 5714 1923 2 MP stroke
0 153 5853 1923 2 MP stroke
SO
6 w
0 sg
5356 0 899 1923 2 MP stroke
12 w
gr

0 sg
gs 826 2003 5504 147 MR c np
c9
 900 2076 mt  972 2076 L
 936 2040 mt  936 2112 L
1039 2076 mt 1111 2076 L
1075 2040 mt 1075 2112 L
1178 2076 mt 1250 2076 L
1214 2040 mt 1214 2112 L
1318 2076 mt 1390 2076 L
1354 2040 mt 1354 2112 L
1457 2076 mt 1529 2076 L
1493 2040 mt 1493 2112 L
1596 2076 mt 1668 2076 L
1632 2040 mt 1632 2112 L
1736 2076 mt 1808 2076 L
1772 2040 mt 1772 2112 L
1875 2076 mt 1947 2076 L
1911 2040 mt 1911 2112 L
2014 2076 mt 2086 2076 L
2050 2040 mt 2050 2112 L
2154 2076 mt 2226 2076 L
2190 2040 mt 2190 2112 L
2293 2076 mt 2365 2076 L
2329 2040 mt 2329 2112 L
2432 2076 mt 2504 2076 L
2468 2040 mt 2468 2112 L
2572 2076 mt 2644 2076 L
2608 2040 mt 2608 2112 L
2711 2076 mt 2783 2076 L
2747 2040 mt 2747 2112 L
2850 2076 mt 2922 2076 L
2886 2040 mt 2886 2112 L
3670 2076 mt 3742 2076 L
3706 2040 mt 3706 2112 L
3810 2076 mt 3882 2076 L
3846 2040 mt 3846 2112 L
3949 2076 mt 4021 2076 L
3985 2040 mt 3985 2112 L
4088 2076 mt 4160 2076 L
4124 2040 mt 4124 2112 L
4228 2076 mt 4300 2076 L
4264 2040 mt 4264 2112 L
4367 2076 mt 4439 2076 L
4403 2040 mt 4403 2112 L
4506 2076 mt 4578 2076 L
4542 2040 mt 4542 2112 L
4646 2076 mt 4718 2076 L
4682 2040 mt 4682 2112 L
4785 2076 mt 4857 2076 L
4821 2040 mt 4821 2112 L
4924 2076 mt 4996 2076 L
4960 2040 mt 4960 2112 L
5064 2076 mt 5136 2076 L
5100 2040 mt 5100 2112 L
5203 2076 mt 5275 2076 L
5239 2040 mt 5239 2112 L
5342 2076 mt 5414 2076 L
5378 2040 mt 5378 2112 L
5482 2076 mt 5554 2076 L
5518 2040 mt 5518 2112 L
5621 2076 mt 5693 2076 L
5657 2040 mt 5657 2112 L
5760 2076 mt 5832 2076 L
5796 2040 mt 5796 2112 L
5900 2076 mt 5972 2076 L
5936 2040 mt 5936 2112 L
 911 2051 mt  961 2101 L
 961 2051 mt  911 2101 L
1050 2051 mt 1100 2101 L
1100 2051 mt 1050 2101 L
1189 2051 mt 1239 2101 L
1239 2051 mt 1189 2101 L
1329 2051 mt 1379 2101 L
1379 2051 mt 1329 2101 L
1468 2051 mt 1518 2101 L
1518 2051 mt 1468 2101 L
1607 2051 mt 1657 2101 L
1657 2051 mt 1607 2101 L
1747 2051 mt 1797 2101 L
1797 2051 mt 1747 2101 L
1886 2051 mt 1936 2101 L
1936 2051 mt 1886 2101 L
2025 2051 mt 2075 2101 L
2075 2051 mt 2025 2101 L
2165 2051 mt 2215 2101 L
2215 2051 mt 2165 2101 L
2304 2051 mt 2354 2101 L
2354 2051 mt 2304 2101 L
2443 2051 mt 2493 2101 L
2493 2051 mt 2443 2101 L
2583 2051 mt 2633 2101 L
2633 2051 mt 2583 2101 L
2722 2051 mt 2772 2101 L
2772 2051 mt 2722 2101 L
2861 2051 mt 2911 2101 L
2911 2051 mt 2861 2101 L
3681 2051 mt 3731 2101 L
3731 2051 mt 3681 2101 L
3821 2051 mt 3871 2101 L
3871 2051 mt 3821 2101 L
3960 2051 mt 4010 2101 L
4010 2051 mt 3960 2101 L
4099 2051 mt 4149 2101 L
4149 2051 mt 4099 2101 L
4239 2051 mt 4289 2101 L
4289 2051 mt 4239 2101 L
4378 2051 mt 4428 2101 L
4428 2051 mt 4378 2101 L
4517 2051 mt 4567 2101 L
4567 2051 mt 4517 2101 L
4657 2051 mt 4707 2101 L
4707 2051 mt 4657 2101 L
4796 2051 mt 4846 2101 L
4846 2051 mt 4796 2101 L
4935 2051 mt 4985 2101 L
4985 2051 mt 4935 2101 L
5075 2051 mt 5125 2101 L
5125 2051 mt 5075 2101 L
5214 2051 mt 5264 2101 L
5264 2051 mt 5214 2101 L
5353 2051 mt 5403 2101 L
5403 2051 mt 5353 2101 L
5493 2051 mt 5543 2101 L
5543 2051 mt 5493 2101 L
5632 2051 mt 5682 2101 L
5682 2051 mt 5632 2101 L
5771 2051 mt 5821 2101 L
5821 2051 mt 5771 2101 L
5911 2051 mt 5961 2101 L
5961 2051 mt 5911 2101 L
gr

c9
gs 899 1617 5357 614 MR c np
0 153 936 1923 2 MP stroke
0 153 1075 1923 2 MP stroke
0 153 1214 1923 2 MP stroke
0 153 1354 1923 2 MP stroke
0 153 1493 1923 2 MP stroke
0 153 1632 1923 2 MP stroke
0 153 1772 1923 2 MP stroke
0 153 1911 1923 2 MP stroke
0 153 2050 1923 2 MP stroke
0 153 2190 1923 2 MP stroke
0 153 2329 1923 2 MP stroke
0 153 2468 1923 2 MP stroke
0 153 2608 1923 2 MP stroke
0 153 2747 1923 2 MP stroke
0 153 2886 1923 2 MP stroke
0 153 3706 1923 2 MP stroke
0 153 3846 1923 2 MP stroke
0 153 3985 1923 2 MP stroke
0 153 4124 1923 2 MP stroke
0 153 4264 1923 2 MP stroke
0 153 4403 1923 2 MP stroke
0 153 4542 1923 2 MP stroke
0 153 4682 1923 2 MP stroke
0 153 4821 1923 2 MP stroke
0 153 4960 1923 2 MP stroke
0 153 5100 1923 2 MP stroke
0 153 5239 1923 2 MP stroke
0 153 5378 1923 2 MP stroke
0 153 5518 1923 2 MP stroke
0 153 5657 1923 2 MP stroke
0 153 5796 1923 2 MP stroke
0 153 5936 1923 2 MP stroke
gr

gs 826 1697 5504 147 MR c np
c10
  36   36  984 1770 FO
  36   36 1123 1770 FO
  36   36 1263 1770 FO
  36   36 1402 1770 FO
  36   36 1547 1770 FO
  36   36 1686 1770 FO
  36   36 1825 1770 FO
  36   36 1964 1770 FO
  36   36 2104 1770 FO
  36   36 2243 1770 FO
  36   36 2382 1770 FO
  36   36 2521 1770 FO
  36   36 2661 1770 FO
  36   36 2800 1770 FO
  36   36 2939 1770 FO
  36   36 3759 1770 FO
  36   36 3898 1770 FO
  36   36 4037 1770 FO
  36   36 4176 1770 FO
  36   36 4316 1770 FO
  36   36 4455 1770 FO
  36   36 4594 1770 FO
  36   36 4733 1770 FO
  36   36 4873 1770 FO
  36   36 5012 1770 FO
  36   36 5151 1770 FO
  36   36 5290 1770 FO
  36   36 5430 1770 FO
  36   36 5569 1770 FO
  36   36 5708 1770 FO
  36   36 5847 1770 FO
  36   36 5987 1770 FO
gr

c10
gs 899 1617 5357 614 MR c np
DA
0 -153 984 1923 2 MP stroke
0 -153 1123 1923 2 MP stroke
0 -153 1263 1923 2 MP stroke
0 -153 1402 1923 2 MP stroke
0 -153 1547 1923 2 MP stroke
0 -153 1686 1923 2 MP stroke
0 -153 1825 1923 2 MP stroke
0 -153 1964 1923 2 MP stroke
0 -153 2104 1923 2 MP stroke
0 -153 2243 1923 2 MP stroke
0 -153 2382 1923 2 MP stroke
0 -153 2521 1923 2 MP stroke
0 -153 2661 1923 2 MP stroke
0 -153 2800 1923 2 MP stroke
0 -153 2939 1923 2 MP stroke
0 -153 3759 1923 2 MP stroke
0 -153 3898 1923 2 MP stroke
0 -153 4037 1923 2 MP stroke
0 -153 4176 1923 2 MP stroke
0 -153 4316 1923 2 MP stroke
0 -153 4455 1923 2 MP stroke
0 -153 4594 1923 2 MP stroke
0 -153 4733 1923 2 MP stroke
0 -153 4873 1923 2 MP stroke
0 -153 5012 1923 2 MP stroke
0 -153 5151 1923 2 MP stroke
0 -153 5290 1923 2 MP stroke
0 -153 5430 1923 2 MP stroke
0 -153 5569 1923 2 MP stroke
0 -153 5708 1923 2 MP stroke
0 -153 5847 1923 2 MP stroke
0 -153 5987 1923 2 MP stroke
gr

DA
/c11 { 1.000000 1.000000 0.933333 sr} bdef
c11
-531 0 0 -344 531 0 2991 2457 4 MP
PP
SO
6 w
0 j
0.8 sg
2991 2113  531  344 FR
1 j
0 sg
%%IncludeResource: font Helvetica
/Helvetica /ISOLatin1Encoding 108 FMSR

3039 2261 mt 
(X= 73.82) s
3039 2385 mt 
(Y= -1) s
24 w
gs 2798 1930 293 293 MR c np
0 j
0 -94 -94 0 0 94 94 0 2897 2029 5 MP
gs
PP
gr
/c12 { 1.000000 1.000000 0.862745 sr} bdef
c12
DP
gr

c12
0 sg
%%IncludeResource: font Helvetica
/Helvetica /ISOLatin1Encoding 120 FMSR

2635 1522 mt 
(Message exchange of the Vehicle 3) s
c11
-531 0 0 -344 531 0 3672 2457 4 MP
PP
6 w
0 j
0.8 sg
3672 2113  531  344 FR
1 j
0 sg
%%IncludeResource: font Helvetica
/Helvetica /ISOLatin1Encoding 108 FMSR

3720 2261 mt 
(X= 75.09) s
3720 2385 mt 
(Y= -1) s
24 w
gs 3479 1930 293 293 MR c np
0 j
0 -94 -94 0 0 94 94 0 3578 2029 5 MP
gs
PP
gr
c12
DP
gr

c12
0 sg
%%IncludeResource: font Helvetica
/Helvetica /ISOLatin1Encoding 120 FMSR

3363 2518 mt 
(Time [s]) s
 646 2091 mt  -90 rotate
(Signal) s
90 rotate
6 w
1 sg
0 613 5356 0 0 -613 899 3366 4 MP
PP
-5356 0 0 613 5356 0 0 -613 899 3366 5 MP stroke
4 w
DO
0 sg
 899 3366 mt  899 2753 L
 899 2753 mt  899 2753 L
1434 3366 mt 1434 2753 L
1434 2753 mt 1434 2753 L
1970 3366 mt 1970 2753 L
1970 2753 mt 1970 2753 L
2505 3366 mt 2505 2753 L
2505 2753 mt 2505 2753 L
3041 3366 mt 3041 2753 L
3041 2753 mt 3041 2753 L
3577 3366 mt 3577 2753 L
3577 2753 mt 3577 2753 L
4112 3366 mt 4112 2753 L
4112 2753 mt 4112 2753 L
4648 3366 mt 4648 2753 L
4648 2753 mt 4648 2753 L
5183 3366 mt 5183 2753 L
5183 2753 mt 5183 2753 L
5719 3366 mt 5719 2753 L
5719 2753 mt 5719 2753 L
6255 3366 mt 6255 2753 L
6255 2753 mt 6255 2753 L
 899 3366 mt 6255 3366 L
6255 3366 mt 6255 3366 L
 899 3059 mt 6255 3059 L
6255 3059 mt 6255 3059 L
 899 2753 mt 6255 2753 L
6255 2753 mt 6255 2753 L
SO
6 w
 899 3366 mt 6255 3366 L
 899 2753 mt 6255 2753 L
 899 3366 mt  899 2753 L
6255 3366 mt 6255 2753 L
 899 3366 mt 6255 3366 L
 899 3366 mt  899 2753 L
 899 3366 mt  899 3312 L
 899 2753 mt  899 2806 L
 833 3511 mt 
(70) s
1434 3366 mt 1434 3312 L
1434 2753 mt 1434 2806 L
1368 3511 mt 
(71) s
1970 3366 mt 1970 3312 L
1970 2753 mt 1970 2806 L
1904 3511 mt 
(72) s
2505 3366 mt 2505 3312 L
2505 2753 mt 2505 2806 L
2439 3511 mt 
(73) s
3041 3366 mt 3041 3312 L
3041 2753 mt 3041 2806 L
2975 3511 mt 
(74) s
3577 3366 mt 3577 3312 L
3577 2753 mt 3577 2806 L
3511 3511 mt 
(75) s
4112 3366 mt 4112 3312 L
4112 2753 mt 4112 2806 L
4046 3511 mt 
(76) s
4648 3366 mt 4648 3312 L
4648 2753 mt 4648 2806 L
4582 3511 mt 
(77) s
5183 3366 mt 5183 3312 L
5183 2753 mt 5183 2806 L
5117 3511 mt 
(78) s
5719 3366 mt 5719 3312 L
5719 2753 mt 5719 2806 L
5653 3511 mt 
(79) s
6255 3366 mt 6255 3312 L
6255 2753 mt 6255 2806 L
6189 3511 mt 
(80) s
 899 3366 mt  952 3366 L
6255 3366 mt 6201 3366 L
 728 3410 mt 
(-2) s
 899 3059 mt  952 3059 L
6255 3059 mt 6201 3059 L
 798 3103 mt 
(0) s
 899 2753 mt  952 2753 L
6255 2753 mt 6201 2753 L
 798 2797 mt 
(2) s
 899 3366 mt 6255 3366 L
 899 2753 mt 6255 2753 L
 899 3366 mt  899 2753 L
6255 3366 mt 6255 2753 L
gs 899 2753 5357 614 MR c np
12 w
gr

12 w
gs 826 3139 5504 147 MR c np
c8
  36   36  995 3212 FO
  36   36 1134 3212 FO
  36   36 1273 3212 FO
  36   36 1413 3212 FO
  36   36 1552 3212 FO
  36   36 1691 3212 FO
  36   36 1830 3212 FO
  36   36 1970 3212 FO
  36   36 2109 3212 FO
  36   36 2248 3212 FO
  36   36 2387 3212 FO
  36   36 2527 3212 FO
  36   36 2666 3212 FO
  36   36 2805 3212 FO
  36   36 2944 3212 FO
  36   36 3625 3212 FO
  36   36 3764 3212 FO
  36   36 3903 3212 FO
  36   36 4042 3212 FO
  36   36 4182 3212 FO
  36   36 4321 3212 FO
  36   36 4460 3212 FO
  36   36 4599 3212 FO
  36   36 4739 3212 FO
  36   36 4878 3212 FO
  36   36 5017 3212 FO
  36   36 5157 3212 FO
  36   36 5296 3212 FO
  36   36 5435 3212 FO
  36   36 5574 3212 FO
  36   36 5714 3212 FO
  36   36 5853 3212 FO
gr

c8
gs 899 2753 5357 614 MR c np
DA
0 153 995 3059 2 MP stroke
0 153 1134 3059 2 MP stroke
0 153 1273 3059 2 MP stroke
0 153 1413 3059 2 MP stroke
0 153 1552 3059 2 MP stroke
0 153 1691 3059 2 MP stroke
0 153 1830 3059 2 MP stroke
0 153 1970 3059 2 MP stroke
0 153 2109 3059 2 MP stroke
0 153 2248 3059 2 MP stroke
0 153 2387 3059 2 MP stroke
0 153 2527 3059 2 MP stroke
0 153 2666 3059 2 MP stroke
0 153 2805 3059 2 MP stroke
0 153 2944 3059 2 MP stroke
0 153 3625 3059 2 MP stroke
0 153 3764 3059 2 MP stroke
0 153 3903 3059 2 MP stroke
0 153 4042 3059 2 MP stroke
0 153 4182 3059 2 MP stroke
0 153 4321 3059 2 MP stroke
0 153 4460 3059 2 MP stroke
0 153 4599 3059 2 MP stroke
0 153 4739 3059 2 MP stroke
0 153 4878 3059 2 MP stroke
0 153 5017 3059 2 MP stroke
0 153 5157 3059 2 MP stroke
0 153 5296 3059 2 MP stroke
0 153 5435 3059 2 MP stroke
0 153 5574 3059 2 MP stroke
0 153 5714 3059 2 MP stroke
0 153 5853 3059 2 MP stroke
SO
6 w
0 sg
5356 0 899 3059 2 MP stroke
12 w
gr

0 sg
gs 826 3139 5504 147 MR c np
c9
 900 3212 mt  972 3212 L
 936 3176 mt  936 3248 L
1039 3212 mt 1111 3212 L
1075 3176 mt 1075 3248 L
1178 3212 mt 1250 3212 L
1214 3176 mt 1214 3248 L
1318 3212 mt 1390 3212 L
1354 3176 mt 1354 3248 L
1457 3212 mt 1529 3212 L
1493 3176 mt 1493 3248 L
1596 3212 mt 1668 3212 L
1632 3176 mt 1632 3248 L
1736 3212 mt 1808 3212 L
1772 3176 mt 1772 3248 L
1875 3212 mt 1947 3212 L
1911 3176 mt 1911 3248 L
2014 3212 mt 2086 3212 L
2050 3176 mt 2050 3248 L
2154 3212 mt 2226 3212 L
2190 3176 mt 2190 3248 L
2293 3212 mt 2365 3212 L
2329 3176 mt 2329 3248 L
2432 3212 mt 2504 3212 L
2468 3176 mt 2468 3248 L
2572 3212 mt 2644 3212 L
2608 3176 mt 2608 3248 L
2711 3212 mt 2783 3212 L
2747 3176 mt 2747 3248 L
2850 3212 mt 2922 3212 L
2886 3176 mt 2886 3248 L
2990 3212 mt 3062 3212 L
3026 3176 mt 3026 3248 L
3670 3212 mt 3742 3212 L
3706 3176 mt 3706 3248 L
3810 3212 mt 3882 3212 L
3846 3176 mt 3846 3248 L
3949 3212 mt 4021 3212 L
3985 3176 mt 3985 3248 L
4088 3212 mt 4160 3212 L
4124 3176 mt 4124 3248 L
4228 3212 mt 4300 3212 L
4264 3176 mt 4264 3248 L
4367 3212 mt 4439 3212 L
4403 3176 mt 4403 3248 L
4506 3212 mt 4578 3212 L
4542 3176 mt 4542 3248 L
4646 3212 mt 4718 3212 L
4682 3176 mt 4682 3248 L
4785 3212 mt 4857 3212 L
4821 3176 mt 4821 3248 L
4924 3212 mt 4996 3212 L
4960 3176 mt 4960 3248 L
5064 3212 mt 5136 3212 L
5100 3176 mt 5100 3248 L
5203 3212 mt 5275 3212 L
5239 3176 mt 5239 3248 L
5342 3212 mt 5414 3212 L
5378 3176 mt 5378 3248 L
5482 3212 mt 5554 3212 L
5518 3176 mt 5518 3248 L
5621 3212 mt 5693 3212 L
5657 3176 mt 5657 3248 L
5760 3212 mt 5832 3212 L
5796 3176 mt 5796 3248 L
 911 3187 mt  961 3237 L
 961 3187 mt  911 3237 L
1050 3187 mt 1100 3237 L
1100 3187 mt 1050 3237 L
1189 3187 mt 1239 3237 L
1239 3187 mt 1189 3237 L
1329 3187 mt 1379 3237 L
1379 3187 mt 1329 3237 L
1468 3187 mt 1518 3237 L
1518 3187 mt 1468 3237 L
1607 3187 mt 1657 3237 L
1657 3187 mt 1607 3237 L
1747 3187 mt 1797 3237 L
1797 3187 mt 1747 3237 L
1886 3187 mt 1936 3237 L
1936 3187 mt 1886 3237 L
2025 3187 mt 2075 3237 L
2075 3187 mt 2025 3237 L
2165 3187 mt 2215 3237 L
2215 3187 mt 2165 3237 L
2304 3187 mt 2354 3237 L
2354 3187 mt 2304 3237 L
2443 3187 mt 2493 3237 L
2493 3187 mt 2443 3237 L
2583 3187 mt 2633 3237 L
2633 3187 mt 2583 3237 L
2722 3187 mt 2772 3237 L
2772 3187 mt 2722 3237 L
2861 3187 mt 2911 3237 L
2911 3187 mt 2861 3237 L
3001 3187 mt 3051 3237 L
3051 3187 mt 3001 3237 L
3681 3187 mt 3731 3237 L
3731 3187 mt 3681 3237 L
3821 3187 mt 3871 3237 L
3871 3187 mt 3821 3237 L
3960 3187 mt 4010 3237 L
4010 3187 mt 3960 3237 L
4099 3187 mt 4149 3237 L
4149 3187 mt 4099 3237 L
4239 3187 mt 4289 3237 L
4289 3187 mt 4239 3237 L
4378 3187 mt 4428 3237 L
4428 3187 mt 4378 3237 L
4517 3187 mt 4567 3237 L
4567 3187 mt 4517 3237 L
4657 3187 mt 4707 3237 L
4707 3187 mt 4657 3237 L
4796 3187 mt 4846 3237 L
4846 3187 mt 4796 3237 L
4935 3187 mt 4985 3237 L
4985 3187 mt 4935 3237 L
5075 3187 mt 5125 3237 L
5125 3187 mt 5075 3237 L
5214 3187 mt 5264 3237 L
5264 3187 mt 5214 3237 L
5353 3187 mt 5403 3237 L
5403 3187 mt 5353 3237 L
5493 3187 mt 5543 3237 L
5543 3187 mt 5493 3237 L
5632 3187 mt 5682 3237 L
5682 3187 mt 5632 3237 L
5771 3187 mt 5821 3237 L
5821 3187 mt 5771 3237 L
gr

c9
gs 899 2753 5357 614 MR c np
0 153 936 3059 2 MP stroke
0 153 1075 3059 2 MP stroke
0 153 1214 3059 2 MP stroke
0 153 1354 3059 2 MP stroke
0 153 1493 3059 2 MP stroke
0 153 1632 3059 2 MP stroke
0 153 1772 3059 2 MP stroke
0 153 1911 3059 2 MP stroke
0 153 2050 3059 2 MP stroke
0 153 2190 3059 2 MP stroke
0 153 2329 3059 2 MP stroke
0 153 2468 3059 2 MP stroke
0 153 2608 3059 2 MP stroke
0 153 2747 3059 2 MP stroke
0 153 2886 3059 2 MP stroke
0 153 3026 3059 2 MP stroke
0 153 3706 3059 2 MP stroke
0 153 3846 3059 2 MP stroke
0 153 3985 3059 2 MP stroke
0 153 4124 3059 2 MP stroke
0 153 4264 3059 2 MP stroke
0 153 4403 3059 2 MP stroke
0 153 4542 3059 2 MP stroke
0 153 4682 3059 2 MP stroke
0 153 4821 3059 2 MP stroke
0 153 4960 3059 2 MP stroke
0 153 5100 3059 2 MP stroke
0 153 5239 3059 2 MP stroke
0 153 5378 3059 2 MP stroke
0 153 5518 3059 2 MP stroke
0 153 5657 3059 2 MP stroke
0 153 5796 3059 2 MP stroke
gr

gs 826 2833 5504 147 MR c np
c10
  36   36  984 2906 FO
  36   36 1123 2906 FO
  36   36 1263 2906 FO
  36   36 1402 2906 FO
  36   36 1547 2906 FO
  36   36 1686 2906 FO
  36   36 1825 2906 FO
  36   36 1964 2906 FO
  36   36 2104 2906 FO
  36   36 2243 2906 FO
  36   36 2382 2906 FO
  36   36 2521 2906 FO
  36   36 2661 2906 FO
  36   36 2800 2906 FO
  36   36 2939 2906 FO
  36   36 3078 2906 FO
  36   36 3759 2906 FO
  36   36 3898 2906 FO
  36   36 4037 2906 FO
  36   36 4176 2906 FO
  36   36 4316 2906 FO
  36   36 4455 2906 FO
  36   36 4594 2906 FO
  36   36 4733 2906 FO
  36   36 4873 2906 FO
  36   36 5012 2906 FO
  36   36 5151 2906 FO
  36   36 5290 2906 FO
  36   36 5430 2906 FO
  36   36 5569 2906 FO
  36   36 5708 2906 FO
  36   36 5847 2906 FO
gr

c10
gs 899 2753 5357 614 MR c np
DA
0 -153 984 3059 2 MP stroke
0 -153 1123 3059 2 MP stroke
0 -153 1263 3059 2 MP stroke
0 -153 1402 3059 2 MP stroke
0 -153 1547 3059 2 MP stroke
0 -153 1686 3059 2 MP stroke
0 -153 1825 3059 2 MP stroke
0 -153 1964 3059 2 MP stroke
0 -153 2104 3059 2 MP stroke
0 -153 2243 3059 2 MP stroke
0 -153 2382 3059 2 MP stroke
0 -153 2521 3059 2 MP stroke
0 -153 2661 3059 2 MP stroke
0 -153 2800 3059 2 MP stroke
0 -153 2939 3059 2 MP stroke
0 -153 3078 3059 2 MP stroke
0 -153 3759 3059 2 MP stroke
0 -153 3898 3059 2 MP stroke
0 -153 4037 3059 2 MP stroke
0 -153 4176 3059 2 MP stroke
0 -153 4316 3059 2 MP stroke
0 -153 4455 3059 2 MP stroke
0 -153 4594 3059 2 MP stroke
0 -153 4733 3059 2 MP stroke
0 -153 4873 3059 2 MP stroke
0 -153 5012 3059 2 MP stroke
0 -153 5151 3059 2 MP stroke
0 -153 5290 3059 2 MP stroke
0 -153 5430 3059 2 MP stroke
0 -153 5569 3059 2 MP stroke
0 -153 5708 3059 2 MP stroke
0 -153 5847 3059 2 MP stroke
gr

DA
0 sg
3363 3654 mt 
(Time [s]) s
 646 3227 mt  -90 rotate
(Signal) s
90 rotate
2635 2658 mt 
(Message exchange of the Vehicle 4) s
SO
6 w
1 sg
0 613 5356 0 0 -613 899 4502 4 MP
PP
-5356 0 0 613 5356 0 0 -613 899 4502 5 MP stroke
4 w
DO
0 sg
 899 4502 mt  899 3889 L
 899 3889 mt  899 3889 L
1434 4502 mt 1434 3889 L
1434 3889 mt 1434 3889 L
1970 4502 mt 1970 3889 L
1970 3889 mt 1970 3889 L
2505 4502 mt 2505 3889 L
2505 3889 mt 2505 3889 L
3041 4502 mt 3041 3889 L
3041 3889 mt 3041 3889 L
3577 4502 mt 3577 3889 L
3577 3889 mt 3577 3889 L
4112 4502 mt 4112 3889 L
4112 3889 mt 4112 3889 L
4648 4502 mt 4648 3889 L
4648 3889 mt 4648 3889 L
5183 4502 mt 5183 3889 L
5183 3889 mt 5183 3889 L
5719 4502 mt 5719 3889 L
5719 3889 mt 5719 3889 L
6255 4502 mt 6255 3889 L
6255 3889 mt 6255 3889 L
 899 4502 mt 6255 4502 L
6255 4502 mt 6255 4502 L
 899 4195 mt 6255 4195 L
6255 4195 mt 6255 4195 L
 899 3889 mt 6255 3889 L
6255 3889 mt 6255 3889 L
SO
6 w
 899 4502 mt 6255 4502 L
 899 3889 mt 6255 3889 L
 899 4502 mt  899 3889 L
6255 4502 mt 6255 3889 L
 899 4502 mt 6255 4502 L
 899 4502 mt  899 3889 L
 899 4502 mt  899 4448 L
 899 3889 mt  899 3942 L
 833 4647 mt 
(70) s
1434 4502 mt 1434 4448 L
1434 3889 mt 1434 3942 L
1368 4647 mt 
(71) s
1970 4502 mt 1970 4448 L
1970 3889 mt 1970 3942 L
1904 4647 mt 
(72) s
2505 4502 mt 2505 4448 L
2505 3889 mt 2505 3942 L
2439 4647 mt 
(73) s
3041 4502 mt 3041 4448 L
3041 3889 mt 3041 3942 L
2975 4647 mt 
(74) s
3577 4502 mt 3577 4448 L
3577 3889 mt 3577 3942 L
3511 4647 mt 
(75) s
4112 4502 mt 4112 4448 L
4112 3889 mt 4112 3942 L
4046 4647 mt 
(76) s
4648 4502 mt 4648 4448 L
4648 3889 mt 4648 3942 L
4582 4647 mt 
(77) s
5183 4502 mt 5183 4448 L
5183 3889 mt 5183 3942 L
5117 4647 mt 
(78) s
5719 4502 mt 5719 4448 L
5719 3889 mt 5719 3942 L
5653 4647 mt 
(79) s
6255 4502 mt 6255 4448 L
6255 3889 mt 6255 3942 L
6189 4647 mt 
(80) s
 899 4502 mt  952 4502 L
6255 4502 mt 6201 4502 L
 728 4546 mt 
(-2) s
 899 4195 mt  952 4195 L
6255 4195 mt 6201 4195 L
 798 4239 mt 
(0) s
 899 3889 mt  952 3889 L
6255 3889 mt 6201 3889 L
 798 3933 mt 
(2) s
 899 4502 mt 6255 4502 L
 899 3889 mt 6255 3889 L
 899 4502 mt  899 3889 L
6255 4502 mt 6255 3889 L
gs 899 3889 5357 614 MR c np
12 w
gr

12 w
gs 826 4275 5504 147 MR c np
c8
  36   36  995 4348 FO
  36   36 1134 4348 FO
  36   36 1273 4348 FO
  36   36 1413 4348 FO
  36   36 1552 4348 FO
  36   36 1691 4348 FO
  36   36 1830 4348 FO
  36   36 1970 4348 FO
  36   36 2109 4348 FO
  36   36 2248 4348 FO
  36   36 2387 4348 FO
  36   36 2527 4348 FO
  36   36 2666 4348 FO
  36   36 2805 4348 FO
  36   36 2944 4348 FO
  36   36 3625 4348 FO
  36   36 3764 4348 FO
  36   36 3903 4348 FO
  36   36 4042 4348 FO
  36   36 4182 4348 FO
  36   36 4321 4348 FO
  36   36 4460 4348 FO
  36   36 4599 4348 FO
  36   36 4739 4348 FO
  36   36 4878 4348 FO
  36   36 5017 4348 FO
  36   36 5157 4348 FO
  36   36 5296 4348 FO
  36   36 5435 4348 FO
  36   36 5574 4348 FO
  36   36 5714 4348 FO
  36   36 5853 4348 FO
gr

c8
gs 899 3889 5357 614 MR c np
DA
0 153 995 4195 2 MP stroke
0 153 1134 4195 2 MP stroke
0 153 1273 4195 2 MP stroke
0 153 1413 4195 2 MP stroke
0 153 1552 4195 2 MP stroke
0 153 1691 4195 2 MP stroke
0 153 1830 4195 2 MP stroke
0 153 1970 4195 2 MP stroke
0 153 2109 4195 2 MP stroke
0 153 2248 4195 2 MP stroke
0 153 2387 4195 2 MP stroke
0 153 2527 4195 2 MP stroke
0 153 2666 4195 2 MP stroke
0 153 2805 4195 2 MP stroke
0 153 2944 4195 2 MP stroke
0 153 3625 4195 2 MP stroke
0 153 3764 4195 2 MP stroke
0 153 3903 4195 2 MP stroke
0 153 4042 4195 2 MP stroke
0 153 4182 4195 2 MP stroke
0 153 4321 4195 2 MP stroke
0 153 4460 4195 2 MP stroke
0 153 4599 4195 2 MP stroke
0 153 4739 4195 2 MP stroke
0 153 4878 4195 2 MP stroke
0 153 5017 4195 2 MP stroke
0 153 5157 4195 2 MP stroke
0 153 5296 4195 2 MP stroke
0 153 5435 4195 2 MP stroke
0 153 5574 4195 2 MP stroke
0 153 5714 4195 2 MP stroke
0 153 5853 4195 2 MP stroke
SO
6 w
0 sg
5356 0 899 4195 2 MP stroke
12 w
gr

0 sg
gs 826 4275 5504 147 MR c np
c9
 900 4348 mt  972 4348 L
 936 4312 mt  936 4384 L
1040 4348 mt 1112 4348 L
1076 4312 mt 1076 4384 L
1179 4348 mt 1251 4348 L
1215 4312 mt 1215 4384 L
1318 4348 mt 1390 4348 L
1354 4312 mt 1354 4384 L
1458 4348 mt 1530 4348 L
1494 4312 mt 1494 4384 L
1597 4348 mt 1669 4348 L
1633 4312 mt 1633 4384 L
1736 4348 mt 1808 4348 L
1772 4312 mt 1772 4384 L
1876 4348 mt 1948 4348 L
1912 4312 mt 1912 4384 L
2015 4348 mt 2087 4348 L
2051 4312 mt 2051 4384 L
2154 4348 mt 2226 4348 L
2190 4312 mt 2190 4384 L
2294 4348 mt 2366 4348 L
2330 4312 mt 2330 4384 L
2433 4348 mt 2505 4348 L
2469 4312 mt 2469 4384 L
2572 4348 mt 2644 4348 L
2608 4312 mt 2608 4384 L
2712 4348 mt 2784 4348 L
2748 4312 mt 2748 4384 L
2851 4348 mt 2923 4348 L
2887 4312 mt 2887 4384 L
2990 4348 mt 3062 4348 L
3026 4312 mt 3026 4384 L
3671 4348 mt 3743 4348 L
3707 4312 mt 3707 4384 L
3810 4348 mt 3882 4348 L
3846 4312 mt 3846 4384 L
3950 4348 mt 4022 4348 L
3986 4312 mt 3986 4384 L
4089 4348 mt 4161 4348 L
4125 4312 mt 4125 4384 L
4228 4348 mt 4300 4348 L
4264 4312 mt 4264 4384 L
4368 4348 mt 4440 4348 L
4404 4312 mt 4404 4384 L
4507 4348 mt 4579 4348 L
4543 4312 mt 4543 4384 L
4646 4348 mt 4718 4348 L
4682 4312 mt 4682 4384 L
4786 4348 mt 4858 4348 L
4822 4312 mt 4822 4384 L
4925 4348 mt 4997 4348 L
4961 4312 mt 4961 4384 L
5064 4348 mt 5136 4348 L
5100 4312 mt 5100 4384 L
5204 4348 mt 5276 4348 L
5240 4312 mt 5240 4384 L
5343 4348 mt 5415 4348 L
5379 4312 mt 5379 4384 L
5482 4348 mt 5554 4348 L
5518 4312 mt 5518 4384 L
5622 4348 mt 5694 4348 L
5658 4312 mt 5658 4384 L
5761 4348 mt 5833 4348 L
5797 4312 mt 5797 4384 L
5900 4348 mt 5972 4348 L
5936 4312 mt 5936 4384 L
 911 4323 mt  961 4373 L
 961 4323 mt  911 4373 L
1051 4323 mt 1101 4373 L
1101 4323 mt 1051 4373 L
1190 4323 mt 1240 4373 L
1240 4323 mt 1190 4373 L
1329 4323 mt 1379 4373 L
1379 4323 mt 1329 4373 L
1469 4323 mt 1519 4373 L
1519 4323 mt 1469 4373 L
1608 4323 mt 1658 4373 L
1658 4323 mt 1608 4373 L
1747 4323 mt 1797 4373 L
1797 4323 mt 1747 4373 L
1887 4323 mt 1937 4373 L
1937 4323 mt 1887 4373 L
2026 4323 mt 2076 4373 L
2076 4323 mt 2026 4373 L
2165 4323 mt 2215 4373 L
2215 4323 mt 2165 4373 L
2305 4323 mt 2355 4373 L
2355 4323 mt 2305 4373 L
2444 4323 mt 2494 4373 L
2494 4323 mt 2444 4373 L
2583 4323 mt 2633 4373 L
2633 4323 mt 2583 4373 L
2723 4323 mt 2773 4373 L
2773 4323 mt 2723 4373 L
2862 4323 mt 2912 4373 L
2912 4323 mt 2862 4373 L
3001 4323 mt 3051 4373 L
3051 4323 mt 3001 4373 L
3682 4323 mt 3732 4373 L
3732 4323 mt 3682 4373 L
3821 4323 mt 3871 4373 L
3871 4323 mt 3821 4373 L
3961 4323 mt 4011 4373 L
4011 4323 mt 3961 4373 L
4100 4323 mt 4150 4373 L
4150 4323 mt 4100 4373 L
4239 4323 mt 4289 4373 L
4289 4323 mt 4239 4373 L
4379 4323 mt 4429 4373 L
4429 4323 mt 4379 4373 L
4518 4323 mt 4568 4373 L
4568 4323 mt 4518 4373 L
4657 4323 mt 4707 4373 L
4707 4323 mt 4657 4373 L
4797 4323 mt 4847 4373 L
4847 4323 mt 4797 4373 L
4936 4323 mt 4986 4373 L
4986 4323 mt 4936 4373 L
5075 4323 mt 5125 4373 L
5125 4323 mt 5075 4373 L
5215 4323 mt 5265 4373 L
5265 4323 mt 5215 4373 L
5354 4323 mt 5404 4373 L
5404 4323 mt 5354 4373 L
5493 4323 mt 5543 4373 L
5543 4323 mt 5493 4373 L
5633 4323 mt 5683 4373 L
5683 4323 mt 5633 4373 L
5772 4323 mt 5822 4373 L
5822 4323 mt 5772 4373 L
5911 4323 mt 5961 4373 L
5961 4323 mt 5911 4373 L
gr

c9
gs 899 3889 5357 614 MR c np
0 153 936 4195 2 MP stroke
0 153 1076 4195 2 MP stroke
0 153 1215 4195 2 MP stroke
0 153 1354 4195 2 MP stroke
0 153 1494 4195 2 MP stroke
0 153 1633 4195 2 MP stroke
0 153 1772 4195 2 MP stroke
0 153 1912 4195 2 MP stroke
0 153 2051 4195 2 MP stroke
0 153 2190 4195 2 MP stroke
0 153 2330 4195 2 MP stroke
0 153 2469 4195 2 MP stroke
0 153 2608 4195 2 MP stroke
0 153 2748 4195 2 MP stroke
0 153 2887 4195 2 MP stroke
0 153 3026 4195 2 MP stroke
0 153 3707 4195 2 MP stroke
0 153 3846 4195 2 MP stroke
0 153 3986 4195 2 MP stroke
0 153 4125 4195 2 MP stroke
0 153 4264 4195 2 MP stroke
0 153 4404 4195 2 MP stroke
0 153 4543 4195 2 MP stroke
0 153 4682 4195 2 MP stroke
0 153 4822 4195 2 MP stroke
0 153 4961 4195 2 MP stroke
0 153 5100 4195 2 MP stroke
0 153 5240 4195 2 MP stroke
0 153 5379 4195 2 MP stroke
0 153 5518 4195 2 MP stroke
0 153 5658 4195 2 MP stroke
0 153 5797 4195 2 MP stroke
0 153 5936 4195 2 MP stroke
gr

gs 826 3969 5504 147 MR c np
c10
  36   36  990 4042 FO
  36   36 1129 4042 FO
  36   36 1268 4042 FO
  36   36 1407 4042 FO
  36   36 1547 4042 FO
  36   36 1686 4042 FO
  36   36 1825 4042 FO
  36   36 1964 4042 FO
  36   36 2104 4042 FO
  36   36 2243 4042 FO
  36   36 2382 4042 FO
  36   36 2521 4042 FO
  36   36 2661 4042 FO
  36   36 2800 4042 FO
  36   36 2939 4042 FO
  36   36 3078 4042 FO
  36   36 3759 4042 FO
  36   36 3898 4042 FO
  36   36 4037 4042 FO
  36   36 4176 4042 FO
  36   36 4316 4042 FO
  36   36 4455 4042 FO
  36   36 4594 4042 FO
  36   36 4733 4042 FO
  36   36 4873 4042 FO
  36   36 5012 4042 FO
  36   36 5151 4042 FO
  36   36 5290 4042 FO
  36   36 5430 4042 FO
  36   36 5569 4042 FO
  36   36 5708 4042 FO
  36   36 5847 4042 FO
  36   36 5987 4042 FO
gr

c10
gs 899 3889 5357 614 MR c np
DA
0 -153 990 4195 2 MP stroke
0 -153 1129 4195 2 MP stroke
0 -153 1268 4195 2 MP stroke
0 -153 1407 4195 2 MP stroke
0 -153 1547 4195 2 MP stroke
0 -153 1686 4195 2 MP stroke
0 -153 1825 4195 2 MP stroke
0 -153 1964 4195 2 MP stroke
0 -153 2104 4195 2 MP stroke
0 -153 2243 4195 2 MP stroke
0 -153 2382 4195 2 MP stroke
0 -153 2521 4195 2 MP stroke
0 -153 2661 4195 2 MP stroke
0 -153 2800 4195 2 MP stroke
0 -153 2939 4195 2 MP stroke
0 -153 3078 4195 2 MP stroke
0 -153 3759 4195 2 MP stroke
0 -153 3898 4195 2 MP stroke
0 -153 4037 4195 2 MP stroke
0 -153 4176 4195 2 MP stroke
0 -153 4316 4195 2 MP stroke
0 -153 4455 4195 2 MP stroke
0 -153 4594 4195 2 MP stroke
0 -153 4733 4195 2 MP stroke
0 -153 4873 4195 2 MP stroke
0 -153 5012 4195 2 MP stroke
0 -153 5151 4195 2 MP stroke
0 -153 5290 4195 2 MP stroke
0 -153 5430 4195 2 MP stroke
0 -153 5569 4195 2 MP stroke
0 -153 5708 4195 2 MP stroke
0 -153 5847 4195 2 MP stroke
0 -153 5987 4195 2 MP stroke
gr

DA
0 sg
3363 4790 mt 
(Time [s]) s
 646 4363 mt  -90 rotate
(Signal) s
90 rotate
2635 3794 mt 
(Message exchange of the Vehicle 5) s
 882 4545 mt 
( ) s
6239 3931 mt 
( ) s
SO
6 w
1 sg
0 521 1723 0 0 -521 4937 4441 4 MP
PP
-1723 0 0 521 1723 0 0 -521 4937 4441 5 MP stroke
4 w
DO
SO
6 w
0 sg
4937 4441 mt 6660 4441 L
4937 3920 mt 6660 3920 L
4937 4441 mt 4937 3920 L
6660 4441 mt 6660 3920 L
4937 4441 mt 6660 4441 L
4937 4441 mt 4937 3920 L
4937 4441 mt 6660 4441 L
4937 3920 mt 6660 3920 L
4937 4441 mt 4937 3920 L
6660 4441 mt 6660 3920 L
5416 4063 mt 
(3: Alert received - R) s
gs 4937 3920 1724 522 MR c np
DA
12 w
c8
258 0 5010 4020 2 MP stroke
5268 4020 PD
gs 5195 3947 147 147 MR c np
SO
  36   36 5268 4020 FO
DA
gr

gr

12 w
c8
DA
0 sg
5416 4223 mt 
(6: Pong received - A) s
gs 4937 3920 1724 522 MR c np
SO
c9
258 0 5010 4180 2 MP stroke
5268 4180 PD
gs 5195 4107 147 147 MR c np
5232 4180 mt 5304 4180 L
5268 4144 mt 5268 4216 L
5243 4155 mt 5293 4205 L
5293 4155 mt 5243 4205 L
gr

gr

c9
SO
0 sg
5416 4383 mt 
(7: Signal to Master - R) s
gs 4937 3920 1724 522 MR c np
DA
c10
258 0 5010 4340 2 MP stroke
5268 4340 PD
gs 5195 4267 147 147 MR c np
SO
  36   36 5268 4340 FO
DA
gr

SO
6 w
gr

6 w
c10

end %%Color Dict

eplot
%%EndObject

epage
end

showpage

%%Trailer
%%EOF
