%!PS-Adobe-2.0 EPSF-1.2
%%Creator: MATLAB, The Mathworks, Inc. Version 7.9.0.529 (R2009b). Operating System: Darwin 10.8.0 Darwin Kernel Version 10.8.0: Tue Jun  7 16:33:36 PDT 2011; root:xnu-1504.15.3~1/RELEASE_I386 i386.
%%Title: ./funcao_transferencia.eps
%%CreationDate: 10/22/2011  13:09:42
%%DocumentNeededFonts: Helvetica
%%DocumentProcessColors: Cyan Magenta Yellow Black
%%Extensions: CMYK
%%Pages: 1
%%BoundingBox:    67   195   550   596
%%EndComments

%%BeginProlog
% MathWorks dictionary
/MathWorks 160 dict begin
% definition operators
/bdef {bind def} bind def
/ldef {load def} bind def
/xdef {exch def} bdef
/xstore {exch store} bdef
% operator abbreviations
/c  /clip ldef
/cc /concat ldef
/cp /closepath ldef
/gr /grestore ldef
/gs /gsave ldef
/mt /moveto ldef
/np /newpath ldef
/cm /currentmatrix ldef
/sm /setmatrix ldef
/rm /rmoveto ldef
/rl /rlineto ldef
/s {show newpath} bdef
/sc {setcmykcolor} bdef
/sr /setrgbcolor ldef
/sg /setgray ldef
/w /setlinewidth ldef
/j /setlinejoin ldef
/cap /setlinecap ldef
/rc {rectclip} bdef
/rf {rectfill} bdef
% page state control
/pgsv () def
/bpage {/pgsv save def} bdef
/epage {pgsv restore} bdef
/bplot /gsave ldef
/eplot {stroke grestore} bdef
% orientation switch
/portraitMode 0 def /landscapeMode 1 def /rotateMode 2 def
% coordinate system mappings
/dpi2point 0 def
% font control
/FontSize 0 def
/FMS {/FontSize xstore findfont [FontSize 0 0 FontSize neg 0 0]
  makefont setfont} bdef
/reencode {exch dup where {pop load} {pop StandardEncoding} ifelse
  exch dup 3 1 roll findfont dup length dict begin
  { 1 index /FID ne {def}{pop pop} ifelse } forall
  /Encoding exch def currentdict end definefont pop} bdef
/isroman {findfont /CharStrings get /Agrave known} bdef
/FMSR {3 1 roll 1 index dup isroman {reencode} {pop pop} ifelse
  exch FMS} bdef
/csm {1 dpi2point div -1 dpi2point div scale neg translate
 dup landscapeMode eq {pop -90 rotate}
  {rotateMode eq {90 rotate} if} ifelse} bdef
% line types: solid, dotted, dashed, dotdash
/SO { [] 0 setdash } bdef
/DO { [.5 dpi2point mul 4 dpi2point mul] 0 setdash } bdef
/DA { [6 dpi2point mul] 0 setdash } bdef
/DD { [.5 dpi2point mul 4 dpi2point mul 6 dpi2point mul 4
  dpi2point mul] 0 setdash } bdef
% macros for lines and objects
/L {lineto stroke} bdef
/MP {3 1 roll moveto 1 sub {rlineto} repeat} bdef
/AP {{rlineto} repeat} bdef
/PDlw -1 def
/W {/PDlw currentlinewidth def setlinewidth} def
/PP {closepath eofill} bdef
/DP {closepath stroke} bdef
/MR {4 -2 roll moveto dup  0 exch rlineto exch 0 rlineto
  neg 0 exch rlineto closepath} bdef
/FR {MR stroke} bdef
/PR {MR fill} bdef
/L1i {{currentfile picstr readhexstring pop} image} bdef
/tMatrix matrix def
/MakeOval {newpath tMatrix currentmatrix pop translate scale
0 0 1 0 360 arc tMatrix setmatrix} bdef
/FO {MakeOval stroke} bdef
/PO {MakeOval fill} bdef
/PD {currentlinewidth 2 div 0 360 arc fill
   PDlw -1 eq not {PDlw w /PDlw -1 def} if} def
/FA {newpath tMatrix currentmatrix pop translate scale
  0 0 1 5 -2 roll arc tMatrix setmatrix stroke} bdef
/PA {newpath tMatrix currentmatrix pop	translate 0 0 moveto scale
  0 0 1 5 -2 roll arc closepath tMatrix setmatrix fill} bdef
/FAn {newpath tMatrix currentmatrix pop translate scale
  0 0 1 5 -2 roll arcn tMatrix setmatrix stroke} bdef
/PAn {newpath tMatrix currentmatrix pop translate 0 0 moveto scale
  0 0 1 5 -2 roll arcn closepath tMatrix setmatrix fill} bdef
/vradius 0 def /hradius 0 def /lry 0 def
/lrx 0 def /uly 0 def /ulx 0 def /rad 0 def
/MRR {/vradius xdef /hradius xdef /lry xdef /lrx xdef /uly xdef
  /ulx xdef newpath tMatrix currentmatrix pop ulx hradius add uly
  vradius add translate hradius vradius scale 0 0 1 180 270 arc 
  tMatrix setmatrix lrx hradius sub uly vradius add translate
  hradius vradius scale 0 0 1 270 360 arc tMatrix setmatrix
  lrx hradius sub lry vradius sub translate hradius vradius scale
  0 0 1 0 90 arc tMatrix setmatrix ulx hradius add lry vradius sub
  translate hradius vradius scale 0 0 1 90 180 arc tMatrix setmatrix
  closepath} bdef
/FRR {MRR stroke } bdef
/PRR {MRR fill } bdef
/MlrRR {/lry xdef /lrx xdef /uly xdef /ulx xdef /rad lry uly sub 2 div def
  newpath tMatrix currentmatrix pop ulx rad add uly rad add translate
  rad rad scale 0 0 1 90 270 arc tMatrix setmatrix lrx rad sub lry rad
  sub translate rad rad scale 0 0 1 270 90 arc tMatrix setmatrix
  closepath} bdef
/FlrRR {MlrRR stroke } bdef
/PlrRR {MlrRR fill } bdef
/MtbRR {/lry xdef /lrx xdef /uly xdef /ulx xdef /rad lrx ulx sub 2 div def
  newpath tMatrix currentmatrix pop ulx rad add uly rad add translate
  rad rad scale 0 0 1 180 360 arc tMatrix setmatrix lrx rad sub lry rad
  sub translate rad rad scale 0 0 1 0 180 arc tMatrix setmatrix
  closepath} bdef
/FtbRR {MtbRR stroke } bdef
/PtbRR {MtbRR fill } bdef
/stri 6 array def /dtri 6 array def
/smat 6 array def /dmat 6 array def
/tmat1 6 array def /tmat2 6 array def /dif 3 array def
/asub {/ind2 exch def /ind1 exch def dup dup
  ind1 get exch ind2 get sub exch } bdef
/tri_to_matrix {
  2 0 asub 3 1 asub 4 0 asub 5 1 asub
  dup 0 get exch 1 get 7 -1 roll astore } bdef
/compute_transform {
  dmat dtri tri_to_matrix tmat1 invertmatrix 
  smat stri tri_to_matrix tmat2 concatmatrix } bdef
/ds {stri astore pop} bdef
/dt {dtri astore pop} bdef
/db {2 copy /cols xdef /rows xdef mul dup 3 mul string
  currentfile exch readhexstring pop
  dup 0 3 index getinterval /rbmap xdef
  dup 2 index dup getinterval /gbmap xdef
  1 index dup 2 mul exch getinterval /bbmap xdef pop pop}bdef
/it {gs np dtri aload pop moveto lineto lineto cp c
  cols rows 8 compute_transform 
  rbmap gbmap bbmap true 3 colorimage gr}bdef
/il {newpath moveto lineto stroke}bdef
currentdict end def
%%EndProlog

%%BeginSetup
MathWorks begin

0 cap

end
%%EndSetup

%%Page: 1 1
%%BeginPageSetup
%%PageBoundingBox:    67   195   550   596
MathWorks begin
bpage
%%EndPageSetup

%%BeginObject: obj1
bplot

/dpi2point 12 def
portraitMode 0216 7344 csm

  591   192  5802  4803 MR c np
87 dict begin %Colortable dictionary
/c0 { 0.000000 0.000000 0.000000 sr} bdef
/c1 { 1.000000 1.000000 1.000000 sr} bdef
/c2 { 0.900000 0.000000 0.000000 sr} bdef
/c3 { 0.000000 0.820000 0.000000 sr} bdef
/c4 { 0.000000 0.000000 0.800000 sr} bdef
/c5 { 0.910000 0.820000 0.320000 sr} bdef
/c6 { 1.000000 0.260000 0.820000 sr} bdef
/c7 { 0.000000 0.820000 0.820000 sr} bdef
c0
1 j
1 sg
   0    0 6913 5186 PR
6 w
0 2030 5208 0 0 -2030 1047 2666 4 MP
PP
-5208 0 0 2030 5208 0 0 -2030 1047 2666 5 MP stroke
4 w
DO
0.4 sg
1047 2666 mt 1047  636 L
1047  636 mt 1047  636 L
2783 2666 mt 2783  636 L
2783  636 mt 2783  636 L
4519 2666 mt 4519  636 L
4519  636 mt 4519  636 L
6255 2666 mt 6255  636 L
6255  636 mt 6255  636 L
1047 2666 mt 6255 2666 L
6255 2666 mt 6255 2666 L
1047 2260 mt 6255 2260 L
6255 2260 mt 6255 2260 L
1047 1854 mt 6255 1854 L
6255 1854 mt 6255 1854 L
1047 1448 mt 6255 1448 L
6255 1448 mt 6255 1448 L
1047 1042 mt 6255 1042 L
6255 1042 mt 6255 1042 L
1047  636 mt 6255  636 L
6255  636 mt 6255  636 L
SO
6 w
1047 2666 mt 6255 2666 L
1047  636 mt 6255  636 L
1047 2666 mt 1047  636 L
6255 2666 mt 6255  636 L
1047 2666 mt 6255 2666 L
1047 2666 mt 1047  636 L
1047 2666 mt 1047 2639 L
1047  636 mt 1047  662 L
DO
1047 2666 mt 1047  636 L
1047  636 mt 1047  636 L
SO
1047 2666 mt 1047 2613 L
1047  636 mt 1047  688 L
1569 2666 mt 1569 2639 L
1569  636 mt 1569  662 L
DO
1569 2666 mt 1569  636 L
1569  636 mt 1569  636 L
SO
1875 2666 mt 1875 2639 L
1875  636 mt 1875  662 L
DO
1875 2666 mt 1875  636 L
1875  636 mt 1875  636 L
SO
2092 2666 mt 2092 2639 L
2092  636 mt 2092  662 L
DO
2092 2666 mt 2092  636 L
2092  636 mt 2092  636 L
SO
2260 2666 mt 2260 2639 L
2260  636 mt 2260  662 L
DO
2260 2666 mt 2260  636 L
2260  636 mt 2260  636 L
SO
2397 2666 mt 2397 2639 L
2397  636 mt 2397  662 L
DO
2397 2666 mt 2397  636 L
2397  636 mt 2397  636 L
SO
2514 2666 mt 2514 2639 L
2514  636 mt 2514  662 L
DO
2514 2666 mt 2514  636 L
2514  636 mt 2514  636 L
SO
2614 2666 mt 2614 2639 L
2614  636 mt 2614  662 L
DO
2614 2666 mt 2614  636 L
2614  636 mt 2614  636 L
SO
2703 2666 mt 2703 2639 L
2703  636 mt 2703  662 L
DO
2703 2666 mt 2703  636 L
2703  636 mt 2703  636 L
SO
2783 2666 mt 2783 2639 L
2783  636 mt 2783  662 L
DO
2783 2666 mt 2783  636 L
2783  636 mt 2783  636 L
SO
2783 2666 mt 2783 2613 L
2783  636 mt 2783  688 L
3305 2666 mt 3305 2639 L
3305  636 mt 3305  662 L
DO
3305 2666 mt 3305  636 L
3305  636 mt 3305  636 L
SO
3611 2666 mt 3611 2639 L
3611  636 mt 3611  662 L
DO
3611 2666 mt 3611  636 L
3611  636 mt 3611  636 L
SO
3828 2666 mt 3828 2639 L
3828  636 mt 3828  662 L
DO
3828 2666 mt 3828  636 L
3828  636 mt 3828  636 L
SO
3996 2666 mt 3996 2639 L
3996  636 mt 3996  662 L
DO
3996 2666 mt 3996  636 L
3996  636 mt 3996  636 L
SO
4133 2666 mt 4133 2639 L
4133  636 mt 4133  662 L
DO
4133 2666 mt 4133  636 L
4133  636 mt 4133  636 L
SO
4250 2666 mt 4250 2639 L
4250  636 mt 4250  662 L
DO
4250 2666 mt 4250  636 L
4250  636 mt 4250  636 L
SO
4350 2666 mt 4350 2639 L
4350  636 mt 4350  662 L
DO
4350 2666 mt 4350  636 L
4350  636 mt 4350  636 L
SO
4439 2666 mt 4439 2639 L
4439  636 mt 4439  662 L
DO
4439 2666 mt 4439  636 L
4439  636 mt 4439  636 L
SO
4519 2666 mt 4519 2639 L
4519  636 mt 4519  662 L
DO
4519 2666 mt 4519  636 L
4519  636 mt 4519  636 L
SO
4519 2666 mt 4519 2613 L
4519  636 mt 4519  688 L
5041 2666 mt 5041 2639 L
5041  636 mt 5041  662 L
DO
5041 2666 mt 5041  636 L
5041  636 mt 5041  636 L
SO
5347 2666 mt 5347 2639 L
5347  636 mt 5347  662 L
DO
5347 2666 mt 5347  636 L
5347  636 mt 5347  636 L
SO
5564 2666 mt 5564 2639 L
5564  636 mt 5564  662 L
DO
5564 2666 mt 5564  636 L
5564  636 mt 5564  636 L
SO
5732 2666 mt 5732 2639 L
5732  636 mt 5732  662 L
DO
5732 2666 mt 5732  636 L
5732  636 mt 5732  636 L
SO
5869 2666 mt 5869 2639 L
5869  636 mt 5869  662 L
DO
5869 2666 mt 5869  636 L
5869  636 mt 5869  636 L
SO
5986 2666 mt 5986 2639 L
5986  636 mt 5986  662 L
DO
5986 2666 mt 5986  636 L
5986  636 mt 5986  636 L
SO
6086 2666 mt 6086 2639 L
6086  636 mt 6086  662 L
DO
6086 2666 mt 6086  636 L
6086  636 mt 6086  636 L
SO
6175 2666 mt 6175 2639 L
6175  636 mt 6175  662 L
DO
6175 2666 mt 6175  636 L
6175  636 mt 6175  636 L
SO
6255 2666 mt 6255 2639 L
6255  636 mt 6255  662 L
DO
6255 2666 mt 6255  636 L
6255  636 mt 6255  636 L
SO
6255 2666 mt 6255 2613 L
6255  636 mt 6255  688 L
1047 2666 mt 1099 2666 L
6255 2666 mt 6202 2666 L
%%IncludeResource: font Helvetica
/Helvetica /ISOLatin1Encoding 120 FMSR

 809 2710 mt 
(-40) s
1047 2260 mt 1099 2260 L
6255 2260 mt 6202 2260 L
 809 2304 mt 
(-30) s
1047 1854 mt 1099 1854 L
6255 1854 mt 6202 1854 L
 809 1898 mt 
(-20) s
1047 1448 mt 1099 1448 L
6255 1448 mt 6202 1448 L
 809 1492 mt 
(-10) s
1047 1042 mt 1099 1042 L
6255 1042 mt 6202 1042 L
 946 1086 mt 
(0) s
1047  636 mt 1099  636 L
6255  636 mt 6202  636 L
 879  680 mt 
(10) s
1047 2666 mt 6255 2666 L
1047  636 mt 6255  636 L
1047 2666 mt 1047  636 L
6255 2666 mt 6255  636 L
0 sg
 727 2062 mt  -90 rotate
(Magnitude \(dB\)) s
90 rotate
gs 1047 636 5209 2031 MR c np
/c8 { 0.000000 0.000000 1.000000 sr} bdef
c8
655 306 146 69 147 68 147 69 146 69 147 68 147 69 146 69 
147 69 147 69 146 69 147 69 147 70 146 70 147 70 147 71 
146 70 147 68 147 63 146 52 147 35 147 15 146 -1 147 -12 
147 -15 146 -13 147 -12 147 -9 146 -6 147 -5 147 -3 146 -3 
8 0 1047 1037 34 MP stroke
/c9 { 0.000000 0.650000 0.000000 sr} bdef
c9
221 103 146 69 147 68 147 69 146 69 147 68 147 69 146 69 
147 69 147 69 146 69 147 69 147 70 146 70 147 70 147 71 
146 70 147 68 147 63 146 52 147 35 147 15 146 -1 147 -12 
147 -15 146 -13 147 -12 147 -9 146 -6 147 -5 147 -3 146 -3 
147 -1 147 -1 146 -1 2 0 1047 1040 37 MP stroke
/c10 { 1.000000 0.000000 0.000000 sr} bdef
c10
786 368 147 69 146 68 147 69 147 69 146 68 147 69 147 69 
146 69 147 69 147 69 146 69 147 70 147 70 146 70 147 71 
147 70 146 68 147 63 147 52 146 35 147 15 147 -1 146 -12 
147 -15 147 -13 146 -12 147 -9 147 -6 144 -5 1047 1031 31 MP stroke
gr

c10
1 sg
0 1801 5208 0 0 -1801 1047 4615 4 MP
PP
-5208 0 0 1801 5208 0 0 -1801 1047 4615 5 MP stroke
4 w
DO
0.4 sg
1047 4615 mt 1047 2814 L
1047 2814 mt 1047 2814 L
2783 4615 mt 2783 2814 L
2783 2814 mt 2783 2814 L
4519 4615 mt 4519 2814 L
4519 2814 mt 4519 2814 L
6255 4615 mt 6255 2814 L
6255 2814 mt 6255 2814 L
1047 4597 mt 6255 4597 L
6255 4597 mt 6255 4597 L
1047 3714 mt 6255 3714 L
6255 3714 mt 6255 3714 L
1047 2831 mt 6255 2831 L
6255 2831 mt 6255 2831 L
SO
6 w
1047 4615 mt 6255 4615 L
1047 2814 mt 6255 2814 L
1047 4615 mt 1047 2814 L
6255 4615 mt 6255 2814 L
1047 4615 mt 6255 4615 L
1047 4615 mt 1047 2814 L
1047 4615 mt 1047 4588 L
1047 2814 mt 1047 2840 L
DO
1047 4615 mt 1047 2814 L
1047 2814 mt 1047 2814 L
SO
1047 4615 mt 1047 4562 L
1047 2814 mt 1047 2866 L
 935 4797 mt 
(10) s
%%IncludeResource: font Helvetica
/Helvetica /ISOLatin1Encoding 80 FMSR

1068 4723 mt 
(-1) s
1569 4615 mt 1569 4588 L
1569 2814 mt 1569 2840 L
DO
1569 4615 mt 1569 2814 L
1569 2814 mt 1569 2814 L
SO
1875 4615 mt 1875 4588 L
1875 2814 mt 1875 2840 L
DO
1875 4615 mt 1875 2814 L
1875 2814 mt 1875 2814 L
SO
2092 4615 mt 2092 4588 L
2092 2814 mt 2092 2840 L
DO
2092 4615 mt 2092 2814 L
2092 2814 mt 2092 2814 L
SO
2260 4615 mt 2260 4588 L
2260 2814 mt 2260 2840 L
DO
2260 4615 mt 2260 2814 L
2260 2814 mt 2260 2814 L
SO
2397 4615 mt 2397 4588 L
2397 2814 mt 2397 2840 L
DO
2397 4615 mt 2397 2814 L
2397 2814 mt 2397 2814 L
SO
2514 4615 mt 2514 4588 L
2514 2814 mt 2514 2840 L
DO
2514 4615 mt 2514 2814 L
2514 2814 mt 2514 2814 L
SO
2614 4615 mt 2614 4588 L
2614 2814 mt 2614 2840 L
DO
2614 4615 mt 2614 2814 L
2614 2814 mt 2614 2814 L
SO
2703 4615 mt 2703 4588 L
2703 2814 mt 2703 2840 L
DO
2703 4615 mt 2703 2814 L
2703 2814 mt 2703 2814 L
SO
2783 4615 mt 2783 4588 L
2783 2814 mt 2783 2840 L
DO
2783 4615 mt 2783 2814 L
2783 2814 mt 2783 2814 L
SO
2783 4615 mt 2783 4562 L
2783 2814 mt 2783 2866 L
%%IncludeResource: font Helvetica
/Helvetica /ISOLatin1Encoding 120 FMSR

2695 4797 mt 
(10) s
%%IncludeResource: font Helvetica
/Helvetica /ISOLatin1Encoding 80 FMSR

2828 4723 mt 
(0) s
3305 4615 mt 3305 4588 L
3305 2814 mt 3305 2840 L
DO
3305 4615 mt 3305 2814 L
3305 2814 mt 3305 2814 L
SO
3611 4615 mt 3611 4588 L
3611 2814 mt 3611 2840 L
DO
3611 4615 mt 3611 2814 L
3611 2814 mt 3611 2814 L
SO
3828 4615 mt 3828 4588 L
3828 2814 mt 3828 2840 L
DO
3828 4615 mt 3828 2814 L
3828 2814 mt 3828 2814 L
SO
3996 4615 mt 3996 4588 L
3996 2814 mt 3996 2840 L
DO
3996 4615 mt 3996 2814 L
3996 2814 mt 3996 2814 L
SO
4133 4615 mt 4133 4588 L
4133 2814 mt 4133 2840 L
DO
4133 4615 mt 4133 2814 L
4133 2814 mt 4133 2814 L
SO
4250 4615 mt 4250 4588 L
4250 2814 mt 4250 2840 L
DO
4250 4615 mt 4250 2814 L
4250 2814 mt 4250 2814 L
SO
4350 4615 mt 4350 4588 L
4350 2814 mt 4350 2840 L
DO
4350 4615 mt 4350 2814 L
4350 2814 mt 4350 2814 L
SO
4439 4615 mt 4439 4588 L
4439 2814 mt 4439 2840 L
DO
4439 4615 mt 4439 2814 L
4439 2814 mt 4439 2814 L
SO
4519 4615 mt 4519 4588 L
4519 2814 mt 4519 2840 L
DO
4519 4615 mt 4519 2814 L
4519 2814 mt 4519 2814 L
SO
4519 4615 mt 4519 4562 L
4519 2814 mt 4519 2866 L
%%IncludeResource: font Helvetica
/Helvetica /ISOLatin1Encoding 120 FMSR

4431 4797 mt 
(10) s
%%IncludeResource: font Helvetica
/Helvetica /ISOLatin1Encoding 80 FMSR

4564 4723 mt 
(1) s
5041 4615 mt 5041 4588 L
5041 2814 mt 5041 2840 L
DO
5041 4615 mt 5041 2814 L
5041 2814 mt 5041 2814 L
SO
5347 4615 mt 5347 4588 L
5347 2814 mt 5347 2840 L
DO
5347 4615 mt 5347 2814 L
5347 2814 mt 5347 2814 L
SO
5564 4615 mt 5564 4588 L
5564 2814 mt 5564 2840 L
DO
5564 4615 mt 5564 2814 L
5564 2814 mt 5564 2814 L
SO
5732 4615 mt 5732 4588 L
5732 2814 mt 5732 2840 L
DO
5732 4615 mt 5732 2814 L
5732 2814 mt 5732 2814 L
SO
5869 4615 mt 5869 4588 L
5869 2814 mt 5869 2840 L
DO
5869 4615 mt 5869 2814 L
5869 2814 mt 5869 2814 L
SO
5986 4615 mt 5986 4588 L
5986 2814 mt 5986 2840 L
DO
5986 4615 mt 5986 2814 L
5986 2814 mt 5986 2814 L
SO
6086 4615 mt 6086 4588 L
6086 2814 mt 6086 2840 L
DO
6086 4615 mt 6086 2814 L
6086 2814 mt 6086 2814 L
SO
6175 4615 mt 6175 4588 L
6175 2814 mt 6175 2840 L
DO
6175 4615 mt 6175 2814 L
6175 2814 mt 6175 2814 L
SO
6255 4615 mt 6255 4588 L
6255 2814 mt 6255 2840 L
DO
6255 4615 mt 6255 2814 L
6255 2814 mt 6255 2814 L
SO
6255 4615 mt 6255 4562 L
6255 2814 mt 6255 2866 L
%%IncludeResource: font Helvetica
/Helvetica /ISOLatin1Encoding 120 FMSR

6167 4797 mt 
(10) s
%%IncludeResource: font Helvetica
/Helvetica /ISOLatin1Encoding 80 FMSR

6300 4723 mt 
(2) s
1047 4597 mt 1099 4597 L
6255 4597 mt 6202 4597 L
%%IncludeResource: font Helvetica
/Helvetica /ISOLatin1Encoding 120 FMSR

 809 4641 mt 
(-90) s
1047 3714 mt 1099 3714 L
6255 3714 mt 6202 3714 L
 809 3758 mt 
(-45) s
1047 2831 mt 1099 2831 L
6255 2831 mt 6202 2831 L
 946 2875 mt 
(0) s
1047 4615 mt 6255 4615 L
1047 2814 mt 6255 2814 L
1047 4615 mt 1047 2814 L
6255 4615 mt 6255 2814 L
gs 1047 2814 5209 1802 MR c np
c8
655 5 146 3 147 5 147 5 146 6 147 7 147 9 146 12 
147 13 147 17 146 20 147 25 147 32 146 40 147 50 147 65 
146 85 147 113 147 145 146 180 147 203 147 200 146 170 147 126 
147 85 146 54 147 33 147 20 146 12 147 6 147 4 146 2 
8 0 1047 2834 34 MP stroke
gr

c8
0 sg
 727 4042 mt  -90 rotate
(Phase \(deg\)) s
90 rotate
gs 1047 2814 5209 1802 MR c np
c9
221 2 146 3 147 5 147 5 146 6 147 7 147 9 146 12 
147 13 147 17 146 20 147 25 147 32 146 40 147 50 147 65 
146 85 147 113 147 145 146 180 147 203 147 200 146 170 147 126 
147 85 146 54 147 33 147 20 146 12 147 6 147 4 146 2 
147 1 147 1 146 0 2 0 1047 2832 37 MP stroke
c10
958 8 147 3 146 5 147 5 147 6 146 7 147 9 147 12 
146 13 147 17 147 20 146 25 147 32 147 40 146 50 147 65 
147 85 146 113 147 145 147 180 146 203 147 200 147 170 146 126 
147 85 147 54 146 33 147 20 147 12 144 6 1047 2840 31 MP stroke
gr

c10
0 sg
1030 4658 mt 
( ) s
6239 2856 mt 
( ) s
3307  376 mt 
(Pm - Pest) s
3032 4943 mt 
(Frequency  \(rad/sec\)) s
1 sg
0 480 1566 0 0 -480 4629 3354 4 MP
PP
-1566 0 0 480 1566 0 0 -480 4629 3354 5 MP stroke
4 w
DO
SO
6 w
0 sg
4629 3354 mt 6195 3354 L
4629 2874 mt 6195 2874 L
4629 3354 mt 4629 2874 L
6195 3354 mt 6195 2874 L
4629 3354 mt 6195 3354 L
4629 3354 mt 4629 2874 L
4629 3354 mt 6195 3354 L
4629 2874 mt 6195 2874 L
4629 3354 mt 4629 2874 L
6195 3354 mt 6195 2874 L
5096 3009 mt 
(k1=1.189, k2=0.707) s
gs 4629 2874 1567 481 MR c np
c8
360 0 4700 2966 2 MP stroke
gr

c8
0 sg
5096 3157 mt 
(k1=2.115, k2=2.236) s
gs 4629 2874 1567 481 MR c np
c9
360 0 4700 3114 2 MP stroke
gr

c9
0 sg
5096 3304 mt 
(k1=0.795, k2=0.316) s
gs 4629 2874 1567 481 MR c np
c10
360 0 4700 3261 2 MP stroke
gr

c10

end %%Color Dict

eplot
%%EndObject

epage
end

showpage

%%Trailer
%%EOF
