%!PS-Adobe-2.0 EPSF-1.2
%%Creator: MATLAB, The Mathworks, Inc. Version 7.9.0.529 (R2009b). Operating System: Darwin 10.8.0 Darwin Kernel Version 10.8.0: Tue Jun  7 16:33:36 PDT 2011; root:xnu-1504.15.3~1/RELEASE_I386 i386.
%%Title: ./kalman_discreto_covariancia.eps
%%CreationDate: 10/08/2011  16:02:16
%%DocumentNeededFonts: Helvetica
%%DocumentProcessColors: Cyan Magenta Yellow Black
%%Extensions: CMYK
%%Pages: 1
%%BoundingBox:    58   199   548   602
%%EndComments

%%BeginProlog
% MathWorks dictionary
/MathWorks 160 dict begin
% definition operators
/bdef {bind def} bind def
/ldef {load def} bind def
/xdef {exch def} bdef
/xstore {exch store} bdef
% operator abbreviations
/c  /clip ldef
/cc /concat ldef
/cp /closepath ldef
/gr /grestore ldef
/gs /gsave ldef
/mt /moveto ldef
/np /newpath ldef
/cm /currentmatrix ldef
/sm /setmatrix ldef
/rm /rmoveto ldef
/rl /rlineto ldef
/s {show newpath} bdef
/sc {setcmykcolor} bdef
/sr /setrgbcolor ldef
/sg /setgray ldef
/w /setlinewidth ldef
/j /setlinejoin ldef
/cap /setlinecap ldef
/rc {rectclip} bdef
/rf {rectfill} bdef
% page state control
/pgsv () def
/bpage {/pgsv save def} bdef
/epage {pgsv restore} bdef
/bplot /gsave ldef
/eplot {stroke grestore} bdef
% orientation switch
/portraitMode 0 def /landscapeMode 1 def /rotateMode 2 def
% coordinate system mappings
/dpi2point 0 def
% font control
/FontSize 0 def
/FMS {/FontSize xstore findfont [FontSize 0 0 FontSize neg 0 0]
  makefont setfont} bdef
/reencode {exch dup where {pop load} {pop StandardEncoding} ifelse
  exch dup 3 1 roll findfont dup length dict begin
  { 1 index /FID ne {def}{pop pop} ifelse } forall
  /Encoding exch def currentdict end definefont pop} bdef
/isroman {findfont /CharStrings get /Agrave known} bdef
/FMSR {3 1 roll 1 index dup isroman {reencode} {pop pop} ifelse
  exch FMS} bdef
/csm {1 dpi2point div -1 dpi2point div scale neg translate
 dup landscapeMode eq {pop -90 rotate}
  {rotateMode eq {90 rotate} if} ifelse} bdef
% line types: solid, dotted, dashed, dotdash
/SO { [] 0 setdash } bdef
/DO { [.5 dpi2point mul 4 dpi2point mul] 0 setdash } bdef
/DA { [6 dpi2point mul] 0 setdash } bdef
/DD { [.5 dpi2point mul 4 dpi2point mul 6 dpi2point mul 4
  dpi2point mul] 0 setdash } bdef
% macros for lines and objects
/L {lineto stroke} bdef
/MP {3 1 roll moveto 1 sub {rlineto} repeat} bdef
/AP {{rlineto} repeat} bdef
/PDlw -1 def
/W {/PDlw currentlinewidth def setlinewidth} def
/PP {closepath eofill} bdef
/DP {closepath stroke} bdef
/MR {4 -2 roll moveto dup  0 exch rlineto exch 0 rlineto
  neg 0 exch rlineto closepath} bdef
/FR {MR stroke} bdef
/PR {MR fill} bdef
/L1i {{currentfile picstr readhexstring pop} image} bdef
/tMatrix matrix def
/MakeOval {newpath tMatrix currentmatrix pop translate scale
0 0 1 0 360 arc tMatrix setmatrix} bdef
/FO {MakeOval stroke} bdef
/PO {MakeOval fill} bdef
/PD {currentlinewidth 2 div 0 360 arc fill
   PDlw -1 eq not {PDlw w /PDlw -1 def} if} def
/FA {newpath tMatrix currentmatrix pop translate scale
  0 0 1 5 -2 roll arc tMatrix setmatrix stroke} bdef
/PA {newpath tMatrix currentmatrix pop	translate 0 0 moveto scale
  0 0 1 5 -2 roll arc closepath tMatrix setmatrix fill} bdef
/FAn {newpath tMatrix currentmatrix pop translate scale
  0 0 1 5 -2 roll arcn tMatrix setmatrix stroke} bdef
/PAn {newpath tMatrix currentmatrix pop translate 0 0 moveto scale
  0 0 1 5 -2 roll arcn closepath tMatrix setmatrix fill} bdef
/vradius 0 def /hradius 0 def /lry 0 def
/lrx 0 def /uly 0 def /ulx 0 def /rad 0 def
/MRR {/vradius xdef /hradius xdef /lry xdef /lrx xdef /uly xdef
  /ulx xdef newpath tMatrix currentmatrix pop ulx hradius add uly
  vradius add translate hradius vradius scale 0 0 1 180 270 arc 
  tMatrix setmatrix lrx hradius sub uly vradius add translate
  hradius vradius scale 0 0 1 270 360 arc tMatrix setmatrix
  lrx hradius sub lry vradius sub translate hradius vradius scale
  0 0 1 0 90 arc tMatrix setmatrix ulx hradius add lry vradius sub
  translate hradius vradius scale 0 0 1 90 180 arc tMatrix setmatrix
  closepath} bdef
/FRR {MRR stroke } bdef
/PRR {MRR fill } bdef
/MlrRR {/lry xdef /lrx xdef /uly xdef /ulx xdef /rad lry uly sub 2 div def
  newpath tMatrix currentmatrix pop ulx rad add uly rad add translate
  rad rad scale 0 0 1 90 270 arc tMatrix setmatrix lrx rad sub lry rad
  sub translate rad rad scale 0 0 1 270 90 arc tMatrix setmatrix
  closepath} bdef
/FlrRR {MlrRR stroke } bdef
/PlrRR {MlrRR fill } bdef
/MtbRR {/lry xdef /lrx xdef /uly xdef /ulx xdef /rad lrx ulx sub 2 div def
  newpath tMatrix currentmatrix pop ulx rad add uly rad add translate
  rad rad scale 0 0 1 180 360 arc tMatrix setmatrix lrx rad sub lry rad
  sub translate rad rad scale 0 0 1 0 180 arc tMatrix setmatrix
  closepath} bdef
/FtbRR {MtbRR stroke } bdef
/PtbRR {MtbRR fill } bdef
/stri 6 array def /dtri 6 array def
/smat 6 array def /dmat 6 array def
/tmat1 6 array def /tmat2 6 array def /dif 3 array def
/asub {/ind2 exch def /ind1 exch def dup dup
  ind1 get exch ind2 get sub exch } bdef
/tri_to_matrix {
  2 0 asub 3 1 asub 4 0 asub 5 1 asub
  dup 0 get exch 1 get 7 -1 roll astore } bdef
/compute_transform {
  dmat dtri tri_to_matrix tmat1 invertmatrix 
  smat stri tri_to_matrix tmat2 concatmatrix } bdef
/ds {stri astore pop} bdef
/dt {dtri astore pop} bdef
/db {2 copy /cols xdef /rows xdef mul dup 3 mul string
  currentfile exch readhexstring pop
  dup 0 3 index getinterval /rbmap xdef
  dup 2 index dup getinterval /gbmap xdef
  1 index dup 2 mul exch getinterval /bbmap xdef pop pop}bdef
/it {gs np dtri aload pop moveto lineto lineto cp c
  cols rows 8 compute_transform 
  rbmap gbmap bbmap true 3 colorimage gr}bdef
/il {newpath moveto lineto stroke}bdef
currentdict end def
%%EndProlog

%%BeginSetup
MathWorks begin

0 cap

end
%%EndSetup

%%Page: 1 1
%%BeginPageSetup
%%PageBoundingBox:    58   199   548   602
MathWorks begin
bpage
%%EndPageSetup

%%BeginObject: obj1
bplot

/dpi2point 12 def
portraitMode 0216 7344 csm

  480   110  5891  4845 MR c np
85 dict begin %Colortable dictionary
/c0 { 0.000000 0.000000 0.000000 sr} bdef
/c1 { 1.000000 1.000000 1.000000 sr} bdef
/c2 { 0.900000 0.000000 0.000000 sr} bdef
/c3 { 0.000000 0.820000 0.000000 sr} bdef
/c4 { 0.000000 0.000000 0.800000 sr} bdef
/c5 { 0.910000 0.820000 0.320000 sr} bdef
/c6 { 1.000000 0.260000 0.820000 sr} bdef
/c7 { 0.000000 0.820000 0.820000 sr} bdef
c0
1 j
1 sg
   0    0 6913 5186 PR
6 w
0 4226 5356 0 0 -4226 899 4615 4 MP
PP
-5356 0 0 4226 5356 0 0 -4226 899 4615 5 MP stroke
4 w
DO
0 sg
 899 4615 mt  899  389 L
 899  389 mt  899  389 L
1791 4615 mt 1791  389 L
1791  389 mt 1791  389 L
2684 4615 mt 2684  389 L
2684  389 mt 2684  389 L
3577 4615 mt 3577  389 L
3577  389 mt 3577  389 L
4469 4615 mt 4469  389 L
4469  389 mt 4469  389 L
5362 4615 mt 5362  389 L
5362  389 mt 5362  389 L
6255 4615 mt 6255  389 L
6255  389 mt 6255  389 L
 899 4615 mt 6255 4615 L
6255 4615 mt 6255 4615 L
 899 4086 mt 6255 4086 L
6255 4086 mt 6255 4086 L
 899 3558 mt 6255 3558 L
6255 3558 mt 6255 3558 L
 899 3030 mt 6255 3030 L
6255 3030 mt 6255 3030 L
 899 2502 mt 6255 2502 L
6255 2502 mt 6255 2502 L
 899 1973 mt 6255 1973 L
6255 1973 mt 6255 1973 L
 899 1445 mt 6255 1445 L
6255 1445 mt 6255 1445 L
 899  917 mt 6255  917 L
6255  917 mt 6255  917 L
 899  389 mt 6255  389 L
6255  389 mt 6255  389 L
SO
6 w
 899 4615 mt 6255 4615 L
 899 4615 mt  899  389 L
 899 4615 mt  899 4561 L
%%IncludeResource: font Helvetica
/Helvetica /ISOLatin1Encoding 120 FMSR

 866 4760 mt 
(0) s
1791 4615 mt 1791 4561 L
1758 4760 mt 
(5) s
2684 4615 mt 2684 4561 L
2618 4760 mt 
(10) s
3577 4615 mt 3577 4561 L
3511 4760 mt 
(15) s
4469 4615 mt 4469 4561 L
4403 4760 mt 
(20) s
5362 4615 mt 5362 4561 L
5296 4760 mt 
(25) s
6255 4615 mt 6255 4561 L
6189 4760 mt 
(30) s
 899 4615 mt  952 4615 L
 798 4659 mt 
(0) s
 899 4086 mt  952 4086 L
 698 4130 mt 
(0.5) s
 899 3558 mt  952 3558 L
 798 3602 mt 
(1) s
 899 3030 mt  952 3030 L
 698 3074 mt 
(1.5) s
 899 2502 mt  952 2502 L
 798 2546 mt 
(2) s
 899 1973 mt  952 1973 L
 698 2017 mt 
(2.5) s
 899 1445 mt  952 1445 L
 798 1489 mt 
(3) s
 899  917 mt  952  917 L
 698  961 mt 
(3.5) s
 899  389 mt  952  389 L
 798  433 mt 
(4) s
 899  335 mt 
(x 10) s
%%IncludeResource: font Helvetica
/Helvetica /ISOLatin1Encoding 80 FMSR

1125  261 mt 
(6) s
gs 899 389 5357 4227 MR c np
/c8 { 0.000000 0.000000 1.000000 sr} bdef
c8
1 3896 0 -13 1 -4 0 -16 1 -3 0 -13 1 -3 0 -17 
1 -3 0 -16 1 -3 0 -13 1 -3 0 -16 1 -4 0 -12 
1 -4 0 -16 1 -3 0 -16 1 -3 0 -12 1 -4 0 -15 
1 -4 0 -12 1 -3 0 -16 1 -3 0 -16 1 -3 0 -12 
1 -3 0 -16 1 -3 0 -13 1 -3 0 -15 1 -3 0 -16 
1 -3 0 -12 1 -3 0 -15 1 -3 0 -13 1 -3 0 -15 
1 -3 0 -15 1 -3 0 -12 1 -3 0 -15 1 -3 0 -12 
1 -3 0 -15 1 -3 0 -15 1 -3 0 -12 1 -3 0 -15 
1 -3 0 -12 1 -3 0 -14 1 -3 0 -15 1 -3 0 -12 
1 -2 0 -15 1 -3 0 -12 1 -3 0 -14 1 -3 0 -14 
1 -3 0 -12 1 -3 0 -14 1 -3 0 -11 1 -3 0 -14 
1 -3 0 -15 1 -2 0 -12 1 -3 0 -14 1 -3 0 -11 
1 -3 0 -14 1 -2 6205 1544 100 MP stroke
0 -14 1 -3 0 -11 1 -3 0 -14 1 -3 0 -11 1 -3 
0 -13 1 -3 0 -14 1 -3 0 -11 1 -2 0 -14 1 -3 
0 -11 1 -2 0 -14 1 -3 0 -13 1 -3 0 -11 1 -3 
0 -13 1 -3 0 -10 1 -3 0 -13 1 -3 0 -13 1 -3 
0 -11 1 -2 0 -13 1 -3 0 -11 1 -2 0 -13 1 -3 
0 -13 1 -3 0 -10 1 -3 0 -13 1 -2 0 -11 1 -2 
0 -13 1 -3 0 -13 1 -2 0 -10 1 -3 0 -13 1 -2 
0 -11 1 -2 0 -13 1 -2 0 -13 1 -2 0 -11 1 -2 
0 -13 1 -2 0 -10 1 -3 0 -12 1 -3 0 -12 1 -2 
0 -10 1 -3 0 -12 1 -3 0 -9 1 -3 0 -12 1 -3 
0 -12 1 -2 0 -10 1 -2 0 -13 1 -2 0 -10 1 -2 
0 -12 1 -2 0 -12 1 -3 0 -9 1 -3 0 -12 1 -2 
0 -10 1 -2 0 -12 6156 2264 100 MP stroke
1 -2 0 -12 1 -2 0 -10 1 -2 0 -12 1 -2 0 -9 
1 -3 0 -11 1 -3 0 -11 1 -2 0 -10 1 -2 0 -11 
1 -3 0 -9 1 -2 0 -12 1 -2 0 -11 1 -2 0 -10 
1 -2 0 -11 1 -2 0 -9 1 -3 0 -11 1 -2 0 -11 
1 -2 0 -9 1 -2 0 -12 1 -2 0 -9 1 -2 0 -11 
1 -2 0 -11 1 -2 0 -9 1 -2 0 -11 1 -2 0 -9 
1 -2 0 -11 1 -2 0 -10 1 -3 0 -8 1 -2 0 -11 
1 -2 0 -9 1 -2 0 -10 1 -2 0 -11 1 -2 0 -8 
1 -3 0 -10 1 -2 0 -8 1 -2 0 -11 1 -2 0 -10 
1 -2 0 -9 1 -2 0 -10 1 -2 0 -8 1 -2 0 -10 
1 -2 0 -10 1 -2 0 -9 1 -2 0 -10 1 -2 0 -8 
1 -2 0 -10 1 -2 0 -10 1 -2 0 -7 1 -2 0 -10 
1 -2 0 -8 1 -2 6106 2857 100 MP stroke
0 -10 1 -2 0 -10 1 -2 0 -7 1 -2 0 -10 1 -2 
0 -8 1 -1 0 -10 1 -2 0 -9 1 -2 0 -8 1 -2 
0 -9 1 -2 0 -8 1 -2 0 -9 1 -2 0 -9 1 -2 
0 -8 1 -1 0 -10 1 -2 0 -7 1 -2 0 -9 1 -2 
0 -9 1 -2 0 -7 1 -2 0 -9 1 -2 0 -9 1 -2 
0 -7 1 -2 0 -9 1 -2 0 -7 1 -2 0 -8 1 -2 
0 -9 1 -2 0 -7 1 -2 0 -8 1 -2 0 -7 1 -2 
0 -9 1 -1 0 -9 1 -2 0 -7 1 -1 0 -9 1 -2 
0 -7 1 -1 0 -9 1 -2 0 -8 1 -2 0 -7 1 -1 
0 -9 1 -1 0 -7 1 -2 0 -8 1 -2 0 -8 1 -2 
0 -6 1 -2 0 -8 1 -2 0 -6 1 -2 0 -8 1 -2 
0 -8 1 -2 0 -6 1 -2 0 -8 1 -1 0 -7 1 -1 
0 -8 1 -2 0 -8 6057 3353 100 MP stroke
1 -2 0 -6 1 -2 0 -7 1 -2 0 -6 1 -2 0 -8 
1 -1 0 -8 1 -2 0 -6 1 -1 0 -8 1 -2 0 -6 
1 -1 0 -8 1 -2 0 -7 1 -2 0 -6 1 -1 0 -8 
1 -1 0 -6 1 -2 0 -7 1 -2 0 -7 1 -2 0 -6 
1 -1 0 -7 1 -2 0 -6 1 -1 0 -8 1 -1 0 -7 
1 -2 0 -6 1 -1 0 -7 1 -2 0 -5 1 -2 0 -7 
1 -1 0 -7 1 -2 0 -5 1 -2 0 -7 1 -1 0 -6 
1 -1 0 -7 1 -2 0 -7 1 -1 0 -5 1 -2 0 -7 
1 -1 0 -6 1 -1 0 -7 1 -1 0 -7 1 -1 0 -6 
1 -1 0 -7 1 -1 0 -5 1 -2 0 -6 1 -2 0 -6 
1 -1 0 -6 1 -1 0 -7 1 -1 0 -5 1 -1 0 -7 
1 -1 0 -7 1 -1 0 -5 1 -1 0 -7 1 -1 0 -5 
1 -1 0 -7 1 -1 6007 3744 100 MP stroke
0 -6 1 -1 0 -5 1 -2 0 -6 1 -1 0 -5 1 -1 
0 -6 1 -2 0 -6 1 -1 0 -5 1 -1 0 -6 1 -1 
0 -5 1 -1 0 -6 1 -2 0 -6 1 -1 0 -4 1 -2 
0 -6 1 -1 0 -4 1 -2 0 -5 1 -2 0 -5 1 -2 
0 -4 1 -1 0 -6 1 -1 0 -5 1 -1 0 -6 1 -1 
0 -5 1 -1 0 -5 1 -1 0 -6 1 -1 0 -4 1 -1 
0 -6 1 -1 0 -5 1 -2 0 -4 1 -1 0 -5 1 -2 
0 -4 1 -1 0 -5 1 -1 0 -6 1 -1 0 -4 1 -1 
0 -5 1 -1 0 -5 1 -1 0 -5 1 -1 0 -5 1 -1 
0 -4 1 -1 0 -6 1 -1 0 -4 1 -1 0 -5 1 -1 
0 -5 1 -1 0 -4 1 -1 0 -5 1 -1 0 -4 1 -1 
0 -5 1 -1 0 -5 1 -1 0 -4 1 -1 0 -4 1 -1 
0 -4 1 -1 0 -5 5958 4052 100 MP stroke
1 -1 0 -5 1 -1 0 -3 1 -1 0 -5 1 -1 0 -4 
1 -1 0 -4 1 -1 0 -5 1 -1 0 -3 1 -1 0 -5 
1 -1 0 -3 1 -1 0 -5 1 -1 0 -4 1 -1 0 -4 
1 -1 0 -4 1 -1 0 -3 1 -1 0 -5 1 -1 0 -4 
1 -1 0 -3 1 -1 0 -4 1 -1 0 -4 1 -1 0 -4 
1 -1 0 -4 1 -1 0 -3 1 -1 0 -4 1 -1 0 -3 
1 -1 0 -4 1 -1 0 -4 1 -1 0 -3 1 -1 0 -4 
1 -1 0 -3 1 -1 0 -4 1 -1 0 -3 1 -1 0 -3 
1 -1 0 -4 1 -1 0 -3 1 -1 0 -3 1 -1 0 -4 
1 -1 0 -3 1 -1 0 -3 1 -1 0 -4 1 -1 0 -3 
1 -1 0 -3 1 -1 0 -3 1 -1 0 -3 1 -1 0 -3 
1 -1 0 -3 1 -1 0 -3 1 -1 0 -3 1 -1 0 -3 
1 -1 0 -3 1 -1 5908 4279 100 MP stroke
0 -3 1 -1 0 -3 1 -1 0 -2 1 -1 0 -3 1 -1 
0 -3 1 -1 0 -3 1 -1 0 -3 1 -1 0 -2 1 -1 
0 -3 1 -1 0 -3 1 -1 0 -2 1 -1 0 -3 1 -1 
0 -2 1 -1 0 -3 1 -1 0 -3 1 -1 0 -2 1 -1 
0 -2 1 -1 0 -2 1 -1 0 -3 1 -1 0 -3 1 -1 
0 -2 1 -1 0 -2 1 -1 0 -2 1 -1 0 -3 1 -1 
0 -2 1 -1 0 -2 1 -1 0 -2 1 -1 0 -2 1 -1 
0 -3 1 -1 0 -2 1 -1 0 -2 1 -1 0 -2 1 -1 
0 -2 1 -1 0 -2 1 -1 0 -2 1 -1 0 -2 1 -1 
0 -2 1 -1 0 -1 1 -1 0 -2 1 -1 0 -3 1 -1 
0 -1 1 -1 0 -2 1 -1 0 -2 1 -1 0 -2 1 -1 
0 -1 1 -1 0 -2 1 -1 0 -2 1 -1 0 -1 1 -1 
0 -2 1 -1 0 -2 5859 4440 100 MP stroke
1 -1 0 -1 1 -1 0 -2 1 -1 0 -1 1 -1 0 -2 
1 -1 0 -2 1 -1 0 -1 1 -1 0 -1 1 -1 0 -2 
1 -1 0 -1 1 -1 0 -2 1 -1 0 -1 1 -1 0 -2 
2 -2 0 -2 1 -1 0 -2 2 -2 0 -2 1 -1 0 -1 
1 -1 0 -2 2 -2 0 -2 2 -2 0 -2 2 -2 0 -2 
1 -1 1 -1 0 -2 1 -1 0 -1 2 -2 0 -2 1 -1 
0 -1 2 -2 0 -2 2 -2 0 -2 2 -2 0 -1 2 -2 
0 -2 2 -2 1 -1 0 -2 2 -2 1 -1 0 -2 2 -2 
0 -1 2 -2 0 -1 2 -2 0 -1 2 -2 0 -1 2 -2 
0 -1 2 -2 1 -1 0 -1 2 -2 1 -1 0 -1 2 -2 
1 -1 0 -1 2 -2 1 -1 1 -1 1 -1 1 -1 1 -1 
0 -1 2 -2 1 -1 1 -1 1 -1 1 -1 1 -1 1 -1 
1 -1 1 -1 1 -1 5777 4581 100 MP stroke
1 -1 1 -1 1 0 1 -1 1 -1 1 -1 1 -1 1 -1 
1 -1 1 0 1 -1 1 -1 1 -1 1 0 1 -1 1 -1 
1 0 1 -1 1 -1 1 0 1 -1 1 0 1 -1 1 -1 
1 0 1 -1 1 0 1 -1 1 0 1 -1 1 0 1 -1 
1 0 1 0 1 -1 1 0 1 0 1 -1 1 0 1 0 
1 -1 1 0 1 0 1 -1 1 0 1 0 1 0 1 -1 
1 0 1 0 1 0 1 0 1 0 1 0 1 -1 1 0 
1 0 1 0 0 3894 0 -3 1 -3 0 -13 1 -3 0 -17 
1 -3 0 -16 1 -3 0 -13 1 -4 0 -16 1 -3 0 -13 
1 -3 0 -16 1 -3 0 -16 1 -3 0 -13 1 -3 0 -16 
1 -3 0 -13 1 -3 0 -16 1 -3 0 -16 1 -3 0 -12 
1 -3 0 -16 1 -3 0 -13 1 -3 0 -15 1 -3 0 -16 
1 -3 0 -12 1 -3 5699 1057 100 MP stroke
0 -16 1 -3 0 -12 1 -3 0 -15 1 -4 0 -15 1 -3 
0 -12 1 -3 0 -15 1 -3 0 -12 1 -3 0 -15 1 -3 
0 -15 1 -3 0 -12 1 -3 0 -15 1 -3 0 -12 1 -3 
0 -15 1 -3 0 -14 1 -3 0 -12 1 -3 0 -15 1 -3 
0 -11 1 -3 0 -15 1 -3 0 -14 1 -3 0 -12 1 -3 
0 -14 1 -3 0 -12 1 -2 0 -15 1 -3 0 -14 1 -3 
0 -11 1 -3 0 -14 1 -3 0 -11 1 -3 0 -14 1 -3 
0 -14 1 -3 0 -11 1 -3 0 -14 1 -3 0 -11 1 -3 
0 -14 1 -2 0 -14 1 -3 0 -11 1 -3 0 -13 1 -3 
0 -11 1 -3 0 -14 1 -2 0 -14 1 -3 0 -10 1 -3 
0 -14 1 -2 0 -11 1 -3 0 -13 1 -3 0 -13 1 -3 
0 -11 1 -2 0 -14 1 -2 0 -11 1 -2 0 -14 1 -2 
0 -13 1 -3 0 -11 5650 1852 100 MP stroke
1 -2 0 -13 1 -3 0 -10 1 -3 0 -13 1 -2 0 -13 
1 -3 0 -10 1 -3 0 -13 1 -2 0 -10 1 -3 0 -13 
1 -2 0 -13 1 -3 0 -10 1 -2 0 -13 1 -2 0 -10 
1 -3 0 -12 1 -3 0 -12 1 -3 0 -10 1 -2 0 -13 
1 -2 0 -10 1 -3 0 -12 1 -2 0 -13 1 -2 0 -10 
1 -2 0 -13 1 -2 0 -10 1 -2 0 -12 1 -3 0 -12 
1 -2 0 -10 1 -2 0 -12 1 -2 0 -10 1 -2 0 -12 
1 -3 0 -12 1 -2 0 -9 1 -3 0 -11 1 -3 0 -9 
1 -2 0 -12 1 -2 0 -12 1 -2 0 -10 1 -2 0 -12 
1 -2 0 -9 1 -2 0 -12 1 -2 0 -12 1 -2 0 -9 
1 -2 0 -12 1 -2 0 -9 1 -2 0 -11 1 -3 0 -11 
1 -2 0 -9 1 -2 0 -11 1 -3 0 -8 1 -3 0 -11 
1 -2 0 -11 1 -2 5600 2515 100 MP stroke
0 -9 1 -2 0 -11 1 -2 0 -9 1 -2 0 -11 1 -2 
0 -11 1 -2 0 -9 1 -2 0 -10 1 -3 0 -8 1 -2 
0 -11 1 -2 0 -11 1 -2 0 -8 1 -2 0 -11 1 -2 
0 -8 1 -2 0 -11 1 -2 0 -10 1 -2 0 -9 1 -2 
0 -10 1 -2 0 -10 1 -2 0 -9 1 -2 0 -10 1 -2 
0 -8 1 -2 0 -10 1 -2 0 -10 1 -2 0 -8 1 -2 
0 -10 1 -2 0 -8 1 -2 0 -10 1 -2 0 -10 1 -2 
0 -8 1 -2 0 -10 1 -2 0 -7 1 -2 0 -10 1 -2 
0 -10 1 -2 0 -7 1 -2 0 -10 1 -2 0 -8 1 -1 
0 -10 1 -2 0 -9 1 -2 0 -8 1 -2 0 -9 1 -2 
0 -7 1 -2 0 -10 1 -2 0 -9 1 -2 0 -7 1 -2 
0 -9 1 -2 0 -7 1 -2 0 -9 1 -2 0 -9 1 -2 
0 -7 1 -2 0 -9 5551 3072 100 MP stroke
1 -2 0 -7 1 -2 0 -9 1 -2 0 -9 1 -1 0 -8 
1 -1 0 -9 1 -2 0 -7 1 -2 0 -9 1 -1 0 -9 
1 -2 0 -7 1 -2 0 -8 1 -2 0 -7 1 -2 0 -8 
1 -2 0 -8 1 -2 0 -7 1 -2 0 -8 1 -2 0 -7 
1 -1 0 -9 1 -1 0 -9 1 -1 0 -7 1 -2 0 -8 
1 -2 0 -6 1 -2 0 -8 1 -2 0 -8 1 -2 0 -6 
1 -2 0 -8 1 -2 0 -6 1 -2 0 -8 1 -1 0 -9 
1 -1 0 -6 1 -2 0 -8 1 -2 0 -6 1 -2 0 -7 
1 -2 0 -8 1 -1 0 -7 1 -1 0 -8 1 -1 0 -7 
1 -1 0 -8 1 -1 0 -8 1 -2 0 -6 1 -1 0 -8 
1 -1 0 -6 1 -2 0 -7 1 -2 0 -7 1 -2 0 -6 
1 -1 0 -8 1 -1 0 -6 1 -2 0 -7 1 -1 0 -8 
1 -1 0 -6 1 -2 5501 3520 100 MP stroke
0 -7 1 -1 0 -6 1 -2 0 -7 1 -1 0 -7 1 -2 
0 -5 1 -2 0 -7 1 -1 0 -6 1 -1 0 -7 1 -2 
0 -7 1 -1 0 -6 1 -1 0 -7 1 -1 0 -6 1 -1 
0 -7 1 -2 0 -6 1 -2 0 -5 1 -1 0 -7 1 -2 
0 -5 1 -1 0 -7 1 -1 0 -7 1 -1 0 -6 1 -1 
0 -6 1 -2 0 -5 1 -1 0 -7 1 -1 0 -7 1 -1 
0 -5 1 -1 0 -7 1 -1 0 -5 1 -1 0 -7 1 -1 
0 -6 1 -2 0 -5 1 -1 0 -6 1 -1 0 -5 1 -2 
0 -6 1 -1 0 -6 1 -1 0 -5 1 -2 0 -6 1 -1 
0 -5 1 -1 0 -6 1 -1 0 -6 1 -1 0 -5 1 -1 
0 -6 1 -1 0 -5 1 -1 0 -6 1 -1 0 -6 1 -1 
0 -5 1 -1 0 -6 1 -1 0 -5 1 -1 0 -6 1 -1 
0 -6 1 -1 0 -4 5452 3879 100 MP stroke
1 -1 0 -6 1 -1 0 -5 1 -1 0 -5 1 -1 0 -6 
1 -1 0 -4 1 -2 0 -5 1 -1 0 -5 1 -1 0 -5 
1 -1 0 -5 1 -2 0 -4 1 -1 0 -5 1 -1 0 -5 
1 -1 0 -5 1 -1 0 -5 1 -1 0 -4 1 -1 0 -6 
1 -1 0 -4 1 -1 0 -5 1 -1 0 -5 1 -1 0 -4 
1 -1 0 -5 1 -1 0 -4 1 -1 0 -5 1 -1 0 -5 
1 -1 0 -4 1 -1 0 -5 1 -1 0 -4 1 -1 0 -5 
1 -1 0 -4 1 -1 0 -4 1 -1 0 -5 1 -1 0 -4 
1 -1 0 -4 1 -1 0 -5 1 -1 0 -4 1 -1 0 -4 
1 -1 0 -5 1 -1 0 -3 1 -1 0 -5 1 -1 0 -3 
1 -1 0 -4 1 -1 0 -5 1 -1 0 -3 1 -1 0 -4 
1 -1 0 -4 1 -1 0 -4 1 -1 0 -4 1 -1 0 -3 
1 -1 0 -5 1 -1 5402 4152 100 MP stroke
0 -3 1 -1 0 -4 1 -1 0 -4 1 -1 0 -3 1 -1 
0 -4 1 -1 0 -3 1 -1 0 -4 1 -1 0 -4 1 -1 
0 -3 1 -1 0 -4 1 -1 0 -3 1 -1 0 -3 1 -1 
0 -4 1 -1 0 -3 1 -1 0 -3 1 -1 0 -3 1 -1 
0 -4 1 -1 0 -3 1 -1 0 -3 1 -1 0 -4 1 -1 
0 -2 1 -1 0 -4 1 -1 0 -3 1 -1 0 -3 1 -1 
0 -3 1 -1 0 -3 1 -1 0 -3 1 -1 0 -3 1 -1 
0 -3 1 -1 0 -3 1 -1 0 -2 1 -1 0 -3 1 -1 
0 -3 1 -1 0 -3 1 -1 0 -3 1 -1 0 -2 1 -1 
0 -3 1 -1 0 -3 1 -1 0 -2 1 -1 0 -3 1 -1 
0 -2 1 -1 0 -3 1 -1 0 -3 1 -1 0 -2 1 -1 
0 -3 1 -1 0 -2 1 -1 0 -3 1 -1 0 -2 1 -1 
0 -2 1 -1 0 -3 5353 4352 100 MP stroke
1 -1 0 -2 1 -1 0 -3 1 -1 0 -2 1 -1 0 -2 
1 -1 0 -2 1 -1 0 -2 1 -1 0 -3 1 -1 0 -2 
1 -1 0 -2 1 -1 0 -2 1 -1 0 -2 1 -1 0 -2 
1 -1 0 -2 1 -1 0 -2 1 -1 0 -2 1 -1 0 -2 
1 -1 0 -2 1 -1 0 -2 1 -1 0 -2 1 -1 0 -2 
1 -1 0 -1 1 -1 0 -2 1 -1 0 -2 1 -1 0 -2 
1 -1 0 -2 1 -1 0 -1 1 -1 0 -2 1 -1 0 -2 
1 -1 0 -1 1 -1 0 -2 1 -1 0 -1 1 -1 0 -2 
1 -1 0 -2 1 -1 0 -1 1 -1 0 -2 1 -1 0 -1 
1 -1 0 -1 1 -1 0 -3 2 -2 0 -2 1 -1 0 -1 
1 -1 0 -1 1 -1 0 -2 1 -1 0 -1 1 -1 0 -2 
2 -2 0 -2 1 -1 0 -1 1 -1 0 -1 1 -1 0 -1 
1 -1 0 -2 2 -2 5300 4493 100 MP stroke
0 -2 2 -2 0 -2 1 -1 0 -1 2 -2 0 -2 1 -1 
0 -1 2 -2 0 -2 2 -2 0 -2 2 -2 0 -1 1 -1 
0 -1 2 -2 0 -2 2 -2 0 -1 2 -2 0 -2 2 -2 
0 -1 2 -2 1 -1 0 -2 2 -2 0 -1 2 -2 1 -1 
0 -1 2 -2 0 -1 2 -2 0 -1 2 -2 1 -1 0 -1 
2 -2 1 -1 0 -1 2 -2 1 -1 1 -1 1 -1 0 -1 
2 -2 1 -1 1 -1 1 -1 1 -1 1 -1 1 -1 1 -1 
1 -1 1 -1 1 -1 1 -1 1 -1 1 -1 1 -1 1 -1 
1 -1 1 -1 1 -1 1 0 1 -1 1 -1 1 -1 1 -1 
1 0 1 -1 1 -1 1 -1 1 0 1 -1 1 -1 1 0 
1 -1 1 -1 1 0 1 -1 1 0 1 -1 1 0 1 -1 
1 0 1 -1 1 0 1 -1 1 0 1 -1 1 0 1 0 
1 -1 1 0 1 -1 5204 4605 100 MP stroke
1 0 1 0 1 -1 1 0 1 0 1 0 1 -1 1 0 
1 0 1 0 1 -1 1 0 1 0 1 0 1 0 1 0 
1 -1 1 0 1 0 1 0 1 0 0 3894 0 -9 1 -4 
0 -16 1 -3 0 -13 1 -4 0 -16 1 -3 0 -13 1 -3 
0 -16 1 -3 0 -16 1 -4 0 -12 1 -4 0 -16 1 -3 
0 -12 1 -4 0 -15 1 -4 0 -15 1 -4 0 -12 1 -3 
0 -16 1 -3 0 -13 1 -3 0 -15 1 -4 0 -15 1 -3 
0 -13 1 -3 0 -15 1 -3 0 -13 1 -3 0 -15 1 -3 
0 -15 1 -3 0 -13 1 -3 0 -15 1 -3 0 -12 1 -3 
0 -15 1 -3 0 -15 1 -3 0 -12 1 -3 0 -15 1 -3 
0 -12 1 -3 0 -15 1 -3 0 -15 1 -3 0 -12 1 -3 
0 -15 1 -2 0 -12 1 -3 0 -15 1 -3 0 -14 1 -3 
0 -12 1 -3 0 -14 5145 1380 100 MP stroke
1 -3 0 -12 1 -3 0 -14 1 -3 0 -14 1 -3 0 -12 
1 -2 0 -15 1 -3 0 -11 1 -3 0 -14 1 -3 0 -14 
1 -3 0 -11 1 -3 0 -14 1 -3 0 -11 1 -3 0 -14 
1 -2 0 -14 1 -3 0 -11 1 -3 0 -14 1 -3 0 -11 
1 -2 0 -14 1 -3 0 -13 1 -3 0 -11 1 -3 0 -13 
1 -3 0 -11 1 -3 0 -13 1 -3 0 -13 1 -3 0 -11 
1 -2 0 -14 1 -2 0 -11 1 -3 0 -13 1 -3 0 -13 
1 -3 0 -10 1 -3 0 -13 1 -2 0 -11 1 -3 0 -13 
1 -2 0 -13 1 -3 0 -10 1 -3 0 -13 1 -2 0 -11 
1 -2 0 -13 1 -2 0 -13 1 -3 0 -10 1 -3 0 -12 
1 -3 0 -10 1 -2 0 -13 1 -3 0 -12 1 -3 0 -10 
1 -2 0 -13 1 -2 0 -10 1 -2 0 -13 1 -2 0 -13 
1 -2 0 -10 1 -2 5095 2115 100 MP stroke
0 -13 1 -2 0 -10 1 -2 0 -13 1 -2 0 -12 1 -3 
0 -9 1 -3 0 -12 1 -2 0 -10 1 -2 0 -12 1 -2 
0 -12 1 -3 0 -9 1 -3 0 -11 1 -3 0 -9 1 -2 
0 -12 1 -3 0 -11 1 -3 0 -9 1 -2 0 -12 1 -2 
0 -12 1 -2 0 -9 1 -3 0 -11 1 -2 0 -10 1 -2 
0 -11 1 -2 0 -12 1 -2 0 -9 1 -2 0 -12 1 -2 
0 -9 1 -2 0 -11 1 -3 0 -11 1 -2 0 -9 1 -2 
0 -11 1 -2 0 -9 1 -2 0 -11 1 -3 0 -11 1 -2 
0 -8 1 -3 0 -11 1 -2 0 -8 1 -2 0 -11 1 -2 
0 -11 1 -2 0 -9 1 -2 0 -11 1 -2 0 -8 1 -2 
0 -11 1 -2 0 -11 1 -2 0 -8 1 -2 0 -11 1 -2 
0 -8 1 -2 0 -11 1 -2 0 -10 1 -2 0 -8 1 -2 
0 -11 1 -2 0 -8 5046 2742 100 MP stroke
1 -2 0 -10 1 -2 0 -10 1 -2 0 -8 1 -2 0 -10 
1 -2 0 -8 1 -2 0 -10 1 -2 0 -10 1 -2 0 -8 
1 -2 0 -10 1 -2 0 -8 1 -2 0 -10 1 -2 0 -9 
1 -2 0 -8 1 -2 0 -10 1 -2 0 -7 1 -2 0 -10 
1 -2 0 -9 1 -2 0 -8 1 -2 0 -9 1 -2 0 -8 
1 -2 0 -9 1 -2 0 -9 1 -2 0 -8 1 -1 0 -10 
1 -2 0 -7 1 -2 0 -9 1 -2 0 -9 1 -2 0 -7 
1 -2 0 -9 1 -2 0 -7 1 -2 0 -9 1 -2 0 -9 
1 -2 0 -7 1 -1 0 -9 1 -2 0 -7 1 -2 0 -9 
1 -2 0 -8 1 -2 0 -7 1 -2 0 -9 1 -1 0 -7 
1 -2 0 -9 1 -1 0 -9 1 -2 0 -7 1 -1 0 -9 
1 -2 0 -6 1 -2 0 -9 1 -1 0 -9 1 -1 0 -7 
1 -2 0 -8 1 -2 4996 3253 100 MP stroke
0 -6 1 -2 0 -8 1 -2 0 -8 1 -2 0 -7 1 -1 
0 -8 1 -2 0 -6 1 -2 0 -8 1 -2 0 -8 1 -1 
0 -7 1 -2 0 -8 1 -1 0 -6 1 -2 0 -8 1 -2 
0 -7 1 -2 0 -6 1 -2 0 -8 1 -1 0 -7 1 -1 
0 -8 1 -1 0 -8 1 -2 0 -6 1 -1 0 -8 1 -1 
0 -7 1 -1 0 -8 1 -1 0 -8 1 -1 0 -6 1 -2 
0 -7 1 -2 0 -6 1 -1 0 -8 1 -1 0 -7 1 -2 
0 -6 1 -1 0 -7 1 -2 0 -6 1 -1 0 -7 1 -2 
0 -7 1 -2 0 -5 1 -2 0 -7 1 -1 0 -6 1 -1 
0 -7 1 -2 0 -7 1 -1 0 -6 1 -1 0 -7 1 -2 
0 -5 1 -2 0 -6 1 -2 0 -7 1 -1 0 -6 1 -1 
0 -7 1 -1 0 -5 1 -2 0 -7 1 -1 0 -7 1 -1 
0 -5 1 -2 0 -6 4947 3669 100 MP stroke
1 -2 0 -5 1 -1 0 -7 1 -1 0 -7 1 -1 0 -5 
1 -1 0 -7 1 -1 0 -5 1 -2 0 -6 1 -1 0 -7 
1 -1 0 -5 1 -1 0 -7 1 -1 0 -5 1 -1 0 -6 
1 -2 0 -6 1 -1 0 -5 1 -1 0 -6 1 -2 0 -4 
1 -2 0 -6 1 -1 0 -6 1 -1 0 -5 1 -1 0 -6 
1 -1 0 -5 1 -1 0 -6 1 -2 0 -5 1 -2 0 -4 
1 -1 0 -6 1 -1 0 -5 1 -1 0 -6 1 -1 0 -6 
1 -1 0 -5 1 -1 0 -6 1 -1 0 -5 1 -1 0 -5 
1 -1 0 -6 1 -1 0 -4 1 -1 0 -6 1 -1 0 -5 
1 -2 0 -4 1 -1 0 -5 1 -2 0 -4 1 -1 0 -5 
1 -1 0 -6 1 -1 0 -4 1 -1 0 -5 1 -2 0 -4 
1 -1 0 -5 1 -1 0 -5 1 -1 0 -4 1 -1 0 -6 
1 -1 0 -4 1 -1 4897 3991 100 MP stroke
0 -5 1 -1 0 -5 1 -1 0 -4 1 -1 0 -5 1 -1 
0 -4 1 -1 0 -5 1 -1 0 -5 1 -1 0 -4 1 -1 
0 -4 1 -1 0 -4 1 -1 0 -5 1 -1 0 -5 1 -1 
0 -4 1 -1 0 -4 1 -1 0 -4 1 -1 0 -4 1 -1 
0 -5 1 -1 0 -4 1 -1 0 -4 1 -1 0 -4 1 -1 
0 -4 1 -1 0 -4 1 -1 0 -4 1 -1 0 -4 1 -1 
0 -4 1 -1 0 -4 1 -1 0 -4 1 -1 0 -3 1 -1 
0 -5 1 -1 0 -3 1 -1 0 -4 1 -1 0 -4 1 -1 
0 -3 1 -1 0 -4 1 -1 0 -3 1 -1 0 -4 1 -1 
0 -4 1 -1 0 -3 1 -1 0 -4 1 -1 0 -3 1 -1 
0 -4 1 -1 0 -4 1 -1 0 -3 1 -1 0 -3 1 -1 
0 -3 1 -1 0 -4 1 -1 0 -3 1 -1 0 -3 1 -1 
0 -4 1 -1 0 -2 4848 4236 100 MP stroke
1 -1 0 -4 1 -1 0 -3 1 -1 0 -3 1 -1 0 -3 
1 -1 0 -3 1 -1 0 -3 1 -1 0 -4 1 -1 0 -2 
1 -1 0 -3 1 -1 0 -3 1 -1 0 -3 1 -1 0 -3 
1 -1 0 -3 1 -1 0 -3 1 -1 0 -2 1 -1 0 -3 
1 -1 0 -3 1 -1 0 -2 1 -1 0 -3 1 -1 0 -3 
1 -1 0 -2 1 -1 0 -3 1 -1 0 -2 1 -1 0 -3 
1 -1 0 -2 1 -1 0 -3 1 -1 0 -3 1 -1 0 -2 
1 -1 0 -2 1 -1 0 -2 1 -1 0 -3 1 -1 0 -3 
1 -1 0 -2 1 -1 0 -2 1 -1 0 -2 1 -1 0 -2 
1 -1 0 -3 1 -1 0 -2 1 -1 0 -2 1 -1 0 -2 
1 -1 0 -2 1 -1 0 -2 1 -1 0 -2 1 -1 0 -2 
1 -1 0 -2 1 -1 0 -2 1 -1 0 -2 1 -1 0 -2 
1 -1 0 -2 1 -1 4798 4410 100 MP stroke
0 -2 1 -1 0 -2 1 -1 0 -2 1 -1 0 -1 1 -1 
0 -2 1 -1 0 -2 1 -1 0 -1 1 -1 0 -2 1 -1 
0 -2 1 -1 0 -2 1 -1 0 -1 1 -1 0 -2 1 -1 
0 -1 1 -1 0 -2 1 -1 0 -1 1 -1 0 -2 1 -1 
0 -1 1 -1 0 -3 2 -2 0 -2 1 -1 0 -1 1 -1 
0 -1 1 -1 0 -2 1 -1 0 -1 1 -1 0 -2 2 -2 
0 -2 1 -1 0 -2 2 -2 0 -2 1 -1 1 -1 0 -2 
1 -1 0 -2 2 -2 0 -2 2 -2 0 -2 2 -2 0 -2 
2 -2 0 -2 2 -2 0 -2 2 -2 0 -1 1 -1 0 -1 
2 -2 0 -2 2 -2 0 -1 1 -1 1 -1 0 -2 2 -2 
1 -1 0 -2 2 -2 0 -1 2 -2 1 -1 0 -2 2 -2 
0 -1 2 -2 1 -1 0 -1 2 -2 0 -1 2 -2 1 -1 
0 -1 2 -2 1 -1 4726 4558 100 MP stroke
0 -1 2 -2 1 -1 1 -1 0 -1 2 -2 1 -1 1 -1 
1 -1 1 -1 1 -1 0 -1 2 -2 1 -1 1 -1 1 -1 
1 -1 1 -1 1 -1 1 -1 1 -1 1 0 1 -1 1 -1 
1 -1 1 -1 1 -1 1 -1 1 0 1 -1 1 -1 1 -1 
1 0 1 -1 1 -1 1 -1 1 0 1 -1 1 -1 1 0 
1 -1 1 0 1 -1 1 0 1 -1 1 -1 1 0 1 -1 
1 0 1 0 1 -1 1 0 1 -1 1 0 1 -1 1 0 
1 0 1 -1 1 0 1 0 1 -1 1 0 1 0 1 -1 
1 0 1 0 1 0 1 0 1 -1 1 0 1 0 1 0 
1 0 1 0 1 -1 1 0 1 0 1 0 0 3897 1 -4 
0 -13 1 -3 0 -16 1 -3 0 -13 1 -4 0 -16 1 -3 
0 -16 1 -3 0 -13 1 -4 0 -16 1 -3 0 -13 1 -3 
0 -16 1 -3 0 -16 4638 893 100 MP stroke
1 -3 0 -13 1 -3 0 -16 1 -3 0 -12 1 -3 0 -16 
1 -3 0 -16 1 -3 0 -12 1 -4 0 -15 1 -3 0 -13 
1 -3 0 -15 1 -3 0 -16 1 -3 0 -12 1 -3 0 -15 
1 -3 0 -13 1 -3 0 -15 1 -3 0 -15 1 -3 0 -12 
1 -3 0 -15 1 -3 0 -12 1 -3 0 -15 1 -3 0 -15 
1 -3 0 -12 1 -3 0 -15 1 -3 0 -12 1 -3 0 -14 
1 -3 0 -15 1 -3 0 -12 1 -3 0 -14 1 -3 0 -12 
1 -3 0 -14 1 -3 0 -14 1 -3 0 -12 1 -3 0 -14 
1 -3 0 -11 1 -3 0 -14 1 -3 0 -15 1 -2 0 -12 
1 -3 0 -14 1 -2 0 -12 1 -3 0 -14 1 -2 0 -14 
1 -3 0 -11 1 -3 0 -14 1 -3 0 -11 1 -3 0 -13 
1 -3 0 -14 1 -3 0 -11 1 -2 0 -14 1 -3 0 -11 
1 -2 0 -14 1 -3 4588 1701 100 MP stroke
0 -13 1 -3 0 -11 1 -2 0 -14 1 -2 0 -11 1 -3 
0 -13 1 -3 0 -13 1 -3 0 -10 1 -3 0 -13 1 -3 
0 -13 1 -3 0 -10 1 -3 0 -13 1 -3 0 -10 1 -3 
0 -13 1 -2 0 -13 1 -3 0 -10 1 -3 0 -13 1 -2 
0 -11 1 -2 0 -13 1 -3 0 -12 1 -3 0 -10 1 -2 
0 -13 1 -3 0 -10 1 -2 0 -13 1 -2 0 -13 1 -2 
0 -10 1 -3 0 -12 1 -3 0 -9 1 -3 0 -12 1 -3 
0 -12 1 -2 0 -10 1 -3 0 -12 1 -2 0 -10 1 -3 
0 -12 1 -2 0 -12 1 -3 0 -9 1 -3 0 -12 1 -2 
0 -9 1 -3 0 -12 1 -2 0 -12 1 -2 0 -10 1 -2 
0 -12 1 -2 0 -10 1 -2 0 -12 1 -2 0 -12 1 -2 
0 -9 1 -3 0 -11 1 -2 0 -10 1 -2 0 -11 1 -3 
0 -11 1 -2 0 -10 4539 2396 100 MP stroke
1 -2 0 -11 1 -2 0 -9 1 -3 0 -11 1 -2 0 -11 
1 -3 0 -9 1 -2 0 -11 1 -2 0 -9 1 -2 0 -11 
1 -3 0 -11 1 -2 0 -9 1 -2 0 -11 1 -2 0 -9 
1 -2 0 -11 1 -2 0 -11 1 -2 0 -9 1 -2 0 -11 
1 -2 0 -8 1 -2 0 -11 1 -2 0 -11 1 -2 0 -8 
1 -3 0 -10 1 -2 0 -9 1 -2 0 -10 1 -2 0 -11 
1 -2 0 -8 1 -2 0 -10 1 -2 0 -9 1 -2 0 -10 
1 -2 0 -10 1 -2 0 -8 1 -2 0 -11 1 -2 0 -8 
1 -2 0 -10 1 -2 0 -10 1 -2 0 -8 1 -2 0 -10 
1 -2 0 -7 1 -2 0 -10 1 -2 0 -10 1 -2 0 -8 
1 -2 0 -10 1 -1 0 -8 1 -2 0 -10 1 -2 0 -9 
1 -2 0 -8 1 -2 0 -9 1 -2 0 -8 1 -2 0 -9 
1 -2 0 -10 1 -1 4489 2968 100 MP stroke
0 -8 1 -2 0 -9 1 -2 0 -8 1 -1 0 -10 1 -2 
0 -9 1 -2 0 -7 1 -2 0 -9 1 -2 0 -7 1 -2 
0 -9 1 -2 0 -9 1 -2 0 -7 1 -2 0 -9 1 -1 
0 -8 1 -1 0 -9 1 -2 0 -9 1 -2 0 -7 1 -1 
0 -10 1 -1 0 -7 1 -2 0 -9 1 -1 0 -9 1 -2 
0 -7 1 -2 0 -8 1 -2 0 -7 1 -1 0 -9 1 -2 
0 -8 1 -2 0 -7 1 -1 0 -9 1 -1 0 -7 1 -2 
0 -8 1 -2 0 -8 1 -2 0 -6 1 -2 0 -8 1 -2 
0 -6 1 -2 0 -8 1 -2 0 -8 1 -2 0 -6 1 -2 
0 -8 1 -1 0 -7 1 -1 0 -8 1 -2 0 -8 1 -1 
0 -7 1 -1 0 -8 1 -2 0 -6 1 -2 0 -8 1 -1 
0 -8 1 -1 0 -7 1 -1 0 -8 1 -1 0 -6 1 -2 
0 -8 1 -1 0 -8 4440 3442 100 MP stroke
1 -1 0 -6 1 -2 0 -7 1 -2 0 -6 1 -1 0 -8 
1 -1 0 -8 1 -1 0 -6 1 -2 0 -7 1 -1 0 -6 
1 -2 0 -7 1 -2 0 -7 1 -1 0 -6 1 -1 0 -8 
1 -1 0 -6 1 -1 0 -7 1 -2 0 -7 1 -1 0 -6 
1 -1 0 -7 1 -2 0 -5 1 -2 0 -7 1 -1 0 -7 
1 -1 0 -6 1 -1 0 -7 1 -1 0 -6 1 -1 0 -7 
1 -1 0 -7 1 -2 0 -5 1 -1 0 -7 1 -1 0 -7 
1 -1 0 -6 1 -1 0 -6 1 -2 0 -5 1 -1 0 -7 
1 -1 0 -7 1 -1 0 -5 1 -1 0 -7 1 -1 0 -5 
1 -1 0 -7 1 -1 0 -6 1 -2 0 -5 1 -1 0 -6 
1 -2 0 -5 1 -1 0 -6 1 -1 0 -6 1 -2 0 -5 
1 -1 0 -6 1 -1 0 -5 1 -1 0 -6 1 -2 0 -6 
1 -1 0 -5 1 -1 4390 3814 100 MP stroke
0 -6 1 -1 0 -5 1 -1 0 -6 1 -1 0 -6 1 -1 
0 -5 1 -1 0 -6 1 -1 0 -4 1 -1 0 -6 1 -1 
0 -6 1 -1 0 -5 1 -1 0 -5 1 -2 0 -4 1 -1 
0 -6 1 -1 0 -5 1 -2 0 -4 1 -1 0 -6 1 -1 
0 -4 1 -1 0 -6 1 -1 0 -5 1 -1 0 -5 1 -1 
0 -5 1 -1 0 -4 1 -1 0 -6 1 -1 0 -5 1 -1 
0 -4 1 -1 0 -5 1 -1 0 -5 1 -1 0 -5 1 -1 
0 -5 1 -1 0 -4 1 -1 0 -5 1 -1 0 -4 1 -1 
0 -5 1 -1 0 -5 1 -1 0 -4 1 -1 0 -5 1 -1 
0 -4 1 -1 0 -5 1 -1 0 -4 1 -1 0 -4 1 -1 
0 -5 1 -1 0 -4 1 -1 0 -4 1 -1 0 -5 1 -1 
0 -3 1 -1 0 -5 1 -1 0 -4 1 -1 0 -4 1 -1 
0 -4 1 -1 0 -4 4341 4105 100 MP stroke
1 -1 0 -4 1 -1 0 -4 1 -1 0 -4 1 -1 0 -4 
1 -1 0 -4 1 -1 0 -4 1 -1 0 -3 1 -1 0 -4 
1 -1 0 -5 1 -1 0 -3 1 -1 0 -4 1 -1 0 -3 
1 -1 0 -4 1 -1 0 -4 1 -1 0 -3 1 -1 0 -4 
1 -1 0 -3 1 -1 0 -4 1 -1 0 -4 1 -1 0 -3 
1 -1 0 -3 1 -1 0 -3 1 -1 0 -4 1 -1 0 -4 
1 -1 0 -2 1 -1 0 -4 1 -1 0 -3 1 -1 0 -3 
1 -1 0 -4 1 -1 0 -2 1 -1 0 -4 1 -1 0 -3 
1 -1 0 -3 1 -1 0 -3 1 -1 0 -3 1 -1 0 -3 
1 -1 0 -3 1 -1 0 -3 1 -1 0 -3 1 -1 0 -2 
1 -1 0 -4 1 -1 0 -2 1 -1 0 -3 1 -1 0 -3 
1 -1 0 -2 1 -1 0 -3 1 -1 0 -3 1 -1 0 -3 
1 -1 0 -3 1 -1 4291 4318 100 MP stroke
0 -2 1 -1 0 -3 1 -1 0 -2 1 -1 0 -3 1 -1 
0 -2 1 -1 0 -2 1 -1 0 -3 1 -1 0 -2 1 -1 
0 -3 1 -1 0 -2 1 -1 0 -2 1 -1 0 -3 1 -1 
0 -2 1 -1 0 -2 1 -1 0 -3 1 -1 0 -2 1 -1 
0 -2 1 -1 0 -2 1 -1 0 -2 1 -1 0 -2 1 -1 
0 -2 1 -1 0 -3 1 -1 0 -1 1 -1 0 -2 1 -1 
0 -3 1 -1 0 -1 1 -1 0 -2 1 -1 0 -2 1 -1 
0 -2 1 -1 0 -2 1 -1 0 -2 1 -1 0 -2 1 -1 
0 -1 1 -1 0 -2 1 -1 0 -3 2 -2 0 -2 1 -1 
0 -2 1 -1 0 -2 1 -1 0 -1 1 -1 0 -2 1 -1 
0 -1 1 -1 0 -2 1 -1 0 -1 1 -1 0 -3 2 -2 
0 -2 1 -1 0 -2 1 -1 0 -1 1 -1 0 -2 2 -2 
0 -2 1 -1 0 -2 4239 4473 100 MP stroke
2 -2 0 -2 1 -1 0 -1 1 -1 0 -1 1 -1 0 -2 
2 -2 0 -2 1 -1 0 -1 1 -1 0 -2 2 -2 0 -2 
2 -2 0 -2 2 -2 0 -2 2 -2 0 -2 2 -2 0 -1 
1 -1 0 -1 1 -1 1 -1 0 -2 2 -2 0 -2 2 -2 
1 -1 0 -2 2 -2 0 -1 1 -1 0 -1 2 -2 1 -1 
0 -2 2 -2 0 -1 2 -2 0 -1 2 -2 0 -1 2 -2 
0 -1 2 -2 1 -1 0 -1 2 -2 1 -1 0 -1 2 -2 
1 -1 1 -1 0 -1 2 -2 1 -1 1 -1 1 -1 0 -1 
2 -2 1 -1 1 -1 1 -1 1 -1 1 -1 1 -1 1 -1 
1 -1 1 -1 1 -1 1 -1 1 -1 1 -1 1 -1 1 -1 
1 0 1 -1 1 -1 1 -1 1 -1 1 0 1 -1 1 -1 
1 -1 1 0 1 -1 1 -1 1 -1 1 0 1 -1 1 0 
1 -1 1 -1 1 0 4147 4598 100 MP stroke
1 -1 1 0 1 -1 1 0 1 -1 1 0 1 -1 1 0 
1 -1 1 0 1 0 1 -1 1 0 1 -1 1 0 1 0 
1 0 1 -1 1 0 1 0 1 -1 1 0 1 0 1 0 
1 -1 1 0 1 0 1 0 1 0 1 0 1 -1 1 0 
1 0 1 0 1 0 0 3894 0 -6 1 -4 0 -13 1 -3 
0 -16 1 -3 0 -17 1 -3 0 -13 1 -3 0 -16 1 -3 
0 -13 1 -3 0 -16 1 -3 0 -16 1 -4 0 -12 1 -4 
0 -15 1 -4 0 -12 1 -3 0 -16 1 -3 0 -16 1 -3 
0 -13 1 -3 0 -15 1 -4 0 -12 1 -3 0 -16 1 -3 
0 -15 1 -3 0 -13 1 -3 0 -15 1 -3 0 -12 1 -3 
0 -16 1 -3 0 -15 1 -3 0 -12 1 -3 0 -15 1 -3 
0 -12 1 -3 0 -15 1 -3 0 -15 1 -3 0 -12 1 -3 
0 -15 1 -3 0 -12 4081 1260 100 MP stroke
1 -3 0 -15 1 -3 0 -15 1 -3 0 -11 1 -3 0 -15 
1 -3 0 -14 1 -3 0 -12 1 -3 0 -14 1 -3 0 -12 
1 -3 0 -14 1 -3 0 -14 1 -3 0 -12 1 -3 0 -14 
1 -3 0 -11 1 -3 0 -14 1 -3 0 -14 1 -3 0 -11 
1 -3 0 -14 1 -3 0 -11 1 -3 0 -14 1 -3 0 -14 
1 -2 0 -12 1 -2 0 -14 1 -3 0 -11 1 -3 0 -13 
1 -3 0 -14 1 -3 0 -10 1 -3 0 -14 1 -2 0 -11 
1 -3 0 -14 1 -2 0 -14 1 -2 0 -11 1 -3 0 -13 
1 -3 0 -10 1 -3 0 -13 1 -3 0 -13 1 -3 0 -10 
1 -3 0 -13 1 -3 0 -10 1 -3 0 -13 1 -3 0 -13 
1 -2 0 -11 1 -2 0 -13 1 -3 0 -10 1 -3 0 -12 
1 -3 0 -13 1 -2 0 -11 1 -2 0 -13 1 -2 0 -10 
1 -3 0 -13 1 -2 4031 2016 100 MP stroke
0 -13 1 -2 0 -10 1 -3 0 -12 1 -3 0 -10 1 -2 
0 -12 1 -3 0 -12 1 -3 0 -10 1 -2 0 -12 1 -3 
0 -10 1 -2 0 -12 1 -3 0 -12 1 -2 0 -10 1 -2 
0 -12 1 -3 0 -9 1 -3 0 -12 1 -2 0 -12 1 -2 
0 -10 1 -2 0 -12 1 -2 0 -10 1 -2 0 -12 1 -2 
0 -12 1 -2 0 -10 1 -2 0 -12 1 -2 0 -9 1 -2 
0 -12 1 -2 0 -12 1 -2 0 -9 1 -3 0 -11 1 -2 
0 -9 1 -3 0 -11 1 -2 0 -12 1 -2 0 -9 1 -2 
0 -11 1 -2 0 -9 1 -3 0 -11 1 -2 0 -11 1 -2 
0 -9 1 -2 0 -11 1 -2 0 -9 1 -2 0 -11 1 -3 
0 -10 1 -3 0 -8 1 -2 0 -11 1 -2 0 -9 1 -2 
0 -11 1 -2 0 -11 1 -2 0 -8 1 -2 0 -11 1 -2 
0 -8 1 -3 0 -10 3982 2659 100 MP stroke
1 -2 0 -11 1 -2 0 -8 1 -2 0 -11 1 -2 0 -8 
1 -2 0 -10 1 -2 0 -11 1 -2 0 -8 1 -2 0 -10 
1 -2 0 -8 1 -2 0 -10 1 -2 0 -10 1 -2 0 -8 
1 -2 0 -10 1 -2 0 -8 1 -2 0 -10 1 -2 0 -10 
1 -2 0 -8 1 -2 0 -10 1 -2 0 -8 1 -1 0 -10 
1 -2 0 -10 1 -2 0 -7 1 -2 0 -10 1 -2 0 -8 
1 -1 0 -10 1 -2 0 -9 1 -2 0 -8 1 -2 0 -9 
1 -2 0 -7 1 -2 0 -10 1 -2 0 -9 1 -2 0 -7 
1 -2 0 -9 1 -2 0 -7 1 -2 0 -9 1 -2 0 -9 
1 -2 0 -7 1 -2 0 -9 1 -2 0 -7 1 -2 0 -9 
1 -2 0 -9 1 -1 0 -8 1 -1 0 -9 1 -2 0 -7 
1 -2 0 -8 1 -2 0 -9 1 -2 0 -7 1 -1 0 -9 
1 -2 0 -7 1 -1 3932 3183 100 MP stroke
0 -9 1 -2 0 -8 1 -2 0 -7 1 -1 0 -9 1 -2 
0 -6 1 -2 0 -8 1 -2 0 -8 1 -2 0 -7 1 -1 
0 -9 1 -1 0 -7 1 -2 0 -8 1 -2 0 -8 1 -1 
0 -7 1 -1 0 -9 1 -1 0 -7 1 -1 0 -8 1 -2 
0 -8 1 -2 0 -6 1 -2 0 -7 1 -2 0 -6 1 -2 
0 -8 1 -1 0 -8 1 -2 0 -6 1 -2 0 -7 1 -2 
0 -8 1 -1 0 -6 1 -2 0 -7 1 -2 0 -6 1 -2 
0 -7 1 -2 0 -7 1 -2 0 -6 1 -1 0 -8 1 -1 
0 -6 1 -2 0 -7 1 -2 0 -7 1 -1 0 -6 1 -2 
0 -7 1 -2 0 -5 1 -2 0 -7 1 -1 0 -8 1 -1 
0 -6 1 -1 0 -7 1 -2 0 -6 1 -1 0 -7 1 -1 
0 -7 1 -2 0 -5 1 -2 0 -7 1 -1 0 -6 1 -1 
0 -7 1 -1 0 -7 3883 3615 100 MP stroke
1 -2 0 -5 1 -2 0 -6 1 -2 0 -5 1 -1 0 -7 
1 -2 0 -6 1 -2 0 -5 1 -1 0 -7 1 -1 0 -6 
1 -1 0 -6 1 -2 0 -6 1 -2 0 -5 1 -1 0 -7 
1 -1 0 -5 1 -1 0 -7 1 -1 0 -6 1 -2 0 -5 
1 -1 0 -6 1 -2 0 -5 1 -1 0 -6 1 -1 0 -7 
1 -1 0 -5 1 -1 0 -6 1 -1 0 -5 1 -1 0 -7 
1 -1 0 -6 1 -1 0 -5 1 -1 0 -6 1 -1 0 -5 
1 -1 0 -6 1 -1 0 -6 1 -1 0 -5 1 -1 0 -6 
1 -1 0 -5 1 -1 0 -6 1 -1 0 -6 1 -1 0 -5 
1 -1 0 -5 1 -2 0 -4 1 -1 0 -6 1 -1 0 -6 
1 -1 0 -4 1 -1 0 -6 1 -1 0 -4 1 -1 0 -6 
1 -1 0 -5 1 -2 0 -4 1 -1 0 -5 1 -1 0 -5 
1 -1 0 -5 1 -1 3833 3949 100 MP stroke
0 -5 1 -1 0 -5 1 -1 0 -5 1 -1 0 -4 1 -1 
0 -5 1 -1 0 -6 1 -1 0 -4 1 -1 0 -5 1 -1 
0 -4 1 -1 0 -5 1 -1 0 -5 1 -1 0 -4 1 -1 
0 -5 1 -1 0 -4 1 -1 0 -5 1 -1 0 -5 1 -1 
0 -3 1 -1 0 -5 1 -1 0 -4 1 -1 0 -5 1 -1 
0 -4 1 -1 0 -4 1 -1 0 -5 1 -1 0 -3 1 -1 
0 -5 1 -1 0 -4 1 -1 0 -4 1 -1 0 -4 1 -1 
0 -4 1 -1 0 -4 1 -1 0 -4 1 -1 0 -4 1 -1 
0 -4 1 -1 0 -3 1 -1 0 -5 1 -1 0 -4 1 -1 
0 -3 1 -1 0 -4 1 -1 0 -3 1 -1 0 -4 1 -1 
0 -4 1 -1 0 -4 1 -1 0 -4 1 -1 0 -3 1 -1 
0 -4 1 -1 0 -3 1 -1 0 -3 1 -1 0 -4 1 -1 
0 -3 1 -1 0 -4 3784 4206 100 MP stroke
1 -1 0 -4 1 -1 0 -2 1 -1 0 -4 1 -1 0 -3 
1 -1 0 -3 1 -1 0 -4 1 -1 0 -3 1 -1 0 -3 
1 -1 0 -3 1 -1 0 -3 1 -1 0 -4 1 -1 0 -2 
1 -1 0 -4 1 -1 0 -2 1 -1 0 -3 1 -1 0 -4 
1 -1 0 -2 1 -1 0 -3 1 -1 0 -3 1 -1 0 -3 
1 -1 0 -3 1 -1 0 -2 1 -1 0 -4 1 -1 0 -2 
1 -1 0 -3 1 -1 0 -3 1 -1 0 -2 1 -1 0 -3 
1 -1 0 -2 1 -1 0 -3 1 -1 0 -3 1 -1 0 -2 
1 -1 0 -3 1 -1 0 -2 1 -1 0 -2 1 -1 0 -3 
1 -1 0 -2 1 -1 0 -3 1 -1 0 -2 1 -1 0 -2 
1 -1 0 -3 1 -1 0 -1 1 -1 0 -3 1 -1 0 -2 
1 -1 0 -2 1 -1 0 -3 1 -1 0 -1 1 -1 0 -3 
1 -1 0 -2 1 -1 3734 4389 100 MP stroke
0 -2 1 -1 0 -2 1 -1 0 -2 1 -1 0 -2 1 -1 
0 -2 1 -1 0 -1 1 -1 0 -3 1 -1 0 -1 1 -1 
0 -2 1 -1 0 -2 1 -1 0 -2 1 -1 0 -2 1 -1 
0 -1 1 -1 0 -2 1 -1 0 -2 1 -1 0 -1 1 -1 
0 -2 1 -1 0 -2 1 -1 0 -1 1 -1 0 -3 2 -2 
0 -3 2 -2 0 -2 1 -1 0 -2 1 -1 0 -1 1 -1 
0 -2 2 -2 0 -2 1 -1 0 -2 1 -1 0 -1 1 -1 
0 -2 2 -2 0 -2 1 -1 0 -1 1 -1 0 -2 2 -2 
0 -2 2 -2 0 -2 1 -1 0 -1 1 -1 0 -1 1 -1 
0 -1 1 -1 0 -1 1 -1 0 -2 2 -2 0 -2 2 -2 
0 -1 1 -1 0 -1 1 -1 0 -1 2 -2 0 -2 2 -2 
0 -2 2 -2 1 -1 0 -2 2 -2 0 -1 1 -1 0 -1 
2 -2 1 -1 0 -2 3671 4536 100 MP stroke
2 -2 0 -1 2 -2 0 -1 2 -2 0 -1 2 -2 0 -1 
2 -2 0 -1 2 -2 1 -1 1 -1 0 -1 2 -2 1 -1 
0 -1 2 -2 1 -1 1 -1 0 -1 2 -2 1 -1 1 -1 
1 -1 1 -1 1 -1 1 -1 1 -1 0 -1 2 -2 1 0 
-1 0 2 -2 1 0 1 -1 1 -1 1 -1 1 -1 1 -1 
1 -1 1 -1 1 -1 1 0 1 -1 1 -1 1 -1 1 -1 
1 0 1 -1 1 -1 1 0 1 -1 1 -1 1 0 1 -1 
1 -1 1 0 1 -1 1 0 1 -1 1 0 1 -1 1 0 
1 -1 1 0 1 -1 1 0 1 -1 1 0 1 -1 1 0 
1 0 1 -1 1 0 1 0 1 -1 1 0 1 0 1 0 
1 -1 1 0 1 0 1 0 1 -1 1 0 1 0 1 0 
1 0 1 0 1 -1 1 0 1 0 1 0 1 3896 0 -13 
1 -3 0 -16 1 -3 3574 748 100 MP stroke
0 -13 1 -4 0 -16 1 -3 0 -16 1 -3 0 -13 1 -4 
0 -16 1 -3 0 -13 1 -3 0 -16 1 -3 0 -16 1 -3 
0 -13 1 -3 0 -16 1 -3 0 -12 1 -4 0 -15 1 -3 
0 -16 1 -3 0 -13 1 -3 0 -15 1 -3 0 -13 1 -3 
0 -15 1 -3 0 -16 1 -3 0 -12 1 -3 0 -16 1 -3 
0 -12 1 -3 0 -15 1 -3 0 -15 1 -3 0 -12 1 -3 
0 -15 1 -4 0 -12 1 -3 0 -15 1 -2 0 -15 1 -3 
0 -12 1 -3 0 -15 1 -3 0 -12 1 -3 0 -15 1 -3 
0 -14 1 -3 0 -12 1 -3 0 -14 1 -3 0 -12 1 -3 
0 -14 1 -3 0 -15 1 -3 0 -11 1 -3 0 -14 1 -3 
0 -12 1 -3 0 -14 1 -3 0 -14 1 -3 0 -11 1 -3 
0 -14 1 -3 0 -11 1 -3 0 -14 1 -3 0 -14 1 -3 
0 -11 1 -3 0 -13 3525 1588 100 MP stroke
1 -3 0 -11 1 -3 0 -14 1 -3 0 -13 1 -3 0 -11 
1 -3 0 -13 1 -3 0 -11 1 -3 0 -13 1 -3 0 -14 
1 -2 0 -11 1 -3 0 -13 1 -3 0 -11 1 -2 0 -14 
1 -2 0 -14 1 -2 0 -11 1 -3 0 -13 1 -2 0 -11 
1 -3 0 -13 1 -2 0 -14 1 -2 0 -11 1 -2 0 -13 
1 -3 0 -10 1 -3 0 -13 1 -2 0 -13 1 -3 0 -10 
1 -2 0 -13 1 -3 0 -10 1 -2 0 -13 1 -3 0 -12 
1 -3 0 -10 1 -2 0 -13 1 -3 0 -10 1 -2 0 -13 
1 -2 0 -12 1 -3 0 -10 1 -2 0 -13 1 -2 0 -10 
1 -2 0 -13 1 -2 0 -12 1 -3 0 -9 1 -3 0 -12 
1 -2 0 -10 1 -2 0 -13 1 -2 0 -12 1 -2 0 -10 
1 -2 0 -12 1 -3 0 -9 1 -2 0 -12 1 -3 0 -11 
1 -3 0 -9 1 -2 3475 2291 100 MP stroke
0 -12 1 -2 0 -10 1 -2 0 -12 1 -2 0 -12 1 -2 
0 -9 1 -2 0 -12 1 -2 0 -9 1 -3 0 -11 1 -2 
0 -12 1 -2 0 -9 1 -2 0 -12 1 -2 0 -9 1 -2 
0 -11 1 -2 0 -12 1 -2 0 -9 1 -2 0 -11 1 -2 
0 -9 1 -2 0 -11 1 -2 0 -11 1 -3 0 -8 1 -2 
0 -11 1 -2 0 -9 1 -2 0 -11 1 -2 0 -11 1 -2 
0 -9 1 -2 0 -10 1 -3 0 -8 1 -2 0 -11 1 -2 
0 -10 1 -3 0 -8 1 -2 0 -10 1 -3 0 -8 1 -2 
0 -10 1 -2 0 -11 1 -2 0 -8 1 -2 0 -10 1 -2 
0 -9 1 -2 0 -10 1 -2 0 -10 1 -2 0 -8 1 -2 
0 -10 1 -2 0 -8 1 -2 0 -10 1 -2 0 -10 1 -2 
0 -8 1 -2 0 -10 1 -2 0 -8 1 -2 0 -9 1 -2 
0 -10 1 -2 0 -8 3426 2888 100 MP stroke
1 -2 0 -9 1 -2 0 -8 1 -2 0 -10 1 -1 0 -10 
1 -2 0 -8 1 -1 0 -10 1 -2 0 -7 1 -2 0 -10 
1 -2 0 -9 1 -2 0 -7 1 -2 0 -9 1 -2 0 -8 
1 -1 0 -10 1 -1 0 -10 1 -1 0 -8 1 -2 0 -9 
1 -2 0 -9 1 -1 0 -8 1 -1 0 -9 1 -2 0 -7 
1 -2 0 -9 1 -2 0 -9 1 -1 0 -8 1 -1 0 -9 
1 -2 0 -7 1 -2 0 -8 1 -2 0 -9 1 -1 0 -7 
1 -2 0 -9 1 -1 0 -7 1 -2 0 -9 1 -2 0 -8 
1 -2 0 -6 1 -2 0 -9 1 -1 0 -7 1 -2 0 -8 
1 -2 0 -8 1 -2 0 -6 1 -2 0 -8 1 -2 0 -6 
1 -2 0 -8 1 -2 0 -8 1 -2 0 -6 1 -2 0 -8 
1 -1 0 -7 1 -1 0 -8 1 -2 0 -8 1 -2 0 -6 
1 -1 0 -8 1 -2 3376 3372 100 MP stroke
0 -6 1 -2 0 -8 1 -1 0 -8 1 -1 0 -7 1 -1 
0 -8 1 -1 0 -7 1 -1 0 -8 1 -1 0 -8 1 -1 
0 -6 1 -2 0 -8 1 -1 0 -6 1 -2 0 -7 1 -1 
0 -8 1 -1 0 -6 1 -2 0 -7 1 -2 0 -6 1 -1 
0 -7 1 -2 0 -7 1 -1 0 -6 1 -2 0 -7 1 -1 
0 -6 1 -1 0 -8 1 -1 0 -7 1 -2 0 -5 1 -2 
0 -7 1 -1 0 -6 1 -1 0 -7 1 -1 0 -7 1 -2 
0 -5 1 -2 0 -6 1 -2 0 -5 1 -2 0 -6 1 -2 
0 -6 1 -2 0 -5 1 -2 0 -6 1 -2 0 -5 1 -1 
0 -7 1 -1 0 -7 1 -1 0 -5 1 -2 0 -6 1 -2 
0 -5 1 -1 0 -6 1 -2 0 -6 1 -2 0 -5 1 -1 
0 -6 1 -2 0 -5 1 -1 0 -6 1 -1 0 -7 1 -1 
0 -5 1 -1 0 -6 3327 3763 100 MP stroke
1 -2 0 -5 1 -1 0 -6 1 -1 0 -6 1 -2 0 -4 
1 -2 0 -6 1 -1 0 -5 1 -1 0 -6 1 -1 0 -6 
1 -1 0 -5 1 -1 0 -6 1 -1 0 -5 1 -1 0 -6 
1 -1 0 -6 1 -1 0 -5 1 -1 0 -6 1 -1 0 -4 
1 -1 0 -6 1 -1 0 -6 1 -1 0 -5 1 -1 0 -5 
1 -2 0 -4 1 -1 0 -6 1 -1 0 -5 1 -1 0 -5 
1 -1 0 -5 1 -1 0 -5 1 -1 0 -5 1 -1 0 -6 
1 -1 0 -4 1 -1 0 -5 1 -1 0 -4 1 -2 0 -5 
1 -1 0 -5 1 -1 0 -4 1 -1 0 -5 1 -1 0 -4 
1 -1 0 -6 1 -1 0 -5 1 -1 0 -4 1 -1 0 -5 
1 -1 0 -4 1 -1 0 -5 1 -1 0 -4 1 -1 0 -4 
1 -1 0 -5 1 -1 0 -4 1 -1 0 -5 1 -1 0 -4 
1 -1 0 -4 1 -1 3277 4063 100 MP stroke
0 -5 1 -1 0 -4 1 -1 0 -4 1 -1 0 -5 1 -1 
0 -3 1 -1 0 -5 1 -1 0 -3 1 -1 0 -5 1 -1 
0 -4 1 -1 0 -4 1 -1 0 -4 1 -1 0 -3 1 -1 
0 -5 1 -1 0 -4 1 -1 0 -3 1 -1 0 -4 1 -1 
0 -4 1 -1 0 -4 1 -1 0 -4 1 -1 0 -3 1 -1 
0 -4 1 -1 0 -3 1 -1 0 -4 1 -1 0 -4 1 -1 
0 -3 1 -1 0 -4 1 -1 0 -3 1 -1 0 -4 1 -1 
0 -3 1 -1 0 -3 1 -1 0 -4 1 -1 0 -3 1 -1 
0 -3 1 -1 0 -4 1 -1 0 -3 1 -1 0 -3 1 -1 
0 -4 1 -1 0 -3 1 -1 0 -3 1 -1 0 -3 1 -1 
0 -3 1 -1 0 -3 1 -1 0 -3 1 -1 0 -3 1 -1 
0 -3 1 -1 0 -3 1 -1 0 -3 1 -1 0 -3 1 -1 
0 -3 1 -1 0 -2 3228 4289 100 MP stroke
1 -1 0 -3 1 -1 0 -3 1 -1 0 -3 1 -1 0 -3 
1 -1 0 -2 1 -1 0 -3 1 -1 0 -3 1 -1 0 -2 
1 -1 0 -3 1 -1 0 -2 1 -1 0 -3 1 -1 0 -2 
1 -1 0 -3 1 -1 0 -2 1 -1 0 -2 1 -1 0 -3 
1 -1 0 -3 1 -1 0 -2 1 -1 0 -2 1 -1 0 -2 
1 -1 0 -3 1 -1 0 -2 1 -1 0 -2 1 -1 0 -2 
1 -1 0 -2 1 -1 0 -2 1 -1 0 -3 1 -1 0 -2 
1 -1 0 -2 1 -1 0 -2 1 -1 0 -2 1 -1 0 -2 
1 -1 0 -2 1 -1 0 -2 1 -1 0 -1 1 -1 0 -2 
1 -1 0 -3 1 -1 0 -1 1 -1 0 -2 1 -1 0 -2 
1 -1 0 -2 1 -1 0 -1 1 -1 0 -2 1 -1 0 -2 
1 -1 0 -1 1 -1 0 -2 1 -1 0 -2 1 -1 0 -1 
1 -1 0 -2 1 -1 3178 4446 100 MP stroke
0 -1 1 -1 0 -2 1 -1 0 -1 1 -1 0 -2 1 -1 
0 -2 2 -2 0 -2 1 -1 0 -2 1 -1 0 -1 1 -1 
0 -2 2 -2 0 -2 1 -1 0 -2 2 -2 0 -2 1 -1 
0 -1 1 -1 0 -1 1 -1 0 -1 1 -1 0 -2 2 -2 
0 -2 2 -2 0 -2 1 -1 1 -1 0 -2 1 -1 0 -1 
2 -2 0 -2 1 -1 0 -1 2 -2 0 -2 2 -2 0 -2 
2 -2 0 -1 2 -2 0 -2 2 -2 1 -1 0 -2 2 -2 
1 -1 0 -2 2 -2 0 -1 2 -2 0 -1 2 -2 0 -1 
2 -2 0 -1 2 -2 0 -1 2 -2 1 -1 0 -1 2 -2 
1 -1 0 -1 2 -2 1 -1 1 -1 0 -1 2 -2 1 -1 
1 -1 1 -1 1 -1 0 -1 2 -2 1 -1 1 -1 1 -1 
1 -1 1 -1 1 -1 1 -1 1 -1 1 -1 1 -1 1 -1 
1 0 1 -1 1 -1 3094 4585 100 MP stroke
1 -1 1 -1 1 -1 1 -1 1 0 1 -1 1 -1 1 -1 
1 0 1 -1 1 -1 1 0 1 -1 1 -1 1 0 1 -1 
1 0 1 -1 1 -1 1 0 1 -1 1 0 1 -1 1 0 
1 -1 1 0 1 -1 1 0 1 0 1 -1 1 0 1 0 
1 -1 1 0 1 0 1 -1 1 0 1 0 1 -1 1 0 
1 0 1 0 1 -1 1 0 1 0 1 0 1 0 1 0 
1 0 1 -1 1 0 1 0 1 0 0 3896 0 -4 1 -3 
0 -13 1 -3 0 -17 1 -3 0 -16 1 -3 0 -13 1 -3 
0 -16 1 -4 0 -13 1 -3 0 -16 1 -3 0 -16 1 -3 
0 -13 1 -3 0 -16 1 -3 0 -13 1 -3 0 -16 1 -3 
0 -16 1 -3 0 -12 1 -3 0 -16 1 -3 0 -13 1 -3 
0 -15 1 -3 0 -16 1 -3 0 -12 1 -3 0 -16 1 -3 
0 -12 1 -3 0 -15 3019 1105 100 MP stroke
1 -3 0 -16 1 -3 0 -12 1 -3 0 -15 1 -3 0 -12 
1 -3 0 -15 1 -3 0 -15 1 -3 0 -12 1 -3 0 -15 
1 -3 0 -12 1 -3 0 -15 1 -3 0 -14 1 -3 0 -12 
1 -3 0 -15 1 -3 0 -11 1 -3 0 -15 1 -3 0 -14 
1 -3 0 -12 1 -3 0 -14 1 -3 0 -12 1 -2 0 -15 
1 -3 0 -14 1 -3 0 -11 1 -3 0 -14 1 -3 0 -11 
1 -3 0 -14 1 -3 0 -14 1 -3 0 -11 1 -3 0 -14 
1 -3 0 -11 1 -3 0 -14 1 -2 0 -14 1 -3 0 -11 
1 -3 0 -13 1 -3 0 -11 1 -3 0 -14 1 -2 0 -14 
1 -3 0 -10 1 -3 0 -14 1 -2 0 -11 1 -3 0 -13 
1 -3 0 -13 1 -3 0 -11 1 -2 0 -14 1 -2 0 -11 
1 -3 0 -13 1 -2 0 -14 1 -2 0 -11 1 -2 0 -13 
1 -3 0 -10 1 -3 2969 1882 100 MP stroke
0 -13 1 -3 0 -12 1 -3 0 -10 1 -3 0 -13 1 -2 
0 -11 1 -2 0 -13 1 -2 0 -13 1 -3 0 -10 1 -2 
0 -13 1 -2 0 -11 1 -2 0 -13 1 -2 0 -13 1 -2 
0 -10 1 -3 0 -12 1 -2 0 -10 1 -3 0 -12 1 -3 
0 -12 1 -2 0 -10 1 -2 0 -13 1 -2 0 -10 1 -2 
0 -12 1 -3 0 -12 1 -2 0 -10 1 -2 0 -12 1 -3 
0 -9 1 -3 0 -11 1 -3 0 -12 1 -2 0 -9 1 -3 
0 -12 1 -2 0 -9 1 -3 0 -11 1 -3 0 -11 1 -3 
0 -9 1 -2 0 -12 1 -2 0 -9 1 -3 0 -11 1 -2 
0 -12 1 -2 0 -9 1 -2 0 -12 1 -2 0 -9 1 -2 
0 -12 1 -2 0 -11 1 -3 0 -9 1 -2 0 -11 1 -2 
0 -9 1 -2 0 -11 1 -2 0 -11 1 -3 0 -8 1 -3 
0 -11 1 -2 0 -8 2920 2547 100 MP stroke
1 -3 0 -10 1 -3 0 -10 1 -3 0 -8 1 -2 0 -11 
1 -2 0 -9 1 -2 0 -11 1 -2 0 -10 1 -2 0 -9 
1 -2 0 -10 1 -3 0 -8 1 -2 0 -10 1 -3 0 -10 
1 -2 0 -8 1 -2 0 -11 1 -2 0 -10 1 -2 0 -8 
1 -2 0 -10 1 -3 0 -8 1 -2 0 -10 1 -2 0 -10 
1 -2 0 -8 1 -2 0 -10 1 -2 0 -8 1 -2 0 -10 
1 -2 0 -10 1 -2 0 -8 1 -1 0 -10 1 -2 0 -8 
1 -2 0 -10 1 -2 0 -9 1 -2 0 -8 1 -2 0 -10 
1 -1 0 -8 1 -2 0 -10 1 -1 0 -10 1 -2 0 -7 
1 -2 0 -10 1 -2 0 -7 1 -2 0 -9 1 -2 0 -9 
1 -2 0 -8 1 -2 0 -9 1 -2 0 -7 1 -2 0 -9 
1 -2 0 -9 1 -2 0 -7 1 -2 0 -9 1 -2 0 -7 
1 -2 0 -9 1 -1 2870 3093 100 MP stroke
0 -9 1 -2 0 -7 1 -2 0 -9 1 -2 0 -7 1 -1 
0 -9 1 -2 0 -9 1 -1 0 -7 1 -2 0 -9 1 -2 
0 -6 1 -2 0 -9 1 -1 0 -9 1 -2 0 -7 1 -1 
0 -9 1 -1 0 -7 1 -2 0 -8 1 -2 0 -8 1 -2 
0 -7 1 -1 0 -9 1 -1 0 -7 1 -2 0 -8 1 -1 
0 -9 1 -1 0 -7 1 -1 0 -9 1 -1 0 -7 1 -1 
0 -8 1 -2 0 -8 1 -1 0 -7 1 -1 0 -8 1 -2 
0 -6 1 -2 0 -8 1 -1 0 -8 1 -2 0 -6 1 -2 
0 -7 1 -2 0 -6 1 -2 0 -7 1 -2 0 -7 1 -2 
0 -6 1 -2 0 -7 1 -2 0 -6 1 -1 0 -8 1 -1 
0 -8 1 -1 0 -6 1 -2 0 -7 1 -2 0 -6 1 -1 
0 -7 1 -2 0 -7 1 -2 0 -5 1 -2 0 -7 1 -2 
0 -5 1 -2 0 -7 2821 3542 100 MP stroke
1 -1 0 -8 1 -1 0 -6 1 -1 0 -7 1 -2 0 -5 
1 -2 0 -7 1 -1 0 -7 1 -1 0 -6 1 -1 0 -7 
1 -2 0 -5 1 -2 0 -6 1 -2 0 -7 1 -1 0 -5 
1 -2 0 -6 1 -2 0 -5 1 -2 0 -6 1 -2 0 -6 
1 -1 0 -6 1 -1 0 -7 1 -1 0 -5 1 -2 0 -6 
1 -1 0 -7 1 -1 0 -5 1 -2 0 -6 1 -1 0 -5 
1 -2 0 -6 1 -1 0 -7 1 -1 0 -5 1 -1 0 -6 
1 -2 0 -5 1 -1 0 -6 1 -1 0 -7 1 -1 0 -5 
1 -1 0 -6 1 -1 0 -5 1 -1 0 -6 1 -2 0 -6 
1 -1 0 -5 1 -1 0 -6 1 -1 0 -5 1 -1 0 -6 
1 -1 0 -6 1 -1 0 -4 1 -2 0 -5 1 -2 0 -4 
1 -1 0 -6 1 -1 0 -6 1 -1 0 -5 1 -1 0 -5 
1 -1 0 -5 1 -1 2771 3892 100 MP stroke
0 -6 1 -1 0 -5 1 -1 0 -5 1 -1 0 -5 1 -2 
0 -4 1 -1 0 -5 1 -1 0 -6 1 -1 0 -4 1 -1 
0 -6 1 -1 0 -4 1 -1 0 -5 1 -1 0 -6 1 -1 
0 -4 1 -1 0 -5 1 -1 0 -4 1 -1 0 -5 1 -1 
0 -6 1 -1 0 -4 1 -1 0 -5 1 -1 0 -4 1 -1 
0 -5 1 -1 0 -5 1 -1 0 -4 1 -1 0 -4 1 -1 
0 -4 1 -1 0 -5 1 -1 0 -5 1 -1 0 -4 1 -1 
0 -4 1 -1 0 -4 1 -1 0 -5 1 -1 0 -4 1 -1 
0 -4 1 -1 0 -5 1 -1 0 -4 1 -1 0 -4 1 -1 
0 -4 1 -1 0 -4 1 -1 0 -4 1 -1 0 -4 1 -1 
0 -4 1 -1 0 -4 1 -1 0 -3 1 -1 0 -4 1 -1 
0 -5 1 -1 0 -3 1 -1 0 -4 1 -1 0 -3 1 -1 
0 -4 1 -1 0 -4 2722 4164 100 MP stroke
1 -1 0 -4 1 -1 0 -3 1 -1 0 -4 1 -1 0 -3 
1 -1 0 -4 1 -1 0 -3 1 -1 0 -4 1 -1 0 -3 
1 -1 0 -4 1 -1 0 -3 1 -1 0 -3 1 -1 0 -4 
1 -1 0 -3 1 -1 0 -3 1 -1 0 -4 1 -1 0 -3 
1 -1 0 -3 1 -1 0 -3 1 -1 0 -3 1 -1 0 -4 
1 -1 0 -2 1 -1 0 -4 1 -1 0 -2 1 -1 0 -4 
1 -1 0 -3 1 -1 0 -2 1 -1 0 -3 1 -1 0 -3 
1 -1 0 -3 1 -1 0 -3 1 -1 0 -2 1 -1 0 -4 
1 -1 0 -2 1 -1 0 -3 1 -1 0 -3 1 -1 0 -2 
1 -1 0 -3 1 -1 0 -2 1 -1 0 -3 1 -1 0 -3 
1 -1 0 -2 1 -1 0 -3 1 -1 0 -2 1 -1 0 -2 
1 -1 0 -3 1 -1 0 -2 1 -1 0 -3 1 -1 0 -2 
1 -1 0 -2 1 -1 2672 4359 100 MP stroke
0 -3 1 -1 0 -2 1 -1 0 -2 1 -1 0 -2 1 -1 
0 -2 1 -1 0 -3 1 -1 0 -1 1 -1 0 -3 1 -1 
0 -2 1 -1 0 -2 1 -1 0 -2 1 -1 0 -2 1 -1 
0 -2 1 -1 0 -2 1 -1 0 -2 1 -1 0 -2 1 -1 
0 -1 1 -1 0 -2 1 -1 0 -2 1 -1 0 -2 1 -1 
0 -2 1 -1 0 -1 1 -1 0 -2 1 -1 0 -2 1 -1 
0 -2 1 -1 0 -1 1 -1 0 -2 1 -1 0 -2 1 -1 
0 -1 1 -1 0 -2 1 -1 0 -1 1 -1 0 -2 1 -1 
0 -2 2 -2 0 -2 1 -1 0 -2 1 -1 0 -1 1 -1 
0 -2 2 -2 0 -2 1 -1 0 -2 2 -2 0 -2 1 -1 
0 -2 2 -2 0 -2 1 -1 0 -1 1 -1 0 -1 1 -1 
0 -1 1 -1 0 -1 1 -1 0 -2 2 -2 0 -2 2 -2 
0 -2 2 -2 0 -2 2616 4507 100 MP stroke
2 -2 0 -2 2 -2 0 -2 2 -2 0 -1 2 -2 0 -2 
2 -2 0 -1 2 -2 0 -2 2 -2 1 -1 0 -2 2 -2 
0 -1 2 -2 0 -1 2 -2 0 -1 2 -2 0 -1 2 -2 
0 -1 2 -2 1 -1 0 -1 2 -2 0 -1 2 -2 1 -1 
1 -1 0 -1 2 -2 1 -1 1 -1 1 -1 0 -1 2 -2 
1 -1 1 -1 1 -1 1 -1 1 -1 1 -1 1 -1 1 -1 
1 -1 1 -1 1 -1 1 -1 1 -1 1 -1 1 -1 1 -1 
1 -1 1 0 1 -1 1 -1 1 -1 1 -1 1 0 1 -1 
1 -1 1 -1 1 0 1 -1 1 -1 1 0 1 -1 1 0 
1 -1 1 -1 1 0 1 -1 1 0 1 -1 1 0 1 -1 
1 0 1 -1 1 0 1 -1 1 0 1 0 1 -1 1 0 
1 -1 1 0 1 0 1 -1 1 0 1 0 1 0 1 -1 
1 0 1 0 1 0 2516 4607 100 MP stroke
1 -1 1 0 1 0 1 0 1 0 1 0 1 -1 1 0 
1 0 1 0 1 0 0 3882 0 -10 1 -3 0 -17 1 -3 
0 -13 1 -3 0 -16 1 -3 0 -13 1 -3 0 -17 1 -3 
0 -16 1 -3 0 -13 1 -3 0 -16 1 -3 0 -13 1 -3 
0 -16 1 -3 0 -15 1 -4 0 -12 1 -3 0 -16 1 -3 
0 -13 1 -3 0 -15 1 -3 0 -16 1 -3 0 -12 1 -3 
0 -16 1 -3 0 -12 1 -3 0 -16 1 -3 0 -15 1 -3 
0 -12 1 -3 0 -15 1 -3 0 -13 1 -3 0 -15 1 -3 
0 -15 1 -3 0 -12 1 -3 0 -15 1 -3 0 -12 1 -3 
0 -14 1 -3 0 -15 1 -3 0 -12 1 -3 0 -15 1 -2 
0 -12 1 -3 0 -15 1 -3 0 -14 1 -3 0 -12 1 -3 
0 -14 1 -3 0 -11 1 -3 0 -15 1 -3 0 -14 1 -3 
0 -11 1 -3 0 -14 2462 1471 100 MP stroke
1 -3 0 -12 1 -2 0 -14 1 -3 0 -14 1 -3 0 -11 
1 -3 0 -14 1 -3 0 -11 1 -3 0 -14 1 -3 0 -14 
1 -2 0 -11 1 -3 0 -14 1 -3 0 -11 1 -2 0 -14 
1 -3 0 -13 1 -3 0 -11 1 -3 0 -13 1 -3 0 -11 
1 -3 0 -13 1 -3 0 -13 1 -3 0 -10 1 -4 0 -13 
1 -3 0 -10 1 -3 0 -13 1 -3 0 -13 1 -2 0 -11 
1 -3 0 -13 1 -2 0 -11 1 -2 0 -13 1 -3 0 -13 
1 -3 0 -10 1 -2 0 -13 1 -3 0 -10 1 -3 0 -13 
1 -2 0 -13 1 -2 0 -10 1 -3 0 -13 1 -2 0 -10 
1 -3 0 -12 1 -3 0 -12 1 -3 0 -10 1 -2 0 -13 
1 -2 0 -10 1 -3 0 -12 1 -3 0 -12 1 -2 0 -10 
1 -3 0 -12 1 -2 0 -10 1 -2 0 -12 1 -3 0 -12 
1 -2 0 -10 1 -2 2412 2192 100 MP stroke
0 -12 1 -3 0 -9 1 -3 0 -12 1 -2 0 -12 1 -2 
0 -10 1 -2 0 -12 1 -2 0 -10 1 -2 0 -12 1 -2 
0 -12 1 -2 0 -10 1 -2 0 -12 1 -2 0 -12 1 -2 
0 -9 1 -2 0 -12 1 -2 0 -9 1 -2 0 -12 1 -2 
0 -11 1 -3 0 -9 1 -2 0 -11 1 -2 0 -9 1 -3 
0 -11 1 -2 0 -11 1 -2 0 -9 1 -2 0 -11 1 -3 
0 -8 1 -3 0 -11 1 -2 0 -11 1 -2 0 -9 1 -2 
0 -11 1 -2 0 -8 1 -2 0 -11 1 -2 0 -11 1 -2 
0 -9 1 -2 0 -11 1 -2 0 -8 1 -2 0 -11 1 -2 
0 -10 1 -2 0 -9 1 -2 0 -10 1 -2 0 -9 1 -2 
0 -10 1 -2 0 -11 1 -2 0 -8 1 -2 0 -10 1 -2 
0 -8 1 -2 0 -10 1 -2 0 -11 1 -2 0 -8 1 -2 
0 -10 1 -2 0 -8 2363 2806 100 MP stroke
1 -2 0 -10 1 -2 0 -10 1 -1 0 -8 1 -2 0 -10 
1 -2 0 -8 1 -2 0 -10 1 -2 0 -9 1 -2 0 -8 
1 -2 0 -10 1 -2 0 -7 1 -2 0 -10 1 -2 0 -9 
1 -2 0 -8 1 -1 0 -10 1 -2 0 -7 1 -2 0 -10 
1 -1 0 -10 1 -2 0 -7 1 -2 0 -9 1 -2 0 -7 
1 -2 0 -9 1 -2 0 -9 1 -2 0 -7 1 -2 0 -9 
1 -2 0 -7 1 -2 0 -9 1 -2 0 -9 1 -2 0 -7 
1 -2 0 -9 1 -1 0 -7 1 -2 0 -9 1 -2 0 -8 
1 -2 0 -7 1 -2 0 -9 1 -1 0 -7 1 -2 0 -9 
1 -1 0 -9 1 -2 0 -6 1 -2 0 -9 1 -1 0 -7 
1 -2 0 -8 1 -2 0 -8 1 -2 0 -7 1 -1 0 -9 
1 -1 0 -7 1 -2 0 -8 1 -2 0 -8 1 -1 0 -7 
1 -2 0 -8 1 -1 2313 3304 100 MP stroke
0 -7 1 -2 0 -8 1 -1 0 -8 1 -2 0 -6 1 -2 
0 -8 1 -1 0 -7 1 -1 0 -9 1 -1 0 -8 1 -2 
0 -6 1 -1 0 -8 1 -2 0 -6 1 -1 0 -8 1 -2 
0 -7 1 -2 0 -6 1 -2 0 -7 1 -2 0 -6 1 -1 
0 -8 1 -1 0 -8 1 -1 0 -6 1 -2 0 -7 1 -2 
0 -6 1 -1 0 -8 1 -1 0 -7 1 -2 0 -6 1 -1 
0 -7 1 -2 0 -6 1 -1 0 -7 1 -2 0 -7 1 -1 
0 -6 1 -1 0 -8 1 -1 0 -6 1 -1 0 -7 1 -2 
0 -7 1 -1 0 -5 1 -2 0 -7 1 -1 0 -6 1 -1 
0 -7 1 -1 0 -7 1 -2 0 -5 1 -1 0 -7 1 -1 
0 -6 1 -1 0 -7 1 -1 0 -7 1 -1 0 -6 1 -1 
0 -6 1 -2 0 -5 1 -1 0 -7 1 -1 0 -7 1 -1 
0 -5 1 -2 0 -6 2264 3710 100 MP stroke
1 -1 0 -5 1 -2 0 -6 1 -1 0 -7 1 -1 0 -5 
1 -1 0 -7 1 -1 0 -5 1 -1 0 -6 1 -1 0 -7 
1 -1 0 -5 1 -1 0 -6 1 -1 0 -5 1 -2 0 -6 
1 -1 0 -6 1 -1 0 -5 1 -1 0 -6 1 -1 0 -5 
1 -1 0 -6 1 -1 0 -6 1 -1 0 -5 1 -1 0 -6 
1 -1 0 -5 1 -1 0 -6 1 -1 0 -5 1 -2 0 -4 
1 -1 0 -6 1 -1 0 -6 1 -1 0 -4 1 -1 0 -6 
1 -1 0 -5 1 -1 0 -5 1 -1 0 -6 1 -1 0 -4 
1 -1 0 -6 1 -1 0 -4 1 -1 0 -6 1 -1 0 -5 
1 -1 0 -4 1 -1 0 -6 1 -1 0 -4 1 -1 0 -5 
1 -1 0 -5 1 -1 0 -4 1 -2 0 -5 1 -1 0 -4 
1 -1 0 -5 1 -1 0 -5 1 -1 0 -4 1 -1 0 -5 
1 -1 0 -4 1 -1 2214 4022 100 MP stroke
0 -5 1 -1 0 -5 1 -1 0 -3 1 -1 0 -5 1 -1 
0 -4 1 -1 0 -5 1 -1 0 -4 1 -1 0 -4 1 -1 
0 -5 1 -1 0 -3 1 -1 0 -5 1 -1 0 -5 1 -1 
0 -3 1 -1 0 -5 1 -1 0 -3 1 -1 0 -5 1 -1 
0 -4 1 -1 0 -3 1 -1 0 -5 1 -1 0 -3 1 -1 
0 -4 1 -1 0 -4 1 -1 0 -4 1 -1 0 -4 1 -1 
0 -3 1 -1 0 -4 1 -1 0 -4 1 -1 0 -4 1 -1 
0 -4 1 -1 0 -3 1 -1 0 -4 1 -1 0 -4 1 -1 
0 -3 1 -1 0 -3 1 -1 0 -3 1 -1 0 -4 1 -1 
0 -4 1 -1 0 -3 1 -1 0 -3 1 -1 0 -3 1 -1 
0 -4 1 -1 0 -3 1 -1 0 -3 1 -1 0 -4 1 -1 
0 -2 1 -1 0 -4 1 -1 0 -3 1 -1 0 -3 1 -1 
0 -3 1 -1 0 -3 2165 4259 100 MP stroke
1 -1 0 -3 1 -1 0 -3 1 -1 0 -3 1 -1 0 -3 
1 -1 0 -3 1 -1 0 -3 1 -1 0 -3 1 -1 0 -2 
1 -1 0 -3 1 -1 0 -3 1 -1 0 -3 1 -1 0 -3 
1 -1 0 -2 1 -1 0 -3 1 -1 0 -2 1 -1 0 -3 
1 -1 0 -3 1 -1 0 -2 1 -1 0 -3 1 -1 0 -2 
1 -1 0 -3 1 -1 0 -2 1 -1 0 -2 1 -1 0 -3 
1 -1 0 -2 1 -1 0 -3 1 -1 0 -2 1 -1 0 -2 
1 -1 0 -3 1 -1 0 -1 1 -1 0 -3 1 -1 0 -2 
1 -1 0 -2 1 -1 0 -2 1 -1 0 -2 1 -1 0 -2 
1 -1 0 -3 1 -1 0 -1 1 -1 0 -3 1 -1 0 -1 
1 -1 0 -2 1 -1 0 -3 1 -1 0 -1 1 -1 0 -2 
1 -1 0 -2 1 -1 0 -2 1 -1 0 -2 1 -1 0 -1 
1 -1 0 -2 1 -1 2115 4425 100 MP stroke
0 -2 1 -1 0 -2 1 -1 0 -1 1 -1 0 -2 1 -1 
0 -2 1 -1 0 -1 1 -1 0 -2 1 -1 0 -1 1 -1 
0 -2 1 -1 0 -1 1 -1 0 -2 1 -1 0 -1 1 -1 
0 -3 2 -2 0 -2 1 -1 0 -1 1 -1 0 -1 1 -1 
0 -2 1 -1 0 -1 1 -1 0 -2 2 -2 0 -2 1 -1 
0 -2 2 -2 0 -2 2 -2 0 -2 1 -1 0 -1 1 -1 
0 -1 1 -1 0 -2 2 -2 0 -1 1 -1 0 -2 2 -2 
0 -2 2 -2 0 -1 1 -1 0 -1 1 -1 1 -1 0 -2 
2 -2 0 -2 2 -2 0 -1 2 -2 0 -2 2 -2 1 -1 
0 -2 2 -2 0 -1 2 -2 1 -1 0 -2 2 -2 1 -1 
0 -1 2 -2 0 -1 2 -2 0 -1 2 -2 1 -1 0 -1 
2 -2 1 -1 0 -1 2 -2 1 -1 0 -1 2 -2 1 -1 
1 -1 1 -1 0 -1 2041 4568 100 MP stroke
2 -2 1 -1 1 -1 1 -1 1 -1 1 -1 1 -1 1 -1 
1 -1 1 -1 1 -1 1 -1 1 -1 1 -1 1 -1 1 0 
1 -1 1 -1 1 -1 1 -1 1 -1 1 0 1 -1 1 -1 
1 -1 1 0 1 -1 1 -1 1 0 1 -1 1 -1 1 0 
1 -1 1 0 1 -1 1 -1 1 0 1 -1 1 0 1 -1 
1 0 1 -1 1 0 1 0 1 -1 1 0 1 -1 1 0 
1 0 1 -1 1 0 1 0 1 -1 1 0 1 0 1 -1 
1 0 1 0 1 0 1 -1 1 0 1 0 1 0 1 0 
1 0 1 -1 1 0 1 0 1 0 1 0 0 3670 1 -3 
0 -12 1 -4 0 -15 1 -3 0 -13 1 -3 0 -15 1 -3 
0 -16 1 -3 0 -12 1 -3 0 -15 1 -3 0 -12 1 -4 
0 -15 1 -3 0 -15 1 -3 0 -12 1 -3 0 -15 1 -3 
0 -12 1 -3 0 -15 1956 1177 100 MP stroke
1 -3 0 -15 1 -3 0 -12 1 -3 0 -15 1 -2 0 -12 
1 -3 0 -15 1 -3 0 -15 1 -3 0 -11 1 -3 0 -15 
1 -3 0 -11 1 -3 0 -15 1 -3 0 -14 1 -3 0 -11 
1 -3 0 -15 1 -2 0 -12 1 -3 0 -14 1 -3 0 -14 
1 -3 0 -11 1 -3 0 -14 1 -3 0 -11 1 -3 0 -14 
1 -3 0 -14 1 -3 0 -11 1 -3 0 -13 1 -3 0 -11 
1 -3 0 -14 1 -3 0 -13 1 -3 0 -11 1 -3 0 -13 
1 -3 0 -11 1 -3 0 -13 1 -3 0 -14 1 -2 0 -11 
1 -3 0 -13 1 -3 0 -11 1 -2 0 -14 1 -2 0 -14 
1 -2 0 -11 1 -3 0 -13 1 -2 0 -11 1 -3 0 -13 
1 -2 0 -13 1 -3 0 -10 1 -3 0 -13 1 -3 0 -10 
1 -3 0 -12 1 -3 0 -13 1 -2 0 -11 1 -3 0 -12 
1 -3 0 -10 1 -3 1906 1937 100 MP stroke
0 -12 1 -3 0 -13 1 -2 0 -10 1 -3 0 -12 1 -3 
0 -12 1 -3 0 -10 1 -2 0 -13 1 -2 0 -10 1 -2 
0 -13 1 -2 0 -13 1 -2 0 -10 1 -2 0 -12 1 -3 
0 -10 1 -2 0 -12 1 -3 0 -12 1 -2 0 -10 1 -2 
0 -12 1 -2 0 -10 1 -2 0 -12 1 -3 0 -12 1 -2 
0 -9 1 -3 0 -12 1 -2 0 -9 1 -3 0 -11 1 -3 
0 -11 1 -3 0 -9 1 -2 0 -12 1 -2 0 -9 1 -3 
0 -11 1 -2 0 -12 1 -2 0 -9 1 -3 0 -11 1 -2 
0 -9 1 -2 0 -12 1 -2 0 -11 1 -2 0 -9 1 -3 
0 -11 1 -2 0 -9 1 -2 0 -11 1 -2 0 -11 1 -3 
0 -8 1 -3 0 -11 1 -2 0 -9 1 -2 0 -11 1 -2 
0 -11 1 -2 0 -8 1 -3 0 -10 1 -2 0 -9 1 -2 
0 -11 1 -2 0 -11 1857 2589 100 MP stroke
1 -2 0 -8 1 -2 0 -11 1 -2 0 -8 1 -2 0 -11 
1 -2 0 -10 1 -3 0 -8 1 -2 0 -10 1 -2 0 -9 
1 -2 0 -10 1 -2 0 -10 1 -2 0 -8 1 -2 0 -11 
1 -2 0 -8 1 -2 0 -10 1 -2 0 -10 1 -2 0 -8 
1 -2 0 -10 1 -2 0 -8 1 -2 0 -10 1 -2 0 -9 
1 -2 0 -8 1 -2 0 -10 1 -2 0 -8 1 -2 0 -9 
1 -2 0 -10 1 -2 0 -7 1 -2 0 -10 1 -2 0 -7 
1 -2 0 -10 1 -2 0 -9 1 -2 0 -8 1 -2 0 -9 
1 -2 0 -7 1 -2 0 -9 1 -2 0 -10 1 -1 0 -8 
1 -2 0 -9 1 -2 0 -7 1 -2 0 -9 1 -2 0 -9 
1 -2 0 -7 1 -2 0 -9 1 -1 0 -8 1 -1 0 -9 
1 -2 0 -9 1 -2 0 -7 1 -2 0 -8 1 -2 0 -7 
1 -2 0 -9 1 -2 1807 3120 100 MP stroke
0 -8 1 -2 0 -7 1 -2 0 -8 1 -2 0 -7 1 -2 
0 -8 1 -2 0 -8 1 -2 0 -7 1 -2 0 -8 1 -2 
0 -6 1 -2 0 -9 1 -1 0 -9 1 -1 0 -7 1 -2 
0 -8 1 -1 0 -7 1 -2 0 -8 1 -2 0 -8 1 -1 
0 -7 1 -2 0 -8 1 -1 0 -7 1 -1 0 -8 1 -2 
0 -8 1 -2 0 -6 1 -1 0 -8 1 -2 0 -6 1 -2 
0 -8 1 -1 0 -8 1 -2 0 -6 1 -1 0 -8 1 -2 
0 -6 1 -1 0 -8 1 -2 0 -7 1 -2 0 -6 1 -1 
0 -8 1 -2 0 -6 1 -1 0 -8 1 -1 0 -8 1 -1 
0 -6 1 -2 0 -7 1 -1 0 -6 1 -2 0 -7 1 -2 
0 -7 1 -1 0 -6 1 -2 0 -7 1 -1 0 -6 1 -2 
0 -7 1 -1 0 -7 1 -2 0 -5 1 -2 0 -7 1 -1 
0 -6 1 -1 0 -7 1758 3557 100 MP stroke
1 -2 0 -7 1 -1 0 -6 1 -1 0 -7 1 -1 0 -6 
1 -1 0 -7 1 -1 0 -7 1 -2 0 -5 1 -1 0 -7 
1 -1 0 -6 1 -1 0 -7 1 -1 0 -7 1 -1 0 -5 
1 -2 0 -6 1 -2 0 -5 1 -1 0 -7 1 -1 0 -6 
1 -2 0 -5 1 -1 0 -7 1 -1 0 -5 1 -1 0 -7 
1 -1 0 -6 1 -2 0 -5 1 -1 0 -6 1 -1 0 -7 
1 -1 0 -5 1 -1 0 -6 1 -1 0 -5 1 -2 0 -6 
1 -1 0 -6 1 -1 0 -5 1 -1 0 -6 1 -1 0 -5 
1 -1 0 -6 1 -2 0 -6 1 -1 0 -4 1 -2 0 -5 
1 -2 0 -4 1 -1 0 -6 1 -1 0 -6 1 -2 0 -4 
1 -1 0 -6 1 -1 0 -5 1 -1 0 -5 1 -2 0 -5 
1 -1 0 -5 1 -1 0 -5 1 -2 0 -4 1 -1 0 -6 
1 -1 0 -5 1 -1 1708 3900 100 MP stroke
0 -5 1 -1 0 -5 1 -1 0 -5 1 -1 0 -5 1 -1 
0 -5 1 -1 0 -5 1 -1 0 -5 1 -1 0 -4 1 -1 
0 -5 1 -2 0 -5 1 -1 0 -4 1 -1 0 -5 1 -1 
0 -4 1 -1 0 -5 1 -1 0 -5 1 -1 0 -5 1 -1 
0 -5 1 -1 0 -3 1 -1 0 -5 1 -1 0 -5 1 -1 
0 -4 1 -1 0 -5 1 -1 0 -4 1 -1 0 -4 1 -1 
0 -5 1 -1 0 -4 1 -1 0 -5 1 -1 0 -3 1 -1 
0 -5 1 -1 0 -4 1 -1 0 -4 1 -1 0 -4 1 -1 
0 -4 1 -1 0 -4 1 -1 0 -5 1 -1 0 -3 1 -1 
0 -4 1 -1 0 -4 1 -1 0 -4 1 -1 0 -4 1 -1 
0 -4 1 -1 0 -4 1 -1 0 -3 1 -1 0 -4 1 -1 
0 -4 1 -1 0 -3 1 -1 0 -4 1 -1 0 -4 1 -1 
0 -3 1 -1 0 -4 1659 4165 100 MP stroke
1 -1 0 -3 1 -1 0 -4 1 -1 0 -3 1 -1 0 -4 
1 -1 0 -4 1 -1 0 -3 1 -1 0 -3 1 -1 0 -3 
1 -1 0 -4 1 -1 0 -4 1 -1 0 -2 1 -1 0 -4 
1 -1 0 -3 1 -1 0 -3 1 -1 0 -4 1 -1 0 -2 
1 -1 0 -4 1 -1 0 -2 1 -1 0 -4 1 -1 0 -3 
1 -1 0 -2 1 -1 0 -4 1 -1 0 -2 1 -1 0 -3 
1 -1 0 -4 1 -1 0 -2 1 -1 0 -3 1 -1 0 -2 
1 -1 0 -3 1 -1 0 -3 1 -1 0 -3 1 -1 0 -3 
1 -1 0 -2 1 -1 0 -3 1 -1 0 -3 1 -1 0 -2 
1 -1 0 -3 1 -1 0 -2 1 -1 0 -3 1 -1 0 -2 
1 -1 0 -2 1 -1 0 -3 1 -1 0 -2 1 -1 0 -3 
1 -1 0 -2 1 -1 0 -2 1 -1 0 -3 1 -1 0 -2 
1 -1 0 -2 1 -1 1609 4356 100 MP stroke
0 -3 1 -1 0 -2 1 -1 0 -2 1 -1 0 -2 1 -1 
0 -2 1 -1 0 -2 1 -1 0 -2 1 -1 0 -3 1 -1 
0 -1 1 -1 0 -2 1 -1 0 -3 1 -1 0 -1 1 -1 
0 -2 1 -1 0 -2 1 -1 0 -2 1 -1 0 -2 1 -1 
0 -2 1 -1 0 -2 1 -1 0 -1 1 -1 0 -2 1 -1 
0 -3 2 -2 0 -2 1 -1 0 -2 1 -1 0 -2 1 -1 
0 -1 1 -1 0 -2 1 -1 0 -1 1 -1 0 -2 1 -1 
0 -1 1 -1 0 -3 2 -2 0 -2 1 -1 0 -1 1 -1 
0 -2 1 -1 0 -2 2 -2 0 -2 1 -1 0 -2 2 -2 
0 -2 1 -1 0 -1 1 -1 0 -1 1 -1 0 -2 1 -1 
0 -1 1 -1 0 -2 2 -2 0 -2 2 -2 0 -2 2 -2 
0 -2 2 -2 0 -2 1 -1 0 -1 2 -2 0 -2 2 -2 
0 -2 2 -2 0 -2 1549 4510 100 MP stroke
2 -2 0 -1 1 -1 0 -1 1 -1 1 -1 0 -2 2 -2 
1 -1 0 -2 2 -2 1 -1 0 -2 2 -2 1 -1 0 -2 
2 -2 0 -1 2 -2 1 -1 0 -1 2 -2 0 -1 2 -2 
0 -1 2 -2 1 -1 0 -1 2 -2 1 -1 0 -1 2 -2 
1 -1 0 -1 2 -2 1 -1 1 -1 1 -1 0 -1 2 -2 
1 -1 1 -1 1 -1 1 -1 1 -1 1 -1 1 -1 1 -1 
1 -1 1 -1 1 -1 1 -1 1 -1 1 -1 1 -1 1 -1 
1 0 1 -1 1 -1 1 -1 1 -1 1 -1 1 0 1 -1 
1 -1 1 -1 1 0 1 -1 1 -1 1 0 1 -1 1 -1 
1 0 1 -1 1 -1 1 0 1 -1 1 0 1 -1 1 0 
1 -1 1 0 1 -1 1 0 1 -1 1 0 1 -1 1 0 
1 0 1 -1 1 0 1 -1 1 0 1 0 1 -1 1 0 
1 0 1 0 1 -1 1451 4607 100 MP stroke
1 0 1 0 1 0 1 -1 1 0 1 0 1 0 1 -1 
1 0 1 0 1 0 1 0 1 0 1 0 1 0 1 -1 
1 0 0 2087 0 -4 1 -2 0 -8 1 -2 0 -11 1 -2 
0 -10 1 -2 0 -8 1 -2 0 -10 1 -2 0 -8 1 -2 
0 -10 1 -2 0 -10 1 -2 0 -8 1 -2 0 -10 1 -2 
0 -8 1 -2 0 -10 1 -2 0 -10 1 -2 0 -8 1 -2 
0 -9 1 -2 0 -8 1 -2 0 -10 1 -2 0 -9 1 -2 
0 -8 1 -2 0 -10 1 -1 0 -8 1 -2 0 -10 1 -1 
0 -10 1 -2 0 -7 1 -2 0 -10 1 -2 0 -7 1 -2 
0 -9 1 -2 0 -9 1 -2 0 -8 1 -1 0 -10 1 -2 
0 -7 1 -2 0 -9 1 -2 0 -9 1 -2 0 -7 1 -2 
0 -9 1 -2 0 -9 1 -1 0 -7 1 -2 0 -9 1 -2 
0 -7 1 -2 0 -9 1394 2956 100 MP stroke
1 -1 0 -9 1 -2 0 -7 1 -2 0 -9 1 -1 0 -7 
1 -2 0 -9 1 -1 0 -9 1 -2 0 -7 1 -1 0 -9 
1 -2 0 -7 1 -1 0 -9 1 -1 0 -9 1 -2 0 -6 
1 -2 0 -8 1 -2 0 -7 1 -2 0 -8 1 -2 0 -8 
1 -1 0 -7 1 -2 0 -8 1 -2 0 -6 1 -2 0 -8 
1 -2 0 -8 1 -1 0 -7 1 -1 0 -9 1 -1 0 -7 
1 -1 0 -8 1 -2 0 -8 1 -1 0 -7 1 -1 0 -8 
1 -2 0 -6 1 -2 0 -7 1 -2 0 -8 1 -1 0 -6 
1 -2 0 -8 1 -1 0 -6 1 -2 0 -8 1 -1 0 -8 
1 -1 0 -6 1 -2 0 -7 1 -2 0 -6 1 -1 0 -8 
1 -1 0 -8 1 -1 0 -6 1 -2 0 -7 1 -2 0 -6 
1 -1 0 -7 1 -2 0 -7 1 -2 0 -5 1 -2 0 -7 
1 -2 0 -5 1 -2 1344 3396 100 MP stroke
0 -7 1 -1 0 -8 1 -1 0 -6 1 -1 0 -7 1 -2 
0 -5 1 -2 0 -7 1 -1 0 -7 1 -1 0 -6 1 -1 
0 -7 1 -2 0 -5 1 -2 0 -6 1 -2 0 -7 1 -1 
0 -5 1 -2 0 -7 1 -1 0 -5 1 -2 0 -6 1 -2 
0 -6 1 -2 0 -5 1 -1 0 -7 1 -1 0 -5 1 -2 
0 -6 1 -2 0 -6 1 -1 0 -6 1 -1 0 -6 1 -2 
0 -5 1 -1 0 -7 1 -1 0 -6 1 -1 0 -5 1 -2 
0 -6 1 -1 0 -5 1 -2 0 -6 1 -1 0 -6 1 -2 
0 -5 1 -1 0 -6 1 -1 0 -5 1 -1 0 -6 1 -2 
0 -6 1 -1 0 -5 1 -1 0 -6 1 -1 0 -5 1 -1 
0 -6 1 -1 0 -6 1 -1 0 -5 1 -1 0 -6 1 -1 
0 -5 1 -1 0 -6 1 -1 0 -6 1 -1 0 -5 1 -1 
0 -5 1 -2 0 -4 1295 3754 100 MP stroke
1 -1 0 -6 1 -1 0 -6 1 -1 0 -4 1 -1 0 -6 
1 -1 0 -5 1 -1 0 -5 1 -1 0 -6 1 -1 0 -4 
1 -1 0 -6 1 -1 0 -4 1 -1 0 -6 1 -1 0 -5 
1 -1 0 -5 1 -1 0 -5 1 -1 0 -4 1 -1 0 -5 
1 -2 0 -5 1 -1 0 -4 1 -1 0 -5 1 -1 0 -4 
1 -1 0 -5 1 -1 0 -6 1 -1 0 -4 1 -1 0 -5 
1 -1 0 -4 1 -1 0 -5 1 -1 0 -5 1 -1 0 -4 
1 -1 0 -4 1 -1 0 -4 1 -1 0 -5 1 -1 0 -5 
1 -1 0 -4 1 -1 0 -4 1 -1 0 -4 1 -1 0 -5 
1 -1 0 -4 1 -1 0 -4 1 -1 0 -5 1 -1 0 -3 
1 -1 0 -5 1 -1 0 -4 1 -1 0 -4 1 -1 0 -4 
1 -1 0 -4 1 -1 0 -4 1 -1 0 -4 1 -1 0 -4 
1 -1 0 -4 1 -1 1245 4031 100 MP stroke
0 -3 1 -1 0 -5 1 -1 0 -4 1 -1 0 -3 1 -1 
0 -4 1 -1 0 -3 1 -1 0 -5 1 -1 0 -4 1 -1 
0 -3 1 -1 0 -4 1 -1 0 -3 1 -1 0 -4 1 -1 
0 -4 1 -1 0 -3 1 -1 0 -4 1 -1 0 -3 1 -1 
0 -3 1 -1 0 -4 1 -1 0 -3 1 -1 0 -4 1 -1 
0 -3 1 -1 0 -3 1 -1 0 -4 1 -1 0 -3 1 -1 
0 -3 1 -1 0 -4 1 -1 0 -2 1 -1 0 -4 1 -1 
0 -3 1 -1 0 -3 1 -1 0 -3 1 -1 0 -3 1 -1 
0 -3 1 -1 0 -3 1 -1 0 -3 1 -1 0 -3 1 -1 
0 -3 1 -1 0 -3 1 -1 0 -3 1 -1 0 -3 1 -1 
0 -3 1 -1 0 -2 1 -1 0 -3 1 -1 0 -3 1 -1 
0 -3 1 -1 0 -3 1 -1 0 -2 1 -1 0 -3 1 -1 
0 -2 1 -1 0 -3 1196 4242 100 MP stroke
1 -1 0 -3 1 -1 0 -2 1 -1 0 -3 1 -1 0 -2 
1 -1 0 -3 1 -1 0 -3 1 -1 0 -2 1 -1 0 -2 
1 -1 0 -2 1 -1 0 -3 1 -1 0 -3 1 -1 0 -2 
1 -1 0 -2 1 -1 0 -2 1 -1 0 -3 1 -1 0 -2 
1 -1 0 -2 1 -1 0 -2 1 -1 0 -2 1 -1 0 -3 
1 -1 0 -2 1 -1 0 -2 1 -1 0 -2 1 -1 0 -2 
1 -1 0 -2 1 -1 0 -2 1 -1 0 -2 1 -1 0 -2 
1 -1 0 -2 1 -1 0 -2 1 -1 0 -2 1 -1 0 -2 
1 -1 0 -2 1 -1 0 -1 1 -1 0 -2 1 -1 0 -2 
1 -1 0 -2 1 -1 0 -2 1 -1 0 -1 1 -1 0 -2 
1 -1 0 -2 1 -1 0 -2 1 -1 0 -1 1 -1 0 -2 
1 -1 0 -2 1 -1 0 -1 1 -1 0 -2 1 -1 0 -1 
1 -1 0 -2 1 -1 1146 4393 100 MP stroke
0 -1 1 -1 0 -3 2 -2 0 -3 2 -2 0 -2 1 -1 
0 -2 2 -2 0 -3 2 -2 0 -2 1 -1 0 -2 2 -2 
0 -2 1 -1 0 -1 1 -1 0 -1 1 -1 0 -2 2 -2 
0 -2 1 -1 0 -1 1 -1 0 -2 2 -2 0 -2 2 -2 
0 -2 2 -2 0 -2 1 -1 1 -1 0 -2 1 -1 1 -1 
0 -2 1 -1 0 -1 1 -1 0 -1 2 -2 0 -2 2 -2 
0 -2 2 -2 0 -1 1 -1 0 -1 2 -2 0 -2 2 -2 
0 -1 1 -1 1 -1 0 -2 2 -2 1 -1 0 -2 2 -2 
0 -1 2 -2 1 -1 0 -2 2 -2 0 -1 2 -2 0 -1 
2 -2 0 -1 2 -2 0 -1 2 -2 0 -1 2 -2 0 -1 
2 -2 1 -1 1 -1 0 -1 2 -2 1 -1 0 -1 2 -2 
1 -1 0 -1 2 -2 1 -1 1 -1 1 -1 0 -1 2 -2 
1 -1 1 -1 1 -1 1061 4545 100 MP stroke
1 -1 1 -1 0 -1 2 -2 1 -1 1 -1 1 -1 1 -1 
1 -1 1 -1 1 -1 1 -1 1 -1 1 -1 1 -1 1 -1 
1 -1 1 0 1 -1 1 -1 1 -1 1 -1 1 -1 1 -1 
1 -1 1 0 1 -1 1 -1 1 -1 1 -1 1 0 1 -1 
1 -1 1 -1 1 0 1 -1 1 -1 1 -1 1 0 1 -1 
1 -1 1 0 1 -1 1 -1 1 0 1 -1 1 0 1 -1 
1 -1 1 0 1 -1 1 0 1 -1 1 0 1 -1 1 -1 
1 0 1 -1 1 0 1 -1 1 0 1 -1 1 0 1 -1 
1 0 1 0 1 -1 1 0 1 -1 1 0 1 -1 1 0 
1 0 1 -1 1 0 1 -1 1 0 1 0 1 -1 1 0 
1 0 1 -1 1 0 1 0 1 -1 1 0 1 0 1 -1 
1 0 1 0 1 0 1 -1 1 0 1 0 1 -1 1 0 
1 0 1 0 1 0 962 4606 100 MP stroke
1 -1 1 0 1 0 1 0 1 -1 1 0 1 0 1 0 
1 0 1 -1 1 0 1 0 1 0 1 0 1 0 1 -1 
1 0 1 0 1 0 1 0 1 0 1 -1 1 0 1 0 
1 0 1 0 1 0 1 0 1 0 1 -1 1 0 1 0 
1 0 1 0 1 0 1 0 1 0 1 0 1 -1 1 0 
1 0 1 0 1 0 1 0 1 0 1 0 1 0 1 0 
1 0 1 0 1 -1 1 0 1 0 1 0 1 0 1 0 
1 0 1 0 1 0 1 0 1 0 1 0 1 0 -1 0 
900 4614 65 MP stroke
gr

c8
0 sg
%%IncludeResource: font Helvetica
/Helvetica /ISOLatin1Encoding 120 FMSR

3316 4903 mt 
(Tempo [s]) s
 616 3064 mt  -90 rotate
(Tra\347o da Covari\342ncia) s
90 rotate
2498  294 mt 
(Tra\347o da Covari\342ncia do Erro de Kalman) s

end %%Color Dict

eplot
%%EndObject

epage
end

showpage

%%Trailer
%%EOF
