%!PS-Adobe-2.0 EPSF-1.2
%%Creator: MATLAB, The Mathworks, Inc. Version 7.9.0.529 (R2009b). Operating System: Darwin 10.8.0 Darwin Kernel Version 10.8.0: Tue Jun  7 16:33:36 PDT 2011; root:xnu-1504.15.3~1/RELEASE_I386 i386.
%%Title: ./kalman_discretizado_erro.eps
%%CreationDate: 10/08/2011  15:58:52
%%DocumentNeededFonts: Helvetica
%%DocumentProcessColors: Cyan Magenta Yellow Black
%%Extensions: CMYK
%%Pages: 1
%%BoundingBox:    52   199   548   602
%%EndComments

%%BeginProlog
% MathWorks dictionary
/MathWorks 160 dict begin
% definition operators
/bdef {bind def} bind def
/ldef {load def} bind def
/xdef {exch def} bdef
/xstore {exch store} bdef
% operator abbreviations
/c  /clip ldef
/cc /concat ldef
/cp /closepath ldef
/gr /grestore ldef
/gs /gsave ldef
/mt /moveto ldef
/np /newpath ldef
/cm /currentmatrix ldef
/sm /setmatrix ldef
/rm /rmoveto ldef
/rl /rlineto ldef
/s {show newpath} bdef
/sc {setcmykcolor} bdef
/sr /setrgbcolor ldef
/sg /setgray ldef
/w /setlinewidth ldef
/j /setlinejoin ldef
/cap /setlinecap ldef
/rc {rectclip} bdef
/rf {rectfill} bdef
% page state control
/pgsv () def
/bpage {/pgsv save def} bdef
/epage {pgsv restore} bdef
/bplot /gsave ldef
/eplot {stroke grestore} bdef
% orientation switch
/portraitMode 0 def /landscapeMode 1 def /rotateMode 2 def
% coordinate system mappings
/dpi2point 0 def
% font control
/FontSize 0 def
/FMS {/FontSize xstore findfont [FontSize 0 0 FontSize neg 0 0]
  makefont setfont} bdef
/reencode {exch dup where {pop load} {pop StandardEncoding} ifelse
  exch dup 3 1 roll findfont dup length dict begin
  { 1 index /FID ne {def}{pop pop} ifelse } forall
  /Encoding exch def currentdict end definefont pop} bdef
/isroman {findfont /CharStrings get /Agrave known} bdef
/FMSR {3 1 roll 1 index dup isroman {reencode} {pop pop} ifelse
  exch FMS} bdef
/csm {1 dpi2point div -1 dpi2point div scale neg translate
 dup landscapeMode eq {pop -90 rotate}
  {rotateMode eq {90 rotate} if} ifelse} bdef
% line types: solid, dotted, dashed, dotdash
/SO { [] 0 setdash } bdef
/DO { [.5 dpi2point mul 4 dpi2point mul] 0 setdash } bdef
/DA { [6 dpi2point mul] 0 setdash } bdef
/DD { [.5 dpi2point mul 4 dpi2point mul 6 dpi2point mul 4
  dpi2point mul] 0 setdash } bdef
% macros for lines and objects
/L {lineto stroke} bdef
/MP {3 1 roll moveto 1 sub {rlineto} repeat} bdef
/AP {{rlineto} repeat} bdef
/PDlw -1 def
/W {/PDlw currentlinewidth def setlinewidth} def
/PP {closepath eofill} bdef
/DP {closepath stroke} bdef
/MR {4 -2 roll moveto dup  0 exch rlineto exch 0 rlineto
  neg 0 exch rlineto closepath} bdef
/FR {MR stroke} bdef
/PR {MR fill} bdef
/L1i {{currentfile picstr readhexstring pop} image} bdef
/tMatrix matrix def
/MakeOval {newpath tMatrix currentmatrix pop translate scale
0 0 1 0 360 arc tMatrix setmatrix} bdef
/FO {MakeOval stroke} bdef
/PO {MakeOval fill} bdef
/PD {currentlinewidth 2 div 0 360 arc fill
   PDlw -1 eq not {PDlw w /PDlw -1 def} if} def
/FA {newpath tMatrix currentmatrix pop translate scale
  0 0 1 5 -2 roll arc tMatrix setmatrix stroke} bdef
/PA {newpath tMatrix currentmatrix pop	translate 0 0 moveto scale
  0 0 1 5 -2 roll arc closepath tMatrix setmatrix fill} bdef
/FAn {newpath tMatrix currentmatrix pop translate scale
  0 0 1 5 -2 roll arcn tMatrix setmatrix stroke} bdef
/PAn {newpath tMatrix currentmatrix pop translate 0 0 moveto scale
  0 0 1 5 -2 roll arcn closepath tMatrix setmatrix fill} bdef
/vradius 0 def /hradius 0 def /lry 0 def
/lrx 0 def /uly 0 def /ulx 0 def /rad 0 def
/MRR {/vradius xdef /hradius xdef /lry xdef /lrx xdef /uly xdef
  /ulx xdef newpath tMatrix currentmatrix pop ulx hradius add uly
  vradius add translate hradius vradius scale 0 0 1 180 270 arc 
  tMatrix setmatrix lrx hradius sub uly vradius add translate
  hradius vradius scale 0 0 1 270 360 arc tMatrix setmatrix
  lrx hradius sub lry vradius sub translate hradius vradius scale
  0 0 1 0 90 arc tMatrix setmatrix ulx hradius add lry vradius sub
  translate hradius vradius scale 0 0 1 90 180 arc tMatrix setmatrix
  closepath} bdef
/FRR {MRR stroke } bdef
/PRR {MRR fill } bdef
/MlrRR {/lry xdef /lrx xdef /uly xdef /ulx xdef /rad lry uly sub 2 div def
  newpath tMatrix currentmatrix pop ulx rad add uly rad add translate
  rad rad scale 0 0 1 90 270 arc tMatrix setmatrix lrx rad sub lry rad
  sub translate rad rad scale 0 0 1 270 90 arc tMatrix setmatrix
  closepath} bdef
/FlrRR {MlrRR stroke } bdef
/PlrRR {MlrRR fill } bdef
/MtbRR {/lry xdef /lrx xdef /uly xdef /ulx xdef /rad lrx ulx sub 2 div def
  newpath tMatrix currentmatrix pop ulx rad add uly rad add translate
  rad rad scale 0 0 1 180 360 arc tMatrix setmatrix lrx rad sub lry rad
  sub translate rad rad scale 0 0 1 0 180 arc tMatrix setmatrix
  closepath} bdef
/FtbRR {MtbRR stroke } bdef
/PtbRR {MtbRR fill } bdef
/stri 6 array def /dtri 6 array def
/smat 6 array def /dmat 6 array def
/tmat1 6 array def /tmat2 6 array def /dif 3 array def
/asub {/ind2 exch def /ind1 exch def dup dup
  ind1 get exch ind2 get sub exch } bdef
/tri_to_matrix {
  2 0 asub 3 1 asub 4 0 asub 5 1 asub
  dup 0 get exch 1 get 7 -1 roll astore } bdef
/compute_transform {
  dmat dtri tri_to_matrix tmat1 invertmatrix 
  smat stri tri_to_matrix tmat2 concatmatrix } bdef
/ds {stri astore pop} bdef
/dt {dtri astore pop} bdef
/db {2 copy /cols xdef /rows xdef mul dup 3 mul string
  currentfile exch readhexstring pop
  dup 0 3 index getinterval /rbmap xdef
  dup 2 index dup getinterval /gbmap xdef
  1 index dup 2 mul exch getinterval /bbmap xdef pop pop}bdef
/it {gs np dtri aload pop moveto lineto lineto cp c
  cols rows 8 compute_transform 
  rbmap gbmap bbmap true 3 colorimage gr}bdef
/il {newpath moveto lineto stroke}bdef
currentdict end def
%%EndProlog

%%BeginSetup
MathWorks begin

0 cap

end
%%EndSetup

%%Page: 1 1
%%BeginPageSetup
%%PageBoundingBox:    52   199   548   602
MathWorks begin
bpage
%%EndPageSetup

%%BeginObject: obj1
bplot

/dpi2point 12 def
portraitMode 0216 7344 csm

  410   110  5961  4845 MR c np
86 dict begin %Colortable dictionary
/c0 { 0.000000 0.000000 0.000000 sr} bdef
/c1 { 1.000000 1.000000 1.000000 sr} bdef
/c2 { 0.900000 0.000000 0.000000 sr} bdef
/c3 { 0.000000 0.820000 0.000000 sr} bdef
/c4 { 0.000000 0.000000 0.800000 sr} bdef
/c5 { 0.910000 0.820000 0.320000 sr} bdef
/c6 { 1.000000 0.260000 0.820000 sr} bdef
/c7 { 0.000000 0.820000 0.820000 sr} bdef
c0
1 j
1 sg
   0    0 6913 5186 PR
6 w
0 4226 5356 0 0 -4226 899 4615 4 MP
PP
-5356 0 0 4226 5356 0 0 -4226 899 4615 5 MP stroke
4 w
DO
0 sg
 899 4615 mt  899  389 L
 899  389 mt  899  389 L
1791 4615 mt 1791  389 L
1791  389 mt 1791  389 L
2684 4615 mt 2684  389 L
2684  389 mt 2684  389 L
3577 4615 mt 3577  389 L
3577  389 mt 3577  389 L
4469 4615 mt 4469  389 L
4469  389 mt 4469  389 L
5362 4615 mt 5362  389 L
5362  389 mt 5362  389 L
6255 4615 mt 6255  389 L
6255  389 mt 6255  389 L
 899 4615 mt 6255 4615 L
6255 4615 mt 6255 4615 L
 899 4086 mt 6255 4086 L
6255 4086 mt 6255 4086 L
 899 3558 mt 6255 3558 L
6255 3558 mt 6255 3558 L
 899 3030 mt 6255 3030 L
6255 3030 mt 6255 3030 L
 899 2502 mt 6255 2502 L
6255 2502 mt 6255 2502 L
 899 1973 mt 6255 1973 L
6255 1973 mt 6255 1973 L
 899 1445 mt 6255 1445 L
6255 1445 mt 6255 1445 L
 899  917 mt 6255  917 L
6255  917 mt 6255  917 L
 899  389 mt 6255  389 L
6255  389 mt 6255  389 L
SO
6 w
 899 4615 mt 6255 4615 L
 899 4615 mt  899  389 L
 899 4615 mt  899 4561 L
%%IncludeResource: font Helvetica
/Helvetica /ISOLatin1Encoding 120 FMSR

 866 4760 mt 
(0) s
1791 4615 mt 1791 4561 L
1758 4760 mt 
(5) s
2684 4615 mt 2684 4561 L
2618 4760 mt 
(10) s
3577 4615 mt 3577 4561 L
3511 4760 mt 
(15) s
4469 4615 mt 4469 4561 L
4403 4760 mt 
(20) s
5362 4615 mt 5362 4561 L
5296 4760 mt 
(25) s
6255 4615 mt 6255 4561 L
6189 4760 mt 
(30) s
 899 4615 mt  952 4615 L
 628 4659 mt 
(-0.2) s
 899 4086 mt  952 4086 L
 798 4130 mt 
(0) s
 899 3558 mt  952 3558 L
 698 3602 mt 
(0.2) s
 899 3030 mt  952 3030 L
 698 3074 mt 
(0.4) s
 899 2502 mt  952 2502 L
 698 2546 mt 
(0.6) s
 899 1973 mt  952 1973 L
 698 2017 mt 
(0.8) s
 899 1445 mt  952 1445 L
 798 1489 mt 
(1) s
 899  917 mt  952  917 L
 698  961 mt 
(1.2) s
 899  389 mt  952  389 L
 698  433 mt 
(1.4) s
gs 899 389 5357 4227 MR c np
18 w
/c8 { 0.000000 0.000000 1.000000 sr} bdef
c8
1 3 0 -5 1 -1 0 -5 1 -1 0 -4 1 -1 0 -5 
1 -1 0 -5 1 -1 0 -4 1 -1 0 -5 1 -1 0 -4 
1 -1 0 -5 1 -1 0 -5 1 -1 0 -4 1 -2 0 -5 
1 -1 0 -4 1 -1 0 -5 1 -1 0 -5 1 -1 0 -4 
1 -1 0 -5 1 -1 0 -4 1 -1 0 -5 1 -1 0 -5 
1 -1 0 -4 1 -1 0 -5 1 -1 0 -4 1 -1 0 -5 
1 -1 0 -5 1 -1 0 -4 1 -1 0 -5 1 -1 0 -4 
1 -1 0 -5 1 -1 0 -5 1 -1 0 -4 1 -1 0 -5 
1 -1 0 -4 1 -1 0 -5 1 -1 0 -5 1 -1 0 -4 
1 -1 0 -4 1 -1 0 -4 1 -1 0 -5 1 -1 0 -5 
1 -1 0 -4 1 -1 0 -5 1 -1 0 -4 1 -1 0 -5 
1 -1 0 -5 1 -1 0 -3 1 -1 0 -5 1 -1 0 -4 
1 -1 0 -5 1 -1 6205 2224 100 MP stroke
0 -5 1 -1 0 -4 1 -1 0 -4 1 -1 0 -4 1 -1 
0 -5 1 -1 0 -5 1 -1 0 -4 1 -1 0 -4 1 -1 
0 -4 1 -1 0 -5 1 -1 0 -5 1 -1 0 -3 1 -1 
0 -5 1 -1 0 -4 1 -1 0 -5 1 -1 0 -4 1 -1 
0 -4 1 -1 0 -5 1 -1 0 -3 1 -1 0 -5 1 -1 
0 -5 1 -1 0 -3 1 -1 0 -5 1 -1 0 -4 1 -1 
0 -4 1 -1 0 -5 1 -1 0 -3 1 -1 0 -5 1 -1 
0 -4 1 -1 0 -4 1 -1 0 -5 1 -1 0 -3 1 -1 
0 -5 1 -1 0 -3 1 -1 0 -5 1 -1 0 -4 1 -1 
0 -4 1 -1 0 -4 1 -1 0 -4 1 -1 0 -4 1 -1 
0 -5 1 -1 0 -3 1 -1 0 -5 1 -1 0 -3 1 -1 
0 -4 1 -1 0 -5 1 -1 0 -3 1 -1 0 -4 1 -1 
0 -4 1 -1 0 -4 6156 2483 100 MP stroke
1 -1 0 -5 1 -1 0 -3 1 -1 0 -4 1 -1 0 -4 
1 -1 0 -4 1 -1 0 -4 1 -1 0 -3 1 -1 0 -5 
1 -1 0 -3 1 -1 0 -4 1 -1 0 -4 1 -1 0 -3 
1 -1 0 -5 1 -1 0 -3 1 -1 0 -4 1 -1 0 -4 
1 -1 0 -3 1 -1 0 -4 1 -1 0 -4 1 -1 0 -4 
1 -1 0 -4 1 -1 0 -3 1 -1 0 -4 1 -1 0 -3 
1 -1 0 -4 1 -1 0 -4 1 -1 0 -3 1 -1 0 -4 
1 -1 0 -3 1 -1 0 -4 1 -1 0 -4 1 -1 0 -3 
1 -1 0 -4 1 -1 0 -3 1 -1 0 -3 1 -1 0 -4 
1 -1 0 -3 1 -1 0 -4 1 -1 0 -3 1 -1 0 -3 
1 -1 0 -4 1 -1 0 -3 1 -1 0 -4 1 -1 0 -3 
1 -1 0 -3 1 -1 0 -4 1 -1 0 -3 1 -1 0 -3 
1 -1 0 -3 1 -1 6106 2710 100 MP stroke
0 -4 1 -1 0 -3 1 -1 0 -3 1 -1 0 -3 1 -1 
0 -3 1 -1 0 -4 1 -1 0 -3 1 -1 0 -3 1 -1 
0 -3 1 -1 0 -3 1 -1 0 -3 1 -1 0 -3 1 -1 
0 -3 1 -1 0 -3 1 -1 0 -3 1 -1 0 -3 1 -1 
0 -3 1 -1 0 -3 1 -1 0 -3 1 -1 0 -3 1 -1 
0 -3 1 -1 0 -3 1 -1 0 -2 1 -1 0 -3 1 -1 
0 -3 1 -1 0 -3 1 -1 0 -3 1 -1 0 -2 1 -1 
0 -3 1 -1 0 -3 1 -1 0 -2 1 -1 0 -3 1 -1 
0 -3 1 -1 0 -2 1 -1 0 -3 1 -1 0 -3 1 -1 
0 -2 1 -1 0 -3 1 -1 0 -2 1 -1 0 -3 1 -1 
0 -2 1 -1 0 -3 1 -1 0 -2 1 -1 0 -3 1 -1 
0 -2 1 -1 0 -2 1 -1 0 -3 1 -1 0 -2 1 -1 
0 -2 1 -1 0 -3 6057 2899 100 MP stroke
1 -1 0 -2 1 -1 0 -2 1 -1 0 -2 1 -1 0 -2 
1 -1 0 -3 1 -1 0 -2 1 -1 0 -2 1 -1 0 -2 
1 -1 0 -2 1 -1 0 -2 1 -1 0 -2 1 -1 0 -2 
1 -1 0 -2 1 -1 0 -2 1 -1 0 -2 1 -1 0 -2 
1 -1 0 -2 1 -1 0 -1 1 -1 0 -2 1 -1 0 -3 
1 -1 0 -1 1 -1 0 -2 1 -1 0 -1 1 -1 0 -2 
1 -1 0 -2 1 -1 0 -2 1 -1 0 -1 1 -1 0 -2 
1 -1 0 -1 1 -1 0 -3 2 -2 0 -3 2 -2 0 -2 
1 -1 0 -2 1 -1 0 -1 1 -1 0 -2 2 -2 0 -2 
1 -1 0 -2 2 -2 0 -2 1 -1 0 -1 1 -1 0 -1 
1 -1 0 -2 2 -2 0 -2 2 -2 0 -2 2 -2 0 -2 
2 -2 0 -2 2 -2 0 -2 2 -2 0 -1 1 -1 1 -1 
0 -2 2 -2 1 -1 5995 3052 100 MP stroke
0 -2 2 -2 0 -1 2 -2 0 -1 2 -2 0 -1 2 -2 
1 -1 0 -1 2 -2 1 -1 0 -1 2 -2 1 -1 1 -1 
1 -1 1 -1 1 -1 1 -1 1 -1 1 -1 1 -1 1 -1 
1 -1 1 -1 1 -1 1 0 1 -1 1 -1 1 -1 1 0 
1 -1 1 0 1 -1 1 0 1 -1 1 0 1 -1 1 0 
1 0 1 0 1 -1 1 0 1 0 1 0 1 0 1 0 
1 0 1 0 1 0 1 0 1 0 1 0 1 0 1 1 
1 0 1 0 1 1 1 0 1 0 1 1 1 0 1 1 
1 1 1 0 1 1 1 1 1 0 1 1 1 1 1 1 
1 1 1 1 1 1 1 1 1 1 1 1 1 1 0 1 
2 2 1 1 0 1 2 2 0 1 2 2 0 1 2 2 
1 1 0 2 2 2 0 1 1 1 1 1 0 2 2 2 
0 1 1 1 0 1 5899 3049 100 MP stroke
1 1 0 1 1 1 0 1 1 1 0 1 1 1 0 1 
1 1 0 2 2 2 0 2 1 1 0 1 1 1 0 1 
1 1 0 2 1 1 0 1 1 1 0 2 1 1 0 1 
1 1 0 2 1 1 0 2 1 1 0 1 1 1 0 2 
1 1 0 1 1 1 0 2 1 1 0 3 1 1 0 1 
1 1 0 2 1 1 0 2 1 1 0 2 1 1 0 3 
1 1 0 1 1 1 0 3 1 1 0 2 1 1 0 2 
1 1 0 3 1 1 0 2 1 1 0 3 1 1 0 2 
1 1 0 3 1 1 0 2 1 1 0 3 1 1 0 3 
1 1 0 2 1 1 0 3 1 1 0 3 1 1 0 3 
1 1 0 3 1 1 0 3 1 1 0 3 1 1 0 3 
1 1 0 3 1 1 0 4 1 1 0 2 1 1 0 4 
1 1 0 4 1 1 5848 2890 100 MP stroke
0 3 1 1 0 3 1 1 0 3 1 1 0 4 1 1 
0 4 1 1 0 3 1 1 0 5 1 1 0 3 1 1 
0 4 1 1 0 4 1 1 0 4 1 1 0 4 1 1 
0 4 1 1 0 4 1 1 0 5 1 1 0 3 1 1 
0 5 1 1 0 4 1 1 0 4 1 1 0 5 1 1 
0 4 1 1 0 5 1 1 0 4 1 1 0 5 1 1 
0 5 1 1 0 4 1 1 0 6 1 1 0 4 1 1 
0 5 1 1 0 6 1 1 0 4 1 1 0 6 1 1 
0 4 1 1 0 6 1 1 0 5 1 1 0 5 1 1 
0 6 1 1 0 5 1 1 0 6 1 1 0 6 1 1 
0 4 1 2 0 6 1 1 0 5 1 1 0 6 1 1 
0 6 1 1 0 5 1 2 0 6 1 1 0 5 1 1 
0 7 1 1 0 6 5799 2604 100 MP stroke
1 2 0 5 1 1 0 6 1 2 0 5 1 1 0 7 
1 1 0 7 1 1 0 6 1 1 0 7 1 1 0 5 
1 2 0 7 1 1 0 7 1 1 0 6 1 1 0 7 
1 2 0 5 1 2 0 7 1 1 0 8 1 1 0 6 
1 1 0 7 1 2 0 6 1 1 0 8 1 1 0 8 
1 1 0 6 1 2 0 7 1 2 0 6 1 1 0 8 
1 2 0 7 1 2 0 6 1 2 0 7 1 2 0 6 
1 2 0 8 1 1 0 8 1 2 0 6 1 2 0 8 
1 2 0 6 1 2 0 8 1 2 0 8 1 2 0 6 
1 2 0 9 1 1 0 7 1 2 0 8 1 2 0 8 
1 2 0 7 1 2 0 8 1 2 0 7 1 2 0 9 
1 2 0 8 1 2 0 7 1 2 0 9 1 2 0 9 
1 2 0 7 1 2 5749 2178 100 MP stroke
0 9 1 2 0 7 1 2 0 9 1 2 0 9 1 2 
0 8 1 2 0 9 1 2 0 7 1 2 0 10 1 2 
0 9 1 2 0 8 1 2 0 10 1 2 0 8 1 1 
0 10 1 2 0 10 1 2 0 8 1 2 0 10 1 2 
0 8 1 2 0 10 1 2 0 11 1 2 0 8 1 2 
0 10 1 2 0 9 1 2 0 10 1 2 0 11 1 2 
0 8 1 2 0 11 1 2 0 9 1 2 0 10 1 3 
0 10 1 2 0 9 1 2 0 9 0 -1 1 -1 0 -5 
1 -1 0 -5 1 -2 0 -5 1 -1 0 -5 1 -1 0 -6 
1 -1 0 -4 1 -1 0 -6 1 -1 0 -6 1 -1 0 -4 
1 -1 0 -6 1 -1 0 -5 1 -1 0 -5 1 -1 0 -6 
1 -1 0 -5 1 -1 0 -5 1 -1 0 -5 1 -1 0 -5 
1 -2 0 -5 1 -1 5700 1949 100 MP stroke
0 -5 1 -1 0 -5 1 -1 0 -5 1 -1 0 -6 1 -1 
0 -5 1 -1 0 -5 1 -1 0 -5 1 -1 0 -5 1 -1 
0 -5 1 -1 0 -6 1 -1 0 -4 1 -2 0 -5 1 -1 
0 -4 1 -2 0 -5 1 -1 0 -6 1 -1 0 -4 1 -1 
0 -6 1 -1 0 -4 1 -1 0 -5 1 -2 0 -5 1 -1 
0 -4 1 -1 0 -6 1 -1 0 -4 1 -1 0 -6 1 -1 
0 -5 1 -1 0 -5 1 -1 0 -5 1 -1 0 -4 1 -1 
0 -6 1 -1 0 -5 1 -1 0 -5 1 -1 0 -5 1 -1 
0 -4 1 -1 0 -6 1 -1 0 -5 1 -1 0 -4 1 -1 
0 -6 1 -1 0 -4 1 -1 0 -5 1 -1 0 -6 1 -1 
0 -4 1 -1 0 -5 1 -1 0 -4 1 -1 0 -6 1 -1 
0 -5 1 -1 0 -4 1 -1 0 -5 1 -1 0 -4 1 -1 
0 -6 1 -1 0 -5 5651 2249 100 MP stroke
1 -1 0 -4 1 -1 0 -5 1 -1 0 -4 1 -1 0 -5 
1 -1 0 -6 1 -1 0 -4 1 -1 0 -5 1 -1 0 -4 
1 -1 0 -5 1 -1 0 -5 1 -1 0 -4 1 -1 0 -5 
1 -1 0 -4 1 -1 0 -5 1 -1 0 -5 1 -1 0 -4 
1 -1 0 -5 1 -1 0 -4 1 -1 0 -5 1 -1 0 -5 
1 -1 0 -4 1 -1 0 -5 1 -1 0 -4 1 -1 0 -5 
1 -1 0 -5 1 -1 0 -4 1 -1 0 -4 1 -1 0 -4 
1 -1 0 -5 1 -1 0 -5 1 -1 0 -4 1 -1 0 -4 
1 -1 0 -4 1 -1 0 -5 1 -1 0 -5 1 -1 0 -4 
1 -1 0 -4 1 -1 0 -4 1 -1 0 -5 1 -1 0 -4 
1 -1 0 -4 1 -1 0 -5 1 -1 0 -3 1 -1 0 -5 
1 -1 0 -4 1 -1 0 -4 1 -1 0 -5 1 -1 0 -3 
1 -1 0 -5 1 -1 5601 2518 100 MP stroke
0 -4 1 -1 0 -4 1 -1 0 -4 1 -1 0 -4 1 -1 
0 -4 1 -1 0 -5 1 -1 0 -3 1 -1 0 -4 1 -1 
0 -4 1 -1 0 -4 1 -1 0 -5 1 -1 0 -3 1 -1 
0 -4 1 -1 0 -4 1 -1 0 -4 1 -1 0 -4 1 -1 
0 -3 1 -1 0 -5 1 -1 0 -4 1 -1 0 -3 1 -1 
0 -4 1 -1 0 -3 1 -1 0 -4 1 -1 0 -5 1 -1 
0 -3 1 -1 0 -4 1 -1 0 -3 1 -1 0 -4 1 -1 
0 -4 1 -1 0 -3 1 -1 0 -4 1 -1 0 -3 1 -1 
0 -4 1 -1 0 -4 1 -1 0 -3 1 -1 0 -4 1 -1 
0 -3 1 -1 0 -3 1 -1 0 -4 1 -1 0 -3 1 -1 
0 -4 1 -1 0 -3 1 -1 0 -3 1 -1 0 -4 1 -1 
0 -3 1 -1 0 -3 1 -1 0 -3 1 -1 0 -4 1 -1 
0 -3 1 -1 0 -3 5552 2751 100 MP stroke
1 -1 0 -4 1 -1 0 -2 1 -1 0 -4 1 -1 0 -3 
1 -1 0 -3 1 -1 0 -3 1 -1 0 -3 1 -1 0 -3 
1 -1 0 -3 1 -1 0 -3 1 -1 0 -3 1 -1 0 -3 
1 -1 0 -3 1 -1 0 -3 1 -1 0 -3 1 -1 0 -3 
1 -1 0 -2 1 -1 0 -3 1 -1 0 -3 1 -1 0 -3 
1 -1 0 -3 1 -1 0 -2 1 -1 0 -3 1 -1 0 -3 
1 -1 0 -2 1 -1 0 -3 1 -1 0 -2 1 -1 0 -3 
1 -1 0 -3 1 -1 0 -2 1 -1 0 -2 1 -1 0 -3 
1 -1 0 -2 1 -1 0 -3 1 -1 0 -2 1 -1 0 -2 
1 -1 0 -2 1 -1 0 -3 1 -1 0 -2 1 -1 0 -2 
1 -1 0 -3 1 -1 0 -2 1 -1 0 -2 1 -1 0 -2 
1 -1 0 -2 1 -1 0 -2 1 -1 0 -2 1 -1 0 -2 
1 -1 0 -3 1 -1 5502 2930 100 MP stroke
0 -1 1 -1 0 -2 1 -1 0 -2 1 -1 0 -2 1 -1 
0 -2 1 -1 0 -2 1 -1 0 -2 1 -1 0 -1 1 -1 
0 -2 1 -1 0 -2 1 -1 0 -1 1 -1 0 -3 2 -2 
0 -2 1 -1 0 -2 1 -1 0 -1 1 -1 0 -2 1 -1 
0 -1 1 -1 0 -2 1 -1 0 -2 2 -2 0 -2 1 -1 
0 -1 1 -1 0 -1 1 -1 0 -2 1 -1 0 -1 1 -1 
0 -2 2 -2 0 -1 1 -1 0 -2 2 -2 0 -2 2 -2 
0 -2 2 -2 0 -2 2 -2 0 -1 2 -2 0 -2 2 -2 
0 -1 1 -1 0 -1 2 -2 0 -1 2 -2 0 -1 2 -2 
0 -1 2 -2 1 -1 1 -1 0 -1 2 -2 1 -1 1 -1 
1 -1 1 -1 0 -1 2 -2 1 0 1 -1 1 -1 1 -1 
1 -1 1 -1 1 -1 1 0 1 -1 1 -1 1 0 1 -1 
1 0 1 -1 1 0 5427 3062 100 MP stroke
1 -1 1 0 1 0 1 -1 1 0 1 0 1 0 1 0 
1 -1 1 0 1 0 1 0 1 1 1 0 1 0 1 0 
1 0 1 1 1 0 1 0 1 1 1 0 1 1 1 0 
1 1 1 0 1 1 1 1 1 1 1 0 1 1 1 1 
1 1 1 1 1 1 1 1 0 1 2 2 1 1 1 1 
0 1 2 2 0 1 2 2 0 1 2 2 1 1 0 2 
2 2 1 1 0 2 2 2 0 2 2 2 0 2 2 2 
0 1 1 1 0 2 2 2 0 2 1 1 0 1 1 1 
0 1 1 1 0 2 1 1 0 1 1 1 0 2 1 1 
0 1 1 1 0 2 1 1 0 1 1 1 0 2 1 1 
0 2 1 1 0 1 1 1 0 2 1 1 0 2 1 1 
0 2 1 1 0 2 1 1 0 2 1 1 0 2 1 1 
0 3 1 1 0 1 5349 2960 100 MP stroke
1 1 0 3 1 1 0 2 1 1 0 3 1 1 0 2 
1 1 0 2 1 1 0 3 1 1 0 2 1 1 0 3 
1 1 0 3 1 1 0 2 1 1 0 4 1 1 0 2 
1 1 0 3 1 1 0 3 1 1 0 3 1 1 0 3 
1 1 0 3 1 1 0 3 1 1 0 4 1 1 0 3 
1 1 0 4 1 1 0 2 1 1 0 4 1 1 0 4 
1 1 0 3 1 1 0 4 1 1 0 3 1 1 0 4 
1 1 0 5 1 1 0 3 1 1 0 4 1 1 0 4 
1 1 0 4 1 1 0 4 1 1 0 4 1 1 0 5 
1 1 0 3 1 1 0 5 1 1 0 5 1 1 0 4 
1 1 0 5 1 1 0 4 1 1 0 5 1 1 0 5 
1 1 0 4 1 1 0 5 1 1 0 4 1 1 0 6 
1 1 0 5 1 1 5299 2733 100 MP stroke
0 4 1 1 0 6 1 1 0 4 1 2 0 5 1 1 
0 6 1 1 0 5 1 1 0 5 1 2 0 4 1 1 
0 6 1 1 0 6 1 1 0 5 1 1 0 6 1 2 
0 4 1 2 0 6 1 1 0 6 1 1 0 5 1 2 
0 6 1 1 0 5 1 2 0 6 1 1 0 7 1 1 
0 5 1 1 0 7 1 1 0 6 1 1 0 7 1 1 
0 7 1 1 0 6 1 1 0 7 1 1 0 6 1 1 
0 7 1 1 0 7 1 2 0 6 1 1 0 7 1 2 
0 5 1 2 0 7 1 1 0 8 1 1 0 6 1 2 
0 7 1 2 0 6 1 1 0 8 1 1 0 8 1 1 
0 6 1 2 0 8 1 1 0 7 1 1 0 8 1 2 
0 7 1 2 0 6 1 2 0 8 1 2 0 6 1 2 
0 8 1 2 0 8 5250 2354 100 MP stroke
1 1 0 7 1 2 0 8 1 2 0 8 1 2 0 7 
1 1 0 9 1 2 0 6 1 2 0 9 1 2 0 8 
1 2 0 7 1 2 0 9 1 1 0 8 1 1 0 9 
1 2 0 9 1 2 0 7 1 2 0 9 1 2 0 7 
1 2 0 9 1 2 0 10 1 2 0 7 1 2 0 9 
1 2 0 8 1 2 0 9 1 2 0 10 1 2 0 8 
1 2 0 9 1 2 0 8 1 2 0 10 1 2 0 10 
1 2 0 8 1 2 0 10 1 2 0 8 1 2 0 11 
1 2 0 10 1 2 0 8 1 2 0 11 1 2 0 8 
1 2 0 11 1 2 0 11 1 2 0 8 1 3 0 10 
1 2 0 9 1 2 0 11 1 2 0 11 1 2 0 9 
1 2 0 11 1 3 0 9 1 2 0 11 1 2 0 12 
1 2 0 9 1 2 5200 1816 100 MP stroke
0 12 1 2 0 9 1 2 0 12 1 2 0 12 1 2 
0 9 1 3 0 11 1 3 0 9 1 3 0 11 1 3 
0 12 1 2 0 10 1 2 0 12 1 3 0 9 1 3 
0 12 1 2 0 13 1 2 0 10 1 2 0 13 1 2 
0 10 1 3 0 5 0 -4 1 -1 0 -6 1 -2 0 -4 
1 -2 0 -6 1 -1 0 -5 1 -1 0 -6 1 -1 0 -6 
1 -2 0 -4 1 -2 0 -6 1 -1 0 -5 1 -1 0 -6 
1 -1 0 -6 1 -2 0 -4 1 -2 0 -6 1 -1 0 -5 
1 -1 0 -6 1 -1 0 -6 1 -1 0 -5 1 -1 0 -6 
1 -2 0 -4 1 -2 0 -6 1 -1 0 -6 1 -1 0 -5 
1 -1 0 -6 1 -1 0 -5 1 -1 0 -6 1 -1 0 -6 
1 -1 0 -5 1 -1 0 -6 1 -1 0 -5 1 -1 0 -6 
1 -2 0 -5 1 -2 5151 1799 100 MP stroke
0 -4 1 -2 0 -5 1 -2 0 -4 1 -2 0 -5 1 -2 
0 -6 1 -1 0 -4 1 -2 0 -5 1 -2 0 -4 1 -1 
0 -6 1 -2 0 -5 1 -2 0 -4 1 -1 0 -6 1 -1 
0 -5 1 -1 0 -6 1 -1 0 -6 1 -1 0 -5 1 -1 
0 -6 1 -1 0 -5 1 -1 0 -5 1 -2 0 -5 1 -2 
0 -4 1 -1 0 -6 1 -1 0 -5 1 -1 0 -6 1 -1 
0 -6 1 -1 0 -4 1 -1 0 -6 1 -1 0 -5 1 -1 
0 -6 1 -1 0 -5 1 -2 0 -4 1 -1 0 -6 1 -1 
0 -5 1 -1 0 -5 1 -1 0 -6 1 -1 0 -5 1 -1 
0 -5 1 -2 0 -4 1 -1 0 -6 1 -1 0 -5 1 -2 
0 -4 1 -1 0 -6 1 -1 0 -4 1 -1 0 -6 1 -1 
0 -5 1 -2 0 -4 1 -1 0 -6 1 -1 0 -4 1 -1 
0 -6 1 -1 0 -5 5102 2117 100 MP stroke
1 -1 0 -5 1 -1 0 -5 1 -1 0 -5 1 -1 0 -5 
1 -1 0 -6 1 -1 0 -4 1 -1 0 -6 1 -1 0 -4 
1 -1 0 -5 1 -1 0 -6 1 -1 0 -4 1 -1 0 -6 
1 -1 0 -4 1 -1 0 -5 1 -1 0 -6 1 -1 0 -4 
1 -1 0 -5 1 -1 0 -4 1 -2 0 -5 1 -1 0 -5 
1 -1 0 -4 1 -1 0 -5 1 -2 0 -5 1 -1 0 -4 
1 -1 0 -5 1 -1 0 -4 1 -1 0 -5 1 -1 0 -6 
1 -1 0 -4 1 -1 0 -5 1 -1 0 -4 1 -1 0 -5 
1 -1 0 -5 1 -1 0 -4 1 -1 0 -5 1 -1 0 -4 
1 -1 0 -5 1 -1 0 -5 1 -1 0 -4 1 -1 0 -5 
1 -1 0 -4 1 -1 0 -5 1 -1 0 -5 1 -1 0 -4 
1 -1 0 -4 1 -1 0 -4 1 -1 0 -5 1 -1 0 -5 
1 -1 0 -4 1 -1 5052 2401 100 MP stroke
0 -4 1 -1 0 -4 1 -1 0 -5 1 -1 0 -5 1 -1 
0 -3 1 -1 0 -5 1 -1 0 -4 1 -1 0 -4 1 -1 
0 -5 1 -1 0 -4 1 -1 0 -4 1 -1 0 -4 1 -1 
0 -4 1 -1 0 -5 1 -1 0 -3 1 -1 0 -5 1 -1 
0 -3 1 -1 0 -5 1 -1 0 -4 1 -1 0 -3 1 -1 
0 -5 1 -1 0 -3 1 -1 0 -5 1 -1 0 -4 1 -1 
0 -3 1 -1 0 -4 1 -1 0 -4 1 -1 0 -4 1 -1 
0 -4 1 -1 0 -3 1 -1 0 -5 1 -1 0 -3 1 -1 
0 -4 1 -1 0 -4 1 -1 0 -3 1 -1 0 -4 1 -1 
0 -3 1 -1 0 -4 1 -1 0 -4 1 -1 0 -3 1 -1 
0 -4 1 -1 0 -3 1 -1 0 -4 1 -1 0 -4 1 -1 
0 -3 1 -1 0 -3 1 -1 0 -3 1 -1 0 -4 1 -1 
0 -4 1 -1 0 -3 5003 2644 100 MP stroke
1 -1 0 -3 1 -1 0 -3 1 -1 0 -4 1 -1 0 -3 
1 -1 0 -3 1 -1 0 -3 1 -1 0 -3 1 -1 0 -4 
1 -1 0 -3 1 -1 0 -3 1 -1 0 -3 1 -1 0 -3 
1 -1 0 -3 1 -1 0 -3 1 -1 0 -3 1 -1 0 -3 
1 -1 0 -2 1 -1 0 -4 1 -1 0 -3 1 -1 0 -2 
1 -1 0 -3 1 -1 0 -3 1 -1 0 -3 1 -1 0 -3 
1 -1 0 -2 1 -1 0 -3 1 -1 0 -2 1 -1 0 -3 
1 -1 0 -3 1 -1 0 -2 1 -1 0 -3 1 -1 0 -2 
1 -1 0 -3 1 -1 0 -2 1 -1 0 -2 1 -1 0 -3 
1 -1 0 -2 1 -1 0 -2 1 -1 0 -3 1 -1 0 -2 
1 -1 0 -2 1 -1 0 -2 1 -1 0 -3 1 -1 0 -2 
1 -1 0 -2 1 -1 0 -2 1 -1 0 -2 1 -1 0 -2 
1 -1 0 -2 1 -1 4953 2825 100 MP stroke
0 -2 1 -1 0 -2 1 -1 0 -1 1 -1 0 -2 1 -1 
0 -3 1 -1 0 -1 1 -1 0 -2 1 -1 0 -1 1 -1 
0 -2 1 -1 0 -3 2 -2 0 -2 1 -1 0 -2 1 -1 
0 -1 1 -1 0 -2 1 -1 0 -1 1 -1 0 -2 1 -1 
0 -1 1 -1 0 -1 1 -1 0 -2 1 -1 0 -1 1 -1 
0 -2 2 -2 0 -2 1 -1 0 -1 1 -1 0 -2 2 -2 
0 -2 2 -2 0 -2 2 -2 0 -2 2 -2 0 -1 1 -1 
0 -1 1 -1 1 -1 0 -2 2 -2 0 -1 2 -2 1 -1 
0 -2 2 -2 1 -1 0 -1 2 -2 1 -1 0 -1 2 -2 
1 -1 1 -1 1 -1 1 -1 1 -1 1 -1 1 -1 1 -1 
1 -1 1 -1 1 -1 1 -1 1 0 1 -1 1 -1 1 0 
1 -1 1 0 1 -1 1 0 1 -1 1 0 1 0 1 -1 
1 0 1 0 1 0 4877 2948 100 MP stroke
1 0 1 0 1 0 1 0 1 0 1 0 1 0 1 0 
1 1 1 0 1 0 1 1 1 0 1 1 1 0 1 1 
1 0 1 1 1 1 1 0 1 1 1 1 1 1 1 1 
1 1 1 1 1 1 1 1 0 1 2 2 1 1 0 1 
2 2 1 1 1 1 0 2 2 2 1 1 0 2 2 2 
0 1 1 1 0 1 1 1 0 1 2 2 0 2 2 2 
0 2 1 1 1 1 0 2 1 1 0 1 1 1 0 1 
1 1 0 2 1 1 0 1 1 1 0 2 1 1 0 1 
1 1 0 2 1 1 0 1 1 1 0 2 1 1 0 2 
1 1 0 1 1 1 0 2 1 1 0 2 1 1 0 2 
1 1 0 2 1 1 0 2 1 1 0 2 1 1 0 3 
1 1 0 2 1 1 0 2 1 1 0 2 1 1 0 3 
1 1 0 2 1 1 4805 2833 100 MP stroke
0 3 1 1 0 2 1 1 0 3 1 1 0 3 1 1 
0 3 1 1 0 2 1 1 0 3 1 1 0 3 1 1 
0 3 1 1 0 3 1 1 0 3 1 1 0 3 1 1 
0 3 1 1 0 3 1 1 0 4 1 1 0 3 1 1 
0 4 1 1 0 3 1 1 0 4 1 1 0 3 1 1 
0 4 1 1 0 4 1 1 0 3 1 1 0 4 1 1 
0 4 1 1 0 4 1 1 0 4 1 1 0 4 1 1 
0 4 1 1 0 5 1 1 0 4 1 1 0 4 1 1 
0 4 1 1 0 5 1 1 0 5 1 1 0 4 1 1 
0 5 1 1 0 4 1 1 0 5 1 1 0 5 1 1 
0 5 1 1 0 5 1 1 0 4 1 1 0 6 1 1 
0 5 1 1 0 5 1 1 0 6 1 1 0 4 1 1 
0 6 1 1 0 6 4756 2586 100 MP stroke
1 1 0 5 1 1 0 6 1 1 0 5 1 1 0 6 
1 1 0 6 1 1 0 5 1 2 0 6 1 1 0 6 
1 2 0 5 1 1 0 6 1 1 0 6 1 1 0 6 
1 2 0 6 1 1 0 6 1 1 0 7 1 1 0 5 
1 2 0 7 1 1 0 7 1 1 0 6 1 1 0 7 
1 1 0 6 1 1 0 7 1 2 0 7 1 1 0 6 
1 2 0 7 1 1 0 6 1 2 0 7 1 1 0 8 
1 1 0 6 1 2 0 7 1 2 0 6 1 2 0 7 
1 2 0 8 1 1 0 6 1 2 0 8 1 1 0 7 
1 1 0 8 1 2 0 8 1 2 0 6 1 2 0 8 
1 1 0 7 1 2 0 8 1 2 0 8 1 2 0 6 
1 2 0 9 1 1 0 7 1 2 0 9 1 1 0 9 
1 2 0 7 1 1 4706 2187 100 MP stroke
0 9 1 2 0 7 1 2 0 9 1 2 0 9 1 2 
0 7 1 2 0 9 1 2 0 7 1 2 0 9 1 2 
0 9 1 2 0 8 1 2 0 9 1 2 0 7 1 2 
0 10 1 2 0 10 1 2 0 7 1 2 0 10 1 2 
0 8 1 2 0 10 1 2 0 10 1 2 0 8 1 2 
0 10 1 2 0 8 1 2 0 10 1 2 0 11 1 2 
0 8 1 2 0 11 1 2 0 8 1 2 0 11 1 2 
0 11 1 2 0 8 1 3 0 10 1 3 0 8 1 2 
0 11 1 3 0 11 1 2 0 9 1 2 0 11 1 2 
0 9 1 2 0 12 1 2 0 11 1 2 0 10 1 2 
0 11 1 3 0 9 1 2 0 12 1 2 0 12 1 2 
0 10 1 2 0 12 1 2 0 10 1 2 0 12 1 2 
0 12 1 3 0 9 4657 1605 100 MP stroke
1 3 0 12 1 2 0 10 1 3 0 12 1 2 0 13 
1 2 0 10 1 3 0 12 1 3 0 10 1 2 0 13 
1 2 0 13 1 -1 0 -5 1 -2 0 -6 1 -2 0 -5 
1 -1 0 -7 1 -1 0 -7 1 -1 0 -5 1 -1 0 -7 
1 -1 0 -6 1 -1 0 -6 1 -2 0 -6 1 -2 0 -5 
1 -1 0 -7 1 -1 0 -5 1 -1 0 -7 1 -1 0 -7 
1 -1 0 -5 1 -1 0 -7 1 -1 0 -5 1 -2 0 -6 
1 -1 0 -7 1 -1 0 -5 1 -2 0 -6 1 -1 0 -6 
1 -1 0 -6 1 -2 0 -6 1 -1 0 -5 1 -2 0 -6 
1 -1 0 -5 1 -2 0 -6 1 -1 0 -7 1 -1 0 -5 
1 -1 0 -7 1 -1 0 -5 1 -1 0 -7 1 -1 0 -6 
1 -2 0 -5 1 -1 0 -6 1 -2 0 -5 1 -1 0 -6 
1 -2 0 -6 1 -1 4607 1768 100 MP stroke
0 -5 1 -1 0 -7 1 -1 0 -5 1 -1 0 -7 1 -1 
0 -6 1 -1 0 -5 1 -2 0 -6 1 -1 0 -5 1 -1 
0 -7 1 -1 0 -6 1 -1 0 -5 1 -1 0 -7 1 -1 
0 -5 1 -1 0 -6 1 -2 0 -6 1 -1 0 -5 1 -1 
0 -6 1 -1 0 -5 1 -2 0 -6 1 -1 0 -6 1 -1 
0 -5 1 -1 0 -7 1 -1 0 -5 1 -1 0 -6 1 -1 
0 -6 1 -1 0 -5 1 -1 0 -7 1 -1 0 -6 1 -1 
0 -5 1 -1 0 -6 1 -1 0 -5 1 -1 0 -6 1 -1 
0 -6 1 -2 0 -4 1 -2 0 -6 1 -1 0 -5 1 -1 
0 -6 1 -1 0 -6 1 -1 0 -5 1 -1 0 -6 1 -1 
0 -5 1 -1 0 -6 1 -1 0 -6 1 -1 0 -5 1 -1 
0 -6 1 -1 0 -4 1 -2 0 -5 1 -2 0 -5 1 -2 
0 -4 1 -1 0 -6 4558 2106 100 MP stroke
1 -1 0 -5 1 -1 0 -6 1 -1 0 -6 1 -1 0 -4 
1 -2 0 -5 1 -1 0 -5 1 -1 0 -6 1 -1 0 -6 
1 -1 0 -4 1 -1 0 -6 1 -1 0 -5 1 -1 0 -6 
1 -1 0 -5 1 -1 0 -5 1 -1 0 -6 1 -1 0 -4 
1 -1 0 -6 1 -1 0 -5 1 -2 0 -4 1 -1 0 -6 
1 -1 0 -4 1 -1 0 -6 1 -1 0 -5 1 -1 0 -5 
1 -1 0 -5 1 -1 0 -5 1 -1 0 -5 1 -1 0 -5 
1 -2 0 -4 1 -1 0 -5 1 -1 0 -5 1 -1 0 -5 
1 -1 0 -5 1 -1 0 -5 1 -1 0 -5 1 -1 0 -4 
1 -1 0 -6 1 -1 0 -5 1 -1 0 -4 1 -1 0 -5 
1 -1 0 -4 1 -1 0 -6 1 -1 0 -5 1 -1 0 -4 
1 -1 0 -5 1 -1 0 -4 1 -1 0 -5 1 -1 0 -5 
1 -1 0 -4 1 -1 4508 2404 100 MP stroke
0 -5 1 -1 0 -4 1 -1 0 -5 1 -1 0 -5 1 -1 
0 -4 1 -1 0 -5 1 -1 0 -4 1 -1 0 -5 1 -1 
0 -5 1 -1 0 -3 1 -1 0 -5 1 -1 0 -4 1 -1 
0 -5 1 -1 0 -4 1 -1 0 -4 1 -1 0 -5 1 -1 
0 -4 1 -1 0 -4 1 -1 0 -5 1 -1 0 -3 1 -1 
0 -5 1 -1 0 -3 1 -1 0 -5 1 -1 0 -4 1 -1 
0 -4 1 -1 0 -4 1 -1 0 -4 1 -1 0 -4 1 -1 
0 -5 1 -1 0 -3 1 -1 0 -4 1 -1 0 -4 1 -1 
0 -4 1 -1 0 -4 1 -1 0 -3 1 -1 0 -5 1 -1 
0 -3 1 -1 0 -4 1 -1 0 -4 1 -1 0 -3 1 -1 
0 -4 1 -1 0 -3 1 -1 0 -4 1 -1 0 -4 1 -1 
0 -3 1 -1 0 -4 1 -1 0 -3 1 -1 0 -4 1 -1 
0 -4 1 -1 0 -3 4459 2656 100 MP stroke
1 -1 0 -4 1 -1 0 -3 1 -1 0 -3 1 -1 0 -4 
1 -1 0 -3 1 -1 0 -3 1 -1 0 -3 1 -1 0 -4 
1 -1 0 -3 1 -1 0 -3 1 -1 0 -3 1 -1 0 -3 
1 -1 0 -3 1 -1 0 -4 1 -1 0 -2 1 -1 0 -4 
1 -1 0 -2 1 -1 0 -3 1 -1 0 -3 1 -1 0 -3 
1 -1 0 -3 1 -1 0 -2 1 -1 0 -3 1 -1 0 -3 
1 -1 0 -3 1 -1 0 -3 1 -1 0 -2 1 -1 0 -3 
1 -1 0 -3 1 -1 0 -2 1 -1 0 -3 1 -1 0 -2 
1 -1 0 -3 1 -1 0 -2 1 -1 0 -2 1 -1 0 -3 
1 -1 0 -2 1 -1 0 -2 1 -1 0 -3 1 -1 0 -2 
1 -1 0 -2 1 -1 0 -2 1 -1 0 -2 1 -1 0 -3 
1 -1 0 -1 1 -1 0 -3 1 -1 0 -2 1 -1 0 -1 
1 -1 0 -3 1 -1 4409 2839 100 MP stroke
0 -1 1 -1 0 -2 1 -1 0 -2 1 -1 0 -2 1 -1 
0 -2 1 -1 0 -1 1 -1 0 -2 1 -1 0 -2 1 -1 
0 -1 1 -1 0 -2 1 -1 0 -1 1 -1 0 -2 1 -1 
0 -2 2 -2 0 -3 2 -2 0 -2 1 -1 0 -2 2 -2 
0 -2 2 -2 0 -2 1 -1 0 -1 1 -1 0 -1 1 -1 
0 -1 1 -1 0 -1 2 -2 0 -2 2 -2 0 -2 2 -2 
1 -1 0 -2 2 -2 0 -1 2 -2 0 -1 2 -2 0 -1 
2 -2 1 -1 0 -1 2 -2 1 -1 1 -1 1 -1 1 -1 
1 -1 1 -1 1 -1 1 -1 1 -1 1 -1 1 0 1 -1 
1 -1 1 -1 1 0 1 -1 1 0 1 -1 1 0 1 0 
1 -1 1 0 1 0 1 0 1 -1 1 0 1 0 1 0 
1 0 1 0 1 1 1 0 1 0 1 0 1 1 1 0 
1 0 1 1 1 0 4327 2943 100 MP stroke
1 1 1 1 1 0 1 1 1 1 1 1 1 1 1 1 
1 0 -1 0 2 2 1 1 1 1 1 1 0 1 2 2 
1 1 0 1 2 2 1 1 0 2 2 2 1 1 0 2 
2 2 0 1 1 1 0 1 1 1 1 1 0 2 2 2 
0 2 1 1 0 1 1 1 0 1 1 1 0 2 2 2 
0 2 1 1 0 2 1 1 0 1 1 1 0 2 1 1 
0 1 1 1 0 2 1 1 0 2 1 1 0 1 1 1 
0 2 1 1 0 2 1 1 0 2 1 1 0 2 1 1 
0 2 1 1 0 2 1 1 0 2 1 1 0 3 1 1 
0 2 1 1 0 2 1 1 0 3 1 1 0 2 1 1 
0 3 1 1 0 3 1 1 0 2 1 1 0 3 1 1 
0 2 1 1 0 3 1 1 0 4 1 1 0 2 1 1 
0 3 1 1 0 3 4264 2798 100 MP stroke
1 1 0 4 1 1 0 3 1 1 0 3 1 1 0 3 
1 1 0 3 1 1 0 4 1 1 0 4 1 1 0 3 
1 1 0 4 1 1 0 3 1 1 0 4 1 1 0 5 
1 1 0 3 1 1 0 4 1 1 0 4 1 1 0 4 
1 1 0 5 1 1 0 4 1 1 0 4 1 1 0 5 
1 1 0 4 1 1 0 5 1 1 0 4 1 1 0 5 
1 1 0 5 1 1 0 4 1 1 0 5 1 1 0 4 
1 1 0 6 1 1 0 5 1 1 0 5 1 1 0 5 
1 1 0 5 1 1 0 5 1 2 0 5 1 1 0 5 
1 1 0 6 1 1 0 5 1 1 0 6 1 1 0 6 
1 1 0 5 1 1 0 6 1 2 0 5 1 1 0 6 
1 1 0 7 1 1 0 5 1 1 0 7 1 1 0 5 
1 1 0 7 1 1 4214 2517 100 MP stroke
0 7 1 1 0 5 1 2 0 7 1 1 0 5 1 2 
0 6 1 2 0 7 1 1 0 6 1 1 0 7 1 2 
0 5 1 2 0 7 1 1 0 8 1 1 0 6 1 1 
0 8 1 1 0 6 1 2 0 7 1 2 0 7 1 2 
0 6 1 1 0 8 1 2 0 6 1 1 0 8 1 2 
0 8 1 1 0 7 1 1 0 8 1 2 0 6 1 2 
0 8 1 2 0 8 1 2 0 6 1 2 0 8 1 2 
0 7 1 1 0 9 1 1 0 9 1 2 0 7 1 1 
0 9 1 2 0 7 1 2 0 8 1 2 0 9 1 2 
0 7 1 2 0 9 1 2 0 7 1 2 0 9 1 2 
0 9 1 2 0 7 1 2 0 9 1 2 0 8 1 2 
0 9 1 2 0 10 1 2 0 7 1 2 0 10 1 2 
0 8 1 2 0 10 4165 2059 100 MP stroke
1 2 0 10 1 2 0 8 1 2 0 10 1 2 0 8 
1 2 0 10 1 2 0 10 1 2 0 9 1 2 0 10 
1 2 0 9 1 2 0 10 1 2 0 11 1 2 0 9 
1 2 0 11 1 2 0 8 1 3 0 11 1 2 0 11 
1 2 0 9 1 2 0 11 1 2 0 9 1 3 0 11 
1 2 0 11 1 3 0 9 1 2 0 12 1 2 0 9 
1 2 0 12 1 2 0 12 1 3 0 9 1 2 0 12 
1 3 0 9 1 2 0 12 1 3 0 12 1 2 0 10 
1 3 0 12 1 2 0 10 1 2 0 13 1 2 0 13 
1 2 0 10 1 3 0 12 1 3 0 10 1 3 0 12 
1 3 0 13 1 2 0 11 1 2 0 13 1 3 0 10 
1 3 0 13 1 2 0 14 1 2 0 11 1 3 0 13 
1 3 0 10 1 3 4115 1419 100 MP stroke
0 13 1 3 0 14 1 2 0 11 1 3 0 8 0 -3 
1 -1 0 -5 1 -2 0 -7 1 -1 0 -7 1 -1 0 -6 
1 -1 0 -7 1 -2 0 -5 1 -2 0 -6 1 -2 0 -7 
1 -1 0 -6 1 -1 0 -7 1 -1 0 -6 1 -1 0 -7 
1 -1 0 -7 1 -1 0 -6 1 -1 0 -7 1 -1 0 -6 
1 -1 0 -7 1 -1 0 -7 1 -2 0 -5 1 -1 0 -7 
1 -2 0 -5 1 -1 0 -7 1 -1 0 -7 1 -2 0 -5 
1 -1 0 -7 1 -1 0 -6 1 -1 0 -7 1 -1 0 -7 
1 -1 0 -6 1 -1 0 -7 1 -1 0 -5 1 -2 0 -6 
1 -2 0 -6 1 -2 0 -5 1 -1 0 -7 1 -1 0 -7 
1 -1 0 -6 1 -1 0 -7 1 -1 0 -5 1 -2 0 -6 
1 -2 0 -6 1 -2 0 -5 1 -1 0 -7 1 -1 0 -5 
1 -2 0 -6 1 -1 4066 1709 100 MP stroke
0 -7 1 -1 0 -6 1 -1 0 -6 1 -2 0 -5 1 -1 
0 -7 1 -1 0 -7 1 -1 0 -5 1 -1 0 -7 1 -1 
0 -5 1 -2 0 -6 1 -1 0 -7 1 -1 0 -5 1 -1 
0 -7 1 -1 0 -5 1 -2 0 -6 1 -1 0 -7 1 -1 
0 -5 1 -1 0 -7 1 -1 0 -5 1 -1 0 -7 1 -1 
0 -6 1 -1 0 -6 1 -1 0 -6 1 -1 0 -5 1 -2 
0 -6 1 -1 0 -6 1 -2 0 -5 1 -1 0 -6 1 -1 
0 -5 1 -2 0 -6 1 -1 0 -6 1 -2 0 -5 1 -1 
0 -6 1 -1 0 -5 1 -1 0 -6 1 -2 0 -6 1 -1 
0 -5 1 -1 0 -6 1 -2 0 -4 1 -2 0 -6 1 -1 
0 -6 1 -1 0 -5 1 -1 0 -6 1 -1 0 -5 1 -2 
0 -6 1 -1 0 -6 1 -1 0 -5 1 -1 0 -6 1 -1 
0 -5 1 -1 0 -6 4017 2059 100 MP stroke
1 -1 0 -6 1 -1 0 -5 1 -1 0 -6 1 -1 0 -5 
1 -1 0 -6 1 -1 0 -6 1 -1 0 -5 1 -1 0 -6 
1 -1 0 -5 1 -1 0 -5 1 -2 0 -5 1 -2 0 -4 
1 -1 0 -6 1 -1 0 -5 1 -1 0 -6 1 -1 0 -5 
1 -1 0 -5 1 -1 0 -6 1 -1 0 -4 1 -2 0 -5 
1 -1 0 -6 1 -1 0 -4 1 -2 0 -5 1 -1 0 -5 
1 -1 0 -5 1 -1 0 -6 1 -1 0 -4 1 -1 0 -6 
1 -1 0 -4 1 -1 0 -6 1 -1 0 -5 1 -1 0 -5 
1 -1 0 -5 1 -1 0 -5 1 -1 0 -5 1 -1 0 -5 
1 -1 0 -5 1 -1 0 -5 1 -1 0 -4 1 -1 0 -6 
1 -1 0 -5 1 -1 0 -4 1 -1 0 -5 1 -1 0 -4 
1 -1 0 -6 1 -1 0 -5 1 -1 0 -4 1 -1 0 -5 
1 -1 0 -4 1 -1 3967 2362 100 MP stroke
0 -5 1 -1 0 -5 1 -1 0 -4 1 -1 0 -5 1 -1 
0 -4 1 -1 0 -5 1 -1 0 -5 1 -1 0 -4 1 -1 
0 -4 1 -1 0 -4 1 -1 0 -5 1 -1 0 -5 1 -1 
0 -4 1 -1 0 -4 1 -1 0 -4 1 -1 0 -5 1 -1 
0 -4 1 -1 0 -4 1 -1 0 -4 1 -1 0 -4 1 -1 
0 -4 1 -1 0 -5 1 -1 0 -3 1 -1 0 -5 1 -1 
0 -3 1 -1 0 -5 1 -1 0 -4 1 -1 0 -3 1 -1 
0 -5 1 -1 0 -3 1 -1 0 -4 1 -1 0 -4 1 -1 
0 -4 1 -1 0 -4 1 -1 0 -3 1 -1 0 -4 1 -1 
0 -4 1 -1 0 -3 1 -1 0 -4 1 -1 0 -3 1 -1 
0 -4 1 -1 0 -4 1 -1 0 -3 1 -1 0 -4 1 -1 
0 -3 1 -1 0 -4 1 -1 0 -3 1 -1 0 -3 1 -1 
0 -4 1 -1 0 -3 3918 2611 100 MP stroke
1 -1 0 -3 1 -1 0 -4 1 -1 0 -3 1 -1 0 -3 
1 -1 0 -3 1 -1 0 -3 1 -1 0 -4 1 -1 0 -2 
1 -1 0 -3 1 -1 0 -4 1 -1 0 -2 1 -1 0 -3 
1 -1 0 -3 1 -1 0 -3 1 -1 0 -3 1 -1 0 -2 
1 -1 0 -3 1 -1 0 -3 1 -1 0 -3 1 -1 0 -3 
1 -1 0 -2 1 -1 0 -3 1 -1 0 -2 1 -1 0 -3 
1 -1 0 -2 1 -1 0 -2 1 -1 0 -3 1 -1 0 -2 
1 -1 0 -2 1 -1 0 -3 1 -1 0 -2 1 -1 0 -2 
1 -1 0 -2 1 -1 0 -3 1 -1 0 -2 1 -1 0 -2 
1 -1 0 -2 1 -1 0 -1 1 -1 0 -3 1 -1 0 -2 
1 -1 0 -1 1 -1 0 -2 1 -1 0 -2 1 -1 0 -2 
1 -1 0 -2 1 -1 0 -1 1 -1 0 -2 1 -1 0 -1 
1 -1 0 -2 1 -1 3868 2781 100 MP stroke
0 -2 1 -1 0 -1 1 -1 0 -2 1 -1 0 -1 1 -1 
0 -1 1 -1 0 -2 1 -1 0 -1 1 -1 0 -1 1 -1 
0 -2 2 -2 0 -2 1 -1 0 -1 1 -1 0 -1 1 -1 
1 -1 0 -2 1 -1 0 -1 1 -1 1 -1 0 -2 2 -2 
0 -1 1 -1 1 -1 0 -2 2 -2 0 -1 2 -2 0 -1 
2 -2 1 -1 0 -1 2 -2 1 -1 1 -1 1 -1 1 -1 
1 -1 1 -1 1 -1 1 -1 1 -1 1 -1 1 -1 1 0 
1 -1 1 -1 1 0 1 -1 1 0 1 -1 1 0 1 -1 
1 0 1 0 1 0 1 0 1 -1 1 0 1 0 1 0 
1 1 1 0 1 0 1 0 1 0 1 1 1 0 1 1 
1 0 1 1 1 0 1 1 1 1 1 1 1 0 1 1 
1 1 1 1 1 1 1 1 0 1 2 2 1 1 0 1 
2 2 0 1 2 2 3783 2834 100 MP stroke
0 1 2 2 0 1 1 1 0 1 2 2 0 2 2 2 
0 1 1 1 1 1 0 2 1 1 0 2 2 2 0 2 
2 2 0 2 1 1 0 1 1 1 0 2 1 1 0 1 
1 1 0 2 1 1 0 1 1 1 0 2 1 1 0 2 
1 1 0 2 1 1 0 1 1 1 0 3 1 1 0 2 
1 1 0 2 1 1 0 2 1 1 0 2 1 1 0 2 
1 1 0 3 1 1 0 2 1 1 0 3 1 1 0 2 
1 1 0 3 1 1 0 2 1 1 0 3 1 1 0 3 
1 1 0 2 1 1 0 3 1 1 0 4 1 1 0 2 
1 1 0 3 1 1 0 4 1 1 0 3 1 1 0 3 
1 1 0 3 1 1 0 4 1 1 0 4 1 1 0 3 
1 1 0 4 1 1 0 3 1 1 0 4 1 1 0 4 
1 1 0 3 1 1 3728 2661 100 MP stroke
0 5 1 1 0 3 1 1 0 5 1 1 0 4 1 1 
0 4 1 1 0 4 1 1 0 4 1 1 0 5 1 1 
0 5 1 1 0 4 1 1 0 5 1 1 0 4 1 1 
0 5 1 1 0 5 1 1 0 4 1 1 0 6 1 1 
0 4 1 1 0 6 1 1 0 5 1 1 0 5 1 1 
0 6 1 1 0 4 1 1 0 6 1 1 0 6 1 1 
0 5 1 1 0 6 1 1 0 5 1 1 0 6 1 2 
0 6 1 1 0 5 1 1 0 7 1 1 0 5 1 1 
0 7 1 1 0 6 1 2 0 5 1 1 0 7 1 1 
0 5 1 2 0 6 1 2 0 7 1 1 0 5 1 2 
0 7 1 1 0 6 1 1 0 7 1 2 0 7 1 1 
0 6 1 1 0 8 1 1 0 6 1 2 0 7 1 1 
0 8 1 1 0 6 3679 2330 100 MP stroke
1 2 0 8 1 1 0 6 1 2 0 7 1 2 0 8 
1 1 0 7 1 1 0 8 1 2 0 6 1 2 0 8 
1 2 0 8 1 1 0 7 1 2 0 8 1 2 0 6 
1 2 0 8 1 2 0 9 1 1 0 7 1 2 0 8 
1 2 0 7 1 2 0 9 1 1 0 9 1 2 0 7 
1 2 0 9 1 2 0 7 1 2 0 9 1 2 0 9 
1 2 0 7 1 2 0 10 1 1 0 8 1 2 0 9 
1 2 0 10 1 2 0 7 1 2 0 10 1 2 0 8 
1 2 0 10 1 2 0 10 1 2 0 8 1 2 0 10 
1 2 0 8 1 2 0 10 1 2 0 11 1 2 0 8 
1 2 0 10 1 3 0 8 1 2 0 11 1 2 0 10 
1 3 0 8 1 2 0 11 1 2 0 9 1 2 0 11 
1 2 0 11 1 3 3629 1816 100 MP stroke
0 9 1 2 0 11 1 2 0 9 1 3 0 11 1 2 
0 12 1 2 0 9 1 2 0 12 1 2 0 10 1 2 
0 12 1 2 0 12 1 2 0 10 1 2 0 12 1 2 
0 10 1 2 0 13 1 2 0 12 1 3 0 9 1 3 
0 12 1 3 0 10 1 2 0 13 1 2 0 13 1 2 
0 10 1 3 0 13 1 2 0 10 1 3 0 13 1 2 
0 13 1 3 0 10 1 3 0 13 1 3 0 10 1 3 
0 13 1 3 0 13 1 3 0 11 1 2 0 14 1 3 
0 11 1 2 0 14 1 3 0 13 1 3 0 11 1 3 
0 14 1 3 0 11 1 3 0 14 1 3 0 14 1 3 
0 11 1 3 0 14 1 3 0 11 1 3 0 15 1 3 
0 14 1 3 0 12 1 3 0 14 1 3 0 12 1 3 
0 15 1 3 0 15 3580 1090 100 MP stroke
1 3 0 12 1 3 0 15 1 3 0 15 1 3 0 -5 
1 -2 0 -7 1 -2 0 -5 1 -2 0 -7 1 -1 0 -8 
1 -1 0 -6 1 -1 0 -7 1 -2 0 -6 1 -1 0 -7 
1 -2 0 -7 1 -1 0 -6 1 -1 0 -7 1 -2 0 -6 
1 -1 0 -7 1 -2 0 -7 1 -1 0 -6 1 -1 0 -7 
1 -2 0 -5 1 -2 0 -7 1 -1 0 -8 1 -1 0 -6 
1 -1 0 -7 1 -2 0 -5 1 -2 0 -7 1 -1 0 -7 
1 -2 0 -5 1 -2 0 -7 1 -1 0 -6 1 -1 0 -7 
1 -1 0 -8 1 -1 0 -6 1 -1 0 -7 1 -1 0 -6 
1 -1 0 -7 1 -2 0 -7 1 -1 0 -6 1 -1 0 -7 
1 -1 0 -6 1 -1 0 -7 1 -2 0 -7 1 -1 0 -6 
1 -1 0 -7 1 -1 0 -6 1 -1 0 -7 1 -1 0 -7 
1 -2 0 -5 1 -2 3530 1399 100 MP stroke
0 -6 1 -2 0 -5 1 -2 0 -6 1 -2 0 -7 1 -1 
0 -6 1 -1 0 -7 1 -1 0 -6 1 -1 0 -7 1 -1 
0 -7 1 -1 0 -6 1 -1 0 -7 1 -1 0 -6 1 -1 
0 -7 1 -1 0 -7 1 -1 0 -5 1 -2 0 -7 1 -1 
0 -5 1 -2 0 -6 1 -2 0 -6 1 -2 0 -5 1 -1 
0 -7 1 -1 0 -6 1 -1 0 -7 1 -1 0 -7 1 -1 
0 -5 1 -2 0 -6 1 -1 0 -6 1 -1 0 -7 1 -1 
0 -7 1 -1 0 -5 1 -1 0 -7 1 -1 0 -6 1 -1 
0 -6 1 -2 0 -6 1 -1 0 -6 1 -1 0 -6 1 -2 
0 -5 1 -1 0 -7 1 -1 0 -6 1 -2 0 -5 1 -1 
0 -7 1 -1 0 -5 1 -1 0 -7 1 -1 0 -6 1 -2 
0 -5 1 -1 0 -6 1 -2 0 -5 1 -1 0 -6 1 -2 
0 -6 1 -1 0 -5 3481 1767 100 MP stroke
1 -2 0 -6 1 -1 0 -5 1 -1 0 -7 1 -1 0 -6 
1 -1 0 -5 1 -2 0 -6 1 -1 0 -5 1 -1 0 -6 
1 -2 0 -6 1 -1 0 -5 1 -1 0 -6 1 -2 0 -5 
1 -1 0 -6 1 -1 0 -6 1 -1 0 -5 1 -2 0 -6 
1 -1 0 -5 1 -1 0 -6 1 -1 0 -6 1 -1 0 -5 
1 -1 0 -6 1 -2 0 -4 1 -1 0 -6 1 -2 0 -6 
1 -1 0 -5 1 -1 0 -6 1 -1 0 -4 1 -2 0 -6 
1 -1 0 -6 1 -1 0 -4 1 -2 0 -5 1 -2 0 -4 
1 -1 0 -6 1 -1 0 -6 1 -1 0 -5 1 -1 0 -6 
1 -1 0 -4 1 -2 0 -5 1 -1 0 -6 1 -1 0 -5 
1 -1 0 -6 1 -1 0 -4 1 -1 0 -6 1 -1 0 -6 
1 -1 0 -4 1 -1 0 -6 1 -1 0 -4 1 -2 0 -5 
1 -1 0 -6 1 -1 3431 2094 100 MP stroke
0 -4 1 -1 0 -6 1 -1 0 -4 1 -1 0 -6 1 -1 
0 -5 1 -1 0 -4 1 -2 0 -5 1 -1 0 -4 1 -1 
0 -6 1 -1 0 -5 1 -1 0 -4 1 -1 0 -6 1 -1 
0 -4 1 -1 0 -5 1 -1 0 -5 1 -1 0 -4 1 -1 
0 -6 1 -1 0 -4 1 -1 0 -5 1 -1 0 -5 1 -1 
0 -4 1 -1 0 -5 1 -1 0 -5 1 -1 0 -4 1 -1 
0 -5 1 -1 0 -4 1 -1 0 -5 1 -1 0 -5 1 -1 
0 -4 1 -1 0 -4 1 -1 0 -4 1 -1 0 -5 1 -1 
0 -5 1 -1 0 -4 1 -1 0 -4 1 -1 0 -4 1 -1 
0 -5 1 -1 0 -4 1 -1 0 -4 1 -1 0 -4 1 -1 
0 -4 1 -1 0 -4 1 -1 0 -5 1 -1 0 -3 1 -1 
0 -5 1 -1 0 -3 1 -1 0 -5 1 -1 0 -4 1 -1 
0 -3 1 -1 0 -5 3382 2370 100 MP stroke
1 -1 0 -3 1 -1 0 -4 1 -1 0 -4 1 -1 0 -3 
1 -1 0 -5 1 -1 0 -3 1 -1 0 -4 1 -1 0 -4 
1 -1 0 -3 1 -1 0 -4 1 -1 0 -3 1 -1 0 -4 
1 -1 0 -4 1 -1 0 -2 1 -1 0 -4 1 -1 0 -3 
1 -1 0 -4 1 -1 0 -4 1 -1 0 -2 1 -1 0 -4 
1 -1 0 -3 1 -1 0 -3 1 -1 0 -4 1 -1 0 -2 
1 -1 0 -4 1 -1 0 -2 1 -1 0 -4 1 -1 0 -3 
1 -1 0 -3 1 -1 0 -3 1 -1 0 -2 1 -1 0 -4 
1 -1 0 -3 1 -1 0 -2 1 -1 0 -3 1 -1 0 -2 
1 -1 0 -3 1 -1 0 -3 1 -1 0 -3 1 -1 0 -2 
1 -1 0 -3 1 -1 0 -2 1 -1 0 -3 1 -1 0 -2 
1 -1 0 -3 1 -1 0 -2 1 -1 0 -3 1 -1 0 -2 
1 -1 0 -2 1 -1 3332 2571 100 MP stroke
0 -2 1 -1 0 -2 1 -1 0 -3 1 -1 0 -2 1 -1 
0 -2 1 -1 0 -2 1 -1 0 -2 1 -1 0 -2 1 -1 
0 -2 1 -1 0 -2 1 -1 0 -2 1 -1 0 -1 1 -1 
0 -2 1 -1 0 -2 1 -1 0 -2 1 -1 0 -1 1 -1 
0 -2 1 -1 0 -2 1 -1 0 -2 2 -2 0 -3 2 -2 
0 -2 1 -1 0 -2 2 -2 0 -2 1 -1 0 -1 1 -1 
0 -2 2 -2 0 -2 2 -2 0 -2 2 -2 0 -2 2 -2 
0 -2 2 -2 1 -1 0 -2 2 -2 0 -1 2 -2 0 -1 
2 -2 0 -1 2 -2 1 -1 0 -1 2 -2 1 -1 1 -1 
1 -1 1 -1 1 -1 1 -1 1 -1 1 -1 1 -1 1 -1 
1 0 1 -1 1 -1 1 0 1 -1 1 0 1 -1 1 0 
1 0 1 -1 1 0 1 0 1 0 1 0 1 0 1 0 
1 0 1 0 1 0 3254 2698 100 MP stroke
1 0 1 0 1 1 1 0 1 0 1 1 1 0 1 1 
1 1 1 0 1 1 1 1 1 1 1 1 1 1 1 1 
1 1 1 1 1 1 0 1 2 2 1 1 0 1 2 2 
0 1 2 2 1 1 0 2 2 2 0 1 2 2 0 2 
2 2 0 2 2 2 0 2 2 2 0 2 1 1 0 2 
2 2 0 3 2 2 0 2 1 1 0 2 1 1 0 1 
1 1 0 2 1 1 0 1 1 1 0 3 1 1 0 2 
1 1 0 1 1 1 0 2 1 1 0 2 1 1 0 3 
1 1 0 2 1 1 0 2 1 1 0 3 1 1 0 2 
1 1 0 2 1 1 0 3 1 1 0 2 1 1 0 3 
1 1 0 2 1 1 0 3 1 1 0 4 1 1 0 2 
1 1 0 3 1 1 0 3 1 1 0 3 1 1 0 4 
1 1 0 2 1 1 3184 2549 100 MP stroke
0 4 1 1 0 3 1 1 0 4 1 1 0 3 1 1 
0 3 1 1 0 4 1 1 0 4 1 1 0 4 1 1 
0 4 1 1 0 3 1 1 0 4 1 1 0 4 1 1 
0 4 1 1 0 5 1 1 0 3 1 1 0 5 1 1 
0 4 1 1 0 5 1 1 0 5 1 1 0 4 1 1 
0 5 1 1 0 4 1 1 0 5 1 1 0 5 1 1 
0 4 1 1 0 6 1 1 0 4 1 1 0 5 1 2 
0 5 1 1 0 5 1 1 0 5 1 1 0 5 1 1 
0 6 1 1 0 6 1 1 0 5 1 1 0 6 1 1 
0 5 1 1 0 6 1 1 0 6 1 2 0 5 1 1 
0 6 1 1 0 5 1 2 0 6 1 1 0 7 1 1 
0 5 1 2 0 6 1 2 0 5 1 1 0 7 1 1 
0 7 1 1 0 6 3135 2253 100 MP stroke
1 1 0 7 1 2 0 5 1 2 0 7 1 1 0 7 
1 2 0 5 1 2 0 7 1 1 0 6 1 2 0 7 
1 2 0 7 1 2 0 6 1 1 0 8 1 1 0 6 
1 2 0 8 1 1 0 8 1 1 0 7 1 1 0 8 
1 2 0 6 1 2 0 8 1 1 0 9 1 1 0 7 
1 1 0 9 1 1 0 7 1 2 0 8 1 2 0 8 
1 2 0 7 1 1 0 9 1 2 0 7 1 1 0 9 
1 2 0 9 1 1 0 8 1 1 0 9 1 2 0 7 
1 2 0 9 1 2 0 9 1 2 0 7 1 2 0 10 
1 1 0 8 1 2 0 9 1 2 0 10 1 2 0 7 
1 2 0 10 1 2 0 8 1 1 0 10 1 2 0 10 
1 2 0 8 1 2 0 10 1 2 0 8 1 2 0 10 
1 2 0 11 1 2 3085 1781 100 MP stroke
0 8 1 2 0 10 1 2 0 9 1 2 0 10 1 3 
0 10 1 2 0 9 1 2 0 11 1 2 0 8 1 3 
0 11 1 2 0 11 1 2 0 9 1 2 0 11 1 2 
0 11 1 3 0 9 1 2 0 11 1 3 0 9 1 2 
0 12 1 2 0 11 1 3 0 9 1 2 0 12 1 2 
0 10 1 2 0 12 1 2 0 12 1 3 0 9 1 3 
0 12 1 2 0 10 1 2 0 13 1 2 0 12 1 3 
0 10 1 2 0 13 1 2 0 10 1 3 0 12 1 3 
0 13 1 2 0 10 1 3 0 13 1 2 0 11 1 2 
0 13 1 3 0 13 1 3 0 10 1 3 0 13 1 3 
0 10 1 3 0 13 1 3 0 13 1 3 0 11 1 3 
0 11 0 -2 1 -1 0 -7 1 -1 0 -8 1 -1 0 -8 
1 -1 0 -6 1 -2 3036 1221 100 MP stroke
0 -7 1 -2 0 -6 1 -1 0 -8 1 -1 0 -8 1 -1 
0 -6 1 -2 0 -7 1 -2 0 -6 1 -1 0 -8 1 -1 
0 -7 1 -2 0 -6 1 -1 0 -8 1 -1 0 -6 1 -2 
0 -7 1 -2 0 -7 1 -2 0 -5 1 -2 0 -7 1 -2 
0 -6 1 -1 0 -8 1 -1 0 -7 1 -2 0 -6 1 -1 
0 -8 1 -1 0 -6 1 -1 0 -8 1 -1 0 -8 1 -1 
0 -6 1 -1 0 -8 1 -1 0 -6 1 -2 0 -7 1 -1 
0 -8 1 -1 0 -6 1 -1 0 -8 1 -1 0 -6 1 -1 
0 -8 1 -1 0 -7 1 -2 0 -5 1 -2 0 -7 1 -2 
0 -5 1 -2 0 -7 1 -1 0 -8 1 -1 0 -6 1 -1 
0 -7 1 -2 0 -6 1 -1 0 -7 1 -2 0 -7 1 -1 
0 -6 1 -1 0 -7 1 -2 0 -5 1 -2 0 -7 1 -1 
0 -7 1 -2 0 -6 2987 1629 100 MP stroke
1 -1 0 -7 1 -1 0 -6 1 -1 0 -8 1 -1 0 -7 
1 -1 0 -6 1 -1 0 -7 1 -2 0 -5 1 -2 0 -7 
1 -1 0 -7 1 -2 0 -5 1 -1 0 -7 1 -2 0 -5 
1 -2 0 -7 1 -1 0 -7 1 -1 0 -6 1 -1 0 -7 
1 -1 0 -6 1 -1 0 -7 1 -2 0 -6 1 -2 0 -5 
1 -2 0 -6 1 -2 0 -5 1 -2 0 -6 1 -2 0 -7 
1 -1 0 -5 1 -2 0 -6 1 -2 0 -5 1 -1 0 -7 
1 -2 0 -6 1 -2 0 -5 1 -1 0 -7 1 -1 0 -6 
1 -1 0 -7 1 -1 0 -7 1 -1 0 -5 1 -2 0 -6 
1 -1 0 -6 1 -1 0 -7 1 -1 0 -6 1 -2 0 -5 
1 -1 0 -7 1 -1 0 -5 1 -2 0 -6 1 -1 0 -7 
1 -1 0 -5 1 -2 0 -6 1 -1 0 -6 1 -1 0 -6 
1 -2 0 -6 1 -1 2937 2001 100 MP stroke
0 -5 1 -2 0 -6 1 -1 0 -5 1 -2 0 -6 1 -1 
0 -7 1 -1 0 -5 1 -1 0 -6 1 -2 0 -5 1 -1 
0 -6 1 -1 0 -7 1 -1 0 -5 1 -1 0 -6 1 -2 
0 -5 1 -1 0 -6 1 -1 0 -6 1 -2 0 -4 1 -2 
0 -6 1 -1 0 -5 1 -1 0 -6 1 -1 0 -6 1 -2 
0 -4 1 -2 0 -6 1 -1 0 -5 1 -1 0 -6 1 -1 
0 -6 1 -1 0 -5 1 -1 0 -6 1 -1 0 -5 1 -1 
0 -6 1 -1 0 -6 1 -1 0 -5 1 -1 0 -6 1 -1 
0 -6 1 -1 0 -5 1 -1 0 -5 1 -2 0 -4 1 -1 
0 -6 1 -1 0 -6 1 -1 0 -5 1 -1 0 -5 1 -1 
0 -5 1 -1 0 -6 1 -1 0 -5 1 -2 0 -4 1 -1 
0 -6 1 -1 0 -4 1 -1 0 -6 1 -1 0 -5 1 -1 
0 -5 1 -1 0 -5 2888 2332 100 MP stroke
1 -1 0 -5 1 -1 0 -5 1 -1 0 -6 1 -1 0 -4 
1 -1 0 -5 1 -1 0 -5 1 -1 0 -5 1 -1 0 -5 
1 -1 0 -5 1 -1 0 -5 1 -1 0 -4 1 -1 0 -5 
1 -1 0 -5 1 -1 0 -4 1 -1 0 -5 1 -1 0 -5 
1 -1 0 -5 1 -1 0 -5 1 -1 0 -4 1 -1 0 -4 
1 -1 0 -4 1 -1 0 -5 1 -1 0 -5 1 -1 0 -4 
1 -1 0 -5 1 -1 0 -4 1 -1 0 -4 1 -1 0 -5 
1 -1 0 -4 1 -1 0 -4 1 -1 0 -4 1 -1 0 -5 
1 -1 0 -4 1 -1 0 -4 1 -1 0 -4 1 -1 0 -4 
1 -1 0 -4 1 -1 0 -4 1 -1 0 -4 1 -1 0 -4 
1 -1 0 -3 1 -1 0 -5 1 -1 0 -4 1 -1 0 -3 
1 -1 0 -4 1 -1 0 -4 1 -1 0 -4 1 -1 0 -4 
1 -1 0 -3 1 -1 2838 2597 100 MP stroke
0 -4 1 -1 0 -3 1 -1 0 -4 1 -1 0 -3 1 -1 
0 -3 1 -1 0 -4 1 -1 0 -3 1 -1 0 -4 1 -1 
0 -4 1 -1 0 -2 1 -1 0 -4 1 -1 0 -3 1 -1 
0 -3 1 -1 0 -4 1 -1 0 -2 1 -1 0 -4 1 -1 
0 -2 1 -1 0 -4 1 -1 0 -3 1 -1 0 -2 1 -1 
0 -4 1 -1 0 -2 1 -1 0 -3 1 -1 0 -3 1 -1 
0 -3 1 -1 0 -3 1 -1 0 -2 1 -1 0 -3 1 -1 
0 -3 1 -1 0 -2 1 -1 0 -3 1 -1 0 -2 1 -1 
0 -2 1 -1 0 -3 1 -1 0 -2 1 -1 0 -3 1 -1 
0 -2 1 -1 0 -2 1 -1 0 -3 1 -1 0 -1 1 -1 
0 -3 1 -1 0 -2 1 -1 0 -2 1 -1 0 -2 1 -1 
0 -2 1 -1 0 -2 1 -1 0 -1 1 -1 0 -2 1 -1 
0 -2 1 -1 0 -2 2789 2782 100 MP stroke
1 -1 0 -2 1 -1 0 -1 1 -1 0 -2 1 -1 0 -2 
1 -1 0 -1 1 -1 0 -2 1 -1 0 -1 1 -1 0 -1 
1 -1 0 -3 2 -2 0 -2 1 -1 0 -1 1 -1 0 -1 
1 -1 0 -2 2 -2 0 -2 2 -2 0 -2 2 -2 0 -2 
2 -2 0 -1 2 -2 0 -2 2 -2 0 -1 2 -2 0 -1 
2 -2 1 -1 0 -1 2 -2 1 -1 1 -1 1 -1 1 -1 
1 -1 1 -1 1 -1 1 -1 1 -1 1 -1 1 -1 1 0 
1 -1 1 -1 1 0 1 -1 1 0 1 -1 1 0 1 0 
1 0 1 -1 1 0 1 0 1 0 1 0 1 0 1 0 
1 1 1 0 1 0 1 1 1 0 1 0 1 1 1 1 
1 0 1 1 1 1 1 1 1 0 1 1 1 1 1 1 
1 1 0 1 2 2 1 1 0 1 2 2 0 1 2 2 
1 1 0 2 2 2 2701 2838 100 MP stroke
0 1 2 2 0 2 2 2 0 2 2 2 0 1 1 1 
0 2 2 2 0 3 2 2 0 2 1 1 0 1 1 1 
0 2 1 1 0 1 1 1 0 2 1 1 0 2 1 1 
0 1 1 1 0 2 1 1 0 2 1 1 0 2 1 1 
0 2 1 1 0 2 1 1 0 2 1 1 0 3 1 1 
0 2 1 1 0 3 1 1 0 2 1 1 0 2 1 1 
0 3 1 1 0 2 1 1 0 3 1 1 0 3 1 1 
0 3 1 1 0 3 1 1 0 3 1 1 0 3 1 1 
0 3 1 1 0 3 1 1 0 4 1 1 0 3 1 1 
0 3 1 1 0 3 1 1 0 4 1 1 0 4 1 1 
0 3 1 1 0 4 1 1 0 4 1 1 0 4 1 1 
0 4 1 1 0 4 1 1 0 4 1 1 0 4 1 1 
0 4 1 1 0 5 2647 2648 100 MP stroke
1 1 0 4 1 1 0 4 1 1 0 4 1 1 0 5 
1 1 0 5 1 1 0 5 1 1 0 5 1 1 0 4 
1 1 0 5 1 1 0 6 1 1 0 4 1 1 0 6 
1 1 0 4 1 1 0 6 1 1 0 6 1 1 0 5 
1 1 0 6 1 1 0 5 1 1 0 6 1 1 0 6 
1 1 0 5 1 1 0 6 1 2 0 5 1 1 0 6 
1 1 0 7 1 1 0 5 1 2 0 6 1 1 0 6 
1 1 0 7 1 1 0 7 1 1 0 5 1 2 0 7 
1 1 0 6 1 1 0 7 1 1 0 7 1 2 0 5 
1 2 0 7 1 2 0 5 1 2 0 7 1 2 0 7 
1 2 0 6 1 1 0 8 1 1 0 6 1 2 0 7 
1 2 0 8 1 1 0 7 1 1 0 8 1 2 0 6 
1 2 0 8 1 1 2597 2297 100 MP stroke
0 8 1 2 0 7 1 1 0 9 1 1 0 7 1 2 
0 8 1 2 0 8 1 2 0 7 1 1 0 9 1 2 
0 7 1 1 0 9 1 2 0 9 1 2 0 7 1 2 
0 9 1 1 0 8 1 1 0 10 1 1 0 10 1 2 
0 7 1 2 0 9 1 2 0 8 1 2 0 9 1 2 
0 10 1 2 0 7 1 2 0 10 1 2 0 8 1 2 
0 10 1 2 0 10 1 2 0 8 1 2 0 10 1 2 
0 10 1 2 0 8 1 2 0 11 1 2 0 8 1 2 
0 11 1 2 0 11 1 2 0 8 1 2 0 11 1 2 
0 9 1 2 0 11 1 2 0 11 1 2 0 9 1 2 
0 12 1 2 0 9 1 2 0 11 1 3 0 11 1 2 
0 9 1 3 0 11 1 3 0 9 1 2 0 12 1 2 
0 12 1 2 0 10 2548 1741 100 MP stroke
1 2 0 12 1 3 0 9 1 3 0 12 1 2 0 12 
1 3 0 10 1 2 0 12 1 3 0 10 1 2 0 13 
1 2 0 13 1 2 0 10 1 3 0 13 1 2 0 11 
1 2 0 13 1 3 0 13 1 2 0 11 1 2 0 13 
1 3 0 11 1 2 0 14 1 2 0 14 1 2 0 11 
1 3 0 13 1 3 0 11 1 3 0 13 1 3 0 14 
1 3 0 11 1 3 0 14 1 2 0 12 1 2 0 15 
1 2 0 15 1 2 0 12 1 3 0 14 1 3 0 12 
1 2 0 15 1 3 0 15 1 2 0 12 1 3 0 15 
1 3 0 12 1 3 0 15 1 3 0 15 1 3 0 12 
1 3 0 15 1 3 0 12 1 4 0 6 0 -5 1 -2 
0 -7 1 -2 0 -6 1 -2 0 -7 1 -2 0 -6 1 -2 
0 -7 1 -2 0 -8 2499 1151 100 MP stroke
1 -1 0 -6 1 -2 0 -8 1 -1 0 -6 1 -2 0 -7 
1 -2 0 -8 1 -1 0 -6 1 -2 0 -8 1 -1 0 -6 
1 -2 0 -7 1 -2 0 -8 1 -1 0 -6 1 -2 0 -7 
1 -2 0 -6 1 -1 0 -8 1 -2 0 -7 1 -2 0 -6 
1 -1 0 -8 1 -1 0 -6 1 -2 0 -7 1 -2 0 -8 
1 -1 0 -6 1 -2 0 -7 1 -2 0 -6 1 -1 0 -8 
1 -1 0 -8 1 -1 0 -6 1 -2 0 -7 1 -2 0 -6 
1 -1 0 -8 1 -1 0 -7 1 -2 0 -6 1 -1 0 -8 
1 -1 0 -6 1 -2 0 -7 1 -2 0 -7 1 -2 0 -5 
1 -2 0 -7 1 -2 0 -6 1 -1 0 -7 1 -2 0 -7 
1 -2 0 -6 1 -1 0 -7 1 -2 0 -6 1 -1 0 -8 
1 -1 0 -7 1 -2 0 -6 1 -1 0 -7 1 -2 0 -6 
1 -1 0 -7 1 -2 2449 1563 100 MP stroke
0 -7 1 -1 0 -6 1 -2 0 -7 1 -1 0 -6 1 -1 
0 -8 1 -1 0 -7 1 -2 0 -5 1 -2 0 -7 1 -1 
0 -6 1 -1 0 -8 1 -1 0 -7 1 -2 0 -5 1 -2 
0 -7 1 -1 0 -6 1 -1 0 -7 1 -2 0 -7 1 -1 
0 -6 1 -1 0 -7 1 -1 0 -6 1 -1 0 -7 1 -2 
0 -7 1 -1 0 -6 1 -1 0 -7 1 -1 0 -6 1 -1 
0 -7 1 -2 0 -7 1 -1 0 -5 1 -2 0 -7 1 -1 
0 -6 1 -1 0 -7 1 -1 0 -7 1 -1 0 -6 1 -1 
0 -7 1 -1 0 -6 1 -1 0 -7 1 -1 0 -7 1 -1 
0 -6 1 -1 0 -7 1 -1 0 -5 1 -2 0 -6 1 -2 
0 -6 1 -2 0 -5 1 -1 0 -7 1 -1 0 -6 1 -1 
0 -6 1 -2 0 -6 1 -2 0 -5 1 -1 0 -7 1 -1 
0 -7 1 -1 0 -5 2400 1947 100 MP stroke
1 -1 0 -7 1 -1 0 -5 1 -2 0 -6 1 -1 0 -7 
1 -1 0 -5 1 -2 0 -6 1 -1 0 -5 1 -2 0 -6 
1 -1 0 -7 1 -1 0 -5 1 -1 0 -6 1 -2 0 -5 
1 -1 0 -6 1 -2 0 -6 1 -1 0 -5 1 -1 0 -6 
1 -2 0 -5 1 -1 0 -6 1 -1 0 -6 1 -2 0 -5 
1 -1 0 -6 1 -1 0 -5 1 -1 0 -6 1 -2 0 -6 
1 -1 0 -5 1 -1 0 -6 1 -1 0 -5 1 -1 0 -6 
1 -1 0 -6 1 -1 0 -5 1 -1 0 -6 1 -1 0 -5 
1 -1 0 -6 1 -1 0 -6 1 -1 0 -5 1 -1 0 -6 
1 -1 0 -5 1 -1 0 -5 1 -2 0 -5 1 -1 0 -5 
1 -1 0 -6 1 -1 0 -4 1 -2 0 -5 1 -1 0 -6 
1 -1 0 -5 1 -1 0 -5 1 -1 0 -5 1 -1 0 -5 
1 -2 0 -5 1 -1 2350 2279 100 MP stroke
0 -4 1 -2 0 -5 1 -1 0 -4 1 -2 0 -5 1 -1 
0 -5 1 -1 0 -5 1 -1 0 -5 1 -1 0 -4 1 -1 
0 -6 1 -1 0 -5 1 -1 0 -4 1 -1 0 -5 1 -1 
0 -5 1 -1 0 -5 1 -1 0 -5 1 -1 0 -4 1 -1 
0 -5 1 -1 0 -4 1 -1 0 -5 1 -1 0 -5 1 -1 
0 -4 1 -1 0 -5 1 -1 0 -4 1 -1 0 -5 1 -1 
0 -5 1 -1 0 -3 1 -1 0 -5 1 -1 0 -4 1 -1 
0 -5 1 -1 0 -4 1 -1 0 -4 1 -1 0 -4 1 -1 
0 -4 1 -1 0 -5 1 -1 0 -4 1 -1 0 -4 1 -1 
0 -4 1 -1 0 -3 1 -1 0 -5 1 -1 0 -4 1 -1 
0 -3 1 -1 0 -5 1 -1 0 -3 1 -1 0 -4 1 -1 
0 -4 1 -1 0 -3 1 -1 0 -4 1 -1 0 -4 1 -1 
0 -4 1 -1 0 -4 2301 2548 100 MP stroke
1 -1 0 -3 1 -1 0 -3 1 -1 0 -3 1 -1 0 -4 
1 -1 0 -4 1 -1 0 -3 1 -1 0 -4 1 -1 0 -2 
1 -1 0 -4 1 -1 0 -3 1 -1 0 -3 1 -1 0 -4 
1 -1 0 -2 1 -1 0 -4 1 -1 0 -3 1 -1 0 -3 
1 -1 0 -3 1 -1 0 -2 1 -1 0 -4 1 -1 0 -3 
1 -1 0 -2 1 -1 0 -3 1 -1 0 -2 1 -1 0 -3 
1 -1 0 -3 1 -1 0 -3 1 -1 0 -2 1 -1 0 -3 
1 -1 0 -2 1 -1 0 -3 1 -1 0 -2 1 -1 0 -3 
1 -1 0 -2 1 -1 0 -2 1 -1 0 -3 1 -1 0 -1 
1 -1 0 -3 1 -1 0 -2 1 -1 0 -2 1 -1 0 -2 
1 -1 0 -2 1 -1 0 -2 1 -1 0 -2 1 -1 0 -2 
1 -1 0 -2 1 -1 0 -1 1 -1 0 -3 2 -2 0 -2 
1 -1 0 -3 2 -2 2249 2731 100 MP stroke
0 -2 1 -1 0 -1 1 -1 0 -2 1 -1 0 -2 2 -2 
0 -2 1 -1 0 -1 1 -1 0 -2 2 -2 0 -2 2 -2 
0 -2 1 -1 1 -1 0 -2 2 -2 0 -2 2 -2 0 -1 
2 -2 1 -1 0 -2 2 -2 0 -1 2 -2 1 -1 1 -1 
0 -1 2 -2 1 -1 1 -1 1 -1 1 -1 1 -1 1 -1 
1 0 1 -1 1 -1 1 -1 1 0 1 -1 1 0 1 -1 
1 0 1 -1 1 0 1 0 1 -1 1 0 1 0 1 0 
1 0 1 0 1 0 1 1 1 0 1 0 1 1 1 0 
1 0 1 1 1 1 1 0 1 1 1 1 1 0 1 1 
1 1 1 1 1 1 0 1 2 2 1 1 0 1 2 2 
1 1 1 1 0 2 2 2 1 1 0 2 2 2 0 1 
1 1 1 1 0 2 1 1 1 1 0 2 1 1 0 2 
2 2 0 2 2 2 2159 2751 100 MP stroke
0 2 1 1 0 2 1 1 0 1 1 1 0 2 1 1 
0 1 1 1 0 2 1 1 0 2 1 1 0 2 1 1 
0 2 1 1 0 1 1 1 0 3 1 1 0 2 1 1 
0 2 1 1 0 2 1 1 0 2 1 1 0 3 1 1 
0 3 1 1 0 2 1 1 0 3 1 1 0 2 1 1 
0 3 1 1 0 3 1 1 0 3 1 1 0 3 1 1 
0 2 1 1 0 4 1 1 0 3 1 1 0 3 1 1 
0 4 1 1 0 3 1 1 0 3 1 1 0 4 1 1 
0 3 1 1 0 4 1 1 0 3 1 1 0 5 1 1 
0 4 1 1 0 3 1 1 0 5 1 1 0 3 1 1 
0 5 1 1 0 4 1 1 0 4 1 1 0 5 1 1 
0 4 1 1 0 5 1 1 0 5 1 1 0 4 1 1 
0 5 1 1 0 4 2110 2548 100 MP stroke
1 1 0 5 1 1 0 6 1 1 0 4 1 1 0 5 
1 2 0 4 1 1 0 6 1 1 0 5 1 2 0 4 
1 1 0 6 1 1 0 5 1 1 0 6 1 1 0 6 
1 2 0 4 1 2 0 6 1 1 0 5 1 1 0 6 
1 2 0 6 1 1 0 5 1 2 0 6 1 2 0 5 
1 1 0 7 1 1 0 7 1 1 0 6 1 1 0 7 
1 1 0 6 1 1 0 7 1 1 0 7 1 2 0 6 
1 1 0 7 1 2 0 5 1 2 0 7 1 2 0 7 
1 2 0 6 1 1 0 8 1 1 0 6 1 2 0 8 
1 1 0 8 1 1 0 7 1 1 0 8 1 2 0 8 
1 1 0 7 1 1 0 9 1 1 0 7 1 2 0 8 
1 1 0 9 1 2 0 6 1 2 0 9 1 1 0 7 
1 2 0 8 1 2 2060 2166 100 MP stroke
0 9 1 2 0 7 1 2 0 8 1 2 0 7 1 2 
0 9 1 2 0 9 1 2 0 7 1 2 0 10 1 1 
0 8 1 2 0 9 1 2 0 10 1 2 0 7 1 2 
0 10 1 2 0 8 1 1 0 10 1 2 0 10 1 2 
0 8 1 2 0 10 1 2 0 8 1 2 0 11 1 2 
0 10 1 2 0 8 1 2 0 11 1 2 0 8 1 2 
0 11 1 2 0 11 1 2 0 9 1 2 0 11 1 2 
0 8 1 3 0 11 1 2 0 11 1 2 0 9 1 2 
0 12 1 2 0 9 1 2 0 12 1 2 0 11 1 3 
0 9 1 2 0 12 1 2 0 10 1 2 0 12 1 2 
0 12 1 2 0 10 1 2 0 13 1 2 0 10 1 2 
0 12 1 3 0 12 1 3 0 9 1 3 0 12 1 3 
0 10 1 2 0 13 2011 1571 100 MP stroke
1 3 0 12 1 3 0 10 1 3 0 13 1 2 0 11 
1 2 0 13 1 3 0 13 1 3 0 10 1 3 0 13 
1 3 0 10 1 3 0 14 1 2 0 14 1 3 0 10 
1 3 0 14 1 3 0 11 1 2 0 14 1 3 0 14 
1 3 0 11 1 3 0 14 1 3 0 11 1 3 0 15 
1 2 0 15 1 3 0 11 1 3 0 15 1 3 0 11 
1 3 0 15 1 3 0 15 1 3 0 12 1 3 0 15 
1 3 0 12 1 3 0 15 1 3 0 15 1 3 0 13 
1 3 0 15 1 3 0 13 1 3 0 15 1 4 0 15 
1 3 0 13 1 3 0 16 1 3 0 13 1 3 0 16 
1 3 0 17 1 -2 0 -6 1 -2 0 -7 1 -2 0 -6 
1 -2 0 -7 1 -2 0 -8 1 -1 0 -6 1 -2 0 -7 
1 -2 0 -6 1 -2 1961 978 100 MP stroke
0 -7 1 -2 0 -8 1 -1 0 -6 1 -2 0 -7 1 -2 
0 -6 1 -1 0 -8 1 -2 0 -7 1 -2 0 -6 1 -1 
0 -8 1 -1 0 -6 1 -2 0 -8 1 -1 0 -8 1 -1 
0 -6 1 -2 0 -7 1 -2 0 -6 1 -1 0 -8 1 -1 
0 -8 1 -1 0 -6 1 -2 0 -7 1 -2 0 -6 1 -1 
0 -8 1 -1 0 -8 1 -1 0 -6 1 -2 0 -7 1 -2 
0 -5 1 -2 0 -7 1 -2 0 -7 1 -2 0 -6 1 -1 
0 -8 1 -1 0 -6 1 -1 0 -8 1 -1 0 -8 1 -1 
0 -6 1 -1 0 -8 1 -1 0 -6 1 -2 0 -7 1 -1 
0 -8 1 -1 0 -6 1 -1 0 -8 1 -1 0 -6 1 -1 
0 -8 1 -1 0 -7 1 -2 0 -5 1 -2 0 -7 1 -2 
0 -5 1 -2 0 -7 1 -1 0 -8 1 -1 0 -6 1 -1 
0 -7 1 -2 0 -5 1912 1391 100 MP stroke
1 -2 0 -7 1 -1 0 -8 1 -1 0 -6 1 -1 0 -7 
1 -2 0 -5 1 -2 0 -7 1 -1 0 -7 1 -2 0 -5 
1 -2 0 -7 1 -1 0 -7 1 -1 0 -6 1 -1 0 -7 
1 -2 0 -5 1 -2 0 -7 1 -1 0 -7 1 -1 0 -6 
1 -1 0 -7 1 -2 0 -5 1 -1 0 -7 1 -2 0 -7 
1 -1 0 -5 1 -2 0 -7 1 -1 0 -5 1 -2 0 -7 
1 -1 0 -7 1 -1 0 -6 1 -1 0 -7 1 -1 0 -5 
1 -2 0 -6 1 -2 0 -6 1 -2 0 -5 1 -2 0 -6 
1 -2 0 -5 1 -1 0 -7 1 -1 0 -7 1 -1 0 -5 
1 -2 0 -6 1 -2 0 -5 1 -1 0 -7 1 -1 0 -7 
1 -1 0 -5 1 -1 0 -7 1 -1 0 -5 1 -2 0 -6 
1 -1 0 -7 1 -1 0 -5 1 -2 0 -6 1 -1 0 -5 
1 -2 0 -6 1 -1 1862 1765 100 MP stroke
0 -7 1 -1 0 -5 1 -1 0 -7 1 -1 0 -5 1 -1 
0 -6 1 -2 0 -6 1 -1 0 -5 1 -1 0 -7 1 -1 
0 -5 1 -1 0 -6 1 -2 0 -6 1 -1 0 -5 1 -1 
0 -6 1 -1 0 -5 1 -2 0 -6 1 -1 0 -6 1 -1 
0 -5 1 -1 0 -6 1 -1 0 -5 1 -1 0 -6 1 -2 
0 -6 1 -1 0 -5 1 -1 0 -6 1 -1 0 -5 1 -1 
0 -6 1 -1 0 -6 1 -1 0 -5 1 -1 0 -6 1 -1 
0 -4 1 -1 0 -6 1 -1 0 -6 1 -1 0 -5 1 -1 
0 -6 1 -1 0 -4 1 -2 0 -5 1 -1 0 -6 1 -1 
0 -5 1 -1 0 -5 1 -1 0 -5 1 -1 0 -6 1 -1 
0 -5 1 -1 0 -5 1 -1 0 -5 1 -1 0 -5 1 -1 
0 -5 1 -1 0 -6 1 -1 0 -4 1 -1 0 -5 1 -2 
0 -4 1 -1 0 -5 1813 2092 100 MP stroke
1 -1 0 -6 1 -1 0 -4 1 -1 0 -5 1 -1 0 -4 
1 -1 0 -5 1 -2 0 -5 1 -1 0 -4 1 -1 0 -5 
1 -1 0 -4 1 -1 0 -5 1 -1 0 -5 1 -1 0 -4 
1 -1 0 -5 1 -1 0 -4 1 -1 0 -5 1 -1 0 -5 
1 -1 0 -4 1 -1 0 -4 1 -1 0 -4 1 -1 0 -5 
1 -1 0 -5 1 -1 0 -3 1 -1 0 -5 1 -1 0 -4 
1 -1 0 -4 1 -1 0 -5 1 -1 0 -3 1 -1 0 -5 
1 -1 0 -3 1 -1 0 -5 1 -1 0 -4 1 -1 0 -4 
1 -1 0 -4 1 -1 0 -3 1 -1 0 -4 1 -1 0 -5 
1 -1 0 -3 1 -1 0 -4 1 -1 0 -3 1 -1 0 -4 
1 -1 0 -4 1 -1 0 -3 1 -1 0 -4 1 -1 0 -3 
1 -1 0 -4 1 -1 0 -4 1 -1 0 -3 1 -1 0 -4 
1 -1 0 -3 1 -1 1763 2347 100 MP stroke
0 -3 1 -1 0 -4 1 -1 0 -3 1 -1 0 -3 1 -1 
0 -3 1 -1 0 -3 1 -1 0 -4 1 -1 0 -3 1 -1 
0 -3 1 -1 0 -2 1 -1 0 -4 1 -1 0 -3 1 -1 
0 -2 1 -1 0 -4 1 -1 0 -2 1 -1 0 -3 1 -1 
0 -3 1 -1 0 -2 1 -1 0 -3 1 -1 0 -3 1 -1 
0 -2 1 -1 0 -3 1 -1 0 -2 1 -1 0 -3 1 -1 
0 -2 1 -1 0 -3 1 -1 0 -2 1 -1 0 -2 1 -1 
0 -3 1 -1 0 -2 1 -1 0 -2 1 -1 0 -2 1 -1 
0 -2 1 -1 0 -2 1 -1 0 -3 1 -1 0 -1 1 -1 
0 -2 1 -1 0 -2 1 -1 0 -2 1 -1 0 -2 1 -1 
0 -2 1 -1 0 -1 1 -1 0 -2 1 -1 0 -2 1 -1 
0 -1 1 -1 0 -2 1 -1 0 -1 1 -1 0 -2 1 -1 
0 -1 1 -1 0 -2 1714 2516 100 MP stroke
1 -1 0 -1 1 -1 0 -1 1 -1 0 -2 2 -2 0 -2 
1 -1 0 -1 1 -1 0 -1 1 -1 0 -1 1 -1 0 -1 
1 -1 0 -1 1 -1 0 -1 2 -2 0 -2 2 -2 1 -1 
0 -2 2 -2 1 -1 0 -1 2 -2 0 -1 2 -2 1 -1 
1 -1 1 -1 1 -1 1 -1 1 -1 1 -1 1 -1 1 -1 
1 -1 1 -1 1 -1 1 0 1 -1 1 0 1 -1 1 0 
1 -1 1 0 1 0 1 -1 1 0 1 0 1 0 1 0 
1 0 1 0 1 0 1 0 1 1 1 0 1 0 1 1 
1 0 1 1 1 0 1 1 1 1 1 0 1 1 1 1 
1 1 1 1 1 1 1 1 0 1 2 2 1 1 0 1 
2 2 0 1 2 2 1 1 0 2 2 2 1 1 0 2 
2 2 0 2 2 2 0 2 2 2 0 2 1 1 0 1 
1 1 0 2 2 2 1625 2525 100 MP stroke
0 2 1 1 0 1 1 1 0 2 1 1 0 2 1 1 
0 1 1 1 0 2 1 1 0 2 1 1 0 1 1 1 
0 3 1 1 0 1 1 1 0 3 1 1 0 2 1 1 
0 2 1 1 0 2 1 1 0 2 1 1 0 3 1 1 
0 3 1 1 0 2 1 1 0 3 1 1 0 2 1 1 
0 3 1 1 0 3 1 1 0 3 1 1 0 3 1 1 
0 2 1 1 0 4 1 1 0 3 1 1 0 3 1 1 
0 4 1 1 0 2 1 1 0 4 1 1 0 4 1 1 
0 3 1 1 0 4 1 1 0 3 1 1 0 4 1 1 
0 4 1 1 0 4 1 1 0 4 1 1 0 4 1 1 
0 4 1 1 0 5 1 1 0 3 1 1 0 5 1 1 
0 4 1 1 0 5 1 1 0 5 1 1 0 4 1 1 
0 5 1 1 0 4 1576 2323 100 MP stroke
1 1 0 5 1 1 0 5 1 2 0 4 1 1 0 5 
1 1 0 5 1 1 0 5 1 1 0 6 1 1 0 5 
1 1 0 6 1 1 0 6 1 1 0 4 1 2 0 6 
1 1 0 5 1 1 0 6 1 1 0 6 1 1 0 5 
1 2 0 6 1 1 0 5 1 1 0 7 1 1 0 7 
1 1 0 5 1 1 0 7 1 1 0 6 1 1 0 7 
1 1 0 7 1 1 0 6 1 1 0 7 1 2 0 5 
1 2 0 7 1 1 0 7 1 2 0 6 1 1 0 7 
1 2 0 6 1 1 0 8 1 1 0 8 1 1 0 6 
1 2 0 7 1 2 0 6 1 2 0 7 1 2 0 8 
1 1 0 7 1 1 0 8 1 2 0 7 1 1 0 8 
1 2 0 8 1 2 0 6 1 2 0 8 1 2 0 7 
1 2 0 8 1 2 1526 1946 100 MP stroke
0 8 1 2 0 7 1 2 0 9 1 1 0 7 1 2 
0 9 1 2 0 9 1 2 0 7 1 2 0 9 1 2 
0 7 1 2 0 9 1 2 0 9 1 2 0 8 1 2 
0 9 1 2 0 8 1 1 0 10 1 2 0 10 1 2 
0 7 1 2 0 10 1 2 0 8 1 2 0 10 1 2 
0 10 1 2 0 8 1 3 0 10 1 2 0 8 1 2 
0 11 1 2 0 10 1 2 0 9 1 2 0 10 1 2 
0 9 1 2 0 11 1 2 0 11 1 2 0 9 1 2 
0 11 1 2 0 9 1 2 0 12 1 2 0 11 1 2 
0 9 1 3 0 11 1 2 0 9 1 3 0 11 1 3 
0 11 1 3 0 9 1 2 0 12 1 2 0 10 1 2 
0 12 1 3 0 12 1 2 0 10 1 2 0 12 1 3 
0 10 1 2 0 12 1477 1364 100 MP stroke
1 3 0 12 1 3 0 10 1 2 0 13 1 2 0 11 
1 2 0 13 1 2 0 13 1 3 0 10 1 3 0 13 
1 2 0 11 1 2 0 13 1 3 0 13 1 3 0 11 
1 2 0 14 1 2 0 11 1 3 0 13 1 3 0 14 
1 2 0 11 1 3 0 14 1 3 0 11 1 3 0 14 
1 2 0 14 1 3 0 11 1 3 0 15 1 2 0 12 
1 3 0 14 1 3 0 14 1 3 0 12 1 3 0 14 
1 3 0 12 1 3 0 15 1 3 0 15 1 3 0 11 
1 3 0 16 1 3 0 12 1 3 0 15 1 3 0 15 
1 3 0 12 1 4 0 15 1 3 0 12 1 4 0 15 
1 3 0 16 1 3 0 13 1 3 0 9 0 -2 1 -2 
0 -6 1 -1 0 -7 1 -2 0 -7 1 -1 0 -6 1 -1 
0 -7 1 -2 0 -5 1428 739 100 MP stroke
1 -2 0 -7 1 -1 0 -7 1 -2 0 -6 1 -1 0 -7 
1 -1 0 -6 1 -1 0 -8 1 -1 0 -7 1 -1 0 -6 
1 -1 0 -7 1 -2 0 -6 1 -1 0 -7 1 -1 0 -7 
1 -2 0 -5 1 -2 0 -7 1 -1 0 -6 1 -1 0 -7 
1 -2 0 -6 1 -2 0 -5 1 -2 0 -7 1 -1 0 -6 
1 -1 0 -7 1 -1 0 -7 1 -2 0 -5 1 -2 0 -7 
1 -1 0 -6 1 -1 0 -7 1 -1 0 -7 1 -1 0 -6 
1 -1 0 -7 1 -2 0 -6 1 -2 0 -5 1 -2 0 -7 
1 -1 0 -5 1 -2 0 -7 1 -1 0 -7 1 -1 0 -6 
1 -1 0 -7 1 -1 0 -5 1 -2 0 -7 1 -1 0 -7 
1 -1 0 -5 1 -2 0 -7 1 -1 0 -5 1 -2 0 -6 
1 -2 0 -6 1 -2 0 -5 1 -2 0 -6 1 -2 0 -5 
1 -1 0 -7 1 -1 1378 1120 100 MP stroke
0 -7 1 -1 0 -6 1 -1 0 -7 1 -1 0 -5 1 -2 
0 -6 1 -2 0 -6 1 -1 0 -6 1 -1 0 -7 1 -1 
0 -5 1 -2 0 -6 1 -1 0 -7 1 -1 0 -6 1 -1 
0 -6 1 -2 0 -5 1 -1 0 -7 1 -1 0 -7 1 -1 
0 -5 1 -1 0 -7 1 -1 0 -5 1 -2 0 -6 1 -1 
0 -7 1 -1 0 -5 1 -2 0 -6 1 -1 0 -5 1 -2 
0 -6 1 -1 0 -7 1 -1 0 -5 1 -1 0 -7 1 -1 
0 -5 1 -1 0 -7 1 -1 0 -6 1 -2 0 -5 1 -1 
0 -6 1 -1 0 -5 1 -2 0 -6 1 -1 0 -7 1 -1 
0 -5 1 -1 0 -6 1 -1 0 -5 1 -2 0 -6 1 -1 
0 -6 1 -2 0 -5 1 -1 0 -6 1 -1 0 -5 1 -1 
0 -6 1 -2 0 -6 1 -1 0 -5 1 -1 0 -6 1 -2 
0 -4 1 -2 0 -6 1329 1477 100 MP stroke
1 -1 0 -6 1 -1 0 -5 1 -1 0 -6 1 -1 0 -5 
1 -1 0 -6 1 -2 0 -6 1 -1 0 -5 1 -1 0 -6 
1 -1 0 -5 1 -1 0 -6 1 -1 0 -6 1 -1 0 -5 
1 -1 0 -6 1 -1 0 -5 1 -1 0 -6 1 -1 0 -6 
1 -1 0 -5 1 -1 0 -6 1 -1 0 -4 1 -2 0 -5 
1 -1 0 -6 1 -1 0 -5 1 -1 0 -6 1 -1 0 -5 
1 -1 0 -5 1 -2 0 -5 1 -1 0 -5 1 -1 0 -6 
1 -1 0 -4 1 -1 0 -6 1 -1 0 -6 1 -1 0 -4 
1 -1 0 -6 1 -1 0 -5 1 -1 0 -5 1 -1 0 -6 
1 -1 0 -4 1 -1 0 -6 1 -1 0 -4 1 -1 0 -6 
1 -1 0 -5 1 -1 0 -5 1 -1 0 -5 1 -1 0 -5 
1 -1 0 -5 1 -1 0 -5 1 -1 0 -5 1 -1 0 -5 
1 -1 0 -4 1 -1 1279 1789 100 MP stroke
0 -6 1 -1 0 -5 1 -1 0 -4 1 -1 0 -5 1 -1 
0 -5 1 -1 0 -5 1 -1 0 -5 1 -1 0 -4 1 -1 
0 -5 1 -1 0 -4 1 -1 0 -5 1 -1 0 -6 1 -1 
0 -4 1 -1 0 -5 1 -1 0 -4 1 -1 0 -5 1 -1 
0 -4 1 -1 0 -4 1 -1 0 -5 1 -1 0 -4 1 -1 
0 -5 1 -1 0 -5 1 -1 0 -4 1 -1 0 -4 1 -1 
0 -4 1 -1 0 -5 1 -1 0 -5 1 -1 0 -3 1 -1 
0 -5 1 -1 0 -4 1 -1 0 -4 1 -1 0 -5 1 -1 
0 -3 1 -1 0 -5 1 -1 0 -3 1 -1 0 -5 1 -1 
0 -4 1 -1 0 -4 1 -1 0 -4 1 -1 0 -4 1 -1 
0 -4 1 -1 0 -4 1 -1 0 -4 1 -1 0 -4 1 -1 
0 -3 1 -1 0 -5 1 -1 0 -4 1 -1 0 -3 1 -1 
0 -4 1 -1 0 -4 1230 2056 100 MP stroke
1 -1 0 -3 1 -1 0 -4 1 -1 0 -4 1 -1 0 -3 
1 -1 0 -4 1 -1 0 -4 1 -1 0 -3 1 -1 0 -3 
1 -1 0 -4 1 -1 0 -4 1 -1 0 -3 1 -1 0 -4 
1 -1 0 -3 1 -1 0 -3 1 -1 0 -4 1 -1 0 -3 
1 -1 0 -3 1 -1 0 -3 1 -1 0 -4 1 -1 0 -3 
1 -1 0 -3 1 -1 0 -3 1 -1 0 -3 1 -1 0 -3 
1 -1 0 -4 1 -1 0 -2 1 -1 0 -4 1 -1 0 -2 
1 -1 0 -3 1 -1 0 -3 1 -1 0 -3 1 -1 0 -3 
1 -1 0 -2 1 -1 0 -3 1 -1 0 -3 1 -1 0 -3 
1 -1 0 -3 1 -1 0 -2 1 -1 0 -3 1 -1 0 -3 
1 -1 0 -2 1 -1 0 -3 1 -1 0 -2 1 -1 0 -3 
1 -1 0 -2 1 -1 0 -2 1 -1 0 -3 1 -1 0 -2 
1 -1 0 -2 1 -1 1180 2254 100 MP stroke
0 -3 1 -1 0 -2 1 -1 0 -2 1 -1 0 -2 1 -1 
0 -2 1 -1 0 -3 1 -1 0 -1 1 -1 0 -3 1 -1 
0 -1 1 -1 0 -3 1 -1 0 -2 1 -1 0 -1 1 -1 
0 -2 1 -1 0 -2 1 -1 0 -2 1 -1 0 -3 2 -2 
0 -2 1 -1 0 -2 1 -1 0 -2 1 -1 0 -1 1 -1 
0 -2 1 -1 0 -1 1 -1 0 -2 1 -1 0 -1 1 -1 
0 -2 1 -1 0 -2 2 -2 0 -2 1 -1 0 -1 1 -1 
0 -2 2 -2 0 -2 1 -1 0 -1 1 -1 0 -1 1 -1 
0 -2 2 -2 0 -2 2 -2 0 -1 1 -1 0 -2 2 -2 
0 -1 2 -2 0 -2 2 -2 0 -1 2 -2 1 -1 0 -2 
2 -2 1 -1 0 -1 2 -2 1 -1 0 -1 2 -2 1 -1 
1 -1 1 -1 1 -1 1 -1 1 -1 1 -1 1 -1 1 -1 
1 -1 1 -1 1 -1 1111 2398 100 MP stroke
1 0 1 -1 1 -1 1 0 1 -1 1 -1 1 0 1 -1 
1 0 1 0 1 -1 1 0 1 0 1 0 1 -1 1 0 
1 0 1 0 1 0 1 0 1 0 1 1 1 0 1 0 
1 0 1 1 1 0 1 0 1 1 1 0 1 1 1 1 
1 0 1 1 1 0 1 1 1 1 1 1 1 1 1 1 
1 1 1 1 1 1 1 1 0 1 2 2 1 1 0 1 
2 2 1 1 0 1 2 2 1 1 0 2 2 2 0 1 
2 2 0 2 2 2 0 2 2 2 0 1 1 1 0 1 
1 1 0 1 1 1 0 1 1 1 0 2 2 2 0 2 
1 1 0 1 1 1 0 2 1 1 0 1 1 1 0 1 
1 1 0 2 1 1 0 1 1 1 0 2 1 1 0 2 
1 1 0 2 1 1 0 1 1 1 0 2 1 1 0 2 
1 1 0 2 1 1 1030 2314 100 MP stroke
0 2 1 1 0 2 1 1 0 2 1 1 0 2 1 1 
0 2 1 1 0 3 1 1 0 2 1 1 0 2 1 1 
0 3 1 1 0 2 1 1 0 3 1 1 0 2 1 1 
0 3 1 1 0 3 1 1 0 2 1 1 0 3 1 1 
0 2 1 1 0 3 1 1 0 4 1 1 0 2 1 1 
0 4 1 1 0 2 1 1 0 4 1 1 0 3 1 1 
0 3 1 1 0 3 1 1 0 3 1 1 0 4 1 1 
0 4 1 1 0 3 1 1 0 4 1 1 0 3 1 1 
0 4 1 1 0 4 1 1 0 3 1 1 0 4 1 1 
0 4 1 1 0 4 1 1 0 4 1 1 0 4 1 1 
0 4 1 1 0 4 1 1 0 4 1 1 0 5 1 1 
0 4 1 1 0 5 1 1 0 3 1 1 0 5 1 1 
0 5 1 1 0 4 981 2102 100 MP stroke
1 1 0 5 1 1 0 4 1 1 0 5 1 1 0 6 
1 1 0 4 1 1 0 5 1 1 0 5 1 1 0 5 
1 1 0 6 1 1 0 4 1 1 0 6 1 1 0 4 
1 1 0 6 1 1 0 6 1 1 0 5 1 1 0 6 
1 1 0 4 1 2 0 5 1 2 0 6 1 1 0 5 
1 1 0 6 1 1 0 5 1 1 0 6 1 1 0 7 
1 1 0 5 1 1 0 6 1 2 0 5 1 1 0 6 
1 2 0 6 1 1 0 6 1 1 0 7 1 1 0 5 
1 1 0 7 1 1 0 7 1 2 0 5 1 1 0 7 
1 1 0 6 1 1 0 7 1 2 0 7 1 1 0 6 
1 1 0 7 1 2 0 5 1 2 0 7 1 1 0 7 
1 2 0 6 1 1 0 8 1 1 0 6 1 1 0 8 
1 1 0 8 1 1 931 1757 100 MP stroke
0 6 1 2 0 7 1 2 0 6 1 2 0 7 1 2 
0 8 1 1 0 6 1 2 0 8 1 1 0 7 1 1 
0 8 1 2 0 8 1 1 0 7 1 2 0 8 1 1 
0 7 1 1 0 9 1 1 0 9 1 1 0 7 1 2 
0 8 1 2 0 6 1 2 0 9 1 1 0 9 1 2 
0 6 1 2 0 9 1 1 0 7 1 2 0 9 1 2 
0 8 1 2 0 7 1 2 0 9 1 2 0 7 1 2 
0 9 1 2 0 9 1 1 0 8 1 2 0 9 1 2 
0 9 899 1448 66 MP stroke
/c9 { 0.000000 1.000000 0.000000 sr} bdef
c9
1 2 0 -4 1 -2 0 -6 1 -1 0 -5 1 -1 0 -6 
1 -1 0 -6 1 -2 0 -4 1 -2 0 -6 1 -1 0 -5 
1 -1 0 -6 1 -1 0 -6 1 -1 0 -5 1 -1 0 -6 
1 -2 0 -4 1 -2 0 -6 1 -1 0 -6 1 -1 0 -5 
1 -1 0 -6 1 -1 0 -5 1 -1 0 -6 1 -1 0 -6 
1 -2 0 -4 1 -1 0 -6 1 -2 0 -4 1 -2 0 -5 
1 -2 0 -6 1 -1 0 -5 1 -1 0 -6 1 -1 0 -5 
1 -1 0 -6 1 -1 0 -6 1 -1 0 -5 1 -1 0 -6 
1 -1 0 -4 1 -2 0 -6 1 -1 0 -6 1 -1 0 -4 
1 -2 0 -5 1 -2 0 -4 1 -1 0 -6 1 -1 0 -6 
1 -1 0 -5 1 -1 0 -6 1 -1 0 -5 1 -1 0 -6 
1 -1 0 -6 1 -1 0 -4 1 -2 0 -5 1 -1 0 -5 
1 -1 0 -6 1 -1 6205 1861 100 MP stroke
0 -6 1 -1 0 -5 1 -1 0 -5 1 -2 0 -4 1 -1 
0 -6 1 -1 0 -6 1 -1 0 -5 1 -1 0 -5 1 -1 
0 -5 1 -1 0 -6 1 -1 0 -6 1 -1 0 -4 1 -1 
0 -6 1 -1 0 -5 1 -1 0 -5 1 -1 0 -6 1 -1 
0 -5 1 -1 0 -5 1 -1 0 -5 1 -1 0 -6 1 -1 
0 -5 1 -1 0 -5 1 -1 0 -5 1 -1 0 -5 1 -1 
0 -6 1 -1 0 -5 1 -1 0 -5 1 -1 0 -5 1 -1 
0 -5 1 -1 0 -5 1 -1 0 -6 1 -1 0 -4 1 -1 
0 -6 1 -1 0 -4 1 -1 0 -6 1 -1 0 -5 1 -1 
0 -4 1 -2 0 -5 1 -1 0 -4 1 -1 0 -6 1 -1 
0 -5 1 -1 0 -4 1 -1 0 -6 1 -1 0 -4 1 -1 
0 -5 1 -1 0 -6 1 -1 0 -4 1 -1 0 -5 1 -1 
0 -5 1 -1 0 -5 6156 2168 100 MP stroke
1 -1 0 -5 1 -1 0 -4 1 -1 0 -6 1 -1 0 -4 
1 -1 0 -5 1 -1 0 -5 1 -1 0 -4 1 -1 0 -5 
1 -1 0 -5 1 -1 0 -5 1 -1 0 -5 1 -1 0 -4 
1 -1 0 -5 1 -1 0 -4 1 -1 0 -5 1 -1 0 -5 
1 -1 0 -4 1 -1 0 -5 1 -1 0 -4 1 -1 0 -5 
1 -1 0 -5 1 -1 0 -4 1 -1 0 -5 1 -1 0 -4 
1 -1 0 -5 1 -1 0 -5 1 -1 0 -3 1 -1 0 -5 
1 -1 0 -4 1 -1 0 -5 1 -1 0 -5 1 -1 0 -3 
1 -1 0 -5 1 -1 0 -4 1 -1 0 -5 1 -1 0 -4 
1 -1 0 -4 1 -1 0 -5 1 -1 0 -3 1 -1 0 -5 
1 -1 0 -5 1 -1 0 -3 1 -1 0 -5 1 -1 0 -3 
1 -1 0 -5 1 -1 0 -4 1 -1 0 -4 1 -1 0 -5 
1 -1 0 -3 1 -1 6106 2437 100 MP stroke
0 -4 1 -1 0 -5 1 -1 0 -3 1 -1 0 -5 1 -1 
0 -3 1 -1 0 -5 1 -1 0 -4 1 -1 0 -3 1 -1 
0 -4 1 -1 0 -4 1 -1 0 -4 1 -1 0 -4 1 -1 
0 -4 1 -1 0 -4 1 -1 0 -3 1 -1 0 -4 1 -1 
0 -4 1 -1 0 -3 1 -1 0 -5 1 -1 0 -4 1 -1 
0 -3 1 -1 0 -4 1 -1 0 -3 1 -1 0 -4 1 -1 
0 -4 1 -1 0 -3 1 -1 0 -4 1 -1 0 -3 1 -1 
0 -4 1 -1 0 -3 1 -1 0 -3 1 -1 0 -4 1 -1 
0 -3 1 -1 0 -4 1 -1 0 -3 1 -1 0 -3 1 -1 
0 -4 1 -1 0 -3 1 -1 0 -3 1 -1 0 -4 1 -1 
0 -3 1 -1 0 -3 1 -1 0 -3 1 -1 0 -3 1 -1 
0 -4 1 -1 0 -3 1 -1 0 -3 1 -1 0 -3 1 -1 
0 -3 1 -1 0 -3 6057 2665 100 MP stroke
1 -1 0 -3 1 -1 0 -3 1 -1 0 -3 1 -1 0 -3 
1 -1 0 -3 1 -1 0 -3 1 -1 0 -3 1 -1 0 -2 
1 -1 0 -3 1 -1 0 -3 1 -1 0 -3 1 -1 0 -3 
1 -1 0 -2 1 -1 0 -3 1 -1 0 -3 1 -1 0 -2 
1 -1 0 -3 1 -1 0 -2 1 -1 0 -3 1 -1 0 -3 
1 -1 0 -2 1 -1 0 -3 1 -1 0 -2 1 -1 0 -2 
1 -1 0 -3 1 -1 0 -2 1 -1 0 -3 1 -1 0 -2 
1 -1 0 -2 1 -1 0 -3 1 -1 0 -1 1 -1 0 -3 
1 -1 0 -2 1 -1 0 -2 1 -1 0 -2 1 -1 0 -2 
1 -1 0 -3 1 -1 0 -1 1 -1 0 -2 1 -1 0 -3 
1 -1 0 -1 1 -1 0 -2 1 -1 0 -2 1 -1 0 -2 
1 -1 0 -2 1 -1 0 -2 1 -1 0 -2 1 -1 0 -1 
1 -1 0 -2 1 -1 6007 2832 100 MP stroke
0 -2 1 -1 0 -1 1 -1 0 -3 2 -2 0 -2 1 -1 
0 -2 1 -1 0 -1 1 -1 0 -2 1 -1 0 -1 1 -1 
0 -2 1 -1 0 -2 2 -2 0 -2 1 -1 0 -1 1 -1 
0 -1 1 -1 0 -2 1 -1 1 -1 0 -2 1 -1 0 -1 
1 -1 0 -2 2 -2 0 -2 2 -2 0 -2 2 -2 0 -2 
2 -2 0 -1 1 -1 1 -1 0 -2 2 -2 1 -1 0 -2 
2 -2 0 -1 2 -2 0 -1 2 -2 0 -1 2 -2 0 -1 
2 -2 1 -1 1 -1 0 -1 2 -2 1 -1 1 -1 1 -1 
1 -1 1 -1 1 -1 1 -1 1 -1 1 -1 1 -1 1 0 
1 -1 1 -1 1 -1 1 0 1 -1 1 -1 1 0 1 -1 
1 0 1 0 1 -1 1 0 1 0 1 -1 1 0 1 0 
1 0 1 0 1 0 1 0 1 0 1 0 1 0 1 0 
1 0 1 0 1 1 5923 2940 100 MP stroke
1 0 1 0 1 1 1 0 1 1 1 0 1 1 1 0 
1 1 1 1 1 0 1 1 1 1 1 1 1 1 1 1 
1 1 1 0 -1 0 2 2 1 1 1 1 1 1 0 1 
2 2 1 1 0 1 2 2 1 1 0 2 2 2 0 1 
2 2 0 1 2 2 0 2 2 2 0 1 1 1 1 1 
0 2 1 1 0 1 1 1 0 1 1 1 0 2 2 2 
0 1 1 1 0 2 1 1 0 1 1 1 0 2 2 2 
0 2 1 1 0 2 1 1 0 1 1 1 0 2 1 1 
0 1 1 1 0 2 1 1 0 2 1 1 0 2 1 1 
0 2 1 1 0 1 1 1 0 2 1 1 0 3 1 1 
0 1 1 1 0 3 1 1 0 1 1 1 0 3 1 1 
0 2 1 1 0 2 1 1 0 3 1 1 0 2 1 1 
0 3 1 1 0 2 5854 2812 100 MP stroke
1 1 0 3 1 1 0 2 1 1 0 3 1 1 0 3 
1 1 0 3 1 1 0 2 1 1 0 3 1 1 0 3 
1 1 0 3 1 1 0 3 1 1 0 3 1 1 0 3 
1 1 0 3 1 1 0 4 1 1 0 3 1 1 0 3 
1 1 0 4 1 1 0 3 1 1 0 4 1 1 0 4 
1 1 0 3 1 1 0 4 1 1 0 3 1 1 0 4 
1 1 0 4 1 1 0 4 1 1 0 4 1 1 0 3 
1 1 0 5 1 1 0 4 1 1 0 4 1 1 0 4 
1 1 0 4 1 1 0 5 1 1 0 4 1 1 0 4 
1 1 0 5 1 1 0 4 1 1 0 5 1 1 0 5 
1 1 0 4 1 1 0 5 1 2 0 4 1 1 0 5 
1 1 0 5 1 1 0 5 1 1 0 5 1 1 0 5 
1 1 0 5 1 1 5804 2574 100 MP stroke
0 6 1 1 0 4 1 2 0 5 1 1 0 5 1 1 
0 6 1 1 0 6 1 1 0 5 1 1 0 6 1 1 
0 5 1 1 0 6 1 1 0 6 1 2 0 4 1 2 
0 6 1 1 0 5 1 1 0 7 1 1 0 6 1 1 
0 6 1 1 0 6 1 2 0 5 1 1 0 7 1 1 
0 7 1 1 0 5 1 2 0 6 1 2 0 5 1 1 
0 7 1 2 0 7 1 1 0 5 1 2 0 7 1 1 
0 6 1 1 0 7 1 2 0 7 1 1 0 6 1 2 
0 7 1 1 0 6 1 2 0 7 1 1 0 8 1 1 
0 6 1 2 0 7 1 2 0 6 1 1 0 8 1 2 
0 7 1 2 0 6 1 2 0 7 1 2 0 6 1 2 
0 8 1 1 0 8 1 2 0 6 1 2 0 8 1 2 
0 6 1 2 0 8 5755 2191 100 MP stroke
1 2 0 8 1 2 0 6 1 2 0 8 1 2 0 8 
1 2 0 7 1 2 0 8 1 2 0 7 1 1 0 9 
1 2 0 8 1 2 0 7 1 2 0 9 1 2 0 7 
1 1 0 9 1 2 0 9 1 2 0 7 1 2 0 9 
1 2 0 7 1 2 0 9 1 2 0 10 1 1 0 8 
1 2 0 9 1 2 0 8 1 1 0 10 1 2 0 9 
1 2 0 8 1 2 0 10 1 2 0 7 1 2 0 10 
1 2 0 10 1 2 0 8 1 2 0 10 1 2 0 8 
1 2 0 10 1 2 0 10 1 2 0 8 1 2 0 9 
0 -2 1 -1 0 -4 1 -1 0 -6 1 -1 0 -6 1 -1 
0 -4 1 -1 0 -6 1 -1 0 -4 1 -2 0 -5 1 -1 
0 -6 1 -1 0 -4 1 -1 0 -6 1 -1 0 -5 1 -1 
0 -5 1 -1 0 -6 5706 1902 100 MP stroke
1 -1 0 -4 1 -1 0 -6 1 -1 0 -4 1 -2 0 -5 
1 -1 0 -6 1 -1 0 -4 1 -1 0 -6 1 -1 0 -4 
1 -1 0 -6 1 -1 0 -5 1 -1 0 -5 1 -1 0 -5 
1 -1 0 -5 1 -1 0 -5 1 -1 0 -6 1 -1 0 -4 
1 -1 0 -6 1 -1 0 -4 1 -1 0 -6 1 -1 0 -5 
1 -1 0 -5 1 -1 0 -5 1 -1 0 -4 1 -1 0 -6 
1 -1 0 -5 1 -1 0 -5 1 -1 0 -5 1 -1 0 -4 
1 -1 0 -6 1 -1 0 -5 1 -1 0 -4 1 -1 0 -6 
1 -1 0 -4 1 -1 0 -5 1 -1 0 -6 1 -1 0 -4 
1 -1 0 -5 1 -1 0 -5 1 -1 0 -5 1 -1 0 -5 
1 -1 0 -4 1 -1 0 -6 1 -1 0 -4 1 -1 0 -5 
1 -1 0 -5 1 -1 0 -4 1 -2 0 -5 1 -1 0 -4 
1 -1 0 -5 1 -1 5656 2196 100 MP stroke
0 -5 1 -1 0 -4 1 -1 0 -5 1 -2 0 -4 1 -1 
0 -5 1 -1 0 -5 1 -1 0 -4 1 -1 0 -5 1 -1 
0 -4 1 -1 0 -5 1 -1 0 -5 1 -1 0 -4 1 -1 
0 -5 1 -1 0 -4 1 -1 0 -5 1 -1 0 -5 1 -1 
0 -4 1 -1 0 -5 1 -1 0 -4 1 -1 0 -5 1 -1 
0 -5 1 -1 0 -4 1 -1 0 -5 1 -1 0 -4 1 -1 
0 -5 1 -1 0 -5 1 -1 0 -4 1 -1 0 -4 1 -1 
0 -4 1 -1 0 -5 1 -1 0 -5 1 -1 0 -4 1 -1 
0 -5 1 -1 0 -3 1 -1 0 -5 1 -1 0 -5 1 -1 
0 -4 1 -1 0 -4 1 -1 0 -4 1 -1 0 -5 1 -1 
0 -4 1 -1 0 -4 1 -1 0 -5 1 -1 0 -3 1 -1 
0 -5 1 -1 0 -5 1 -1 0 -3 1 -1 0 -5 1 -1 
0 -3 1 -1 0 -5 5607 2469 100 MP stroke
1 -1 0 -4 1 -1 0 -4 1 -1 0 -5 1 -1 0 -3 
1 -1 0 -5 1 -1 0 -4 1 -1 0 -3 1 -1 0 -5 
1 -1 0 -3 1 -1 0 -5 1 -1 0 -4 1 -1 0 -4 
1 -1 0 -4 1 -1 0 -3 1 -1 0 -5 1 -1 0 -4 
1 -1 0 -3 1 -1 0 -4 1 -1 0 -4 1 -1 0 -4 
1 -1 0 -4 1 -1 0 -4 1 -1 0 -4 1 -1 0 -4 
1 -1 0 -3 1 -1 0 -4 1 -1 0 -3 1 -1 0 -5 
1 -1 0 -4 1 -1 0 -3 1 -1 0 -4 1 -1 0 -3 
1 -1 0 -4 1 -1 0 -4 1 -1 0 -3 1 -1 0 -4 
1 -1 0 -3 1 -1 0 -4 1 -1 0 -4 1 -1 0 -3 
1 -1 0 -4 1 -1 0 -3 1 -1 0 -3 1 -1 0 -4 
1 -1 0 -3 1 -1 0 -4 1 -1 0 -3 1 -1 0 -3 
1 -1 0 -4 1 -1 5557 2704 100 MP stroke
0 -3 1 -1 0 -4 1 -1 0 -2 1 -1 0 -4 1 -1 
0 -3 1 -1 0 -3 1 -1 0 -4 1 -1 0 -3 1 -1 
0 -3 1 -1 0 -3 1 -1 0 -3 1 -1 0 -4 1 -1 
0 -2 1 -1 0 -4 1 -1 0 -3 1 -1 0 -3 1 -1 
0 -3 1 -1 0 -2 1 -1 0 -4 1 -1 0 -3 1 -1 
0 -2 1 -1 0 -4 1 -1 0 -2 1 -1 0 -3 1 -1 
0 -3 1 -1 0 -3 1 -1 0 -3 1 -1 0 -2 1 -1 
0 -3 1 -1 0 -3 1 -1 0 -3 1 -1 0 -3 1 -1 
0 -2 1 -1 0 -3 1 -1 0 -3 1 -1 0 -2 1 -1 
0 -3 1 -1 0 -2 1 -1 0 -3 1 -1 0 -2 1 -1 
0 -3 1 -1 0 -2 1 -1 0 -2 1 -1 0 -3 1 -1 
0 -3 1 -1 0 -2 1 -1 0 -2 1 -1 0 -2 1 -1 
0 -3 1 -1 0 -2 5508 2894 100 MP stroke
1 -1 0 -2 1 -1 0 -3 1 -1 0 -1 1 -1 0 -3 
1 -1 0 -2 1 -1 0 -2 1 -1 0 -2 1 -1 0 -2 
1 -1 0 -2 1 -1 0 -3 1 -1 0 -1 1 -1 0 -2 
1 -1 0 -2 1 -1 0 -2 1 -1 0 -2 1 -1 0 -2 
1 -1 0 -2 1 -1 0 -1 1 -1 0 -2 1 -1 0 -2 
1 -1 0 -2 1 -1 0 -2 1 -1 0 -1 1 -1 0 -2 
1 -1 0 -2 1 -1 0 -1 1 -1 0 -2 1 -1 0 -1 
1 -1 0 -2 1 -1 0 -2 1 -1 0 -1 1 -1 0 -1 
1 -1 0 -2 1 -1 0 -1 1 -1 0 -2 1 -1 0 -1 
1 -1 0 -2 2 -2 0 -2 1 -1 0 -1 1 -1 0 -2 
2 -2 0 -2 2 -2 0 -2 1 -1 1 -1 0 -2 1 -1 
0 -1 2 -2 0 -2 2 -2 0 -2 2 -2 0 -1 1 -1 
0 -1 1 -1 0 -1 5452 3036 100 MP stroke
2 -2 1 -1 0 -2 2 -2 0 -1 2 -2 0 -1 2 -2 
0 -1 2 -2 1 -1 0 -1 2 -2 1 -1 0 -1 2 -2 
1 -1 1 -1 1 -1 1 -1 1 -1 1 -1 1 -1 1 -1 
1 -1 1 -1 1 -1 1 -1 1 0 1 -1 1 -1 1 -1 
1 0 1 -1 1 0 1 -1 1 0 1 -1 1 0 1 -1 
1 0 1 0 1 -1 1 0 1 0 1 0 1 0 1 -1 
1 0 1 0 1 0 1 0 1 1 1 0 1 0 1 0 
1 0 1 1 1 0 1 0 1 1 1 0 1 1 1 0 
1 1 1 0 1 1 1 0 1 1 1 1 1 1 1 1 
1 0 1 1 1 1 1 1 1 1 0 1 2 2 1 1 
1 1 1 1 0 1 2 2 0 1 2 2 1 1 0 1 
2 2 0 1 2 2 0 2 2 2 1 1 0 2 2 2 
0 2 2 2 0 1 5353 3034 100 MP stroke
1 1 0 1 1 1 0 1 1 1 0 2 2 2 0 2 
2 2 0 2 1 1 0 2 2 2 0 2 1 1 0 1 
1 1 0 2 1 1 0 2 1 1 0 1 1 1 0 2 
1 1 0 1 1 1 0 2 1 1 0 2 1 1 0 1 
1 1 0 3 1 1 0 1 1 1 0 2 1 1 0 3 
1 1 0 1 1 1 0 3 1 1 0 1 1 1 0 3 
1 1 0 2 1 1 0 2 1 1 0 3 1 1 0 2 
1 1 0 3 1 1 0 2 1 1 0 2 1 1 0 3 
1 1 0 2 1 1 0 3 1 1 0 3 1 1 0 3 
1 1 0 3 1 1 0 2 1 1 0 4 1 1 0 3 
1 1 0 2 1 1 0 4 1 1 0 2 1 1 0 4 
1 1 0 3 1 1 0 3 1 1 0 4 1 1 0 3 
1 1 0 4 1 1 5300 2867 100 MP stroke
0 3 1 1 0 3 1 1 0 4 1 1 0 3 1 1 
0 4 1 1 0 4 1 1 0 4 1 1 0 4 1 1 
0 3 1 1 0 4 1 1 0 5 1 1 0 3 1 1 
0 5 1 1 0 3 1 1 0 5 1 1 0 5 1 1 
0 3 1 1 0 5 1 1 0 4 1 1 0 5 1 1 
0 5 1 1 0 4 1 1 0 5 1 1 0 4 1 1 
0 5 1 1 0 5 1 1 0 4 1 1 0 5 1 1 
0 5 1 1 0 5 1 1 0 5 1 2 0 4 1 1 
0 6 1 1 0 4 1 1 0 6 1 1 0 5 1 2 
0 4 1 1 0 6 1 1 0 5 1 1 0 6 1 1 
0 6 1 1 0 5 1 1 0 6 1 1 0 5 1 1 
0 6 1 1 0 7 1 1 0 5 1 1 0 6 1 1 
0 5 1 2 0 6 5251 2581 100 MP stroke
1 1 0 7 1 1 0 5 1 1 0 7 1 1 0 7 
1 1 0 5 1 2 0 6 1 2 0 5 1 1 0 7 
1 1 0 7 1 1 0 6 1 1 0 7 1 2 0 5 
1 1 0 7 1 2 0 7 1 1 0 6 1 1 0 8 
1 1 0 6 1 1 0 7 1 2 0 7 1 2 0 5 
1 2 0 7 1 2 0 6 1 1 0 8 1 1 0 8 
1 1 0 6 1 2 0 8 1 1 0 6 1 2 0 8 
1 1 0 8 1 2 0 6 1 1 0 8 1 2 0 6 
1 2 0 8 1 1 0 9 1 1 0 7 1 1 0 8 
1 2 0 7 1 1 0 9 1 1 0 9 1 1 0 7 
1 2 0 8 1 2 0 7 1 1 0 9 1 2 0 8 
1 2 0 7 1 2 0 8 1 2 0 7 1 2 0 9 
1 1 0 9 1 2 5201 2161 100 MP stroke
0 7 1 2 0 9 1 2 0 7 1 2 0 9 1 2 
0 9 1 2 0 7 1 2 0 9 1 2 0 7 1 2 
0 10 1 2 0 9 1 2 0 7 1 2 0 10 1 2 
0 7 1 2 0 10 1 2 0 10 1 2 0 7 1 2 
0 10 1 2 0 8 1 2 0 4 0 -3 1 -1 0 -5 
1 -1 0 -4 1 -1 0 -5 1 -1 0 -4 1 -1 0 -5 
1 -1 0 -6 1 -1 0 -4 1 -1 0 -5 1 -1 0 -4 
1 -1 0 -5 1 -1 0 -5 1 -1 0 -4 1 -1 0 -5 
1 -1 0 -4 1 -1 0 -5 1 -1 0 -5 1 -1 0 -3 
1 -1 0 -5 1 -1 0 -4 1 -1 0 -5 1 -1 0 -5 
1 -1 0 -4 1 -1 0 -5 1 -1 0 -4 1 -1 0 -5 
1 -1 0 -5 1 -1 0 -4 1 -1 0 -5 1 -1 0 -4 
1 -1 0 -4 1 -1 5152 2140 100 MP stroke
0 -5 1 -1 0 -4 1 -1 0 -5 1 -1 0 -4 1 -1 
0 -5 1 -1 0 -5 1 -1 0 -3 1 -1 0 -5 1 -1 
0 -4 1 -1 0 -5 1 -1 0 -5 1 -1 0 -3 1 -1 
0 -5 1 -1 0 -4 1 -1 0 -5 1 -1 0 -5 1 -1 
0 -3 1 -1 0 -5 1 -1 0 -4 1 -1 0 -4 1 -1 
0 -5 1 -1 0 -4 1 -1 0 -5 1 -1 0 -3 1 -1 
0 -5 1 -1 0 -5 1 -1 0 -3 1 -1 0 -5 1 -1 
0 -4 1 -1 0 -4 1 -1 0 -5 1 -1 0 -4 1 -1 
0 -4 1 -1 0 -4 1 -1 0 -4 1 -1 0 -5 1 -1 
0 -4 1 -1 0 -4 1 -1 0 -4 1 -1 0 -4 1 -1 
0 -5 1 -1 0 -3 1 -1 0 -5 1 -1 0 -3 1 -1 
0 -5 1 -1 0 -4 1 -1 0 -4 1 -1 0 -4 1 -1 
0 -4 1 -1 0 -4 5103 2403 100 MP stroke
1 -1 0 -5 1 -1 0 -3 1 -1 0 -5 1 -1 0 -3 
1 -1 0 -4 1 -1 0 -5 1 -1 0 -3 1 -1 0 -5 
1 -1 0 -3 1 -1 0 -4 1 -1 0 -5 1 -1 0 -3 
1 -1 0 -4 1 -1 0 -4 1 -1 0 -4 1 -1 0 -4 
1 -1 0 -3 1 -1 0 -5 1 -1 0 -3 1 -1 0 -4 
1 -1 0 -4 1 -1 0 -4 1 -1 0 -4 1 -1 0 -4 
1 -1 0 -3 1 -1 0 -4 1 -1 0 -4 1 -1 0 -4 
1 -1 0 -4 1 -1 0 -3 1 -1 0 -4 1 -1 0 -3 
1 -1 0 -4 1 -1 0 -4 1 -1 0 -3 1 -1 0 -4 
1 -1 0 -4 1 -1 0 -3 1 -1 0 -4 1 -1 0 -4 
1 -1 0 -3 1 -1 0 -4 1 -1 0 -3 1 -1 0 -4 
1 -1 0 -3 1 -1 0 -4 1 -1 0 -3 1 -1 0 -4 
1 -1 0 -4 1 -1 5053 2639 100 MP stroke
0 -3 1 -1 0 -4 1 -1 0 -3 1 -1 0 -3 1 -1 
0 -4 1 -1 0 -3 1 -1 0 -4 1 -1 0 -3 1 -1 
0 -3 1 -1 0 -4 1 -1 0 -3 1 -1 0 -3 1 -1 
0 -3 1 -1 0 -4 1 -1 0 -3 1 -1 0 -3 1 -1 
0 -4 1 -1 0 -2 1 -1 0 -4 1 -1 0 -3 1 -1 
0 -3 1 -1 0 -4 1 -1 0 -2 1 -1 0 -4 1 -1 
0 -3 1 -1 0 -3 1 -1 0 -3 1 -1 0 -3 1 -1 
0 -3 1 -1 0 -3 1 -1 0 -3 1 -1 0 -3 1 -1 
0 -3 1 -1 0 -3 1 -1 0 -3 1 -1 0 -3 1 -1 
0 -3 1 -1 0 -3 1 -1 0 -3 1 -1 0 -3 1 -1 
0 -2 1 -1 0 -4 1 -1 0 -2 1 -1 0 -3 1 -1 
0 -3 1 -1 0 -2 1 -1 0 -3 1 -1 0 -3 1 -1 
0 -3 1 -1 0 -3 5004 2843 100 MP stroke
1 -1 0 -2 1 -1 0 -3 1 -1 0 -2 1 -1 0 -3 
1 -1 0 -3 1 -1 0 -2 1 -1 0 -3 1 -1 0 -2 
1 -1 0 -3 1 -1 0 -3 1 -1 0 -2 1 -1 0 -3 
1 -1 0 -2 1 -1 0 -2 1 -1 0 -3 1 -1 0 -2 
1 -1 0 -3 1 -1 0 -2 1 -1 0 -2 1 -1 0 -3 
1 -1 0 -2 1 -1 0 -2 1 -1 0 -2 1 -1 0 -3 
1 -1 0 -2 1 -1 0 -2 1 -1 0 -2 1 -1 0 -2 
1 -1 0 -3 1 -1 0 -2 1 -1 0 -2 1 -1 0 -2 
1 -1 0 -2 1 -1 0 -2 1 -1 0 -2 1 -1 0 -2 
1 -1 0 -2 1 -1 0 -2 1 -1 0 -2 1 -1 0 -2 
1 -1 0 -2 1 -1 0 -2 1 -1 0 -1 1 -1 0 -2 
1 -1 0 -2 1 -1 0 -2 1 -1 0 -2 1 -1 0 -1 
1 -1 0 -2 1 -1 4954 3001 100 MP stroke
0 -3 2 -2 0 -2 1 -1 0 -2 1 -1 0 -1 1 -1 
0 -3 2 -2 0 -3 2 -2 0 -2 1 -1 0 -2 1 -1 
0 -1 1 -1 0 -1 1 -1 0 -2 1 -1 0 -1 1 -1 
0 -2 1 -1 0 -1 1 -1 0 -2 2 -2 0 -2 1 -1 
0 -1 1 -1 0 -2 2 -2 0 -2 2 -2 0 -2 1 -1 
0 -1 1 -1 0 -1 1 -1 0 -1 1 -1 0 -1 1 -1 
0 -1 1 -1 0 -1 1 -1 0 -1 1 -1 0 -1 2 -2 
0 -2 2 -2 0 -2 2 -2 1 -1 0 -2 2 -2 1 -1 
0 -2 2 -2 0 -1 2 -2 0 -1 2 -2 0 -1 2 -2 
1 -1 0 -1 2 -2 0 -1 2 -2 1 -1 1 -1 1 -1 
0 -1 2 -2 1 -1 1 -1 1 -1 1 -1 1 -1 1 -1 
1 -1 1 -1 1 -1 1 -1 1 0 1 -1 1 -1 1 -1 
1 0 1 -1 1 -1 4876 3136 100 MP stroke
1 0 1 -1 1 0 1 -1 1 0 1 -1 1 0 1 -1 
1 0 1 0 1 -1 1 0 1 0 1 -1 1 0 1 0 
1 0 1 0 1 0 1 0 1 0 1 0 1 0 1 0 
1 0 1 1 1 0 1 0 1 0 1 1 1 0 1 0 
1 1 1 0 1 1 1 0 1 1 1 0 1 1 1 1 
1 0 1 1 1 1 1 1 1 1 1 0 1 1 1 1 
1 1 1 1 1 1 0 1 2 2 1 1 1 1 1 1 
0 1 2 2 0 1 2 2 1 1 0 1 2 2 1 1 
0 2 2 2 1 1 0 2 2 2 1 1 0 2 2 2 
0 2 2 2 0 2 2 2 0 2 2 2 0 2 2 2 
0 2 1 1 0 1 1 1 0 2 2 2 0 2 1 1 
0 2 2 2 0 3 2 2 0 2 1 1 0 2 1 1 
0 1 1 1 0 2 4784 3048 100 MP stroke
1 1 0 2 1 1 0 2 1 1 0 2 1 1 0 1 
1 1 0 2 1 1 0 2 1 1 0 2 1 1 0 2 
1 1 0 2 1 1 0 2 1 1 0 2 1 1 0 3 
1 1 0 2 1 1 0 2 1 1 0 2 1 1 0 2 
1 1 0 3 1 1 0 3 1 1 0 2 1 1 0 3 
1 1 0 2 1 1 0 3 1 1 0 3 1 1 0 2 
1 1 0 3 1 1 0 2 1 1 0 3 1 1 0 4 
1 1 0 2 1 1 0 3 1 1 0 3 1 1 0 3 
1 1 0 4 1 1 0 2 1 1 0 4 1 1 0 3 
1 1 0 3 1 1 0 4 1 1 0 3 1 1 0 3 
1 1 0 4 1 1 0 3 1 1 0 4 1 1 0 3 
1 1 0 4 1 1 0 4 1 1 0 3 1 1 0 5 
1 1 0 3 1 1 4734 2863 100 MP stroke
0 4 1 1 0 4 1 1 0 4 1 1 0 4 1 1 
0 4 1 1 0 4 1 1 0 5 1 1 0 3 1 1 
0 5 1 1 0 4 1 1 0 4 1 1 0 5 1 1 
0 4 1 1 0 5 1 1 0 4 1 1 0 5 1 1 
0 5 1 1 0 4 1 1 0 5 1 1 0 4 1 1 
0 5 1 1 0 5 1 1 0 5 1 1 0 5 1 1 
0 4 1 1 0 6 1 1 0 5 1 1 0 5 1 1 
0 5 1 2 0 4 1 1 0 6 1 1 0 6 1 1 
0 4 1 1 0 6 1 1 0 5 1 1 0 6 1 1 
0 6 1 1 0 5 1 1 0 6 1 1 0 5 1 1 
0 6 1 1 0 7 1 1 0 5 1 1 0 6 1 1 
0 5 1 2 0 6 1 1 0 6 1 2 0 5 1 1 
0 6 1 2 0 5 4685 2563 100 MP stroke
1 1 0 7 1 1 0 7 1 1 0 5 1 1 0 7 
1 1 0 6 1 1 0 7 1 1 0 7 1 1 0 6 
1 1 0 7 1 1 0 6 1 1 0 7 1 2 0 7 
1 1 0 6 1 1 0 7 1 1 0 6 1 2 0 7 
1 1 0 7 1 2 0 6 1 1 0 7 1 2 0 6 
1 1 0 8 1 1 0 8 1 1 0 6 1 2 0 7 
1 2 0 6 1 1 0 8 1 1 0 8 1 2 0 6 
1 1 0 8 1 2 0 6 1 2 0 7 1 2 0 8 
1 2 0 6 1 1 0 8 1 2 0 7 1 1 0 8 
1 2 0 8 1 -1 0 -3 1 -1 0 -5 1 -1 0 -3 
1 -1 0 -5 1 -1 0 -4 1 -1 0 -4 1 -1 0 -4 
1 -1 0 -4 1 -1 0 -4 1 -1 0 -4 1 -1 0 -4 
1 -1 0 -4 1 -1 4635 2320 100 MP stroke
0 -4 1 -1 0 -4 1 -1 0 -4 1 -1 0 -4 1 -1 
0 -4 1 -1 0 -4 1 -1 0 -4 1 -1 0 -4 1 -1 
0 -4 1 -1 0 -4 1 -1 0 -3 1 -1 0 -5 1 -1 
0 -4 1 -1 0 -3 1 -1 0 -5 1 -1 0 -3 1 -1 
0 -4 1 -1 0 -5 1 -1 0 -3 1 -1 0 -4 1 -1 
0 -3 1 -1 0 -5 1 -1 0 -4 1 -1 0 -3 1 -1 
0 -4 1 -1 0 -4 1 -1 0 -4 1 -1 0 -4 1 -1 
0 -3 1 -1 0 -5 1 -1 0 -3 1 -1 0 -4 1 -1 
0 -4 1 -1 0 -4 1 -1 0 -4 1 -1 0 -3 1 -1 
0 -4 1 -1 0 -4 1 -1 0 -3 1 -1 0 -5 1 -1 
0 -3 1 -1 0 -4 1 -1 0 -4 1 -1 0 -3 1 -1 
0 -4 1 -1 0 -3 1 -1 0 -4 1 -1 0 -4 1 -1 
0 -4 1 -1 0 -4 4586 2562 100 MP stroke
1 -1 0 -3 1 -1 0 -4 1 -1 0 -4 1 -1 0 -3 
1 -1 0 -4 1 -1 0 -4 1 -1 0 -3 1 -1 0 -4 
1 -1 0 -3 1 -1 0 -4 1 -1 0 -4 1 -1 0 -3 
1 -1 0 -4 1 -1 0 -3 1 -1 0 -4 1 -1 0 -4 
1 -1 0 -3 1 -1 0 -4 1 -1 0 -3 1 -1 0 -3 
1 -1 0 -4 1 -1 0 -3 1 -1 0 -4 1 -1 0 -3 
1 -1 0 -4 1 -1 0 -4 1 -1 0 -3 1 -1 0 -3 
1 -1 0 -3 1 -1 0 -4 1 -1 0 -4 1 -1 0 -3 
1 -1 0 -3 1 -1 0 -3 1 -1 0 -4 1 -1 0 -4 
1 -1 0 -2 1 -1 0 -4 1 -1 0 -3 1 -1 0 -4 
1 -1 0 -3 1 -1 0 -3 1 -1 0 -4 1 -1 0 -2 
1 -1 0 -4 1 -1 0 -4 1 -1 0 -2 1 -1 0 -4 
1 -1 0 -3 1 -1 4536 2781 100 MP stroke
0 -3 1 -1 0 -4 1 -1 0 -2 1 -1 0 -4 1 -1 
0 -3 1 -1 0 -3 1 -1 0 -4 1 -1 0 -2 1 -1 
0 -4 1 -1 0 -2 1 -1 0 -4 1 -1 0 -3 1 -1 
0 -3 1 -1 0 -3 1 -1 0 -3 1 -1 0 -3 1 -1 
0 -3 1 -1 0 -3 1 -1 0 -3 1 -1 0 -3 1 -1 
0 -3 1 -1 0 -3 1 -1 0 -3 1 -1 0 -3 1 -1 
0 -3 1 -1 0 -3 1 -1 0 -3 1 -1 0 -2 1 -1 
0 -4 1 -1 0 -2 1 -1 0 -3 1 -1 0 -3 1 -1 
0 -3 1 -1 0 -3 1 -1 0 -2 1 -1 0 -3 1 -1 
0 -3 1 -1 0 -3 1 -1 0 -3 1 -1 0 -2 1 -1 
0 -3 1 -1 0 -3 1 -1 0 -2 1 -1 0 -3 1 -1 
0 -2 1 -1 0 -3 1 -1 0 -3 1 -1 0 -2 1 -1 
0 -3 1 -1 0 -3 4487 2976 100 MP stroke
1 -1 0 -2 1 -1 0 -3 1 -1 0 -2 1 -1 0 -3 
1 -1 0 -2 1 -1 0 -3 1 -1 0 -3 1 -1 0 -2 
1 -1 0 -3 1 -1 0 -2 1 -1 0 -2 1 -1 0 -3 
1 -1 0 -2 1 -1 0 -3 1 -1 0 -2 1 -1 0 -2 
1 -1 0 -3 1 -1 0 -2 1 -1 0 -2 1 -1 0 -2 
1 -1 0 -3 1 -1 0 -2 1 -1 0 -2 1 -1 0 -3 
1 -1 0 -2 1 -1 0 -2 1 -1 0 -2 1 -1 0 -2 
1 -1 0 -3 1 -1 0 -1 1 -1 0 -3 1 -1 0 -2 
1 -1 0 -2 1 -1 0 -2 1 -1 0 -2 1 -1 0 -2 
1 -1 0 -2 1 -1 0 -2 1 -1 0 -2 1 -1 0 -2 
1 -1 0 -2 1 -1 0 -2 1 -1 0 -2 1 -1 0 -2 
1 -1 0 -1 1 -1 0 -2 1 -1 0 -2 1 -1 0 -2 
1 -1 0 -2 1 -1 4437 3134 100 MP stroke
0 -1 1 -1 0 -2 1 -1 0 -2 1 -1 0 -2 1 -1 
0 -2 1 -1 0 -1 1 -1 0 -2 1 -1 0 -2 1 -1 
0 -1 1 -1 0 -2 1 -1 0 -1 1 -1 0 -2 1 -1 
0 -2 1 -1 0 -1 1 -1 0 -2 1 -1 0 -1 1 -1 
0 -2 1 -1 0 -2 2 -2 0 -2 1 -1 0 -1 1 -1 
0 -2 1 -1 0 -2 2 -2 0 -2 1 -1 0 -2 2 -2 
0 -2 1 -1 0 -1 1 -1 0 -1 1 -1 0 -2 2 -2 
0 -2 1 -1 1 -1 0 -2 1 -1 0 -2 2 -2 0 -2 
2 -2 0 -1 1 -1 0 -2 2 -2 0 -2 2 -2 0 -1 
1 -1 0 -1 1 -1 1 -1 0 -2 2 -2 0 -1 1 -1 
0 -1 1 -1 0 -1 2 -2 1 -1 0 -2 2 -2 1 -1 
0 -2 2 -2 0 -1 2 -2 0 -1 2 -2 0 -1 2 -2 
1 -1 0 -1 2 -2 4369 3277 100 MP stroke
1 -1 0 -1 2 -2 1 -1 1 -1 1 -1 0 -1 2 -2 
1 -1 1 -1 1 -1 1 -1 1 -1 1 -1 1 -1 1 -1 
1 -1 1 -1 1 -1 1 0 1 -1 1 -1 1 -1 1 -1 
1 0 1 -1 1 -1 1 0 1 -1 1 0 1 -1 1 0 
1 -1 1 0 1 -1 1 0 1 -1 1 0 1 0 1 -1 
1 0 1 0 1 0 1 -1 1 0 1 0 1 0 1 0 
1 0 1 0 1 0 1 0 1 0 1 0 1 0 1 1 
1 0 1 0 1 0 1 1 1 0 1 0 1 1 1 0 
1 0 1 1 1 0 1 1 1 0 1 1 1 1 1 0 
1 1 1 1 1 1 1 0 1 1 1 1 1 1 1 1 
1 1 1 1 1 1 1 1 1 1 1 1 1 1 1 1 
0 1 2 2 1 1 0 1 2 2 1 1 0 1 2 2 
0 1 2 2 0 1 4271 3274 100 MP stroke
2 2 0 1 2 2 0 2 2 2 1 1 0 2 2 2 
0 2 2 2 0 1 1 1 1 1 0 2 1 1 0 1 
1 1 0 1 1 1 0 2 2 2 0 1 1 1 0 2 
1 1 0 1 1 1 0 2 2 2 0 2 1 1 0 2 
2 2 0 2 1 1 0 2 1 1 0 1 1 1 0 2 
1 1 0 1 1 1 0 2 1 1 0 2 1 1 0 1 
1 1 0 2 1 1 0 2 1 1 0 2 1 1 0 2 
1 1 0 1 1 1 0 2 1 1 0 2 1 1 0 2 
1 1 0 3 1 1 0 1 1 1 0 3 1 1 0 2 
1 1 0 2 1 1 0 3 1 1 0 2 1 1 0 2 
1 1 0 2 1 1 0 3 1 1 0 2 1 1 0 3 
1 1 0 2 1 1 0 3 1 1 0 2 1 1 0 3 
1 1 0 3 1 1 4212 3122 100 MP stroke
0 3 1 1 0 2 1 1 0 3 1 1 0 3 1 1 
0 3 1 1 0 3 1 1 0 2 1 1 0 4 1 1 
0 3 1 1 0 3 1 1 0 3 1 1 0 3 1 1 
0 3 1 1 0 4 1 1 0 3 1 1 0 3 1 1 
0 3 1 1 0 4 1 1 0 4 1 1 0 3 1 1 
0 4 1 1 0 3 1 1 0 4 1 1 0 4 1 1 
0 3 1 1 0 4 1 1 0 3 1 1 0 4 1 1 
0 5 1 1 0 3 1 1 0 4 1 1 0 4 1 1 
0 4 1 1 0 5 1 1 0 3 1 1 0 5 1 1 
0 3 1 1 0 5 1 1 0 5 1 1 0 4 1 1 
0 4 1 1 0 4 1 1 0 5 1 1 0 5 1 1 
0 4 1 1 0 5 1 1 0 4 1 1 0 5 1 1 
0 5 1 1 0 4 4163 2887 100 MP stroke
1 1 0 6 1 1 0 4 1 1 0 5 1 1 0 5 
1 1 0 5 1 1 0 5 1 1 0 5 1 1 0 5 
1 1 0 6 1 1 0 4 1 1 0 6 1 1 0 5 
1 1 0 5 1 2 0 5 1 1 0 5 1 1 0 6 
1 1 0 5 1 1 0 6 1 1 0 6 1 1 0 5 
1 1 0 6 1 1 0 5 1 1 0 6 1 1 0 7 
1 1 0 5 1 1 0 6 1 1 0 5 1 2 0 6 
1 1 0 6 1 2 0 5 1 1 0 6 1 2 0 5 
1 1 0 7 1 1 0 6 1 2 0 5 1 1 0 7 
1 1 0 6 1 1 0 7 1 1 0 7 1 1 0 5 
1 2 0 6 1 2 0 5 1 2 0 7 1 1 0 7 
1 1 0 6 1 1 0 7 1 2 0 5 1 2 0 7 
1 1 0 7 1 2 4113 2547 100 MP stroke
0 5 1 2 0 4 0 -1 1 -1 0 -3 1 -1 0 -4 
1 -1 0 -3 1 -1 0 -3 1 -1 0 -4 1 -1 0 -3 
1 -1 0 -3 1 -1 0 -4 1 -1 0 -3 1 -1 0 -3 
1 -1 0 -3 1 -1 0 -4 1 -1 0 -3 1 -1 0 -3 
1 -1 0 -4 1 -1 0 -3 1 -1 0 -3 1 -1 0 -4 
1 -1 0 -3 1 -1 0 -3 1 -1 0 -3 1 -1 0 -4 
1 -1 0 -3 1 -1 0 -3 1 -1 0 -3 1 -1 0 -3 
1 -1 0 -4 1 -1 0 -3 1 -1 0 -3 1 -1 0 -3 
1 -1 0 -3 1 -1 0 -4 1 -1 0 -3 1 -1 0 -3 
1 -1 0 -3 1 -1 0 -4 1 -1 0 -2 1 -1 0 -4 
1 -1 0 -3 1 -1 0 -3 1 -1 0 -3 1 -1 0 -3 
1 -1 0 -3 1 -1 0 -3 1 -1 0 -3 1 -1 0 -4 
1 -1 0 -2 1 -1 4064 2736 100 MP stroke
0 -4 1 -1 0 -2 1 -1 0 -4 1 -1 0 -3 1 -1 
0 -3 1 -1 0 -3 1 -1 0 -3 1 -1 0 -3 1 -1 
0 -3 1 -1 0 -3 1 -1 0 -3 1 -1 0 -3 1 -1 
0 -3 1 -1 0 -3 1 -1 0 -3 1 -1 0 -3 1 -1 
0 -3 1 -1 0 -3 1 -1 0 -3 1 -1 0 -2 1 -1 
0 -4 1 -1 0 -2 1 -1 0 -3 1 -1 0 -3 1 -1 
0 -3 1 -1 0 -3 1 -1 0 -3 1 -1 0 -3 1 -1 
0 -3 1 -1 0 -2 1 -1 0 -3 1 -1 0 -3 1 -1 
0 -3 1 -1 0 -3 1 -1 0 -2 1 -1 0 -3 1 -1 
0 -3 1 -1 0 -3 1 -1 0 -3 1 -1 0 -2 1 -1 
0 -3 1 -1 0 -3 1 -1 0 -3 1 -1 0 -3 1 -1 
0 -2 1 -1 0 -3 1 -1 0 -2 1 -1 0 -3 1 -1 
0 -3 1 -1 0 -2 4015 2929 100 MP stroke
1 -1 0 -3 1 -1 0 -2 1 -1 0 -3 1 -1 0 -3 
1 -1 0 -2 1 -1 0 -3 1 -1 0 -2 1 -1 0 -3 
1 -1 0 -3 1 -1 0 -2 1 -1 0 -3 1 -1 0 -2 
1 -1 0 -3 1 -1 0 -3 1 -1 0 -2 1 -1 0 -3 
1 -1 0 -2 1 -1 0 -2 1 -1 0 -3 1 -1 0 -2 
1 -1 0 -3 1 -1 0 -2 1 -1 0 -3 1 -1 0 -2 
1 -1 0 -2 1 -1 0 -3 1 -1 0 -2 1 -1 0 -3 
1 -1 0 -2 1 -1 0 -2 1 -1 0 -3 1 -1 0 -2 
1 -1 0 -2 1 -1 0 -3 1 -1 0 -2 1 -1 0 -2 
1 -1 0 -2 1 -1 0 -3 1 -1 0 -2 1 -1 0 -2 
1 -1 0 -2 1 -1 0 -2 1 -1 0 -3 1 -1 0 -2 
1 -1 0 -2 1 -1 0 -2 1 -1 0 -2 1 -1 0 -3 
1 -1 0 -2 1 -1 3965 3097 100 MP stroke
0 -2 1 -1 0 -2 1 -1 0 -2 1 -1 0 -2 1 -1 
0 -2 1 -1 0 -2 1 -1 0 -2 1 -1 0 -2 1 -1 
0 -2 1 -1 0 -2 1 -1 0 -2 1 -1 0 -2 1 -1 
0 -2 1 -1 0 -2 1 -1 0 -2 1 -1 0 -2 1 -1 
0 -2 1 -1 0 -1 1 -1 0 -2 1 -1 0 -2 1 -1 
0 -2 1 -1 0 -2 1 -1 0 -1 1 -1 0 -2 1 -1 
0 -2 1 -1 0 -2 1 -1 0 -2 1 -1 0 -1 1 -1 
0 -2 1 -1 0 -3 2 -2 0 -2 1 -1 0 -2 1 -1 
0 -2 1 -1 0 -1 1 -1 0 -2 1 -1 0 -1 1 -1 
0 -2 1 -1 0 -1 1 -1 0 -3 2 -2 0 -3 2 -2 
0 -2 1 -1 0 -2 1 -1 0 -1 1 -1 0 -2 1 -1 
0 -1 1 -1 0 -1 1 -1 0 -2 1 -1 0 -1 1 -1 
0 -2 1 -1 0 -1 3913 3241 100 MP stroke
1 -1 0 -1 1 -1 0 -2 1 -1 0 -1 1 -1 0 -1 
1 -1 0 -2 1 -1 0 -1 1 -1 0 -1 1 -1 0 -2 
2 -2 0 -2 1 -1 0 -1 1 -1 0 -1 1 -1 0 -1 
1 -1 0 -1 1 -1 0 -2 2 -2 0 -2 2 -2 0 -2 
2 -2 0 -2 2 -2 0 -2 2 -2 0 -2 2 -2 0 -2 
2 -2 1 -1 0 -2 2 -2 0 -2 2 -2 1 -1 0 -2 
2 -2 0 -1 1 -1 1 -1 0 -2 2 -2 0 -1 2 -2 
0 -1 2 -2 0 -1 2 -2 0 -1 2 -2 0 -1 2 -2 
0 -1 2 -2 1 -1 0 -1 2 -2 1 -1 1 -1 0 -1 
2 -2 1 -1 1 -1 1 -1 0 -1 2 -2 1 -1 1 -1 
1 -1 1 -1 1 -1 1 -1 1 -1 1 -1 1 -1 1 -1 
1 -1 1 -1 1 0 1 -1 1 -1 1 -1 1 -1 1 0 
1 -1 1 -1 1 0 3827 3373 100 MP stroke
1 -1 1 -1 1 0 1 -1 1 0 1 -1 1 0 1 -1 
1 0 1 -1 1 0 1 -1 1 0 1 0 1 -1 1 0 
1 0 1 0 1 -1 1 0 1 0 1 0 1 0 1 0 
1 0 1 0 1 0 1 0 1 0 1 0 1 0 1 0 
1 0 1 0 1 0 1 1 1 0 1 0 1 0 1 1 
1 0 1 0 1 1 1 0 1 1 1 0 1 1 1 0 
1 1 1 0 1 1 1 1 1 0 1 1 1 1 1 1 
1 0 1 1 1 1 1 1 1 1 1 1 1 1 1 1 
1 1 1 1 1 1 1 1 1 1 1 1 0 1 2 2 
1 1 1 1 0 1 2 2 1 1 0 1 2 2 0 1 
2 2 1 1 0 2 2 2 0 1 2 2 0 1 2 2 
0 2 2 2 0 1 2 2 0 2 2 2 0 2 2 2 
0 1 1 1 0 2 3730 3313 100 MP stroke
2 2 0 1 1 1 0 2 2 2 0 2 1 1 0 1 
1 1 0 1 1 1 0 2 2 2 0 3 2 2 0 2 
1 1 0 1 1 1 0 1 1 1 0 3 2 2 0 3 
2 2 0 2 1 1 0 3 2 2 0 2 1 1 0 2 
1 1 0 2 1 1 0 2 1 1 0 1 1 1 0 3 
1 1 0 1 1 1 0 2 1 1 0 2 1 1 0 2 
1 1 0 2 1 1 0 2 1 1 0 3 1 1 0 2 
1 1 0 2 1 1 0 2 1 1 0 2 1 1 0 3 
1 1 0 2 1 1 0 2 1 1 0 3 1 1 0 2 
1 1 0 3 1 1 0 3 1 1 0 2 1 1 0 3 
1 1 0 2 1 1 0 3 1 1 0 3 1 1 0 2 
1 1 0 3 1 1 0 2 1 1 0 4 1 1 0 3 
1 1 0 2 1 1 3673 3148 100 MP stroke
0 3 1 1 0 3 1 1 0 3 1 1 0 4 1 1 
0 2 1 1 0 4 1 1 0 2 1 1 0 4 1 1 
0 3 1 1 0 3 1 1 0 4 1 1 0 3 1 1 
0 3 1 1 0 4 1 1 0 3 1 1 0 4 1 1 
0 3 1 1 0 4 1 1 0 4 1 1 0 3 1 1 
0 4 1 1 0 3 1 1 0 4 1 1 0 4 1 1 
0 4 1 1 0 4 1 1 0 3 1 1 0 4 1 1 
0 5 1 1 0 3 1 1 0 5 1 1 0 3 1 1 
0 5 1 1 0 4 1 1 0 4 1 1 0 4 1 1 
0 4 1 1 0 5 1 1 0 5 1 1 0 3 1 1 
0 5 1 1 0 4 1 1 0 5 1 1 0 5 1 1 
0 4 1 1 0 5 1 1 0 4 1 1 0 5 1 1 
0 5 1 1 0 4 3624 2907 100 MP stroke
1 1 0 6 1 1 0 4 1 1 0 5 1 1 0 6 
1 1 0 4 1 1 0 5 1 1 0 5 1 1 0 5 
1 1 0 6 1 1 0 4 1 1 0 6 1 1 0 5 
1 1 0 5 1 1 0 6 1 1 0 5 1 1 0 6 
1 1 0 4 1 1 0 6 1 1 0 6 1 1 0 5 
1 1 0 6 1 1 0 5 1 1 0 6 1 1 0 7 
1 1 0 5 1 1 0 6 1 1 0 5 1 1 0 6 
1 2 0 6 1 1 0 5 1 1 0 6 1 2 0 5 
1 1 0 6 1 2 0 6 1 1 0 5 1 2 0 6 
1 1 0 6 1 1 0 6 1 2 0 6 1 2 0 5 
1 1 0 7 1 1 0 5 1 2 0 6 1 2 0 7 
1 1 0 5 1 2 0 6 1 2 0 7 1 1 0 -2 
1 -1 0 -3 1 -1 3574 2595 100 MP stroke
0 -2 1 -1 0 -3 1 -1 0 -3 1 -1 0 -2 1 -1 
0 -3 1 -1 0 -2 1 -1 0 -3 1 -1 0 -3 1 -1 
0 -2 1 -1 0 -3 1 -1 0 -2 1 -1 0 -3 1 -1 
0 -3 1 -1 0 -2 1 -1 0 -3 1 -1 0 -2 1 -1 
0 -3 1 -1 0 -2 1 -1 0 -3 1 -1 0 -2 1 -1 
0 -2 1 -1 0 -3 1 -1 0 -3 1 -1 0 -2 1 -1 
0 -3 1 -1 0 -2 1 -1 0 -3 1 -1 0 -3 1 -1 
0 -2 1 -1 0 -2 1 -1 0 -3 1 -1 0 -2 1 -1 
0 -3 1 -1 0 -2 1 -1 0 -3 1 -1 0 -2 1 -1 
0 -3 1 -1 0 -2 1 -1 0 -2 1 -1 0 -3 1 -1 
0 -2 1 -1 0 -3 1 -1 0 -3 1 -1 0 -2 1 -1 
0 -2 1 -1 0 -2 1 -1 0 -3 1 -1 0 -3 1 -1 
0 -2 1 -1 0 -2 3525 2769 100 MP stroke
1 -1 0 -2 1 -1 0 -3 1 -1 0 -3 1 -1 0 -2 
1 -1 0 -2 1 -1 0 -2 1 -1 0 -3 1 -1 0 -3 
1 -1 0 -2 1 -1 0 -2 1 -1 0 -2 1 -1 0 -3 
1 -1 0 -2 1 -1 0 -2 1 -1 0 -3 1 -1 0 -2 
1 -1 0 -2 1 -1 0 -3 1 -1 0 -2 1 -1 0 -2 
1 -1 0 -2 1 -1 0 -3 1 -1 0 -2 1 -1 0 -2 
1 -1 0 -3 1 -1 0 -2 1 -1 0 -2 1 -1 0 -3 
1 -1 0 -2 1 -1 0 -2 1 -1 0 -2 1 -1 0 -3 
1 -1 0 -2 1 -1 0 -2 1 -1 0 -2 1 -1 0 -2 
1 -1 0 -3 1 -1 0 -2 1 -1 0 -2 1 -1 0 -2 
1 -1 0 -2 1 -1 0 -3 1 -1 0 -2 1 -1 0 -2 
1 -1 0 -2 1 -1 0 -2 1 -1 0 -3 1 -1 0 -2 
1 -1 0 -2 1 -1 3475 2931 100 MP stroke
0 -2 1 -1 0 -2 1 -1 0 -2 1 -1 0 -3 1 -1 
0 -1 1 -1 0 -3 1 -1 0 -1 1 -1 0 -3 1 -1 
0 -2 1 -1 0 -2 1 -1 0 -2 1 -1 0 -2 1 -1 
0 -2 1 -1 0 -2 1 -1 0 -2 1 -1 0 -2 1 -1 
0 -2 1 -1 0 -2 1 -1 0 -3 1 -1 0 -1 1 -1 
0 -2 1 -1 0 -2 1 -1 0 -2 1 -1 0 -3 1 -1 
0 -1 1 -1 0 -2 1 -1 0 -2 1 -1 0 -2 1 -1 
0 -2 1 -1 0 -2 1 -1 0 -2 1 -1 0 -2 1 -1 
0 -2 1 -1 0 -2 1 -1 0 -2 1 -1 0 -2 1 -1 
0 -1 1 -1 0 -2 1 -1 0 -2 1 -1 0 -2 1 -1 
0 -2 1 -1 0 -2 1 -1 0 -2 1 -1 0 -2 1 -1 
0 -1 1 -1 0 -2 1 -1 0 -2 1 -1 0 -2 1 -1 
0 -2 1 -1 0 -1 3426 3078 100 MP stroke
1 -1 0 -2 1 -1 0 -2 1 -1 0 -2 1 -1 0 -2 
1 -1 0 -1 1 -1 0 -3 2 -2 0 -2 1 -1 0 -2 
1 -1 0 -2 1 -1 0 -2 1 -1 0 -1 1 -1 0 -2 
1 -1 0 -2 1 -1 0 -1 1 -1 0 -2 1 -1 0 -2 
1 -1 0 -1 1 -1 0 -3 2 -2 0 -2 1 -1 0 -3 
2 -2 0 -3 2 -2 0 -2 1 -1 0 -2 1 -1 0 -1 
1 -1 0 -2 1 -1 0 -1 1 -1 0 -2 1 -1 0 -2 
1 -1 0 -1 1 -1 0 -1 1 -1 0 -2 1 -1 0 -1 
1 -1 0 -3 2 -2 0 -2 1 -1 0 -1 1 -1 0 -2 
1 -1 0 -2 2 -2 0 -2 1 -1 0 -1 1 -1 0 -2 
1 -1 0 -2 2 -2 0 -2 1 -1 0 -1 1 -1 0 -1 
1 -1 0 -2 1 -1 0 -1 1 -1 0 -2 2 -2 0 -2 
1 -1 0 -2 2 -2 3367 3226 100 MP stroke
0 -2 1 -1 0 -1 1 -1 0 -1 1 -1 0 -2 2 -2 
0 -2 1 -1 0 -1 1 -1 0 -1 1 -1 0 -2 2 -2 
0 -2 1 -1 1 -1 0 -2 1 -1 0 -2 2 -2 0 -1 
1 -1 0 -2 2 -2 0 -2 2 -2 0 -2 2 -2 0 -2 
2 -2 0 -2 2 -2 0 -2 2 -2 0 -2 2 -2 0 -2 
2 -2 0 -1 1 -1 0 -1 1 -1 1 -1 0 -2 2 -2 
0 -2 2 -2 1 -1 0 -2 2 -2 0 -2 2 -2 1 -1 
0 -2 2 -2 1 -1 0 -2 2 -2 0 -1 1 -1 0 -1 
2 -2 1 -1 0 -2 2 -2 0 -1 2 -2 0 -1 2 -2 
0 -1 2 -2 0 -1 2 -2 0 -1 2 -2 0 -1 2 -2 
1 -1 0 -1 2 -2 0 -1 2 -2 1 -1 0 -1 2 -2 
1 -1 0 -1 2 -2 1 -1 1 -1 1 -1 0 -1 2 -2 
1 -1 1 -1 1 -1 3280 3377 100 MP stroke
0 -1 2 -2 1 -1 1 -1 1 -1 1 -1 1 -1 1 -1 
1 -1 1 -1 1 -1 1 -1 1 -1 1 -1 1 -1 1 -1 
1 -1 1 0 1 -1 1 -1 1 -1 1 -1 1 -1 1 0 
1 -1 1 -1 1 -1 1 0 1 -1 1 -1 1 -1 1 0 
1 -1 1 0 1 -1 1 -1 1 0 1 -1 1 0 1 -1 
1 0 1 -1 1 0 1 -1 1 0 1 -1 1 0 1 0 
1 -1 1 0 1 0 1 -1 1 0 1 0 1 -1 1 0 
1 0 1 0 1 0 1 -1 1 0 1 0 1 0 1 0 
1 0 1 0 1 0 1 0 1 0 1 0 1 0 1 0 
1 0 1 0 1 0 1 0 1 0 1 0 1 1 1 0 
1 0 1 0 1 0 1 1 1 0 1 0 1 1 1 0 
1 0 1 1 1 0 1 1 1 0 1 1 1 0 1 1 
1 0 1 1 1 0 3181 3410 100 MP stroke
1 1 1 0 1 1 1 1 1 0 1 1 1 1 1 1 
1 0 1 1 1 1 1 1 1 1 1 0 1 1 1 1 
1 1 1 1 1 1 1 1 1 1 1 1 1 1 1 1 
0 1 2 2 1 1 1 1 1 1 1 1 0 1 2 2 
1 1 0 1 2 2 1 1 0 1 2 2 1 1 0 1 
2 2 0 1 2 2 1 1 0 2 2 2 0 1 2 2 
1 1 0 2 2 2 1 1 0 2 2 2 1 1 0 2 
2 2 0 2 2 2 0 1 1 1 0 1 1 1 0 1 
2 2 0 2 2 2 0 2 2 2 0 2 2 2 0 2 
1 1 0 2 2 2 0 2 2 2 0 2 1 1 0 1 
1 1 0 2 2 2 0 2 1 1 0 1 1 1 0 2 
1 1 0 1 1 1 0 2 2 2 0 2 1 1 0 2 
1 1 0 1 1 1 3094 3277 100 MP stroke
0 2 1 1 0 1 1 1 0 2 1 1 0 2 1 1 
0 1 1 1 0 2 1 1 0 1 1 1 0 2 1 1 
0 2 1 1 0 2 1 1 0 2 1 1 0 1 1 1 
0 2 1 1 0 2 1 1 0 2 1 1 0 2 1 1 
0 1 1 1 0 3 1 1 0 2 1 1 0 2 1 1 
0 2 1 1 0 2 1 1 0 2 1 1 0 2 1 1 
0 2 1 1 0 2 1 1 0 3 1 1 0 2 1 1 
0 2 1 1 0 2 1 1 0 2 1 1 0 3 1 1 
0 2 1 1 0 3 1 1 0 2 1 1 0 2 1 1 
0 3 1 1 0 2 1 1 0 3 1 1 0 2 1 1 
0 3 1 1 0 3 1 1 0 2 1 1 0 3 1 1 
0 2 1 1 0 3 1 1 0 3 1 1 0 2 1 1 
0 3 1 1 0 3 3045 3120 100 MP stroke
1 1 0 3 1 1 0 3 1 1 0 2 1 1 0 3 
1 -1 0 -2 1 -1 0 -2 1 -1 0 -2 1 -1 0 -2 
1 -1 0 -2 1 -1 0 -1 1 -1 0 -2 1 -1 0 -2 
1 -1 0 -2 1 -1 0 -2 1 -1 0 -2 1 -1 0 -2 
1 -1 0 -2 1 -1 0 -1 1 -1 0 -2 1 -1 0 -2 
1 -1 0 -2 1 -1 0 -2 1 -1 0 -2 1 -1 0 -2 
1 -1 0 -1 1 -1 0 -2 1 -1 0 -2 1 -1 0 -2 
1 -1 0 -2 1 -1 0 -1 1 -1 0 -2 1 -1 0 -3 
1 -1 0 -1 1 -1 0 -2 1 -1 0 -2 1 -1 0 -2 
1 -1 0 -2 1 -1 0 -1 1 -1 0 -2 1 -1 0 -2 
1 -1 0 -1 1 -1 0 -2 1 -1 0 -2 1 -1 0 -2 
1 -1 0 -1 1 -1 0 -2 1 -1 0 -2 1 -1 0 -2 
1 -1 0 -2 1 -1 2995 3234 100 MP stroke
0 -1 1 -1 0 -2 1 -1 0 -2 1 -1 0 -1 1 -1 
0 -2 1 -1 0 -2 1 -1 0 -2 1 -1 0 -2 1 -1 
0 -1 1 -1 0 -2 1 -1 0 -1 1 -1 0 -2 1 -1 
0 -3 2 -2 0 -2 1 -1 0 -2 1 -1 0 -2 1 -1 
0 -1 1 -1 0 -2 1 -1 0 -2 1 -1 0 -1 1 -1 
0 -2 1 -1 0 -2 1 -1 0 -1 1 -1 0 -2 1 -1 
0 -1 1 -1 0 -2 1 -1 0 -2 1 -1 0 -1 1 -1 
0 -2 1 -1 0 -1 1 -1 0 -2 1 -1 0 -2 1 -1 
0 -1 1 -1 0 -2 1 -1 0 -1 1 -1 0 -2 1 -1 
0 -2 1 -1 0 -1 1 -1 0 -2 1 -1 0 -1 1 -1 
0 -2 1 -1 0 -1 1 -1 0 -2 1 -1 0 -1 1 -1 
0 -2 1 -1 0 -1 1 -1 0 -2 1 -1 0 -1 1 -1 
0 -2 1 -1 0 -1 2945 3366 100 MP stroke
1 -1 0 -2 1 -1 0 -1 1 -1 0 -2 1 -1 0 -2 
2 -2 0 -2 1 -1 0 -2 1 -1 0 -1 1 -1 0 -1 
1 -1 0 -2 1 -1 0 -1 1 -1 0 -2 1 -1 0 -1 
1 -1 0 -2 1 -1 0 -1 1 -1 0 -1 1 -1 0 -2 
1 -1 0 -1 1 -1 0 -1 1 -1 0 -2 1 -1 0 -1 
1 -1 0 -2 1 -1 0 -1 1 -1 0 -2 2 -2 0 -2 
1 -1 0 -2 2 -2 0 -2 1 -1 0 -1 1 -1 0 -1 
1 -1 0 -2 1 -1 0 -1 1 -1 0 -2 2 -2 0 -2 
1 -1 0 -2 2 -2 0 -2 1 -1 0 -2 2 -2 0 -2 
2 -2 0 -2 1 -1 0 -1 1 -1 0 -2 2 -2 0 -2 
2 -2 0 -2 1 -1 0 -1 1 -1 0 -1 1 -1 0 -2 
2 -2 0 -2 2 -2 0 -2 1 -1 1 -1 0 -2 1 -1 
0 -2 2 -2 0 -2 2883 3509 100 MP stroke
2 -2 0 -1 1 -1 0 -2 2 -2 0 -2 2 -2 0 -2 
2 -2 0 -2 2 -2 0 -2 2 -2 0 -2 2 -2 0 -2 
2 -2 0 -1 1 -1 0 -2 2 -2 0 -1 1 -1 0 -1 
2 -2 0 -2 2 -2 0 -2 2 -2 0 -1 1 -1 0 -1 
1 -1 1 -1 0 -2 2 -2 0 -1 1 -1 0 -1 1 -1 
1 -1 0 -2 2 -2 0 -1 2 -2 0 -2 2 -2 1 -1 
0 -2 2 -2 1 -1 0 -2 2 -2 1 -1 0 -2 2 -2 
1 -1 0 -2 2 -2 0 -1 2 -2 0 -1 2 -2 0 -1 
2 -2 0 -1 2 -2 1 -1 0 -2 2 -2 0 -1 2 -2 
1 -1 0 -1 2 -2 0 -1 2 -2 1 -1 0 -1 2 -2 
0 -1 2 -2 1 -1 0 -1 2 -2 1 -1 1 -1 0 -1 
2 -2 1 -1 0 -1 2 -2 1 -1 1 -1 1 -1 0 -1 
2 -2 1 -1 1 -1 2790 3660 100 MP stroke
1 -1 0 -1 2 -2 1 -1 1 -1 1 -1 1 -1 1 -1 
1 -1 1 -1 1 -1 1 -1 1 -1 1 -1 1 -1 1 -1 
1 -1 1 -1 1 -1 1 -1 1 -1 1 -1 1 -1 1 0 
1 -1 1 -1 1 -1 1 -1 1 -1 1 0 1 -1 1 -1 
1 -1 1 -1 1 0 1 -1 1 -1 1 0 1 -1 1 -1 
1 0 1 -1 1 -1 1 0 1 -1 1 -1 1 0 1 -1 
1 0 1 -1 1 0 1 -1 1 0 1 -1 1 0 1 -1 
1 0 1 0 1 -1 1 0 1 -1 1 0 1 0 1 -1 
1 0 1 0 1 -1 1 0 1 0 1 0 1 -1 1 0 
1 0 1 0 1 0 1 0 1 -1 1 0 1 0 1 0 
1 0 1 0 1 0 1 0 1 0 1 0 1 0 1 0 
1 0 1 0 1 0 1 0 1 0 1 1 1 0 1 0 
1 0 1 0 1 0 2691 3711 100 MP stroke
1 1 1 0 1 0 1 0 1 1 1 0 1 0 1 1 
1 0 1 0 1 1 1 0 1 1 1 0 1 1 1 0 
1 1 1 0 1 1 1 0 1 1 1 0 1 1 1 1 
1 0 1 1 1 1 1 0 1 1 1 1 1 0 1 1 
1 1 1 1 1 1 1 0 1 1 1 1 1 1 1 1 
1 1 1 1 1 1 1 1 1 1 1 1 1 1 1 1 
1 1 1 1 1 1 1 1 1 1 0 1 2 2 1 1 
1 1 1 1 0 1 2 2 1 1 0 1 2 2 1 1 
0 1 2 2 0 1 2 2 0 1 2 2 0 1 2 2 
0 1 2 2 0 1 2 2 1 1 0 2 2 2 1 1 
0 2 2 2 0 1 2 2 0 2 2 2 0 1 1 1 
0 1 2 2 0 2 2 2 0 2 2 2 0 1 1 1 
0 1 1 1 0 1 2596 3608 100 MP stroke
1 1 0 1 1 1 0 1 1 1 0 1 1 1 0 2 
2 2 0 1 1 1 0 2 2 2 0 2 1 1 0 1 
1 1 0 1 1 1 0 2 2 2 0 2 1 1 0 1 
1 1 0 2 2 2 0 2 1 1 0 2 1 1 0 1 
1 1 0 2 2 2 0 2 1 1 0 2 1 1 0 1 
1 1 0 2 1 1 0 1 1 1 0 2 1 1 0 2 
1 1 0 1 1 1 0 2 1 1 0 2 1 1 0 1 
1 1 0 2 1 1 0 1 1 1 0 2 1 1 0 2 
1 1 0 2 1 1 0 2 1 1 0 1 1 1 0 2 
1 1 0 2 1 1 0 2 1 1 0 2 1 1 0 2 
1 1 0 2 1 1 0 2 1 1 0 2 1 1 0 2 
1 1 0 2 1 1 0 2 1 1 0 2 1 1 0 2 
1 1 0 3 1 1 2541 3468 100 MP stroke
0 1 1 1 0 3 1 1 0 2 1 1 0 2 1 1 
0 3 1 1 0 2 1 1 0 2 1 1 0 3 1 1 
0 2 1 1 0 2 1 1 0 2 1 1 0 3 1 1 
0 3 1 1 0 2 1 1 0 3 1 1 0 2 1 1 
0 2 1 1 0 3 1 1 0 2 1 1 0 3 1 1 
0 3 1 1 0 2 1 1 0 3 1 1 0 3 1 1 
0 3 1 1 0 2 1 1 0 3 1 1 0 3 1 1 
0 2 1 1 0 4 1 1 0 2 1 1 0 3 1 1 
0 3 1 1 0 3 1 1 0 3 1 1 0 3 1 1 
0 1 1 -1 0 -2 1 -1 0 -1 1 -1 0 -1 1 -1 
0 -1 1 -1 0 -1 1 -1 0 -2 2 -2 0 -2 2 -2 
0 -2 2 -2 0 -2 2 -2 0 -2 2 -2 0 -2 1 -1 
1 -1 0 -2 1 -1 2486 3378 100 MP stroke
1 -1 0 -2 1 -1 0 -1 1 -1 0 -1 1 -1 0 -1 
1 -1 1 -1 0 -2 1 -1 0 -1 1 -1 0 -1 1 -1 
0 -1 1 -1 1 -1 0 -2 1 -1 0 -1 1 -1 0 -1 
1 -1 0 -1 1 -1 1 -1 0 -2 1 -1 0 -1 1 -1 
1 -1 0 -2 1 -1 1 -1 0 -2 2 -2 0 -2 2 -2 
0 -2 2 -2 0 -2 2 -2 0 -2 2 -2 0 -1 1 -1 
0 -1 1 -1 0 -1 1 -1 0 -1 1 -1 0 -1 2 -2 
0 -2 2 -2 0 -2 2 -2 0 -1 1 -1 0 -1 1 -1 
1 -1 0 -2 1 -1 1 -1 0 -2 2 -2 0 -2 2 -2 
0 -1 2 -2 0 -2 2 -2 0 -2 2 -2 0 -1 1 -1 
0 -1 1 -1 1 -1 0 -2 2 -2 0 -1 1 -1 0 -1 
1 -1 1 -1 0 -2 2 -2 0 -1 1 -1 0 -1 1 -1 
1 -1 0 -2 2 -2 2415 3513 100 MP stroke
0 -1 1 -1 1 -1 0 -2 2 -2 0 -1 2 -2 0 -2 
2 -2 0 -1 1 -1 1 -1 0 -2 2 -2 0 -1 2 -2 
0 -2 2 -2 1 -1 0 -2 2 -2 1 -1 0 -2 2 -2 
1 -1 0 -2 2 -2 1 -1 0 -2 2 -2 0 -1 2 -2 
1 -1 0 -2 2 -2 1 -1 0 -2 2 -2 0 -1 2 -2 
0 -1 2 -2 1 -1 0 -2 2 -2 0 -1 2 -2 0 -1 
2 -2 1 -1 0 -2 2 -2 0 -1 2 -2 0 -1 2 -2 
0 -1 2 -2 1 -1 1 -1 0 -2 2 -2 0 -1 2 -2 
1 -1 0 -1 2 -2 0 -1 2 -2 0 -1 2 -2 1 -1 
0 -1 2 -2 0 -1 2 -2 1 -1 0 -1 2 -2 0 -1 
2 -2 1 -1 0 -1 2 -2 1 -1 0 -1 2 -2 1 -1 
0 -1 2 -2 1 -1 0 -1 2 -2 1 -1 1 -1 0 -1 
2 -2 1 -1 1 -1 2318 3661 100 MP stroke
0 -1 2 -2 1 -1 1 -1 0 -1 2 -2 1 -1 1 -1 
0 -1 2 -2 1 -1 1 -1 1 -1 1 -1 1 -1 0 -1 
2 -2 1 -1 1 -1 1 -1 1 -1 0 -1 2 -2 1 0 
-1 0 2 -2 1 -1 1 -1 1 -1 1 -1 1 -1 1 -1 
1 -1 1 -1 1 -1 1 -1 1 -1 1 -1 1 -1 1 -1 
1 -1 1 -1 1 -1 1 -1 1 -1 1 -1 1 -1 1 -1 
1 -1 1 -1 1 -1 1 -1 1 -1 1 0 1 -1 1 -1 
1 -1 1 -1 1 -1 1 -1 1 0 1 -1 1 -1 1 -1 
1 -1 1 -1 1 0 1 -1 1 -1 1 -1 1 0 1 -1 
1 -1 1 -1 1 0 1 -1 1 -1 1 -1 1 0 1 -1 
1 -1 1 0 1 -1 1 -1 1 0 1 -1 1 -1 1 0 
1 -1 1 0 1 -1 1 -1 1 0 1 -1 1 0 1 -1 
1 0 1 -1 1 0 2220 3750 100 MP stroke
1 -1 1 0 1 -1 1 0 1 -1 1 0 1 -1 1 0 
1 -1 1 0 1 -1 1 0 1 0 1 -1 1 0 1 -1 
1 0 1 0 1 -1 1 0 1 0 1 -1 1 0 1 0 
1 -1 1 0 1 0 1 0 1 -1 1 0 1 0 1 0 
1 -1 1 0 1 0 1 0 1 0 1 -1 1 0 1 0 
1 0 1 0 1 0 1 0 1 -1 1 0 1 0 1 0 
1 0 1 0 1 0 1 0 1 0 1 0 1 0 1 0 
1 0 1 0 1 0 1 0 1 0 1 0 1 0 1 0 
1 0 1 1 1 0 1 0 1 0 1 0 1 0 1 0 
1 1 1 0 1 0 1 0 1 0 1 1 1 0 1 0 
1 0 1 1 1 0 1 0 1 1 1 0 1 0 1 1 
1 0 1 0 1 1 1 0 1 0 1 1 1 0 1 1 
1 0 1 1 1 0 2121 3755 100 MP stroke
1 1 1 0 1 0 1 1 1 0 1 1 1 1 1 0 
1 1 1 0 1 1 1 0 1 1 1 1 1 0 1 1 
1 1 1 0 1 1 1 1 1 0 1 1 1 1 1 1 
1 0 1 1 1 1 1 1 1 0 1 1 1 1 1 1 
1 1 1 1 1 0 1 1 1 1 1 1 1 1 1 1 
1 1 1 1 1 1 1 1 1 1 1 1 1 1 1 1 
1 1 1 1 1 1 1 1 1 1 1 1 1 1 0 1 
2 2 1 1 1 1 1 1 0 1 2 2 1 1 1 1 
1 1 0 1 2 2 1 1 1 1 0 1 2 2 1 1 
0 1 2 2 0 1 2 2 1 1 0 1 2 2 0 1 
2 2 1 1 0 1 2 2 1 1 0 2 2 2 0 1 
2 2 0 1 2 2 0 1 2 2 1 1 0 2 2 2 
1 1 0 2 2 2 2022 3650 100 MP stroke
1 1 0 2 2 2 1 1 0 2 2 2 0 1 1 1 
0 1 1 1 1 1 0 2 2 2 0 1 1 1 0 1 
1 1 0 1 2 2 0 2 2 2 0 2 2 2 0 1 
1 1 1 1 0 2 1 1 0 1 1 1 1 1 0 2 
1 1 0 1 2 2 0 2 1 1 1 1 0 2 1 1 
0 1 1 1 0 1 1 1 0 1 1 1 0 2 2 2 
0 2 2 2 0 2 1 1 0 1 1 1 0 1 1 1 
0 2 2 2 0 2 1 1 0 1 1 1 0 2 2 2 
0 2 1 1 0 2 2 2 0 2 1 1 0 1 1 1 
0 1 1 1 1 2 -1 0 2 -2 0 -1 1 -1 0 -1 
2 -2 0 -2 2 -2 0 -1 1 -1 0 -1 2 -2 0 -2 
2 -2 0 -1 1 -1 0 -1 2 -2 0 -2 2 -2 0 -1 
1 -1 1 -1 0 -2 1951 3578 100 MP stroke
2 -2 0 -2 2 -2 0 -1 2 -2 0 -2 2 -2 0 -2 
2 -2 1 -1 0 -2 2 -2 0 -2 2 -2 0 -1 1 -1 
0 -1 1 -1 1 -1 0 -2 2 -2 0 -1 1 -1 0 -1 
1 -1 0 -1 2 -2 0 -2 2 -2 0 -2 2 -2 1 -1 
0 -2 2 -2 0 -2 2 -2 0 -1 1 -1 0 -1 2 -2 
0 -2 2 -2 0 -2 2 -2 0 -1 1 -1 0 -1 1 -1 
1 -1 0 -2 2 -2 0 -1 1 -1 0 -1 1 -1 0 -1 
2 -2 0 -2 2 -2 0 -2 2 -2 0 -1 1 -1 0 -1 
1 -1 0 -1 2 -2 0 -2 2 -2 0 -2 2 -2 0 -1 
1 -1 0 -1 2 -2 0 -2 2 -2 0 -2 2 -2 0 -1 
1 -1 0 -1 1 -1 0 -1 2 -2 0 -2 2 -2 0 -2 
2 -2 0 -1 1 -1 0 -1 2 -2 0 -2 2 -2 0 -2 
2 -2 0 -1 1 -1 1867 3732 100 MP stroke
0 -2 2 -2 0 -1 1 -1 0 -1 2 -2 0 -2 2 -2 
0 -2 2 -2 0 -1 1 -1 0 -1 1 -1 0 -1 2 -2 
0 -2 2 -2 0 -2 2 -2 0 -2 2 -2 0 -1 1 -1 
0 -1 1 -1 0 -1 2 -2 0 -2 2 -2 0 -2 2 -2 
0 -2 2 -2 0 -1 1 -1 0 -1 1 -1 0 -1 2 -2 
0 -2 2 -2 0 -2 2 -2 0 -2 2 -2 0 -1 1 -1 
0 -1 1 -1 0 -1 1 -1 0 -1 1 -1 1 -1 0 -2 
2 -2 0 -2 2 -2 0 -2 2 -2 0 -2 2 -2 0 -1 
1 -1 1 -1 0 -2 1 -1 0 -1 1 -1 0 -1 2 -2 
0 -2 2 -2 0 -2 2 -2 0 -2 2 -2 0 -1 1 -1 
0 -2 2 -2 0 -1 1 -1 0 -1 2 -2 0 -2 1 -1 
0 -1 2 -2 0 -2 2 -2 0 -2 2 -2 0 -2 2 -2 
0 -1 1 -1 0 -2 1787 3887 100 MP stroke
2 -2 0 -1 1 -1 0 -1 2 -2 0 -2 1 -1 0 -1 
2 -2 0 -2 2 -2 0 -2 2 -2 0 -2 2 -2 0 -1 
1 -1 0 -2 2 -2 0 -1 1 -1 1 -1 0 -2 1 -1 
0 -1 1 -1 1 -1 0 -2 2 -2 0 -2 2 -2 0 -2 
2 -2 0 -2 2 -2 0 -2 2 -2 0 -2 2 -2 0 -1 
1 -1 0 -2 2 -2 0 -1 1 -1 0 -1 2 -2 0 -2 
1 -1 1 -1 0 -2 2 -2 0 -2 2 -2 0 -2 2 -2 
0 -2 2 -2 0 -2 2 -2 0 -1 1 -1 0 -2 2 -2 
0 -1 1 -1 0 -1 1 -1 0 -1 1 -1 0 -1 1 -1 
1 -1 0 -2 1 -1 1 -1 0 -2 2 -2 0 -2 2 -2 
0 -2 2 -2 0 -2 2 -2 0 -2 2 -2 0 -1 1 -1 
0 -2 2 -2 0 -1 1 -1 1 -1 0 -2 1 -1 0 -1 
1 -1 0 -1 2 -2 1706 4042 100 MP stroke
0 -2 2 -2 0 -2 2 -2 0 -2 2 -2 0 -1 1 -1 
0 -2 2 -2 0 -1 1 -1 0 -1 1 -1 0 -1 1 -1 
0 -1 1 -1 0 -1 2 -2 0 -2 2 -2 0 -2 2 -2 
0 -2 2 -2 0 -1 1 -1 0 -2 2 -2 0 -1 1 -1 
0 -1 2 -2 0 -2 1 -1 0 -1 2 -2 0 -2 2 -2 
0 -2 2 -2 0 -2 2 -2 0 -1 1 -1 0 -1 1 -1 
0 -1 2 -2 0 -2 2 -2 0 -2 2 -2 0 -2 2 -2 
0 -1 1 -1 0 -1 1 -1 0 -1 2 -2 0 -2 2 -2 
0 -2 2 -2 0 -2 2 -2 0 -1 1 -1 0 -1 1 -1 
0 -1 2 -2 0 -2 2 -2 0 -2 2 -2 0 -1 1 -1 
0 -1 2 -2 0 -2 2 -2 0 -2 2 -2 0 -1 1 -1 
0 -1 1 -1 0 -1 2 -2 0 -2 2 -2 0 -2 2 -2 
0 -1 1 -1 0 -1 1626 4196 100 MP stroke
2 -2 0 -2 2 -2 0 -1 1 -1 1 -1 0 -2 2 -2 
0 -2 2 -2 0 -1 2 -2 0 -2 2 -2 0 -2 2 -2 
1 -1 0 -2 2 -2 0 -2 2 -2 0 -1 2 -2 0 -2 
2 -2 0 -1 2 -2 0 -2 2 -2 0 -1 1 -1 0 -1 
2 -2 0 -2 2 -2 0 -1 2 -2 0 -2 2 -2 1 -1 
0 -2 2 -2 0 -1 1 -1 1 -1 0 -2 2 -2 1 -1 
0 -2 2 -2 0 -1 2 -2 0 -2 2 -2 1 -1 0 -2 
2 -2 1 -1 0 -2 2 -2 1 -1 0 -2 2 -2 1 -1 
0 -2 2 -2 1 -1 0 -2 2 -2 0 -1 2 -2 1 -1 
0 -2 2 -2 0 -1 2 -2 1 -1 0 -2 2 -2 0 -1 
2 -2 0 -1 2 -2 0 -1 2 -2 1 -1 0 -2 2 -2 
0 -1 2 -2 0 -1 2 -2 0 -1 2 -2 0 -1 2 -2 
0 -1 2 -2 0 -1 1530 4358 100 MP stroke
2 -2 0 -1 2 -2 0 -1 2 -2 1 -1 0 -1 2 -2 
0 -1 2 -2 1 -1 0 -1 2 -2 0 -1 2 -2 1 -1 
0 -1 2 -2 0 -1 2 -2 1 -1 0 -1 2 -2 1 -1 
0 -1 2 -2 1 -1 0 -1 2 -2 1 -1 1 -1 0 -1 
2 -2 1 -1 0 -1 2 -2 1 -1 1 -1 1 -1 0 -1 
2 -2 1 -1 1 -1 1 -1 0 -1 2 -2 1 -1 1 -1 
1 -1 1 -1 1 -1 0 -1 2 -2 1 -1 1 -1 1 -1 
1 -1 1 -1 1 -1 1 -1 1 -1 1 -1 1 -1 1 -1 
1 -1 1 -1 1 -1 1 -1 1 -1 1 -1 1 -1 1 -1 
1 -1 1 -1 1 -1 1 -1 1 -1 1 -1 1 -1 1 0 
1 -1 1 -1 1 -1 1 -1 1 -1 1 -1 1 0 1 -1 
1 -1 1 -1 1 0 1 -1 1 -1 1 -1 1 0 0 -1 
2 -2 1 -1 1 -1 1430 4471 100 MP stroke
0 -1 2 -2 1 -1 0 -1 2 -2 1 -1 1 -1 1 -1 
0 -1 2 -2 1 -1 1 -1 1 -1 1 -1 1 -1 1 -1 
1 -1 0 -1 2 -2 1 -1 1 -1 1 -1 1 -1 1 -1 
1 -1 1 -1 1 -1 1 -1 1 -1 1 -1 1 -1 1 -1 
1 -1 1 -1 1 -1 1 0 1 -1 1 -1 1 -1 1 -1 
1 -1 1 -1 1 0 1 -1 1 -1 1 -1 1 -1 1 0 
1 -1 1 -1 1 0 1 -1 1 -1 1 -1 1 0 1 -1 
1 -1 1 0 1 -1 1 0 1 -1 1 -1 1 0 1 -1 
1 0 1 -1 1 0 1 -1 1 0 1 -1 1 0 1 -1 
1 0 1 0 1 -1 1 0 1 0 1 -1 1 0 1 0 
1 -1 1 0 1 0 1 -1 1 0 1 0 1 0 1 0 
1 -1 1 0 1 0 1 0 1 0 1 0 1 0 1 0 
1 0 1 0 1 0 1331 4540 100 MP stroke
1 0 1 0 1 0 1 0 1 0 1 0 1 0 1 0 
1 0 1 0 1 1 1 0 1 0 1 0 1 0 1 1 
1 0 1 0 1 1 1 0 1 0 1 1 1 0 1 1 
1 0 1 1 1 0 1 0 1 1 1 1 1 0 1 1 
1 0 1 1 1 0 1 1 1 1 1 1 1 0 1 1 
1 1 1 0 1 1 1 1 1 1 1 1 1 1 1 1 
1 1 1 1 1 1 1 0 -1 0 2 2 1 1 1 1 
1 1 1 1 1 1 1 1 0 1 2 2 1 1 1 1 
0 1 2 2 1 1 0 1 2 2 1 1 0 1 2 2 
0 1 2 2 0 1 2 2 1 1 0 2 2 2 0 1 
2 2 0 1 1 1 1 1 0 2 2 2 0 1 2 2 
0 2 2 2 0 2 2 2 0 1 1 1 0 1 1 1 
0 1 1 1 0 1 1238 4453 100 MP stroke
1 1 0 1 1 1 0 1 1 1 0 1 1 1 0 1 
1 1 0 2 2 2 0 2 1 1 0 1 1 1 0 2 
2 2 0 2 1 1 0 1 1 1 0 2 1 1 0 1 
1 1 0 1 1 1 0 2 1 1 0 1 1 1 0 2 
1 1 0 1 1 1 0 2 1 1 0 1 1 1 0 2 
1 1 0 2 1 1 0 1 1 1 0 2 1 1 0 2 
1 1 0 2 1 1 0 2 1 1 0 1 1 1 0 2 
1 1 0 2 1 1 0 2 1 1 0 2 1 1 0 2 
1 1 0 2 1 1 0 2 1 1 0 2 1 1 0 2 
1 1 0 2 1 1 0 3 1 1 0 2 1 1 0 2 
1 1 0 3 1 1 0 2 1 1 0 2 1 1 0 2 
1 1 0 3 1 1 0 2 1 1 0 3 1 1 0 2 
1 1 0 2 1 1 1186 4312 100 MP stroke
0 3 1 1 0 3 1 1 0 2 1 1 0 3 1 1 
0 3 1 1 0 3 1 1 0 3 1 1 0 2 1 1 
0 3 1 1 0 3 1 1 0 3 1 1 0 3 1 1 
0 2 1 1 0 4 1 1 0 2 1 1 0 4 1 1 
0 3 1 1 0 3 1 1 0 3 1 1 0 3 1 1 
0 4 1 1 0 3 1 1 0 3 1 1 0 4 1 1 
0 3 1 1 0 3 1 1 0 4 1 1 0 3 1 1 
0 4 1 1 0 3 1 1 0 4 1 1 0 4 1 1 
0 3 1 1 0 4 1 1 0 3 1 1 0 5 1 1 
0 4 1 1 0 3 1 1 0 4 1 1 0 4 1 1 
0 4 1 1 0 4 1 1 0 4 1 1 0 4 1 1 
0 4 1 1 0 5 1 1 0 4 1 1 0 4 1 1 
0 5 1 1 0 3 1137 4092 100 MP stroke
1 1 0 5 1 1 0 5 1 1 0 4 1 1 0 5 
1 1 0 3 1 1 0 5 1 1 0 5 1 1 0 4 
1 1 0 6 1 1 0 4 1 1 0 5 1 1 0 5 
1 1 0 4 1 1 0 6 1 1 0 4 1 1 0 5 
1 1 0 6 1 1 0 4 1 1 0 6 1 1 0 4 
1 1 0 6 1 1 0 5 1 1 0 5 1 1 0 6 
1 1 0 4 1 1 0 6 1 1 0 6 1 1 0 5 
1 1 0 6 1 1 0 4 1 2 0 6 1 1 0 6 
1 1 0 5 1 1 0 6 1 1 0 5 1 1 0 6 
1 1 0 6 1 2 0 5 1 1 0 6 1 1 0 5 
1 2 0 6 1 1 0 6 1 2 0 5 1 1 0 6 
1 2 0 5 1 1 0 7 1 1 0 6 1 2 0 5 
1 1 0 7 1 1 1087 3779 100 MP stroke
0 6 1 1 0 7 1 1 0 7 1 1 0 5 1 2 
0 6 1 2 0 5 1 2 0 7 1 1 0 7 1 1 
0 6 1 1 0 7 1 2 0 5 1 2 0 7 1 1 
0 7 1 2 0 5 1 2 0 7 1 2 0 5 1 2 
0 7 1 2 0 7 1 1 0 6 1 2 0 7 1 2 
0 6 1 1 0 8 1 1 0 8 1 1 0 6 1 2 
0 8 1 1 0 8 1 1 0 6 1 2 0 8 1 1 
0 7 1 1 0 8 1 2 0 7 1 2 0 6 1 2 
0 8 1 2 0 6 1 2 0 8 1 1 0 8 1 2 
0 7 1 1 0 8 1 2 0 7 1 1 0 9 1 1 
0 9 1 1 0 7 1 2 0 8 1 2 0 7 1 1 
0 9 1 2 0 8 1 2 0 7 1 1 0 9 1 2 
0 7 1 2 0 8 1038 3351 100 MP stroke
1 2 0 9 1 2 0 7 1 1 0 9 1 2 0 7 
1 2 0 9 1 2 0 9 1 2 0 7 1 2 0 9 
1 2 0 7 1 2 0 9 1 2 0 9 1 2 0 7 
1 2 0 10 1 2 0 7 1 2 0 9 1 2 0 10 
1 2 0 7 1 2 0 10 1 2 0 7 1 2 0 10 
1 2 0 10 1 2 0 8 1 1 0 10 1 2 0 8 
1 2 0 10 1 2 0 10 1 2 0 8 1 2 0 10 
1 2 0 8 1 2 0 10 1 2 0 11 1 2 0 8 
1 2 0 10 1 2 0 9 1 2 0 10 1 2 0 11 
1 2 0 8 1 2 0 11 1 2 0 8 1 3 0 10 
1 2 0 11 1 2 0 9 1 2 0 11 1 2 0 9 
1 2 0 11 1 2 0 11 1 2 0 9 1 2 0 11 
1 2 0 9 1 2 988 2805 100 MP stroke
0 11 1 3 0 11 1 2 0 9 1 2 0 12 1 2 
0 9 1 2 0 12 1 2 0 11 1 3 0 9 1 2 
0 12 1 2 0 9 1 3 0 11 1 3 0 11 1 3 
0 9 1 2 0 12 1 3 0 9 1 2 0 12 1 3 
0 12 1 2 0 10 1 2 0 12 1 3 0 9 1 3 
0 12 1 2 0 13 1 2 0 10 1 2 0 13 1 2 
0 10 1 2 0 13 1 2 0 13 1 2 0 10 1 3 
0 12 1 3 0 10 1 3 0 12 1 3 0 13 1 2 
0 10 1 3 0 13 1 2 0 11 1 2 0 13 1 3 
0 13 1 2 0 11 1 2 0 13 1 3 0 11 1 2 
0 13 1 3 0 13 1 3 0 11 1 2 0 14 1 2 
0 11 1 3 0 13 1 3 0 13 1 3 0 11 1 3 
0 13 1 3 0 11 939 2113 100 MP stroke
1 3 0 14 1 2 0 14 1 3 0 11 1 3 0 14 
1 2 0 12 1 2 0 14 1 3 0 14 1 3 0 11 
1 3 0 14 1 3 0 11 1 3 0 15 1 2 0 15 
1 3 0 11 1 3 0 14 1 3 0 12 1 3 0 14 
1 3 0 15 1 3 0 11 1 3 0 15 1 3 0 12 
1 3 0 15 1 3 0 14 1 3 0 12 1 3 0 15 
1 3 0 12 1 3 0 15 1 3 0 16 1 3 0 12 
1 3 0 15 1 3 0 12 1 3 0 16 1 3 0 15 
1 3 0 13 1 3 0 15 1 3 0 13 1 3 0 15 
1 4 0 15 1 3 0 13 1 3 0 16 1 3 0 16 
899 1448 81 MP stroke
gr

18 w
c9
0 sg
3316 4903 mt 
(Tempo [s]) s
 546 2716 mt  -90 rotate
(Erro [m]) s
90 rotate
2477  294 mt 
(Erro na estimativa da Posi\347\343o do Objecto) s
 882 4658 mt 
( ) s
6239  431 mt 
( ) s
6 w
1 sg
0 334 812 0 0 -334 5384 783 4 MP
PP
-812 0 0 334 812 0 0 -334 5384 783 5 MP stroke
4 w
DO
SO
6 w
0 sg
5384  783 mt 6196  783 L
5384  449 mt 6196  449 L
5384  783 mt 5384  449 L
6196  783 mt 6196  449 L
5384  783 mt 6196  783 L
5384  783 mt 5384  449 L
5384  783 mt 6196  783 L
5384  449 mt 6196  449 L
5384  783 mt 5384  449 L
6196  783 mt 6196  449 L
5842  584 mt 
(erro x) s
gs 5384 449 813 335 MR c np
18 w
c8
352 0 5454 542 2 MP stroke
gr

18 w
c8
0 sg
5842  733 mt 
(erro y) s
gs 5384 449 813 335 MR c np
c9
352 0 5454 689 2 MP stroke
6 w
gr

6 w
c9

end %%Color Dict

eplot
%%EndObject

epage
end

showpage

%%Trailer
%%EOF
