%!PS-Adobe-2.0 EPSF-1.2
%%Creator: MATLAB, The Mathworks, Inc. Version 7.9.0.529 (R2009b). Operating System: Darwin 10.8.0 Darwin Kernel Version 10.8.0: Tue Jun  7 16:33:36 PDT 2011; root:xnu-1504.15.3~1/RELEASE_I386 i386.
%%Title: ./kalman_continuo.eps
%%CreationDate: 10/22/2011  13:10:13
%%DocumentNeededFonts: Helvetica
%%DocumentProcessColors: Cyan Magenta Yellow Black
%%Extensions: CMYK
%%Pages: 1
%%BoundingBox:    66   199   548   602
%%EndComments

%%BeginProlog
% MathWorks dictionary
/MathWorks 160 dict begin
% definition operators
/bdef {bind def} bind def
/ldef {load def} bind def
/xdef {exch def} bdef
/xstore {exch store} bdef
% operator abbreviations
/c  /clip ldef
/cc /concat ldef
/cp /closepath ldef
/gr /grestore ldef
/gs /gsave ldef
/mt /moveto ldef
/np /newpath ldef
/cm /currentmatrix ldef
/sm /setmatrix ldef
/rm /rmoveto ldef
/rl /rlineto ldef
/s {show newpath} bdef
/sc {setcmykcolor} bdef
/sr /setrgbcolor ldef
/sg /setgray ldef
/w /setlinewidth ldef
/j /setlinejoin ldef
/cap /setlinecap ldef
/rc {rectclip} bdef
/rf {rectfill} bdef
% page state control
/pgsv () def
/bpage {/pgsv save def} bdef
/epage {pgsv restore} bdef
/bplot /gsave ldef
/eplot {stroke grestore} bdef
% orientation switch
/portraitMode 0 def /landscapeMode 1 def /rotateMode 2 def
% coordinate system mappings
/dpi2point 0 def
% font control
/FontSize 0 def
/FMS {/FontSize xstore findfont [FontSize 0 0 FontSize neg 0 0]
  makefont setfont} bdef
/reencode {exch dup where {pop load} {pop StandardEncoding} ifelse
  exch dup 3 1 roll findfont dup length dict begin
  { 1 index /FID ne {def}{pop pop} ifelse } forall
  /Encoding exch def currentdict end definefont pop} bdef
/isroman {findfont /CharStrings get /Agrave known} bdef
/FMSR {3 1 roll 1 index dup isroman {reencode} {pop pop} ifelse
  exch FMS} bdef
/csm {1 dpi2point div -1 dpi2point div scale neg translate
 dup landscapeMode eq {pop -90 rotate}
  {rotateMode eq {90 rotate} if} ifelse} bdef
% line types: solid, dotted, dashed, dotdash
/SO { [] 0 setdash } bdef
/DO { [.5 dpi2point mul 4 dpi2point mul] 0 setdash } bdef
/DA { [6 dpi2point mul] 0 setdash } bdef
/DD { [.5 dpi2point mul 4 dpi2point mul 6 dpi2point mul 4
  dpi2point mul] 0 setdash } bdef
% macros for lines and objects
/L {lineto stroke} bdef
/MP {3 1 roll moveto 1 sub {rlineto} repeat} bdef
/AP {{rlineto} repeat} bdef
/PDlw -1 def
/W {/PDlw currentlinewidth def setlinewidth} def
/PP {closepath eofill} bdef
/DP {closepath stroke} bdef
/MR {4 -2 roll moveto dup  0 exch rlineto exch 0 rlineto
  neg 0 exch rlineto closepath} bdef
/FR {MR stroke} bdef
/PR {MR fill} bdef
/L1i {{currentfile picstr readhexstring pop} image} bdef
/tMatrix matrix def
/MakeOval {newpath tMatrix currentmatrix pop translate scale
0 0 1 0 360 arc tMatrix setmatrix} bdef
/FO {MakeOval stroke} bdef
/PO {MakeOval fill} bdef
/PD {currentlinewidth 2 div 0 360 arc fill
   PDlw -1 eq not {PDlw w /PDlw -1 def} if} def
/FA {newpath tMatrix currentmatrix pop translate scale
  0 0 1 5 -2 roll arc tMatrix setmatrix stroke} bdef
/PA {newpath tMatrix currentmatrix pop	translate 0 0 moveto scale
  0 0 1 5 -2 roll arc closepath tMatrix setmatrix fill} bdef
/FAn {newpath tMatrix currentmatrix pop translate scale
  0 0 1 5 -2 roll arcn tMatrix setmatrix stroke} bdef
/PAn {newpath tMatrix currentmatrix pop translate 0 0 moveto scale
  0 0 1 5 -2 roll arcn closepath tMatrix setmatrix fill} bdef
/vradius 0 def /hradius 0 def /lry 0 def
/lrx 0 def /uly 0 def /ulx 0 def /rad 0 def
/MRR {/vradius xdef /hradius xdef /lry xdef /lrx xdef /uly xdef
  /ulx xdef newpath tMatrix currentmatrix pop ulx hradius add uly
  vradius add translate hradius vradius scale 0 0 1 180 270 arc 
  tMatrix setmatrix lrx hradius sub uly vradius add translate
  hradius vradius scale 0 0 1 270 360 arc tMatrix setmatrix
  lrx hradius sub lry vradius sub translate hradius vradius scale
  0 0 1 0 90 arc tMatrix setmatrix ulx hradius add lry vradius sub
  translate hradius vradius scale 0 0 1 90 180 arc tMatrix setmatrix
  closepath} bdef
/FRR {MRR stroke } bdef
/PRR {MRR fill } bdef
/MlrRR {/lry xdef /lrx xdef /uly xdef /ulx xdef /rad lry uly sub 2 div def
  newpath tMatrix currentmatrix pop ulx rad add uly rad add translate
  rad rad scale 0 0 1 90 270 arc tMatrix setmatrix lrx rad sub lry rad
  sub translate rad rad scale 0 0 1 270 90 arc tMatrix setmatrix
  closepath} bdef
/FlrRR {MlrRR stroke } bdef
/PlrRR {MlrRR fill } bdef
/MtbRR {/lry xdef /lrx xdef /uly xdef /ulx xdef /rad lrx ulx sub 2 div def
  newpath tMatrix currentmatrix pop ulx rad add uly rad add translate
  rad rad scale 0 0 1 180 360 arc tMatrix setmatrix lrx rad sub lry rad
  sub translate rad rad scale 0 0 1 0 180 arc tMatrix setmatrix
  closepath} bdef
/FtbRR {MtbRR stroke } bdef
/PtbRR {MtbRR fill } bdef
/stri 6 array def /dtri 6 array def
/smat 6 array def /dmat 6 array def
/tmat1 6 array def /tmat2 6 array def /dif 3 array def
/asub {/ind2 exch def /ind1 exch def dup dup
  ind1 get exch ind2 get sub exch } bdef
/tri_to_matrix {
  2 0 asub 3 1 asub 4 0 asub 5 1 asub
  dup 0 get exch 1 get 7 -1 roll astore } bdef
/compute_transform {
  dmat dtri tri_to_matrix tmat1 invertmatrix 
  smat stri tri_to_matrix tmat2 concatmatrix } bdef
/ds {stri astore pop} bdef
/dt {dtri astore pop} bdef
/db {2 copy /cols xdef /rows xdef mul dup 3 mul string
  currentfile exch readhexstring pop
  dup 0 3 index getinterval /rbmap xdef
  dup 2 index dup getinterval /gbmap xdef
  1 index dup 2 mul exch getinterval /bbmap xdef pop pop}bdef
/it {gs np dtri aload pop moveto lineto lineto cp c
  cols rows 8 compute_transform 
  rbmap gbmap bbmap true 3 colorimage gr}bdef
/il {newpath moveto lineto stroke}bdef
currentdict end def
%%EndProlog

%%BeginSetup
MathWorks begin

0 cap

end
%%EndSetup

%%Page: 1 1
%%BeginPageSetup
%%PageBoundingBox:    66   199   548   602
MathWorks begin
bpage
%%EndPageSetup

%%BeginObject: obj1
bplot

/dpi2point 12 def
portraitMode 0216 7344 csm

  580   110  5791  4845 MR c np
86 dict begin %Colortable dictionary
/c0 { 0.000000 0.000000 0.000000 sr} bdef
/c1 { 1.000000 1.000000 1.000000 sr} bdef
/c2 { 0.900000 0.000000 0.000000 sr} bdef
/c3 { 0.000000 0.820000 0.000000 sr} bdef
/c4 { 0.000000 0.000000 0.800000 sr} bdef
/c5 { 0.910000 0.820000 0.320000 sr} bdef
/c6 { 1.000000 0.260000 0.820000 sr} bdef
/c7 { 0.000000 0.820000 0.820000 sr} bdef
c0
1 j
1 sg
   0    0 6913 5186 PR
6 w
0 4226 5356 0 0 -4226 899 4615 4 MP
PP
-5356 0 0 4226 5356 0 0 -4226 899 4615 5 MP stroke
4 w
DO
0 sg
 899 4615 mt  899  389 L
 899  389 mt  899  389 L
2684 4615 mt 2684  389 L
2684  389 mt 2684  389 L
4469 4615 mt 4469  389 L
4469  389 mt 4469  389 L
6255 4615 mt 6255  389 L
6255  389 mt 6255  389 L
 899 4615 mt 6255 4615 L
6255 4615 mt 6255 4615 L
 899 4086 mt 6255 4086 L
6255 4086 mt 6255 4086 L
 899 3558 mt 6255 3558 L
6255 3558 mt 6255 3558 L
 899 3030 mt 6255 3030 L
6255 3030 mt 6255 3030 L
 899 2502 mt 6255 2502 L
6255 2502 mt 6255 2502 L
 899 1973 mt 6255 1973 L
6255 1973 mt 6255 1973 L
 899 1445 mt 6255 1445 L
6255 1445 mt 6255 1445 L
 899  917 mt 6255  917 L
6255  917 mt 6255  917 L
 899  389 mt 6255  389 L
6255  389 mt 6255  389 L
SO
6 w
 899 4615 mt 6255 4615 L
 899 4615 mt  899  389 L
 899 4615 mt  899 4561 L
%%IncludeResource: font Helvetica
/Helvetica /ISOLatin1Encoding 120 FMSR

 866 4760 mt 
(0) s
2684 4615 mt 2684 4561 L
2651 4760 mt 
(5) s
4469 4615 mt 4469 4561 L
4403 4760 mt 
(10) s
6255 4615 mt 6255 4561 L
6189 4760 mt 
(15) s
 899 4615 mt  952 4615 L
 798 4659 mt 
(0) s
 899 4086 mt  952 4086 L
 798 4130 mt 
(1) s
 899 3558 mt  952 3558 L
 798 3602 mt 
(2) s
 899 3030 mt  952 3030 L
 798 3074 mt 
(3) s
 899 2502 mt  952 2502 L
 798 2546 mt 
(4) s
 899 1973 mt  952 1973 L
 798 2017 mt 
(5) s
 899 1445 mt  952 1445 L
 798 1489 mt 
(6) s
 899  917 mt  952  917 L
 798  961 mt 
(7) s
 899  389 mt  952  389 L
 798  433 mt 
(8) s
gs 899 389 5357 4227 MR c np
18 w
/c8 { 0.000000 0.000000 1.000000 sr} bdef
c8
4 -8 8 -15 8 -14 8 -14 7 -15 8 -14 8 -14 8 -15 
8 -14 8 -14 8 -15 8 -14 8 -14 8 -14 8 -14 8 -14 
8 -14 8 -15 9 -14 8 -14 8 -14 8 -14 8 -13 9 -14 
8 -14 8 -14 8 -14 9 -14 8 -14 8 -13 9 -14 8 -14 
9 -13 8 -14 8 -14 9 -13 8 -14 9 -13 8 -14 9 -13 
8 -14 9 -13 9 -14 8 -13 9 -13 9 -14 8 -13 9 -13 
9 -14 8 -13 9 -13 9 -13 9 -13 9 -13 8 -14 9 -13 
9 -13 9 -13 9 -13 9 -13 9 -13 9 -12 9 -13 9 -13 
9 -13 9 -13 9 -12 9 -13 9 -13 9 -13 9 -12 9 -13 
9 -12 10 -13 9 -12 9 -13 9 -12 9 -13 10 -12 9 -13 
9 -12 10 -12 9 -13 9 -12 10 -12 9 -12 9 -13 10 -12 
9 -12 10 -12 9 -12 10 -12 9 -12 10 -12 9 -12 10 -12 
9 -12 10 -12 10 -11 5057 2055 100 MP stroke
9 -12 10 -12 9 -12 10 -11 10 -12 10 -12 9 -11 10 -12 
10 -12 10 -11 9 -12 10 -11 10 -11 10 -12 10 -11 10 -12 
9 -11 10 -11 10 -11 10 -12 10 -11 10 -11 10 -11 10 -11 
10 -11 10 -11 10 -11 10 -11 10 -11 10 -11 10 -11 11 -11 
10 -11 10 -10 10 -11 10 -11 10 -11 11 -10 10 -11 10 -10 
10 -11 11 -11 10 -10 10 -10 11 -11 10 -10 10 -11 11 -10 
10 -10 10 -11 11 -10 10 -10 11 -10 10 -10 11 -10 10 -11 
11 -10 10 -10 11 -10 10 -10 11 -9 10 -10 11 -10 10 -10 
11 -10 11 -10 10 -9 11 -10 11 -10 10 -9 11 -10 11 -9 
10 -10 11 -9 11 -10 11 -9 10 -10 11 -9 11 -9 11 -10 
10 -9 11 -9 11 -9 11 -9 11 -9 11 -10 11 -9 11 -9 
11 -9 10 -9 11 -8 11 -9 11 -9 11 -9 11 -9 11 -8 
11 -9 11 -9 11 -8 4031 3070 100 MP stroke
12 -9 11 -9 11 -8 11 -9 11 -8 11 -9 11 -8 11 -8 
11 -9 12 -8 11 -8 11 -8 11 -9 11 -8 12 -8 11 -8 
11 -8 11 -8 12 -8 11 -8 11 -8 12 -8 11 -8 11 -7 
12 -8 11 -8 11 -8 12 -7 11 -8 11 -8 12 -7 11 -8 
12 -7 11 -8 12 -7 11 -7 11 -8 12 -7 11 -7 12 -7 
11 -8 12 -7 11 -7 12 -7 12 -7 11 -7 12 -7 11 -7 
12 -7 11 -7 12 -7 12 -7 11 -6 12 -7 12 -7 11 -6 
12 -7 12 -7 11 -6 12 -7 12 -6 11 -7 12 -6 12 -6 
12 -7 11 -6 12 -6 12 -6 12 -7 11 -6 12 -6 12 -6 
12 -6 12 -6 12 -6 11 -6 12 -6 12 -6 12 -6 12 -5 
12 -6 12 -6 11 -5 12 -6 12 -6 12 -5 12 -6 12 -5 
12 -6 12 -5 12 -5 12 -6 12 -5 12 -5 12 -6 12 -5 
12 -5 12 -5 12 -5 2884 3750 100 MP stroke
12 -5 12 -5 12 -5 12 -5 12 -5 12 -5 12 -5 12 -4 
12 -5 12 -5 12 -5 13 -4 12 -5 12 -4 12 -5 12 -4 
12 -5 12 -4 12 -5 13 -4 12 -4 12 -4 12 -5 12 -4 
12 -4 13 -4 12 -4 12 -4 12 -4 12 -4 13 -4 12 -4 
12 -4 12 -3 13 -4 12 -4 12 -4 12 -3 13 -4 12 -3 
12 -4 12 -3 13 -4 12 -3 12 -4 12 -3 13 -3 12 -4 
12 -3 13 -3 12 -3 12 -3 13 -3 12 -3 12 -3 13 -3 
12 -3 12 -3 13 -3 12 -3 12 -3 13 -2 12 -3 12 -3 
13 -2 12 -3 13 -2 12 -3 12 -2 13 -3 12 -2 13 -2 
12 -3 12 -2 13 -2 12 -2 13 -3 12 -2 12 -2 13 -2 
12 -2 13 -2 12 -2 13 -2 12 -1 12 -2 13 -2 12 -2 
13 -1 12 -2 13 -2 12 -1 13 -2 12 -1 12 -2 13 -1 
12 -1 13 -2 12 -1 1668 4065 100 MP stroke
13 -1 12 -2 13 -1 12 -1 13 -1 12 -1 13 -1 12 -1 
13 -1 12 -1 13 -1 12 -1 13 0 12 -1 13 -1 12 -1 
13 0 12 -1 12 0 13 -1 12 0 13 -1 12 0 13 -1 
12 0 13 0 12 -1 13 0 12 0 13 0 3 0 9 0 
2 0 11 0 2 0 8 0 2 0 1256 4086 38 MP stroke
/c9 { 1.000000 0.000000 0.000000 sr} bdef
c9
4 -9 19 -30 20 -33 -8 10 14 -24 16 -27 -2 1 -1 0 
29 -47 -6 7 10 -18 0 -1 21 -34 -27 37 43 -66 8 -14 
6 -11 7 -12 11 -18 2 -5 7 -13 0 -1 16 -26 -11 15 
24 -38 12 -19 15 -24 12 -19 -12 17 35 -54 -1 1 -16 22 
37 -55 -5 5 19 -28 5 -9 5 -9 20 -30 -10 14 12 -19 
4 -7 6 -10 21 -31 22 -34 20 -31 9 -13 -26 38 35 -52 
-2 2 15 -21 11 -17 -6 9 14 -21 13 -19 3 -6 20 -29 
20 -28 -12 16 1 0 12 -17 16 -24 -5 8 13 -20 44 -64 
-41 62 22 -33 24 -34 16 -24 2 -1 19 -27 -2 4 -12 18 
24 -34 3 -4 14 -19 10 -14 41 -59 -20 31 22 -31 -13 20 
34 -49 4 -4 -2 4 14 -18 -3 6 28 -40 -4 8 25 -35 
12 -17 3 -2 -11 18 31 -44 0 2 28 -39 -1 4 -1 4 
29 -41 0 2 15 -19 5039 2080 100 MP stroke
2 -1 16 -20 4 -4 -3 7 12 -16 8 -8 21 -28 12 -16 
-11 19 26 -35 -4 10 23 -31 6 -6 20 -27 25 -33 2 0 
6 -6 9 -9 5 -4 8 -9 -9 17 34 -47 22 -28 17 -22 
-36 57 28 -37 9 -9 13 -15 24 -32 6 -5 32 -43 -9 18 
-5 11 17 -21 7 -6 5 -3 13 -15 14 -17 -10 20 38 -51 
-17 29 28 -37 5 -2 31 -41 4 -1 -10 19 23 -28 5 -3 
6 -3 15 -17 23 -29 11 -12 -16 30 39 -53 8 -5 1 3 
16 -18 5 -2 18 -20 -4 11 -3 10 45 -61 -6 15 28 -36 
-13 26 5 -2 38 -49 9 -8 -9 19 33 -43 2 4 13 -12 
20 -24 -3 11 4 0 23 -28 -7 17 42 -55 -11 24 1 5 
33 -43 33 -42 -15 29 10 -7 9 -6 25 -30 -5 14 27 -33 
-13 27 6 -1 23 -27 -6 17 29 -36 0 7 19 -21 14 -13 
11 -8 7 -3 15 -15 4018 3082 100 MP stroke
-7 20 12 -11 49 -64 15 -15 -26 46 24 -26 7 -4 -10 25 
48 -64 15 -14 10 -6 5 0 10 -6 30 -35 -12 26 9 -5 
-4 15 23 -25 19 -20 7 -2 -12 27 28 -32 34 -42 0 9 
8 -2 5 1 11 -7 -7 20 40 -50 11 -7 -14 29 31 -36 
12 -7 14 -11 17 -17 3 5 20 -19 11 -6 2 5 29 -33 
8 -1 -21 41 34 -41 1 10 19 -20 16 -12 -5 17 21 -21 
15 -11 17 -16 13 -8 -1 11 38 -45 -16 34 10 -5 20 -18 
39 -47 -18 37 34 -40 -5 20 6 2 12 -8 -1 12 7 1 
32 -36 -8 23 29 -31 10 -4 22 -21 -1 13 6 2 5 4 
30 -33 12 -6 29 -32 -24 47 49 -60 -3 15 4 7 -9 25 
43 -52 7 1 17 -12 10 -3 -8 24 51 -64 5 5 -17 37 
26 -25 40 -48 -6 21 23 -20 -13 31 6 3 30 -32 -9 26 
17 -12 22 -19 10 -3 2871 3757 100 MP stroke
12 -4 12 -6 4 8 35 -40 -10 28 35 -39 -10 29 3 8 
22 -20 12 -3 11 -4 14 -7 -4 20 26 -26 19 -14 16 -12 
7 5 16 -11 14 -7 -4 19 22 -19 15 -8 7 4 14 -6 
9 0 0 14 20 -16 4 8 19 -14 38 -41 -9 28 0 12 
47 -55 -11 31 13 -5 26 -24 16 -8 15 -8 5 7 7 4 
9 1 10 0 -1 17 34 -36 20 -15 -4 21 -4 20 25 -20 
36 -38 -1 15 24 -20 9 2 10 0 -6 24 32 -31 2 11 
3 11 20 -13 13 -5 16 -8 6 8 26 -24 -5 24 19 -14 
17 -9 -2 20 2 12 39 -42 5 9 20 -14 4 10 1 15 
24 -19 22 -17 2 13 6 8 31 -30 10 1 5 9 -4 22 
22 -15 4 9 42 -44 -7 26 -4 24 35 -36 -17 42 65 -80 
-2 20 5 10 11 0 1 15 27 -23 7 8 27 -24 6 8 
21 -14 -3 22 40 -42 1629 4105 100 MP stroke
-10 33 5 8 26 -20 -15 40 38 -39 -2 20 27 -23 6 9 
13 -2 16 -6 11 2 5 10 17 -8 3 13 21 -13 -2 21 
29 -25 13 -1 30 -26 -4 23 -3 23 21 -13 34 -33 10 3 
5 11 11 2 6 10 1 16 36 -33 6 -5 9 0 -17 28 
11 0 3 -1 8 0 2 0 1259 4081 37 MP stroke
/c10 { 0.000000 1.000000 0.000000 sr} bdef
c10
5 -9 8 -15 7 -13 8 -14 8 -14 7 -13 7 -15 9 -15 
7 -13 8 -14 8 -14 8 -15 8 -13 10 -18 8 -13 7 -14 
8 -13 8 -14 7 -13 9 -14 8 -14 9 -16 8 -14 10 -16 
9 -15 9 -14 8 -14 7 -13 10 -15 7 -12 8 -13 10 -16 
8 -13 9 -14 8 -13 8 -14 8 -13 8 -13 9 -14 9 -14 
10 -15 9 -15 9 -13 7 -12 8 -13 8 -11 7 -11 10 -15 
8 -12 8 -13 9 -13 8 -12 9 -14 9 -13 9 -13 9 -13 
8 -12 7 -11 9 -13 10 -14 9 -14 9 -13 10 -14 10 -14 
7 -10 11 -16 10 -14 9 -12 8 -12 9 -12 8 -11 9 -13 
11 -15 10 -13 10 -14 10 -14 10 -13 7 -10 10 -12 8 -12 
11 -14 8 -11 9 -11 10 -13 9 -12 10 -14 10 -12 10 -13 
9 -11 8 -11 9 -12 11 -14 9 -11 10 -13 9 -10 9 -12 
10 -12 9 -11 9 -11 5062 2064 100 MP stroke
9 -11 9 -11 9 -11 10 -12 10 -13 11 -12 10 -13 10 -12 
10 -11 11 -14 10 -12 11 -13 10 -12 11 -13 10 -11 8 -9 
9 -10 9 -10 10 -11 9 -11 10 -11 12 -13 10 -11 8 -9 
8 -8 12 -14 10 -11 11 -12 10 -11 9 -10 10 -10 7 -7 
10 -9 10 -11 10 -10 10 -11 10 -11 11 -11 10 -10 12 -13 
9 -10 12 -12 10 -11 11 -11 9 -9 10 -10 11 -11 11 -11 
11 -11 11 -11 11 -12 10 -9 10 -9 12 -13 10 -9 10 -9 
10 -11 11 -9 10 -11 11 -9 11 -12 13 -13 10 -8 11 -11 
10 -9 12 -11 12 -12 10 -9 10 -9 12 -12 10 -8 11 -10 
10 -9 10 -8 11 -10 12 -11 10 -9 12 -11 10 -7 11 -10 
12 -11 10 -8 9 -6 10 -9 11 -8 10 -9 10 -7 11 -9 
9 -7 12 -10 12 -10 11 -9 12 -11 11 -9 12 -10 11 -9 
11 -9 12 -8 11 -10 4031 3085 100 MP stroke
11 -8 13 -11 12 -11 10 -6 9 -6 12 -10 12 -9 11 -8 
14 -12 10 -7 10 -7 10 -6 10 -7 11 -7 9 -5 11 -8 
11 -7 12 -10 12 -8 10 -7 12 -8 13 -11 12 -8 10 -6 
10 -7 12 -7 11 -8 12 -9 13 -10 11 -7 11 -7 13 -10 
12 -7 11 -8 12 -7 10 -7 12 -7 11 -6 11 -6 11 -8 
10 -5 11 -5 13 -10 11 -6 12 -8 12 -7 11 -7 13 -8 
12 -8 11 -7 11 -6 11 -6 12 -7 10 -4 12 -7 13 -8 
11 -7 10 -3 11 -6 10 -4 12 -6 11 -6 12 -7 13 -8 
13 -8 12 -6 13 -9 12 -7 12 -6 12 -6 12 -7 13 -8 
13 -8 12 -7 13 -6 10 -4 14 -9 10 -4 12 -5 12 -7 
15 -9 11 -6 12 -6 12 -5 12 -6 13 -8 11 -3 10 -4 
13 -7 12 -6 10 -2 11 -4 10 -3 12 -6 13 -6 11 -4 
13 -7 13 -6 11 -5 2886 3765 100 MP stroke
12 -5 12 -6 12 -5 13 -6 10 -3 13 -6 10 -2 12 -6 
14 -7 12 -5 12 -6 13 -5 12 -6 14 -7 12 -6 12 -4 
12 -5 12 -4 12 -5 11 -4 13 -6 12 -4 12 -4 12 -5 
13 -5 12 -5 13 -6 13 -5 14 -6 13 -6 10 -2 13 -5 
14 -6 10 -1 13 -5 12 -4 12 -2 10 -2 11 -1 11 -2 
12 -2 12 -3 12 -2 13 -4 11 -2 10 0 12 -1 13 -4 
12 -2 10 2 11 0 11 1 10 2 10 2 12 0 10 2 
11 2 11 1 11 2 11 2 11 4 11 3 9 4 12 4 
10 4 10 5 12 4 12 3 10 7 10 5 10 8 11 6 
11 6 11 7 10 9 10 8 12 8 9 10 10 10 11 10 
12 8 11 9 12 8 10 12 11 10 13 8 11 11 14 7 
10 14 11 11 11 11 12 11 14 9 12 10 13 10 12 11 
13 9 12 11 14 7 1736 3642 100 MP stroke
12 11 15 7 15 5 15 5 17 1 16 3 18 0 17 0 
18 -2 19 -5 19 -5 20 -8 21 -11 22 -13 23 -17 23 -19 
26 -23 25 -25 25 -28 26 -29 28 -35 30 -41 30 -44 30 -45 
30 -50 33 -56 34 -61 35 -68 38 -73 37 -77 9 -20 29 -62 
6 -14 35 -77 7 -16 27 -64 6 -13 1 -3 0 -1 899 4615 40 MP stroke
gr

18 w
c10
0 sg
3446 4903 mt 
(x [m]) s
 716 2633 mt  -90 rotate
(y [m]) s
90 rotate
2993  294 mt 
(Traject\363ria do Objecto) s
 882 4658 mt 
( ) s
6239  431 mt 
( ) s
6 w
1 sg
0 521 1666 0 0 -521 4215 4277 4 MP
PP
-1666 0 0 521 1666 0 0 -521 4215 4277 5 MP stroke
4 w
DO
SO
6 w
0 sg
4215 4277 mt 5881 4277 L
4215 3756 mt 5881 3756 L
4215 4277 mt 4215 3756 L
5881 4277 mt 5881 3756 L
4215 4277 mt 5881 4277 L
4215 4277 mt 4215 3756 L
4215 4277 mt 5881 4277 L
4215 3756 mt 5881 3756 L
4215 4277 mt 4215 3756 L
5881 4277 mt 5881 3756 L
4683 3899 mt 
(Posi\347\343o Real) s
gs 4215 3756 1667 522 MR c np
18 w
c8
360 0 4287 3856 2 MP stroke
gr

18 w
c8
0 sg
4683 4059 mt 
(Posi\347\343o Medida) s
gs 4215 3756 1667 522 MR c np
c9
360 0 4287 4016 2 MP stroke
gr

c9
0 sg
4683 4219 mt 
(Estimativa de Kalman) s
gs 4215 3756 1667 522 MR c np
c10
360 0 4287 4176 2 MP stroke
6 w
gr

6 w
c10

end %%Color Dict

eplot
%%EndObject

epage
end

showpage

%%Trailer
%%EOF
