%!PS-Adobe-2.0 EPSF-1.2
%%Creator: MATLAB, The Mathworks, Inc. Version 7.9.0.529 (R2009b). Operating System: Darwin 10.8.0 Darwin Kernel Version 10.8.0: Tue Jun  7 16:33:36 PDT 2011; root:xnu-1504.15.3~1/RELEASE_I386 i386.
%%Title: ./kalman_continuo_erro.eps
%%CreationDate: 10/22/2011  13:09:58
%%DocumentNeededFonts: Helvetica
%%DocumentProcessColors: Cyan Magenta Yellow Black
%%Extensions: CMYK
%%Pages: 1
%%BoundingBox:    52   199   548   602
%%EndComments

%%BeginProlog
% MathWorks dictionary
/MathWorks 160 dict begin
% definition operators
/bdef {bind def} bind def
/ldef {load def} bind def
/xdef {exch def} bdef
/xstore {exch store} bdef
% operator abbreviations
/c  /clip ldef
/cc /concat ldef
/cp /closepath ldef
/gr /grestore ldef
/gs /gsave ldef
/mt /moveto ldef
/np /newpath ldef
/cm /currentmatrix ldef
/sm /setmatrix ldef
/rm /rmoveto ldef
/rl /rlineto ldef
/s {show newpath} bdef
/sc {setcmykcolor} bdef
/sr /setrgbcolor ldef
/sg /setgray ldef
/w /setlinewidth ldef
/j /setlinejoin ldef
/cap /setlinecap ldef
/rc {rectclip} bdef
/rf {rectfill} bdef
% page state control
/pgsv () def
/bpage {/pgsv save def} bdef
/epage {pgsv restore} bdef
/bplot /gsave ldef
/eplot {stroke grestore} bdef
% orientation switch
/portraitMode 0 def /landscapeMode 1 def /rotateMode 2 def
% coordinate system mappings
/dpi2point 0 def
% font control
/FontSize 0 def
/FMS {/FontSize xstore findfont [FontSize 0 0 FontSize neg 0 0]
  makefont setfont} bdef
/reencode {exch dup where {pop load} {pop StandardEncoding} ifelse
  exch dup 3 1 roll findfont dup length dict begin
  { 1 index /FID ne {def}{pop pop} ifelse } forall
  /Encoding exch def currentdict end definefont pop} bdef
/isroman {findfont /CharStrings get /Agrave known} bdef
/FMSR {3 1 roll 1 index dup isroman {reencode} {pop pop} ifelse
  exch FMS} bdef
/csm {1 dpi2point div -1 dpi2point div scale neg translate
 dup landscapeMode eq {pop -90 rotate}
  {rotateMode eq {90 rotate} if} ifelse} bdef
% line types: solid, dotted, dashed, dotdash
/SO { [] 0 setdash } bdef
/DO { [.5 dpi2point mul 4 dpi2point mul] 0 setdash } bdef
/DA { [6 dpi2point mul] 0 setdash } bdef
/DD { [.5 dpi2point mul 4 dpi2point mul 6 dpi2point mul 4
  dpi2point mul] 0 setdash } bdef
% macros for lines and objects
/L {lineto stroke} bdef
/MP {3 1 roll moveto 1 sub {rlineto} repeat} bdef
/AP {{rlineto} repeat} bdef
/PDlw -1 def
/W {/PDlw currentlinewidth def setlinewidth} def
/PP {closepath eofill} bdef
/DP {closepath stroke} bdef
/MR {4 -2 roll moveto dup  0 exch rlineto exch 0 rlineto
  neg 0 exch rlineto closepath} bdef
/FR {MR stroke} bdef
/PR {MR fill} bdef
/L1i {{currentfile picstr readhexstring pop} image} bdef
/tMatrix matrix def
/MakeOval {newpath tMatrix currentmatrix pop translate scale
0 0 1 0 360 arc tMatrix setmatrix} bdef
/FO {MakeOval stroke} bdef
/PO {MakeOval fill} bdef
/PD {currentlinewidth 2 div 0 360 arc fill
   PDlw -1 eq not {PDlw w /PDlw -1 def} if} def
/FA {newpath tMatrix currentmatrix pop translate scale
  0 0 1 5 -2 roll arc tMatrix setmatrix stroke} bdef
/PA {newpath tMatrix currentmatrix pop	translate 0 0 moveto scale
  0 0 1 5 -2 roll arc closepath tMatrix setmatrix fill} bdef
/FAn {newpath tMatrix currentmatrix pop translate scale
  0 0 1 5 -2 roll arcn tMatrix setmatrix stroke} bdef
/PAn {newpath tMatrix currentmatrix pop translate 0 0 moveto scale
  0 0 1 5 -2 roll arcn closepath tMatrix setmatrix fill} bdef
/vradius 0 def /hradius 0 def /lry 0 def
/lrx 0 def /uly 0 def /ulx 0 def /rad 0 def
/MRR {/vradius xdef /hradius xdef /lry xdef /lrx xdef /uly xdef
  /ulx xdef newpath tMatrix currentmatrix pop ulx hradius add uly
  vradius add translate hradius vradius scale 0 0 1 180 270 arc 
  tMatrix setmatrix lrx hradius sub uly vradius add translate
  hradius vradius scale 0 0 1 270 360 arc tMatrix setmatrix
  lrx hradius sub lry vradius sub translate hradius vradius scale
  0 0 1 0 90 arc tMatrix setmatrix ulx hradius add lry vradius sub
  translate hradius vradius scale 0 0 1 90 180 arc tMatrix setmatrix
  closepath} bdef
/FRR {MRR stroke } bdef
/PRR {MRR fill } bdef
/MlrRR {/lry xdef /lrx xdef /uly xdef /ulx xdef /rad lry uly sub 2 div def
  newpath tMatrix currentmatrix pop ulx rad add uly rad add translate
  rad rad scale 0 0 1 90 270 arc tMatrix setmatrix lrx rad sub lry rad
  sub translate rad rad scale 0 0 1 270 90 arc tMatrix setmatrix
  closepath} bdef
/FlrRR {MlrRR stroke } bdef
/PlrRR {MlrRR fill } bdef
/MtbRR {/lry xdef /lrx xdef /uly xdef /ulx xdef /rad lrx ulx sub 2 div def
  newpath tMatrix currentmatrix pop ulx rad add uly rad add translate
  rad rad scale 0 0 1 180 360 arc tMatrix setmatrix lrx rad sub lry rad
  sub translate rad rad scale 0 0 1 0 180 arc tMatrix setmatrix
  closepath} bdef
/FtbRR {MtbRR stroke } bdef
/PtbRR {MtbRR fill } bdef
/stri 6 array def /dtri 6 array def
/smat 6 array def /dmat 6 array def
/tmat1 6 array def /tmat2 6 array def /dif 3 array def
/asub {/ind2 exch def /ind1 exch def dup dup
  ind1 get exch ind2 get sub exch } bdef
/tri_to_matrix {
  2 0 asub 3 1 asub 4 0 asub 5 1 asub
  dup 0 get exch 1 get 7 -1 roll astore } bdef
/compute_transform {
  dmat dtri tri_to_matrix tmat1 invertmatrix 
  smat stri tri_to_matrix tmat2 concatmatrix } bdef
/ds {stri astore pop} bdef
/dt {dtri astore pop} bdef
/db {2 copy /cols xdef /rows xdef mul dup 3 mul string
  currentfile exch readhexstring pop
  dup 0 3 index getinterval /rbmap xdef
  dup 2 index dup getinterval /gbmap xdef
  1 index dup 2 mul exch getinterval /bbmap xdef pop pop}bdef
/it {gs np dtri aload pop moveto lineto lineto cp c
  cols rows 8 compute_transform 
  rbmap gbmap bbmap true 3 colorimage gr}bdef
/il {newpath moveto lineto stroke}bdef
currentdict end def
%%EndProlog

%%BeginSetup
MathWorks begin

0 cap

end
%%EndSetup

%%Page: 1 1
%%BeginPageSetup
%%PageBoundingBox:    52   199   548   602
MathWorks begin
bpage
%%EndPageSetup

%%BeginObject: obj1
bplot

/dpi2point 12 def
portraitMode 0216 7344 csm

  410   110  5961  4845 MR c np
86 dict begin %Colortable dictionary
/c0 { 0.000000 0.000000 0.000000 sr} bdef
/c1 { 1.000000 1.000000 1.000000 sr} bdef
/c2 { 0.900000 0.000000 0.000000 sr} bdef
/c3 { 0.000000 0.820000 0.000000 sr} bdef
/c4 { 0.000000 0.000000 0.800000 sr} bdef
/c5 { 0.910000 0.820000 0.320000 sr} bdef
/c6 { 1.000000 0.260000 0.820000 sr} bdef
/c7 { 0.000000 0.820000 0.820000 sr} bdef
c0
1 j
1 sg
   0    0 6913 5186 PR
6 w
0 4226 5356 0 0 -4226 899 4615 4 MP
PP
-5356 0 0 4226 5356 0 0 -4226 899 4615 5 MP stroke
4 w
DO
0 sg
 899 4615 mt  899  389 L
 899  389 mt  899  389 L
1791 4615 mt 1791  389 L
1791  389 mt 1791  389 L
2684 4615 mt 2684  389 L
2684  389 mt 2684  389 L
3577 4615 mt 3577  389 L
3577  389 mt 3577  389 L
4469 4615 mt 4469  389 L
4469  389 mt 4469  389 L
5362 4615 mt 5362  389 L
5362  389 mt 5362  389 L
6255 4615 mt 6255  389 L
6255  389 mt 6255  389 L
 899 4615 mt 6255 4615 L
6255 4615 mt 6255 4615 L
 899 4192 mt 6255 4192 L
6255 4192 mt 6255 4192 L
 899 3769 mt 6255 3769 L
6255 3769 mt 6255 3769 L
 899 3347 mt 6255 3347 L
6255 3347 mt 6255 3347 L
 899 2924 mt 6255 2924 L
6255 2924 mt 6255 2924 L
 899 2502 mt 6255 2502 L
6255 2502 mt 6255 2502 L
 899 2079 mt 6255 2079 L
6255 2079 mt 6255 2079 L
 899 1656 mt 6255 1656 L
6255 1656 mt 6255 1656 L
 899 1234 mt 6255 1234 L
6255 1234 mt 6255 1234 L
 899  811 mt 6255  811 L
6255  811 mt 6255  811 L
 899  389 mt 6255  389 L
6255  389 mt 6255  389 L
SO
6 w
 899 4615 mt 6255 4615 L
 899 4615 mt  899  389 L
 899 4615 mt  899 4561 L
%%IncludeResource: font Helvetica
/Helvetica /ISOLatin1Encoding 120 FMSR

 866 4760 mt 
(0) s
1791 4615 mt 1791 4561 L
1758 4760 mt 
(5) s
2684 4615 mt 2684 4561 L
2618 4760 mt 
(10) s
3577 4615 mt 3577 4561 L
3511 4760 mt 
(15) s
4469 4615 mt 4469 4561 L
4403 4760 mt 
(20) s
5362 4615 mt 5362 4561 L
5296 4760 mt 
(25) s
6255 4615 mt 6255 4561 L
6189 4760 mt 
(30) s
 899 4615 mt  952 4615 L
 728 4659 mt 
(-1) s
 899 4192 mt  952 4192 L
 628 4236 mt 
(-0.8) s
 899 3769 mt  952 3769 L
 628 3813 mt 
(-0.6) s
 899 3347 mt  952 3347 L
 628 3391 mt 
(-0.4) s
 899 2924 mt  952 2924 L
 628 2968 mt 
(-0.2) s
 899 2502 mt  952 2502 L
 798 2546 mt 
(0) s
 899 2079 mt  952 2079 L
 698 2123 mt 
(0.2) s
 899 1656 mt  952 1656 L
 698 1700 mt 
(0.4) s
 899 1234 mt  952 1234 L
 698 1278 mt 
(0.6) s
 899  811 mt  952  811 L
 698  855 mt 
(0.8) s
 899  389 mt  952  389 L
 798  433 mt 
(1) s
gs 899 389 5357 4227 MR c np
18 w
/c8 { 0.000000 0.000000 1.000000 sr} bdef
c8
8 3 12 0 13 -6 12 2 13 -1 12 -6 13 0 12 4 
13 -7 12 0 13 -1 12 3 13 -3 12 14 13 -2 12 -3 
13 -2 12 -2 13 -3 12 0 13 1 12 5 13 1 12 11 
13 3 12 1 13 -2 12 -3 13 6 12 -7 13 -2 12 10 
13 -4 12 2 13 -2 12 -1 13 0 12 -5 13 4 12 2 
13 5 12 6 13 0 12 -7 13 -2 12 -9 13 -9 12 8 
13 -5 12 0 13 -3 12 -4 13 3 12 1 12 -1 13 1 
12 -4 13 -10 12 0 13 5 12 3 13 0 12 7 13 5 
12 -13 13 12 12 7 13 -2 12 -4 13 -1 12 -6 13 -1 
12 10 13 3 12 6 13 3 12 4 13 -12 12 2 13 -4 
12 6 13 -5 12 -3 13 2 12 1 13 7 12 -3 13 4 
12 -3 13 -5 12 -2 13 8 12 -2 13 2 12 -7 13 -1 
12 3 13 -6 12 -1 5023 2529 100 MP stroke
13 -4 12 -1 13 -4 12 -1 13 5 12 4 13 6 12 0 
13 -2 12 9 13 1 12 9 13 2 12 4 13 -1 12 -9 
13 -5 12 -3 13 -3 12 -1 13 0 12 9 13 -2 12 -8 
13 -12 12 10 13 2 12 3 13 1 12 -5 13 -4 12 -15 
13 -6 12 1 13 -2 12 0 13 2 12 1 13 -1 12 9 
13 -5 12 10 13 0 12 3 13 -6 12 -4 13 6 12 0 
13 3 12 5 13 4 12 -3 13 -4 12 10 13 -4 12 -3 
13 2 12 -1 13 2 12 -2 13 5 12 13 13 -5 12 4 
13 -5 12 7 13 10 12 -3 13 -3 12 7 13 -4 12 1 
13 -1 12 -5 13 1 12 4 13 -1 12 7 13 -8 12 3 
13 7 12 -3 13 -15 12 -2 13 -2 12 -1 13 -8 12 0 
13 -9 12 4 13 6 12 0 13 8 12 1 13 5 12 2 
13 0 12 0 13 3 3785 2504 100 MP stroke
12 0 13 10 12 9 13 -9 12 -12 13 7 12 0 13 3 
12 13 13 -5 12 -7 13 -7 12 -4 13 -4 12 -13 13 -2 
12 -2 13 7 12 1 13 -3 12 -1 13 11 12 3 13 -8 
12 -3 13 -1 12 1 13 2 12 12 13 -3 12 -2 13 10 
12 0 13 1 12 -1 13 -4 12 0 13 -4 12 -3 13 0 
12 -8 13 -7 12 10 12 -2 13 4 12 0 13 -2 12 6 
13 2 12 0 13 -3 12 -3 13 2 12 -10 13 3 12 4 
13 -1 12 -14 13 1 12 -11 13 -3 12 1 13 0 12 6 
13 9 12 -1 13 10 12 1 13 2 12 -3 13 4 12 6 
13 11 12 1 13 1 12 -7 13 10 12 -8 13 0 12 3 
13 14 12 -1 13 1 12 -2 13 -1 12 10 13 -10 12 -7 
13 7 12 1 13 -14 12 -6 13 -11 12 1 13 4 12 -5 
13 5 12 3 13 -1 2548 2510 100 MP stroke
12 -1 13 -1 12 -1 13 3 12 -8 13 2 12 -10 13 2 
12 6 13 2 12 1 13 2 12 1 13 10 12 2 13 0 
12 -3 13 0 12 -3 13 -3 12 4 13 0 12 -2 13 0 
12 0 13 1 12 7 13 4 12 8 13 4 12 -8 13 2 
12 8 13 -9 12 1 13 2 12 -6 13 -7 12 -10 13 -6 
12 -4 13 -4 12 -2 13 5 12 -7 13 -10 12 -3 13 4 
12 -1 13 -13 12 -7 13 -13 12 -13 13 -12 12 -3 13 -13 
12 -9 13 -5 12 -8 13 -9 12 -11 13 -8 12 -15 13 -7 
12 -11 13 -14 12 -6 13 -1 12 -14 13 -11 12 -15 13 -10 
12 -5 13 -11 12 -16 13 -11 12 -7 13 -16 12 -15 13 -11 
12 -3 13 -7 12 -2 13 -16 12 -6 13 3 12 -7 13 8 
12 -17 13 -9 12 -4 13 -2 12 4 13 -1 12 4 13 -3 
12 3 13 -1 12 10 1311 2904 100 MP stroke
13 -2 12 11 13 17 12 13 13 30 12 20 13 31 12 27 
13 33 12 37 13 39 12 44 13 51 12 54 13 64 12 64 
13 77 12 74 13 79 12 77 13 90 12 103 13 106 12 101 
13 109 12 119 13 126 12 136 13 149 12 145 3 37 10 114 
1 24 11 143 2 29 8 115 2 24 0 5 899 389 39 MP stroke
/c9 { 0.000000 1.000000 0.000000 sr} bdef
c9
8 3 12 1 13 -6 12 2 13 -2 12 -5 13 -1 12 4 
13 -7 12 0 13 -1 12 4 13 -3 12 14 13 -3 12 -3 
13 -2 12 -2 13 -2 12 0 13 0 12 5 13 1 12 11 
13 3 12 2 13 -2 12 -4 13 6 12 -6 13 -3 12 10 
13 -4 12 3 13 -3 12 -1 13 1 12 -6 13 4 12 3 
13 4 12 6 13 0 12 -6 13 -3 12 -9 13 -9 12 8 
13 -5 12 0 13 -3 12 -3 13 3 12 0 12 -1 13 1 
12 -4 13 -9 12 0 13 4 12 3 13 0 12 7 13 5 
12 -13 13 13 12 6 13 -1 12 -5 13 -1 12 -6 13 -1 
12 10 13 3 12 6 13 4 12 3 13 -12 12 2 13 -4 
12 6 13 -5 12 -3 13 2 12 1 13 7 12 -3 13 4 
12 -3 13 -5 12 -2 13 8 12 -2 13 2 12 -7 13 -2 
12 4 13 -6 12 -2 5023 2467 100 MP stroke
13 -4 12 -1 13 -3 12 -1 13 5 12 4 13 5 12 0 
13 -1 12 9 13 1 12 8 13 2 12 4 13 -1 12 -8 
13 -5 12 -4 13 -3 12 -1 13 0 12 10 13 -3 12 -8 
13 -12 12 10 13 2 12 3 13 1 12 -5 13 -4 12 -15 
13 -6 12 1 13 -2 12 0 13 2 12 1 13 -2 12 10 
13 -5 12 9 13 1 12 3 13 -7 12 -3 13 6 12 0 
13 3 12 5 13 3 12 -3 13 -4 12 10 13 -4 12 -3 
13 2 12 -1 13 2 12 -2 13 5 12 13 13 -5 12 4 
13 -5 12 7 13 10 12 -3 13 -3 12 7 13 -4 12 0 
13 0 12 -6 13 2 12 4 13 -2 12 8 13 -9 12 3 
13 8 12 -4 13 -14 12 -3 13 -2 12 -1 13 -7 12 -1 
13 -8 12 3 13 6 12 0 13 8 12 1 13 5 12 2 
13 0 12 0 13 2 3785 2445 100 MP stroke
12 0 13 10 12 10 13 -10 12 -11 13 6 12 1 13 2 
12 13 13 -5 12 -7 13 -7 12 -4 13 -4 12 -14 13 -2 
12 -1 13 6 12 1 13 -3 12 -1 13 11 12 3 13 -8 
12 -4 13 -1 12 1 13 2 12 12 13 -3 12 -3 13 10 
12 1 13 0 12 -1 13 -4 12 0 13 -4 12 -4 13 1 
12 -9 13 -6 12 9 12 -2 13 4 12 0 13 -2 12 6 
13 1 12 0 13 -3 12 -3 13 2 12 -11 13 3 12 4 
13 0 12 -14 13 0 12 -11 13 -3 12 1 13 0 12 6 
13 9 12 -1 13 10 12 1 13 2 12 -3 13 4 12 7 
13 10 12 2 13 1 12 -7 13 10 12 -7 13 -1 12 4 
13 14 12 -1 13 2 12 -1 13 0 12 10 13 -10 12 -6 
13 8 12 1 13 -13 12 -5 13 -10 12 2 13 5 12 -4 
13 6 12 4 13 0 2548 2441 100 MP stroke
12 0 13 1 12 0 13 5 12 -7 13 3 12 -7 13 3 
12 8 13 3 12 3 13 4 12 3 13 11 12 5 13 1 
12 -1 13 2 12 -1 13 -1 12 6 13 2 12 -1 13 3 
12 2 13 2 12 9 13 6 12 9 13 6 12 -7 13 3 
12 9 13 -8 12 2 13 2 12 -5 13 -8 12 -10 13 -7 
12 -5 13 -4 12 -4 13 3 12 -9 13 -13 12 -7 13 1 
12 -5 13 -18 12 -13 13 -19 12 -19 13 -20 12 -11 13 -22 
12 -19 13 -15 12 -19 13 -21 12 -25 13 -22 12 -30 13 -23 
12 -28 13 -32 12 -25 13 -22 12 -36 13 -33 12 -39 13 -36 
12 -32 13 -38 12 -45 13 -41 12 -38 13 -49 12 -49 13 -47 
12 -39 13 -44 12 -41 13 -56 12 -47 13 -39 12 -50 13 -36 
12 -61 13 -54 12 -50 13 -49 12 -42 13 -48 12 -43 13 -49 
12 -45 13 -46 12 -36 1311 4195 100 MP stroke
13 -47 12 -32 13 -25 12 -27 13 -9 12 -16 13 -3 12 -4 
13 6 12 13 13 19 12 29 13 41 12 49 13 65 12 71 
13 92 12 96 13 109 12 115 13 137 12 162 13 174 12 180 
13 200 12 223 13 243 12 268 13 295 12 306 3 79 10 249 
1 53 11 309 2 64 8 257 2 52 0 13 899 389 39 MP stroke
gr

18 w
c9
0 sg
3316 4903 mt 
(Tempo [s]) s
 546 2716 mt  -90 rotate
(Erro [m]) s
90 rotate
2477  294 mt 
(Erro na estimativa da Posi\347\343o do Objecto) s
 882 4658 mt 
( ) s
6239  431 mt 
( ) s
6 w
1 sg
0 334 812 0 0 -334 5384 783 4 MP
PP
-812 0 0 334 812 0 0 -334 5384 783 5 MP stroke
4 w
DO
SO
6 w
0 sg
5384  783 mt 6196  783 L
5384  449 mt 6196  449 L
5384  783 mt 5384  449 L
6196  783 mt 6196  449 L
5384  783 mt 6196  783 L
5384  783 mt 5384  449 L
5384  783 mt 6196  783 L
5384  449 mt 6196  449 L
5384  783 mt 5384  449 L
6196  783 mt 6196  449 L
5842  584 mt 
(erro x) s
gs 5384 449 813 335 MR c np
18 w
c8
352 0 5454 542 2 MP stroke
gr

18 w
c8
0 sg
5842  733 mt 
(erro y) s
gs 5384 449 813 335 MR c np
c9
352 0 5454 689 2 MP stroke
6 w
gr

6 w
c9

end %%Color Dict

eplot
%%EndObject

epage
end

showpage

%%Trailer
%%EOF
