%!PS-Adobe-2.0 EPSF-1.2
%%Creator: MATLAB, The Mathworks, Inc. Version 7.9.0.529 (R2009b). Operating System: Darwin 10.8.0 Darwin Kernel Version 10.8.0: Tue Jun  7 16:33:36 PDT 2011; root:xnu-1504.15.3~1/RELEASE_I386 i386.
%%Title: ./kalman_hibrido_covariancia.eps
%%CreationDate: 10/08/2011  16:05:52
%%DocumentNeededFonts: Helvetica
%%DocumentProcessColors: Cyan Magenta Yellow Black
%%Extensions: CMYK
%%Pages: 1
%%BoundingBox:    58   199   548   602
%%EndComments

%%BeginProlog
% MathWorks dictionary
/MathWorks 160 dict begin
% definition operators
/bdef {bind def} bind def
/ldef {load def} bind def
/xdef {exch def} bdef
/xstore {exch store} bdef
% operator abbreviations
/c  /clip ldef
/cc /concat ldef
/cp /closepath ldef
/gr /grestore ldef
/gs /gsave ldef
/mt /moveto ldef
/np /newpath ldef
/cm /currentmatrix ldef
/sm /setmatrix ldef
/rm /rmoveto ldef
/rl /rlineto ldef
/s {show newpath} bdef
/sc {setcmykcolor} bdef
/sr /setrgbcolor ldef
/sg /setgray ldef
/w /setlinewidth ldef
/j /setlinejoin ldef
/cap /setlinecap ldef
/rc {rectclip} bdef
/rf {rectfill} bdef
% page state control
/pgsv () def
/bpage {/pgsv save def} bdef
/epage {pgsv restore} bdef
/bplot /gsave ldef
/eplot {stroke grestore} bdef
% orientation switch
/portraitMode 0 def /landscapeMode 1 def /rotateMode 2 def
% coordinate system mappings
/dpi2point 0 def
% font control
/FontSize 0 def
/FMS {/FontSize xstore findfont [FontSize 0 0 FontSize neg 0 0]
  makefont setfont} bdef
/reencode {exch dup where {pop load} {pop StandardEncoding} ifelse
  exch dup 3 1 roll findfont dup length dict begin
  { 1 index /FID ne {def}{pop pop} ifelse } forall
  /Encoding exch def currentdict end definefont pop} bdef
/isroman {findfont /CharStrings get /Agrave known} bdef
/FMSR {3 1 roll 1 index dup isroman {reencode} {pop pop} ifelse
  exch FMS} bdef
/csm {1 dpi2point div -1 dpi2point div scale neg translate
 dup landscapeMode eq {pop -90 rotate}
  {rotateMode eq {90 rotate} if} ifelse} bdef
% line types: solid, dotted, dashed, dotdash
/SO { [] 0 setdash } bdef
/DO { [.5 dpi2point mul 4 dpi2point mul] 0 setdash } bdef
/DA { [6 dpi2point mul] 0 setdash } bdef
/DD { [.5 dpi2point mul 4 dpi2point mul 6 dpi2point mul 4
  dpi2point mul] 0 setdash } bdef
% macros for lines and objects
/L {lineto stroke} bdef
/MP {3 1 roll moveto 1 sub {rlineto} repeat} bdef
/AP {{rlineto} repeat} bdef
/PDlw -1 def
/W {/PDlw currentlinewidth def setlinewidth} def
/PP {closepath eofill} bdef
/DP {closepath stroke} bdef
/MR {4 -2 roll moveto dup  0 exch rlineto exch 0 rlineto
  neg 0 exch rlineto closepath} bdef
/FR {MR stroke} bdef
/PR {MR fill} bdef
/L1i {{currentfile picstr readhexstring pop} image} bdef
/tMatrix matrix def
/MakeOval {newpath tMatrix currentmatrix pop translate scale
0 0 1 0 360 arc tMatrix setmatrix} bdef
/FO {MakeOval stroke} bdef
/PO {MakeOval fill} bdef
/PD {currentlinewidth 2 div 0 360 arc fill
   PDlw -1 eq not {PDlw w /PDlw -1 def} if} def
/FA {newpath tMatrix currentmatrix pop translate scale
  0 0 1 5 -2 roll arc tMatrix setmatrix stroke} bdef
/PA {newpath tMatrix currentmatrix pop	translate 0 0 moveto scale
  0 0 1 5 -2 roll arc closepath tMatrix setmatrix fill} bdef
/FAn {newpath tMatrix currentmatrix pop translate scale
  0 0 1 5 -2 roll arcn tMatrix setmatrix stroke} bdef
/PAn {newpath tMatrix currentmatrix pop translate 0 0 moveto scale
  0 0 1 5 -2 roll arcn closepath tMatrix setmatrix fill} bdef
/vradius 0 def /hradius 0 def /lry 0 def
/lrx 0 def /uly 0 def /ulx 0 def /rad 0 def
/MRR {/vradius xdef /hradius xdef /lry xdef /lrx xdef /uly xdef
  /ulx xdef newpath tMatrix currentmatrix pop ulx hradius add uly
  vradius add translate hradius vradius scale 0 0 1 180 270 arc 
  tMatrix setmatrix lrx hradius sub uly vradius add translate
  hradius vradius scale 0 0 1 270 360 arc tMatrix setmatrix
  lrx hradius sub lry vradius sub translate hradius vradius scale
  0 0 1 0 90 arc tMatrix setmatrix ulx hradius add lry vradius sub
  translate hradius vradius scale 0 0 1 90 180 arc tMatrix setmatrix
  closepath} bdef
/FRR {MRR stroke } bdef
/PRR {MRR fill } bdef
/MlrRR {/lry xdef /lrx xdef /uly xdef /ulx xdef /rad lry uly sub 2 div def
  newpath tMatrix currentmatrix pop ulx rad add uly rad add translate
  rad rad scale 0 0 1 90 270 arc tMatrix setmatrix lrx rad sub lry rad
  sub translate rad rad scale 0 0 1 270 90 arc tMatrix setmatrix
  closepath} bdef
/FlrRR {MlrRR stroke } bdef
/PlrRR {MlrRR fill } bdef
/MtbRR {/lry xdef /lrx xdef /uly xdef /ulx xdef /rad lrx ulx sub 2 div def
  newpath tMatrix currentmatrix pop ulx rad add uly rad add translate
  rad rad scale 0 0 1 180 360 arc tMatrix setmatrix lrx rad sub lry rad
  sub translate rad rad scale 0 0 1 0 180 arc tMatrix setmatrix
  closepath} bdef
/FtbRR {MtbRR stroke } bdef
/PtbRR {MtbRR fill } bdef
/stri 6 array def /dtri 6 array def
/smat 6 array def /dmat 6 array def
/tmat1 6 array def /tmat2 6 array def /dif 3 array def
/asub {/ind2 exch def /ind1 exch def dup dup
  ind1 get exch ind2 get sub exch } bdef
/tri_to_matrix {
  2 0 asub 3 1 asub 4 0 asub 5 1 asub
  dup 0 get exch 1 get 7 -1 roll astore } bdef
/compute_transform {
  dmat dtri tri_to_matrix tmat1 invertmatrix 
  smat stri tri_to_matrix tmat2 concatmatrix } bdef
/ds {stri astore pop} bdef
/dt {dtri astore pop} bdef
/db {2 copy /cols xdef /rows xdef mul dup 3 mul string
  currentfile exch readhexstring pop
  dup 0 3 index getinterval /rbmap xdef
  dup 2 index dup getinterval /gbmap xdef
  1 index dup 2 mul exch getinterval /bbmap xdef pop pop}bdef
/it {gs np dtri aload pop moveto lineto lineto cp c
  cols rows 8 compute_transform 
  rbmap gbmap bbmap true 3 colorimage gr}bdef
/il {newpath moveto lineto stroke}bdef
currentdict end def
%%EndProlog

%%BeginSetup
MathWorks begin

0 cap

end
%%EndSetup

%%Page: 1 1
%%BeginPageSetup
%%PageBoundingBox:    58   199   548   602
MathWorks begin
bpage
%%EndPageSetup

%%BeginObject: obj1
bplot

/dpi2point 12 def
portraitMode 0216 7344 csm

  480   110  5891  4845 MR c np
85 dict begin %Colortable dictionary
/c0 { 0.000000 0.000000 0.000000 sr} bdef
/c1 { 1.000000 1.000000 1.000000 sr} bdef
/c2 { 0.900000 0.000000 0.000000 sr} bdef
/c3 { 0.000000 0.820000 0.000000 sr} bdef
/c4 { 0.000000 0.000000 0.800000 sr} bdef
/c5 { 0.910000 0.820000 0.320000 sr} bdef
/c6 { 1.000000 0.260000 0.820000 sr} bdef
/c7 { 0.000000 0.820000 0.820000 sr} bdef
c0
1 j
1 sg
   0    0 6913 5186 PR
6 w
0 4226 5356 0 0 -4226 899 4615 4 MP
PP
-5356 0 0 4226 5356 0 0 -4226 899 4615 5 MP stroke
4 w
DO
0 sg
 899 4615 mt  899  389 L
 899  389 mt  899  389 L
1791 4615 mt 1791  389 L
1791  389 mt 1791  389 L
2684 4615 mt 2684  389 L
2684  389 mt 2684  389 L
3577 4615 mt 3577  389 L
3577  389 mt 3577  389 L
4469 4615 mt 4469  389 L
4469  389 mt 4469  389 L
5362 4615 mt 5362  389 L
5362  389 mt 5362  389 L
6255 4615 mt 6255  389 L
6255  389 mt 6255  389 L
 899 4615 mt 6255 4615 L
6255 4615 mt 6255 4615 L
 899 4086 mt 6255 4086 L
6255 4086 mt 6255 4086 L
 899 3558 mt 6255 3558 L
6255 3558 mt 6255 3558 L
 899 3030 mt 6255 3030 L
6255 3030 mt 6255 3030 L
 899 2502 mt 6255 2502 L
6255 2502 mt 6255 2502 L
 899 1973 mt 6255 1973 L
6255 1973 mt 6255 1973 L
 899 1445 mt 6255 1445 L
6255 1445 mt 6255 1445 L
 899  917 mt 6255  917 L
6255  917 mt 6255  917 L
 899  389 mt 6255  389 L
6255  389 mt 6255  389 L
SO
6 w
 899 4615 mt 6255 4615 L
 899 4615 mt  899  389 L
 899 4615 mt  899 4561 L
%%IncludeResource: font Helvetica
/Helvetica /ISOLatin1Encoding 120 FMSR

 866 4760 mt 
(0) s
1791 4615 mt 1791 4561 L
1758 4760 mt 
(5) s
2684 4615 mt 2684 4561 L
2618 4760 mt 
(10) s
3577 4615 mt 3577 4561 L
3511 4760 mt 
(15) s
4469 4615 mt 4469 4561 L
4403 4760 mt 
(20) s
5362 4615 mt 5362 4561 L
5296 4760 mt 
(25) s
6255 4615 mt 6255 4561 L
6189 4760 mt 
(30) s
 899 4615 mt  952 4615 L
 798 4659 mt 
(0) s
 899 4086 mt  952 4086 L
 698 4130 mt 
(0.5) s
 899 3558 mt  952 3558 L
 798 3602 mt 
(1) s
 899 3030 mt  952 3030 L
 698 3074 mt 
(1.5) s
 899 2502 mt  952 2502 L
 798 2546 mt 
(2) s
 899 1973 mt  952 1973 L
 698 2017 mt 
(2.5) s
 899 1445 mt  952 1445 L
 798 1489 mt 
(3) s
 899  917 mt  952  917 L
 698  961 mt 
(3.5) s
 899  389 mt  952  389 L
 798  433 mt 
(4) s
 899  335 mt 
(x 10) s
%%IncludeResource: font Helvetica
/Helvetica /ISOLatin1Encoding 80 FMSR

1125  261 mt 
(6) s
gs 899 389 5357 4227 MR c np
/c8 { 0.000000 0.000000 1.000000 sr} bdef
c8
1 3824 0 -13 1 -3 0 -16 1 -3 0 -13 1 -3 0 -16 
1 -3 0 -16 1 -4 0 -12 1 -4 0 -15 1 -4 0 -12 
1 -3 0 -16 1 -3 0 -16 1 -3 0 -13 1 -3 0 -15 
1 -4 0 -12 1 -3 0 -16 1 -3 0 -15 1 -3 0 -13 
1 -3 0 -15 1 -3 0 -12 1 -3 0 -16 1 -3 0 -15 
1 -3 0 -12 1 -3 0 -15 1 -3 0 -13 1 -3 0 -15 
1 -3 0 -15 1 -3 0 -12 1 -3 0 -14 1 -3 0 -12 
1 -3 0 -15 1 -3 0 -15 1 -3 0 -11 1 -3 0 -15 
1 -3 0 -12 1 -3 0 -14 1 -3 0 -15 1 -3 0 -11 
1 -3 0 -14 1 -3 0 -12 1 -3 0 -14 1 -3 0 -14 
1 -3 0 -11 1 -3 0 -14 1 -3 0 -12 1 -2 0 -15 
1 -2 0 -14 1 -3 0 -11 1 -3 0 -14 1 -3 0 -11 
1 -3 0 -14 1 -3 6205 1612 100 MP stroke
0 -13 1 -3 0 -11 1 -3 0 -14 1 -2 0 -11 1 -3 
0 -14 1 -2 0 -14 1 -3 0 -11 1 -2 0 -14 1 -3 
0 -10 1 -3 0 -13 1 -3 0 -13 1 -3 0 -11 1 -2 
0 -14 1 -2 0 -11 1 -3 0 -13 1 -2 0 -14 1 -2 
0 -11 1 -2 0 -13 1 -3 0 -10 1 -3 0 -13 1 -3 
0 -12 1 -3 0 -10 1 -3 0 -13 1 -2 0 -11 1 -2 
0 -13 1 -2 0 -13 1 -3 0 -10 1 -2 0 -13 1 -2 
0 -10 1 -3 0 -13 1 -2 0 -13 1 -2 0 -10 1 -2 
0 -13 1 -2 0 -10 1 -3 0 -12 1 -2 0 -13 1 -2 
0 -10 1 -2 0 -13 1 -2 0 -10 1 -2 0 -12 1 -3 
0 -12 1 -2 0 -10 1 -2 0 -12 1 -2 0 -10 1 -2 
0 -12 1 -3 0 -11 1 -3 0 -9 1 -3 0 -11 1 -3 
0 -9 1 -2 0 -12 6156 2322 100 MP stroke
1 -2 0 -12 1 -2 0 -10 1 -2 0 -11 1 -3 0 -9 
1 -2 0 -12 1 -2 0 -11 1 -3 0 -9 1 -2 0 -11 
1 -3 0 -9 1 -2 0 -11 1 -2 0 -12 1 -2 0 -9 
1 -2 0 -11 1 -2 0 -9 1 -2 0 -11 1 -3 0 -11 
1 -2 0 -9 1 -2 0 -11 1 -2 0 -9 1 -2 0 -11 
1 -2 0 -11 1 -2 0 -8 1 -3 0 -10 1 -2 0 -9 
1 -2 0 -11 1 -2 0 -10 1 -2 0 -9 1 -2 0 -11 
1 -2 0 -8 1 -2 0 -11 1 -2 0 -10 1 -2 0 -8 
1 -2 0 -11 1 -2 0 -8 1 -2 0 -10 1 -2 0 -11 
1 -2 0 -8 1 -2 0 -10 1 -2 0 -8 1 -2 0 -10 
1 -2 0 -10 1 -2 0 -8 1 -2 0 -10 1 -2 0 -8 
1 -2 0 -9 1 -2 0 -10 1 -2 0 -8 1 -2 0 -10 
1 -2 0 -7 1 -2 6106 2907 100 MP stroke
0 -10 1 -2 0 -9 1 -2 0 -8 1 -2 0 -9 1 -2 
0 -8 1 -2 0 -9 1 -2 0 -10 1 -1 0 -8 1 -2 
0 -9 1 -2 0 -7 1 -2 0 -10 1 -1 0 -10 1 -1 
0 -8 1 -2 0 -9 1 -2 0 -7 1 -2 0 -9 1 -2 
0 -9 1 -1 0 -8 1 -1 0 -9 1 -2 0 -9 1 -2 
0 -7 1 -2 0 -9 1 -1 0 -7 1 -2 0 -9 1 -2 
0 -8 1 -2 0 -7 1 -2 0 -8 1 -2 0 -7 1 -2 
0 -8 1 -2 0 -9 1 -1 0 -7 1 -2 0 -8 1 -2 
0 -7 1 -1 0 -9 1 -1 0 -9 1 -1 0 -7 1 -2 
0 -8 1 -2 0 -6 1 -2 0 -8 1 -2 0 -8 1 -2 
0 -6 1 -2 0 -8 1 -2 0 -6 1 -2 0 -8 1 -1 
0 -8 1 -2 0 -6 1 -2 0 -8 1 -1 0 -7 1 -1 
0 -8 1 -2 0 -7 6057 3395 100 MP stroke
1 -2 0 -6 1 -2 0 -8 1 -1 0 -6 1 -2 0 -8 
1 -1 0 -8 1 -1 0 -6 1 -2 0 -7 1 -2 0 -6 
1 -2 0 -7 1 -2 0 -7 1 -2 0 -6 1 -1 0 -8 
1 -1 0 -6 1 -1 0 -8 1 -1 0 -8 1 -1 0 -6 
1 -1 0 -7 1 -2 0 -6 1 -1 0 -7 1 -2 0 -7 
1 -1 0 -6 1 -1 0 -7 1 -2 0 -5 1 -2 0 -7 
1 -1 0 -7 1 -2 0 -5 1 -2 0 -6 1 -2 0 -5 
1 -2 0 -7 1 -1 0 -7 1 -1 0 -5 1 -2 0 -7 
1 -1 0 -5 1 -2 0 -6 1 -2 0 -6 1 -2 0 -5 
1 -1 0 -7 1 -1 0 -5 1 -2 0 -6 1 -1 0 -7 
1 -1 0 -5 1 -2 0 -6 1 -1 0 -5 1 -2 0 -6 
1 -1 0 -7 1 -1 0 -5 1 -1 0 -7 1 -1 0 -5 
1 -1 0 -6 1 -1 6007 3779 100 MP stroke
0 -7 1 -1 0 -5 1 -1 0 -6 1 -1 0 -5 1 -1 
0 -6 1 -1 0 -6 1 -2 0 -4 1 -2 0 -6 1 -1 
0 -4 1 -2 0 -5 1 -2 0 -5 1 -2 0 -4 1 -1 
0 -6 1 -1 0 -5 1 -1 0 -6 1 -1 0 -6 1 -1 
0 -4 1 -1 0 -6 1 -1 0 -5 1 -1 0 -5 1 -1 
0 -6 1 -1 0 -4 1 -2 0 -5 1 -1 0 -5 1 -1 
0 -5 1 -1 0 -5 1 -2 0 -4 1 -1 0 -5 1 -1 
0 -5 1 -1 0 -5 1 -1 0 -5 1 -1 0 -4 1 -1 
0 -6 1 -1 0 -4 1 -1 0 -5 1 -1 0 -5 1 -1 
0 -4 1 -1 0 -5 1 -1 0 -4 1 -1 0 -5 1 -1 
0 -5 1 -1 0 -4 1 -1 0 -5 1 -1 0 -4 1 -1 
0 -4 1 -1 0 -5 1 -1 0 -4 1 -1 0 -5 1 -1 
0 -3 1 -1 0 -5 5958 4081 100 MP stroke
1 -1 0 -4 1 -1 0 -4 1 -1 0 -5 1 -1 0 -3 
1 -1 0 -5 1 -1 0 -4 1 -1 0 -4 1 -1 0 -4 
1 -1 0 -3 1 -1 0 -5 1 -1 0 -4 1 -1 0 -3 
1 -1 0 -4 1 -1 0 -4 1 -1 0 -4 1 -1 0 -4 
1 -1 0 -3 1 -1 0 -4 1 -1 0 -3 1 -1 0 -4 
1 -1 0 -4 1 -1 0 -3 1 -1 0 -4 1 -1 0 -3 
1 -1 0 -4 1 -1 0 -4 1 -1 0 -3 1 -1 0 -3 
1 -1 0 -3 1 -1 0 -4 1 -1 0 -4 1 -1 0 -2 
1 -1 0 -4 1 -1 0 -3 1 -1 0 -3 1 -1 0 -4 
1 -1 0 -2 1 -1 0 -4 1 -1 0 -3 1 -1 0 -3 
1 -1 0 -3 1 -1 0 -3 1 -1 0 -3 1 -1 0 -3 
1 -1 0 -2 1 -1 0 -4 1 -1 0 -2 1 -1 0 -3 
1 -1 0 -3 1 -1 5908 4302 100 MP stroke
0 -3 1 -1 0 -3 1 -1 0 -2 1 -1 0 -3 1 -1 
0 -3 1 -1 0 -2 1 -1 0 -3 1 -1 0 -2 1 -1 
0 -3 1 -1 0 -3 1 -1 0 -2 1 -1 0 -2 1 -1 
0 -3 1 -1 0 -2 1 -1 0 -3 1 -1 0 -2 1 -1 
0 -2 1 -1 0 -2 1 -1 0 -3 1 -1 0 -2 1 -1 
0 -2 1 -1 0 -3 1 -1 0 -2 1 -1 0 -2 1 -1 
0 -2 1 -1 0 -2 1 -1 0 -2 1 -1 0 -2 1 -1 
0 -2 1 -1 0 -3 1 -1 0 -1 1 -1 0 -2 1 -1 
0 -2 1 -1 0 -2 1 -1 0 -2 1 -1 0 -2 1 -1 
0 -2 1 -1 0 -1 1 -1 0 -2 1 -1 0 -2 1 -1 
0 -2 1 -1 0 -2 1 -1 0 -1 1 -1 0 -2 1 -1 
0 -2 1 -1 0 -1 1 -1 0 -2 1 -1 0 -1 1 -1 
0 -2 1 -1 0 -1 5859 4457 100 MP stroke
1 -1 0 -2 1 -1 0 -2 2 -2 0 -2 1 -1 0 -2 
1 -1 0 -1 1 -1 0 -2 2 -2 0 -2 1 -1 0 -2 
2 -2 0 -2 1 -1 0 -1 1 -1 0 -1 1 -1 0 -2 
2 -2 0 -2 2 -2 0 -2 1 -1 0 -1 1 -1 0 -1 
1 -1 0 -1 1 -1 0 -1 1 -1 0 -1 1 -1 0 -1 
1 -1 1 -1 0 -2 1 -1 0 -1 2 -2 0 -2 2 -2 
0 -1 1 -1 0 -1 2 -2 0 -2 2 -2 1 -1 0 -2 
2 -2 1 -1 0 -2 2 -2 0 -1 2 -2 0 -1 2 -2 
0 -1 2 -2 0 -1 2 -2 1 -1 0 -1 2 -2 0 -1 
2 -2 1 -1 1 -1 0 -1 2 -2 1 -1 1 -1 1 -1 
0 -1 2 -2 1 -1 1 -1 1 -1 1 -1 1 -1 1 -1 
1 -1 1 -1 1 -1 1 -1 1 -1 1 -1 1 -1 1 -1 
1 -1 1 -1 1 -1 5777 4591 100 MP stroke
1 -1 1 0 1 -1 1 -1 1 -1 1 -1 1 0 1 -1 
1 -1 1 -1 1 0 1 -1 1 -1 1 0 1 -1 1 0 
1 -1 1 -1 1 0 1 -1 1 0 1 -1 1 0 1 -1 
1 0 1 -1 1 0 1 0 1 -1 1 0 1 -1 1 0 
1 0 1 -1 1 0 1 0 1 -1 1 0 1 0 1 0 
1 -1 1 0 1 0 1 0 1 0 1 -1 1 0 1 0 
1 0 1 0 1 0 1 0 1 0 1 0 1 0 1 0 
1 0 1 0 0 3823 0 -3 1 -3 0 -13 1 -3 0 -17 
1 -3 0 -16 1 -3 0 -13 1 -3 0 -16 1 -3 0 -13 
1 -3 0 -16 1 -3 0 -16 1 -3 0 -13 1 -3 0 -15 
1 -3 0 -13 1 -3 0 -16 1 -3 0 -15 1 -4 0 -12 
1 -3 0 -15 1 -4 0 -12 1 -3 0 -15 1 -3 0 -16 
1 -3 0 -12 1 -3 5699 1130 100 MP stroke
0 -15 1 -3 0 -12 1 -3 0 -16 1 -3 0 -15 1 -3 
0 -12 1 -3 0 -15 1 -3 0 -12 1 -3 0 -14 1 -3 
0 -15 1 -3 0 -12 1 -3 0 -15 1 -3 0 -11 1 -3 
0 -15 1 -3 0 -14 1 -3 0 -12 1 -3 0 -14 1 -3 
0 -12 1 -3 0 -14 1 -3 0 -14 1 -3 0 -12 1 -3 
0 -14 1 -3 0 -11 1 -3 0 -14 1 -3 0 -14 1 -3 
0 -11 1 -3 0 -14 1 -3 0 -11 1 -3 0 -14 1 -3 
0 -13 1 -3 0 -11 1 -3 0 -14 1 -3 0 -11 1 -2 
0 -14 1 -3 0 -13 1 -3 0 -11 1 -3 0 -13 1 -3 
0 -11 1 -3 0 -13 1 -3 0 -13 1 -3 0 -11 1 -2 
0 -14 1 -2 0 -11 1 -3 0 -13 1 -3 0 -13 1 -2 
0 -11 1 -3 0 -13 1 -2 0 -11 1 -2 0 -13 1 -3 
0 -13 1 -3 0 -10 5650 1915 100 MP stroke
1 -3 0 -13 1 -2 0 -10 1 -3 0 -13 1 -2 0 -13 
1 -3 0 -10 1 -2 0 -13 1 -3 0 -10 1 -2 0 -13 
1 -2 0 -13 1 -2 0 -10 1 -3 0 -12 1 -3 0 -10 
1 -2 0 -13 1 -2 0 -12 1 -3 0 -10 1 -2 0 -12 
1 -3 0 -10 1 -2 0 -12 1 -3 0 -12 1 -2 0 -10 
1 -2 0 -12 1 -3 0 -9 1 -3 0 -12 1 -2 0 -12 
1 -2 0 -10 1 -2 0 -12 1 -2 0 -10 1 -2 0 -12 
1 -2 0 -12 1 -2 0 -10 1 -2 0 -11 1 -3 0 -9 
1 -2 0 -12 1 -2 0 -12 1 -2 0 -9 1 -2 0 -12 
1 -2 0 -9 1 -2 0 -12 1 -2 0 -11 1 -2 0 -9 
1 -3 0 -11 1 -2 0 -9 1 -2 0 -11 1 -3 0 -11 
1 -2 0 -9 1 -2 0 -11 1 -2 0 -9 1 -2 0 -11 
1 -2 0 -11 1 -2 5600 2570 100 MP stroke
0 -9 1 -2 0 -11 1 -2 0 -8 1 -3 0 -10 1 -2 
0 -11 1 -2 0 -9 1 -2 0 -10 1 -2 0 -9 1 -2 
0 -10 1 -3 0 -10 1 -2 0 -8 1 -2 0 -11 1 -2 
0 -8 1 -2 0 -11 1 -2 0 -10 1 -2 0 -8 1 -2 
0 -10 1 -2 0 -10 1 -2 0 -9 1 -2 0 -10 1 -2 
0 -8 1 -2 0 -10 1 -2 0 -10 1 -1 0 -8 1 -2 
0 -10 1 -2 0 -8 1 -2 0 -10 1 -2 0 -9 1 -2 
0 -8 1 -2 0 -10 1 -2 0 -7 1 -2 0 -10 1 -2 
0 -9 1 -2 0 -8 1 -2 0 -9 1 -2 0 -8 1 -2 
0 -9 1 -2 0 -9 1 -2 0 -7 1 -2 0 -10 1 -1 
0 -8 1 -2 0 -9 1 -2 0 -9 1 -2 0 -7 1 -2 
0 -9 1 -2 0 -7 1 -2 0 -9 1 -2 0 -9 1 -1 
0 -8 1 -1 0 -9 5551 3119 100 MP stroke
1 -2 0 -7 1 -2 0 -9 1 -1 0 -9 1 -2 0 -7 
1 -2 0 -8 1 -2 0 -7 1 -2 0 -8 1 -2 0 -9 
1 -1 0 -7 1 -2 0 -9 1 -1 0 -7 1 -2 0 -8 
1 -2 0 -8 1 -2 0 -7 1 -1 0 -9 1 -1 0 -7 
1 -2 0 -8 1 -2 0 -8 1 -2 0 -6 1 -2 0 -8 
1 -2 0 -6 1 -2 0 -8 1 -2 0 -8 1 -1 0 -7 
1 -1 0 -8 1 -2 0 -6 1 -2 0 -8 1 -1 0 -8 
1 -2 0 -6 1 -2 0 -7 1 -2 0 -6 1 -2 0 -7 
1 -2 0 -8 1 -1 0 -6 1 -2 0 -8 1 -1 0 -6 
1 -2 0 -7 1 -2 0 -7 1 -2 0 -6 1 -1 0 -8 
1 -1 0 -6 1 -2 0 -7 1 -2 0 -7 1 -1 0 -6 
1 -2 0 -7 1 -1 0 -6 1 -2 0 -7 1 -1 0 -8 
1 -1 0 -6 1 -1 5501 3559 100 MP stroke
0 -7 1 -2 0 -6 1 -1 0 -7 1 -1 0 -7 1 -2 
0 -5 1 -2 0 -7 1 -1 0 -6 1 -1 0 -7 1 -1 
0 -7 1 -2 0 -5 1 -1 0 -7 1 -1 0 -6 1 -1 
0 -7 1 -1 0 -7 1 -1 0 -6 1 -1 0 -7 1 -1 
0 -5 1 -1 0 -7 1 -1 0 -7 1 -1 0 -5 1 -2 
0 -6 1 -1 0 -5 1 -2 0 -6 1 -1 0 -7 1 -1 
0 -5 1 -1 0 -7 1 -1 0 -5 1 -1 0 -6 1 -2 
0 -6 1 -1 0 -5 1 -1 0 -6 1 -2 0 -5 1 -1 
0 -6 1 -1 0 -6 1 -1 0 -5 1 -1 0 -6 1 -1 
0 -5 1 -1 0 -6 1 -1 0 -6 1 -2 0 -4 1 -1 
0 -6 1 -1 0 -5 1 -1 0 -6 1 -1 0 -6 1 -1 
0 -5 1 -1 0 -5 1 -1 0 -5 1 -1 0 -6 1 -1 
0 -5 1 -2 0 -4 5452 3912 100 MP stroke
1 -1 0 -6 1 -1 0 -4 1 -1 0 -6 1 -1 0 -5 
1 -1 0 -5 1 -1 0 -5 1 -1 0 -4 1 -1 0 -6 
1 -1 0 -5 1 -1 0 -4 1 -1 0 -6 1 -1 0 -4 
1 -1 0 -5 1 -1 0 -5 1 -1 0 -4 1 -1 0 -5 
1 -1 0 -4 1 -1 0 -5 1 -1 0 -5 1 -1 0 -4 
1 -1 0 -5 1 -1 0 -4 1 -1 0 -5 1 -1 0 -5 
1 -1 0 -4 1 -1 0 -4 1 -1 0 -4 1 -1 0 -5 
1 -1 0 -4 1 -1 0 -4 1 -1 0 -5 1 -1 0 -3 
1 -1 0 -5 1 -1 0 -4 1 -1 0 -4 1 -1 0 -4 
1 -1 0 -4 1 -1 0 -4 1 -1 0 -4 1 -1 0 -4 
1 -1 0 -4 1 -1 0 -4 1 -1 0 -3 1 -1 0 -5 
1 -1 0 -3 1 -1 0 -4 1 -1 0 -4 1 -1 0 -3 
1 -1 0 -4 1 -1 5402 4178 100 MP stroke
0 -3 1 -1 0 -4 1 -1 0 -4 1 -1 0 -3 1 -1 
0 -4 1 -1 0 -3 1 -1 0 -4 1 -1 0 -3 1 -1 
0 -3 1 -1 0 -4 1 -1 0 -3 1 -1 0 -3 1 -1 
0 -4 1 -1 0 -3 1 -1 0 -3 1 -1 0 -3 1 -1 
0 -3 1 -1 0 -4 1 -1 0 -2 1 -1 0 -4 1 -1 
0 -2 1 -1 0 -4 1 -1 0 -3 1 -1 0 -2 1 -1 
0 -4 1 -1 0 -2 1 -1 0 -3 1 -1 0 -3 1 -1 
0 -3 1 -1 0 -3 1 -1 0 -2 1 -1 0 -3 1 -1 
0 -3 1 -1 0 -2 1 -1 0 -3 1 -1 0 -3 1 -1 
0 -2 1 -1 0 -3 1 -1 0 -2 1 -1 0 -3 1 -1 
0 -2 1 -1 0 -3 1 -1 0 -3 1 -1 0 -2 1 -1 
0 -2 1 -1 0 -2 1 -1 0 -3 1 -1 0 -2 1 -1 
0 -2 1 -1 0 -3 5353 4373 100 MP stroke
1 -1 0 -2 1 -1 0 -2 1 -1 0 -2 1 -1 0 -2 
1 -1 0 -3 1 -1 0 -1 1 -1 0 -3 1 -1 0 -2 
1 -1 0 -2 1 -1 0 -2 1 -1 0 -1 1 -1 0 -3 
1 -1 0 -2 1 -1 0 -1 1 -1 0 -2 1 -1 0 -2 
1 -1 0 -2 1 -1 0 -2 1 -1 0 -1 1 -1 0 -2 
1 -1 0 -2 1 -1 0 -2 1 -1 0 -1 1 -1 0 -2 
1 -1 0 -2 1 -1 0 -1 1 -1 0 -2 1 -1 0 -1 
1 -1 0 -2 1 -1 0 -1 1 -1 0 -2 1 -1 0 -1 
1 -1 0 -2 1 -1 0 -1 1 -1 0 -2 1 -1 0 -1 
1 -1 0 -1 1 -1 0 -2 1 -1 0 -1 1 -1 0 -2 
2 -2 0 -2 1 -1 0 -2 2 -2 0 -1 1 -1 0 -2 
2 -2 0 -2 1 -1 1 -1 0 -2 1 -1 1 -1 0 -2 
1 -1 0 -1 1 -1 5299 4511 100 MP stroke
1 -1 0 -2 1 -1 0 -1 2 -2 0 -2 2 -2 0 -2 
2 -2 0 -1 2 -2 0 -2 2 -2 1 -1 0 -2 2 -2 
1 -1 0 -2 2 -2 0 -1 2 -2 0 -1 2 -2 0 -1 
2 -2 0 -1 2 -2 0 -1 2 -2 1 -1 0 -1 2 -2 
1 -1 0 -1 2 -2 1 -1 1 -1 0 -1 2 -2 1 -1 
1 -1 1 -1 1 -1 0 -1 2 -2 1 -1 1 -1 1 -1 
1 -1 1 -1 1 -1 1 -1 1 -1 1 -1 1 -1 1 -1 
1 0 1 -1 1 -1 1 -1 1 -1 1 -1 1 0 1 -1 
1 -1 1 -1 1 0 1 -1 1 -1 1 0 1 -1 1 -1 
1 0 1 -1 1 -1 1 0 1 -1 1 0 1 -1 1 0 
1 -1 1 0 1 -1 1 0 1 -1 1 0 1 -1 1 0 
1 0 1 -1 1 0 1 0 1 -1 1 0 1 0 1 -1 
1 0 1 0 1 0 5201 4612 100 MP stroke
1 -1 1 0 1 0 1 0 1 0 1 -1 1 0 1 0 
1 0 1 0 1 0 1 0 1 0 1 0 1 0 1 0 
1 0 1 0 0 3823 0 -10 1 -3 0 -16 1 -3 0 -13 
1 -3 0 -16 1 -3 0 -13 1 -3 0 -16 1 -4 0 -15 
1 -4 0 -12 1 -3 0 -16 1 -3 0 -13 1 -3 0 -16 
1 -3 0 -15 1 -4 0 -12 1 -3 0 -16 1 -3 0 -12 
1 -3 0 -16 1 -3 0 -15 1 -3 0 -13 1 -3 0 -15 
1 -3 0 -12 1 -3 0 -15 1 -3 0 -16 1 -3 0 -12 
1 -3 0 -15 1 -3 0 -12 1 -3 0 -15 1 -3 0 -15 
1 -3 0 -11 1 -3 0 -15 1 -3 0 -12 1 -3 0 -15 
1 -3 0 -14 1 -3 0 -12 1 -3 0 -14 1 -3 0 -12 
1 -3 0 -14 1 -3 0 -15 1 -3 0 -11 1 -3 0 -14 
1 -3 0 -12 1 -2 5143 1466 100 MP stroke
0 -15 1 -3 0 -14 1 -3 0 -11 1 -3 0 -14 1 -3 
0 -11 1 -3 0 -14 1 -3 0 -13 1 -3 0 -11 1 -3 
0 -14 1 -3 0 -11 1 -3 0 -13 1 -3 0 -14 1 -3 
0 -11 1 -2 0 -14 1 -3 0 -11 1 -2 0 -14 1 -3 
0 -13 1 -3 0 -11 1 -2 0 -14 1 -2 0 -11 1 -3 
0 -13 1 -3 0 -13 1 -3 0 -10 1 -3 0 -13 1 -3 
0 -10 1 -3 0 -13 1 -3 0 -13 1 -2 0 -11 1 -2 
0 -13 1 -3 0 -10 1 -3 0 -13 1 -2 0 -13 1 -3 
0 -10 1 -3 0 -12 1 -3 0 -10 1 -3 0 -12 1 -3 
0 -12 1 -3 0 -10 1 -2 0 -13 1 -3 0 -9 1 -3 
0 -12 1 -3 0 -12 1 -3 0 -10 1 -2 0 -12 1 -3 
0 -10 1 -2 0 -12 1 -3 0 -12 1 -2 0 -10 1 -3 
0 -12 1 -2 0 -10 5094 2200 100 MP stroke
1 -2 0 -12 1 -3 0 -12 1 -2 0 -10 1 -2 0 -12 
1 -2 0 -10 1 -2 0 -12 1 -2 0 -12 1 -2 0 -10 
1 -2 0 -12 1 -2 0 -9 1 -3 0 -11 1 -3 0 -11 
1 -2 0 -10 1 -2 0 -11 1 -3 0 -11 1 -2 0 -9 
1 -3 0 -11 1 -2 0 -9 1 -3 0 -11 1 -2 0 -11 
1 -3 0 -8 1 -3 0 -11 1 -2 0 -9 1 -2 0 -11 
1 -2 0 -11 1 -3 0 -8 1 -3 0 -10 1 -3 0 -8 
1 -2 0 -11 1 -3 0 -10 1 -2 0 -9 1 -2 0 -11 
1 -2 0 -9 1 -2 0 -10 1 -2 0 -11 1 -2 0 -9 
1 -2 0 -10 1 -2 0 -9 1 -2 0 -10 1 -2 0 -11 
1 -2 0 -8 1 -2 0 -10 1 -3 0 -8 1 -2 0 -10 
1 -2 0 -10 1 -2 0 -8 1 -2 0 -11 1 -2 0 -8 
1 -2 0 -10 1 -2 5044 2808 100 MP stroke
0 -10 1 -2 0 -8 1 -2 0 -10 1 -2 0 -7 1 -2 
0 -10 1 -2 0 -10 1 -2 0 -8 1 -2 0 -9 1 -2 
0 -8 1 -2 0 -10 1 -2 0 -9 1 -2 0 -8 1 -2 
0 -9 1 -2 0 -8 1 -2 0 -9 1 -2 0 -9 1 -2 
0 -8 1 -2 0 -9 1 -2 0 -7 1 -2 0 -9 1 -2 
0 -9 1 -2 0 -8 1 -2 0 -9 1 -1 0 -8 1 -2 
0 -9 1 -1 0 -9 1 -2 0 -7 1 -2 0 -9 1 -2 
0 -7 1 -2 0 -9 1 -2 0 -8 1 -2 0 -7 1 -2 
0 -9 1 -2 0 -7 1 -1 0 -9 1 -2 0 -8 1 -2 
0 -7 1 -2 0 -8 1 -2 0 -7 1 -2 0 -8 1 -2 
0 -8 1 -2 0 -7 1 -1 0 -9 1 -1 0 -7 1 -2 
0 -8 1 -2 0 -8 1 -2 0 -6 1 -2 0 -8 1 -2 
0 -6 1 -2 0 -8 4995 3313 100 MP stroke
1 -2 0 -8 1 -2 0 -6 1 -2 0 -8 1 -1 0 -7 
1 -1 0 -8 1 -2 0 -8 1 -1 0 -7 1 -1 0 -8 
1 -2 0 -6 1 -2 0 -7 1 -2 0 -8 1 -1 0 -6 
1 -2 0 -8 1 -1 0 -6 1 -2 0 -7 1 -2 0 -8 
1 -1 0 -6 1 -2 0 -7 1 -2 0 -6 1 -1 0 -8 
1 -1 0 -7 1 -2 0 -6 1 -1 0 -8 1 -1 0 -6 
1 -1 0 -8 1 -1 0 -7 1 -2 0 -6 1 -1 0 -7 
1 -2 0 -5 1 -2 0 -7 1 -1 0 -7 1 -2 0 -5 
1 -2 0 -7 1 -1 0 -6 1 -1 0 -7 1 -2 0 -6 
1 -2 0 -5 1 -2 0 -6 1 -2 0 -5 1 -2 0 -6 
1 -2 0 -7 1 -1 0 -5 1 -2 0 -6 1 -2 0 -5 
1 -1 0 -7 1 -1 0 -7 1 -1 0 -5 1 -2 0 -6 
1 -1 0 -6 1 -1 4945 3714 100 MP stroke
0 -6 1 -2 0 -6 1 -1 0 -5 1 -2 0 -6 1 -1 
0 -5 1 -2 0 -6 1 -1 0 -6 1 -2 0 -5 1 -1 
0 -6 1 -1 0 -5 1 -1 0 -7 1 -1 0 -6 1 -1 
0 -5 1 -1 0 -6 1 -1 0 -5 1 -1 0 -6 1 -2 
0 -5 1 -2 0 -4 1 -2 0 -5 1 -2 0 -4 1 -1 
0 -6 1 -1 0 -6 1 -1 0 -5 1 -1 0 -6 1 -1 
0 -4 1 -2 0 -5 1 -1 0 -6 1 -1 0 -5 1 -1 
0 -5 1 -1 0 -6 1 -1 0 -4 1 -2 0 -5 1 -1 
0 -5 1 -1 0 -5 1 -1 0 -5 1 -2 0 -4 1 -1 
0 -5 1 -1 0 -5 1 -1 0 -5 1 -1 0 -5 1 -1 
0 -4 1 -1 0 -6 1 -1 0 -4 1 -1 0 -5 1 -1 
0 -5 1 -1 0 -4 1 -1 0 -5 1 -1 0 -4 1 -1 
0 -5 1 -1 0 -5 4896 4032 100 MP stroke
1 -1 0 -4 1 -1 0 -5 1 -1 0 -4 1 -1 0 -4 
1 -1 0 -5 1 -1 0 -4 1 -1 0 -5 1 -1 0 -3 
1 -1 0 -5 1 -1 0 -5 1 -1 0 -3 1 -1 0 -5 
1 -1 0 -3 1 -1 0 -5 1 -1 0 -4 1 -1 0 -4 
1 -1 0 -4 1 -1 0 -3 1 -1 0 -5 1 -1 0 -4 
1 -1 0 -3 1 -1 0 -5 1 -1 0 -3 1 -1 0 -4 
1 -1 0 -4 1 -1 0 -3 1 -1 0 -4 1 -1 0 -4 
1 -1 0 -3 1 -1 0 -4 1 -1 0 -3 1 -1 0 -4 
1 -1 0 -3 1 -1 0 -4 1 -1 0 -4 1 -1 0 -3 
1 -1 0 -4 1 -1 0 -3 1 -1 0 -3 1 -1 0 -4 
1 -1 0 -3 1 -1 0 -3 1 -1 0 -3 1 -1 0 -3 
1 -1 0 -4 1 -1 0 -3 1 -1 0 -3 1 -1 0 -3 
1 -1 0 -3 1 -1 4846 4266 100 MP stroke
0 -3 1 -1 0 -3 1 -1 0 -3 1 -1 0 -3 1 -1 
0 -3 1 -1 0 -3 1 -1 0 -2 1 -1 0 -4 1 -1 
0 -2 1 -1 0 -3 1 -1 0 -3 1 -1 0 -2 1 -1 
0 -3 1 -1 0 -3 1 -1 0 -2 1 -1 0 -3 1 -1 
0 -2 1 -1 0 -3 1 -1 0 -2 1 -1 0 -3 1 -1 
0 -3 1 -1 0 -2 1 -1 0 -3 1 -1 0 -2 1 -1 
0 -2 1 -1 0 -3 1 -1 0 -2 1 -1 0 -2 1 -1 
0 -2 1 -1 0 -3 1 -1 0 -2 1 -1 0 -2 1 -1 
0 -2 1 -1 0 -2 1 -1 0 -3 1 -1 0 -2 1 -1 
0 -2 1 -1 0 -2 1 -1 0 -2 1 -1 0 -2 1 -1 
0 -2 1 -1 0 -2 1 -1 0 -2 1 -1 0 -1 1 -1 
0 -2 1 -1 0 -2 1 -1 0 -2 1 -1 0 -2 1 -1 
0 -1 1 -1 0 -2 4797 4433 100 MP stroke
1 -1 0 -3 2 -2 0 -2 1 -1 0 -2 1 -1 0 -1 
1 -1 0 -2 1 -1 0 -2 1 -1 0 -1 1 -1 0 -2 
1 -1 0 -1 1 -1 0 -2 1 -1 0 -1 1 -1 0 -2 
1 -1 0 -1 1 -1 0 -1 1 -1 0 -2 1 -1 0 -1 
1 -1 0 -2 2 -2 0 -2 1 -1 0 -2 2 -2 0 -2 
1 -1 0 -1 1 -1 0 -1 1 -1 0 -2 2 -2 0 -2 
2 -2 0 -2 2 -2 0 -2 2 -2 0 -2 2 -2 0 -2 
2 -2 0 -2 2 -2 0 -1 1 -1 1 -1 0 -2 2 -2 
0 -1 2 -2 0 -2 2 -2 1 -1 0 -2 2 -2 0 -1 
2 -2 0 -1 2 -2 0 -1 2 -2 0 -1 2 -2 0 -1 
2 -2 1 -1 0 -1 2 -2 0 -1 2 -2 1 -1 1 -1 
0 -1 2 -2 1 -1 1 -1 1 -1 0 -1 2 -2 1 -1 
1 -1 1 -1 1 -1 4718 4579 100 MP stroke
1 -1 1 -1 1 -1 1 -1 1 -1 1 -1 1 -1 1 -1 
1 -1 1 -1 1 -1 1 -1 1 -1 1 0 1 -1 1 -1 
1 -1 1 -1 1 0 1 -1 1 -1 1 0 1 -1 1 -1 
1 0 1 -1 1 -1 1 0 1 -1 1 0 1 -1 1 -1 
1 0 1 -1 1 0 1 -1 1 0 1 0 1 -1 1 0 
1 -1 1 0 1 -1 1 0 1 0 1 -1 1 0 1 0 
1 0 1 -1 1 0 1 0 1 -1 1 0 1 0 1 0 
1 0 1 0 1 -1 1 0 1 0 1 0 1 0 1 0 
1 0 1 0 1 0 1 0 1 0 1 0 0 3825 1 -3 
0 -13 1 -3 0 -16 1 -3 0 -13 1 -3 0 -16 1 -4 
0 -16 1 -3 0 -13 1 -3 0 -16 1 -3 0 -12 1 -4 
0 -15 1 -3 0 -16 1 -3 0 -13 1 -3 0 -16 1 -3 
0 -12 1 -3 0 -16 4634 1036 100 MP stroke
1 -3 0 -15 1 -3 0 -13 1 -3 0 -15 1 -3 0 -13 
1 -3 0 -15 1 -3 0 -15 1 -3 0 -12 1 -3 0 -15 
1 -4 0 -12 1 -3 0 -15 1 -3 0 -15 1 -3 0 -12 
1 -3 0 -14 1 -3 0 -12 1 -3 0 -15 1 -3 0 -15 
1 -3 0 -11 1 -3 0 -15 1 -3 0 -12 1 -3 0 -14 
1 -3 0 -15 1 -3 0 -11 1 -3 0 -14 1 -3 0 -12 
1 -3 0 -14 1 -3 0 -14 1 -3 0 -11 1 -3 0 -14 
1 -3 0 -12 1 -2 0 -14 1 -3 0 -14 1 -3 0 -11 
1 -3 0 -14 1 -3 0 -11 1 -3 0 -14 1 -2 0 -14 
1 -3 0 -11 1 -3 0 -14 1 -2 0 -11 1 -3 0 -14 
1 -2 0 -14 1 -3 0 -10 1 -3 0 -14 1 -2 0 -11 
1 -3 0 -13 1 -3 0 -13 1 -3 0 -11 1 -2 0 -14 
1 -2 0 -11 1 -2 4584 1824 100 MP stroke
0 -14 1 -2 0 -13 1 -3 0 -10 1 -3 0 -13 1 -3 
0 -13 1 -2 0 -11 1 -2 0 -13 1 -3 0 -10 1 -3 
0 -13 1 -2 0 -13 1 -2 0 -11 1 -3 0 -12 1 -3 
0 -10 1 -2 0 -13 1 -3 0 -12 1 -3 0 -10 1 -2 
0 -13 1 -2 0 -10 1 -3 0 -12 1 -2 0 -13 1 -2 
0 -10 1 -3 0 -12 1 -2 0 -10 1 -2 0 -13 1 -2 
0 -12 1 -3 0 -9 1 -3 0 -12 1 -2 0 -10 1 -2 
0 -12 1 -2 0 -12 1 -3 0 -9 1 -3 0 -11 1 -3 
0 -9 1 -3 0 -11 1 -3 0 -11 1 -3 0 -9 1 -2 
0 -12 1 -2 0 -10 1 -2 0 -11 1 -3 0 -11 1 -2 
0 -10 1 -2 0 -11 1 -3 0 -9 1 -2 0 -11 1 -3 
0 -11 1 -2 0 -9 1 -2 0 -12 1 -2 0 -9 1 -2 
0 -11 1 -2 0 -11 4535 2503 100 MP stroke
1 -3 0 -8 1 -3 0 -11 1 -2 0 -9 1 -2 0 -11 
1 -2 0 -11 1 -2 0 -8 1 -3 0 -11 1 -2 0 -9 
1 -2 0 -10 1 -3 0 -10 1 -2 0 -9 1 -2 0 -11 
1 -2 0 -8 1 -2 0 -11 1 -2 0 -10 1 -2 0 -9 
1 -2 0 -10 1 -2 0 -8 1 -3 0 -10 1 -2 0 -10 
1 -2 0 -8 1 -2 0 -11 1 -2 0 -8 1 -2 0 -10 
1 -2 0 -10 1 -2 0 -8 1 -2 0 -10 1 -2 0 -8 
1 -2 0 -10 1 -2 0 -10 1 -2 0 -7 1 -2 0 -10 
1 -2 0 -8 1 -2 0 -10 1 -2 0 -9 1 -2 0 -8 
1 -2 0 -9 1 -2 0 -8 1 -2 0 -9 1 -2 0 -10 
1 -2 0 -7 1 -2 0 -9 1 -2 0 -8 1 -2 0 -9 
1 -2 0 -9 1 -2 0 -7 1 -2 0 -9 1 -2 0 -8 
1 -1 0 -10 1 -1 4485 3057 100 MP stroke
0 -10 1 -1 0 -8 1 -1 0 -9 1 -2 0 -7 1 -2 
0 -9 1 -2 0 -9 1 -2 0 -7 1 -1 0 -9 1 -2 
0 -7 1 -2 0 -9 1 -1 0 -9 1 -2 0 -7 1 -2 
0 -8 1 -2 0 -7 1 -2 0 -8 1 -2 0 -9 1 -1 
0 -7 1 -2 0 -8 1 -2 0 -7 1 -1 0 -9 1 -1 
0 -9 1 -1 0 -7 1 -2 0 -8 1 -2 0 -6 1 -2 
0 -8 1 -2 0 -8 1 -2 0 -6 1 -2 0 -8 1 -1 
0 -7 1 -2 0 -8 1 -1 0 -8 1 -2 0 -6 1 -2 
0 -8 1 -1 0 -7 1 -1 0 -8 1 -2 0 -7 1 -2 
0 -6 1 -2 0 -7 1 -2 0 -6 1 -2 0 -7 1 -2 
0 -8 1 -1 0 -6 1 -2 0 -7 1 -2 0 -6 1 -1 
0 -8 1 -1 0 -8 1 -1 0 -6 1 -2 0 -7 1 -2 
0 -5 1 -2 0 -7 4436 3515 100 MP stroke
1 -2 0 -7 1 -1 0 -6 1 -2 0 -7 1 -1 0 -6 
1 -2 0 -7 1 -1 0 -7 1 -2 0 -5 1 -2 0 -7 
1 -1 0 -6 1 -1 0 -7 1 -2 0 -7 1 -1 0 -6 
1 -1 0 -7 1 -1 0 -6 1 -1 0 -7 1 -1 0 -7 
1 -1 0 -6 1 -1 0 -7 1 -1 0 -6 1 -1 0 -7 
1 -1 0 -7 1 -1 0 -5 1 -1 0 -7 1 -1 0 -7 
1 -1 0 -5 1 -2 0 -6 1 -1 0 -6 1 -1 0 -6 
1 -2 0 -6 1 -1 0 -5 1 -2 0 -6 1 -1 0 -5 
1 -1 0 -7 1 -1 0 -6 1 -1 0 -5 1 -1 0 -7 
1 -1 0 -5 1 -1 0 -6 1 -1 0 -6 1 -1 0 -5 
1 -1 0 -6 1 -2 0 -4 1 -2 0 -6 1 -1 0 -6 
1 -1 0 -5 1 -1 0 -6 1 -1 0 -4 1 -2 0 -5 
1 -2 0 -5 1 -1 4386 3874 100 MP stroke
0 -5 1 -1 0 -6 1 -1 0 -4 1 -2 0 -5 1 -1 
0 -6 1 -1 0 -4 1 -2 0 -5 1 -1 0 -5 1 -1 
0 -5 1 -1 0 -6 1 -1 0 -4 1 -1 0 -6 1 -1 
0 -4 1 -1 0 -5 1 -2 0 -5 1 -1 0 -4 1 -1 
0 -5 1 -1 0 -5 1 -1 0 -5 1 -1 0 -5 1 -1 
0 -4 1 -1 0 -5 1 -1 0 -4 1 -1 0 -5 1 -1 
0 -5 1 -1 0 -4 1 -1 0 -5 1 -1 0 -4 1 -1 
0 -5 1 -1 0 -5 1 -1 0 -3 1 -1 0 -5 1 -1 
0 -4 1 -1 0 -5 1 -1 0 -4 1 -1 0 -4 1 -1 
0 -5 1 -1 0 -3 1 -1 0 -5 1 -1 0 -4 1 -1 
0 -4 1 -1 0 -4 1 -1 0 -4 1 -1 0 -4 1 -1 
0 -4 1 -1 0 -4 1 -1 0 -4 1 -1 0 -3 1 -1 
0 -4 1 -1 0 -5 4337 4153 100 MP stroke
1 -1 0 -3 1 -1 0 -4 1 -1 0 -3 1 -1 0 -4 
1 -1 0 -4 1 -1 0 -3 1 -1 0 -4 1 -1 0 -3 
1 -1 0 -4 1 -1 0 -4 1 -1 0 -3 1 -1 0 -4 
1 -1 0 -3 1 -1 0 -3 1 -1 0 -4 1 -1 0 -3 
1 -1 0 -3 1 -1 0 -3 1 -1 0 -4 1 -1 0 -3 
1 -1 0 -3 1 -1 0 -3 1 -1 0 -3 1 -1 0 -4 
1 -1 0 -3 1 -1 0 -2 1 -1 0 -4 1 -1 0 -2 
1 -1 0 -4 1 -1 0 -3 1 -1 0 -2 1 -1 0 -3 
1 -1 0 -3 1 -1 0 -3 1 -1 0 -3 1 -1 0 -2 
1 -1 0 -3 1 -1 0 -3 1 -1 0 -3 1 -1 0 -3 
1 -1 0 -2 1 -1 0 -3 1 -1 0 -2 1 -1 0 -3 
1 -1 0 -2 1 -1 0 -2 1 -1 0 -3 1 -1 0 -2 
1 -1 0 -3 1 -1 4287 4353 100 MP stroke
0 -3 1 -1 0 -2 1 -1 0 -2 1 -1 0 -2 1 -1 
0 -3 1 -1 0 -2 1 -1 0 -2 1 -1 0 -2 1 -1 
0 -2 1 -1 0 -3 1 -1 0 -2 1 -1 0 -2 1 -1 
0 -2 1 -1 0 -2 1 -1 0 -2 1 -1 0 -2 1 -1 
0 -2 1 -1 0 -2 1 -1 0 -2 1 -1 0 -2 1 -1 
0 -2 1 -1 0 -1 1 -1 0 -2 1 -1 0 -2 1 -1 
0 -2 1 -1 0 -2 1 -1 0 -1 1 -1 0 -3 2 -2 
0 -2 1 -1 0 -3 2 -2 0 -2 1 -1 0 -2 1 -1 
0 -1 1 -1 0 -2 1 -1 0 -1 1 -1 0 -2 1 -1 
0 -1 1 -1 0 -2 1 -1 0 -2 2 -2 0 -2 1 -1 
0 -2 2 -2 0 -2 1 -1 0 -1 1 -1 0 -1 1 -1 
0 -2 1 -1 1 -1 0 -2 1 -1 0 -1 1 -1 0 -1 
1 -1 0 -2 2 -2 4232 4502 100 MP stroke
0 -2 2 -2 0 -2 2 -2 0 -2 2 -2 0 -2 2 -2 
0 -2 2 -2 0 -1 1 -1 0 -1 2 -2 0 -2 2 -2 
0 -1 2 -2 0 -2 2 -2 0 -1 2 -2 1 -1 0 -2 
2 -2 0 -1 2 -2 0 -1 2 -2 1 -1 0 -1 2 -2 
0 -1 2 -2 1 -1 0 -1 2 -2 1 -1 0 -1 2 -2 
1 -1 1 -1 0 -1 2 -2 1 -1 1 -1 1 -1 1 -1 
0 -1 2 -2 1 0 -1 0 2 -2 1 -1 1 -1 1 -1 
1 -1 1 -1 1 0 1 -1 1 -1 1 -1 1 -1 1 -1 
1 -1 1 -1 1 0 1 -1 1 -1 1 -1 1 -1 1 0 
1 -1 1 -1 1 0 1 -1 1 -1 1 0 1 -1 1 -1 
1 0 1 -1 1 0 1 -1 1 0 1 -1 1 0 1 -1 
1 0 1 -1 1 0 1 0 1 -1 1 0 1 -1 1 0 
1 0 1 -1 1 0 4135 4611 100 MP stroke
1 0 1 -1 1 0 1 0 1 0 1 -1 1 0 1 0 
1 0 1 0 1 -1 1 0 1 0 1 0 1 0 1 0 
1 0 1 0 1 0 1 0 1 0 1 0 1 0 0 3823 
0 -6 1 -4 0 -13 1 -3 0 -16 1 -3 0 -16 1 -3 
0 -13 1 -3 0 -16 1 -3 0 -13 1 -3 0 -16 1 -3 
0 -16 1 -3 0 -13 1 -3 0 -16 1 -3 0 -12 1 -3 
0 -16 1 -3 0 -16 1 -3 0 -12 1 -3 0 -16 1 -3 
0 -12 1 -3 0 -16 1 -3 0 -15 1 -3 0 -12 1 -3 
0 -15 1 -3 0 -13 1 -3 0 -15 1 -3 0 -15 1 -3 
0 -12 1 -3 0 -15 1 -3 0 -12 1 -3 0 -15 1 -3 
0 -14 1 -3 0 -12 1 -3 0 -15 1 -3 0 -11 1 -3 
0 -15 1 -3 0 -15 1 -2 0 -12 1 -3 0 -15 1 -2 
0 -15 1 -3 0 -11 4075 1429 100 MP stroke
1 -3 0 -14 1 -3 0 -12 1 -3 0 -14 1 -3 0 -14 
1 -3 0 -11 1 -3 0 -14 1 -3 0 -11 1 -3 0 -14 
1 -3 0 -14 1 -3 0 -11 1 -2 0 -14 1 -3 0 -11 
1 -3 0 -14 1 -3 0 -13 1 -3 0 -11 1 -3 0 -13 
1 -3 0 -11 1 -3 0 -13 1 -3 0 -14 1 -2 0 -11 
1 -3 0 -13 1 -3 0 -11 1 -2 0 -14 1 -2 0 -13 
1 -3 0 -11 1 -2 0 -14 1 -2 0 -11 1 -2 0 -14 
1 -2 0 -13 1 -3 0 -10 1 -3 0 -13 1 -2 0 -11 
1 -2 0 -13 1 -3 0 -13 1 -2 0 -10 1 -3 0 -13 
1 -2 0 -11 1 -2 0 -13 1 -2 0 -13 1 -2 0 -10 
1 -3 0 -13 1 -2 0 -10 1 -3 0 -12 1 -2 0 -13 
1 -2 0 -10 1 -3 0 -12 1 -3 0 -9 1 -3 0 -12 
1 -2 0 -13 1 -2 4025 2161 100 MP stroke
0 -10 1 -2 0 -12 1 -3 0 -9 1 -3 0 -12 1 -2 
0 -12 1 -3 0 -9 1 -3 0 -11 1 -3 0 -9 1 -3 
0 -11 1 -3 0 -12 1 -2 0 -9 1 -3 0 -11 1 -3 
0 -9 1 -2 0 -12 1 -2 0 -12 1 -2 0 -9 1 -3 
0 -11 1 -2 0 -10 1 -2 0 -11 1 -2 0 -12 1 -2 
0 -9 1 -2 0 -12 1 -2 0 -9 1 -2 0 -11 1 -2 
0 -12 1 -2 0 -9 1 -2 0 -11 1 -2 0 -9 1 -2 
0 -11 1 -2 0 -11 1 -2 0 -9 1 -2 0 -11 1 -2 
0 -9 1 -2 0 -11 1 -2 0 -11 1 -2 0 -9 1 -2 
0 -10 1 -2 0 -9 1 -2 0 -11 1 -2 0 -10 1 -2 
0 -9 1 -2 0 -10 1 -2 0 -9 1 -2 0 -10 1 -2 
0 -10 1 -3 0 -8 1 -2 0 -10 1 -2 0 -8 1 -2 
0 -10 1 -2 0 -11 3976 2782 100 MP stroke
1 -2 0 -8 1 -2 0 -10 1 -2 0 -8 1 -2 0 -10 
1 -2 0 -10 1 -2 0 -8 1 -1 0 -10 1 -2 0 -8 
1 -2 0 -10 1 -2 0 -10 1 -2 0 -7 1 -2 0 -10 
1 -2 0 -7 1 -2 0 -10 1 -2 0 -9 1 -2 0 -8 
1 -2 0 -9 1 -2 0 -8 1 -2 0 -9 1 -2 0 -9 
1 -2 0 -7 1 -2 0 -10 1 -1 0 -8 1 -2 0 -9 
1 -2 0 -9 1 -2 0 -7 1 -2 0 -9 1 -2 0 -7 
1 -2 0 -9 1 -2 0 -8 1 -2 0 -7 1 -2 0 -9 
1 -2 0 -7 1 -2 0 -9 1 -1 0 -9 1 -2 0 -7 
1 -2 0 -8 1 -2 0 -7 1 -2 0 -8 1 -2 0 -9 
1 -1 0 -7 1 -2 0 -8 1 -2 0 -7 1 -2 0 -8 
1 -2 0 -8 1 -2 0 -7 1 -1 0 -9 1 -1 0 -7 
1 -1 0 -9 1 -1 3926 3285 100 MP stroke
0 -9 1 -1 0 -7 1 -1 0 -9 1 -1 0 -7 1 -1 
0 -8 1 -2 0 -8 1 -2 0 -6 1 -2 0 -8 1 -1 
0 -7 1 -1 0 -8 1 -2 0 -8 1 -1 0 -6 1 -2 
0 -8 1 -1 0 -7 1 -1 0 -8 1 -1 0 -8 1 -2 
0 -6 1 -1 0 -8 1 -1 0 -8 1 -2 0 -6 1 -1 
0 -8 1 -1 0 -6 1 -2 0 -7 1 -2 0 -7 1 -1 
0 -6 1 -2 0 -7 1 -2 0 -6 1 -1 0 -7 1 -2 
0 -7 1 -1 0 -6 1 -2 0 -7 1 -1 0 -6 1 -1 
0 -7 1 -2 0 -7 1 -1 0 -6 1 -1 0 -7 1 -2 
0 -5 1 -2 0 -7 1 -1 0 -7 1 -1 0 -6 1 -1 
0 -7 1 -2 0 -5 1 -1 0 -7 1 -1 0 -7 1 -2 
0 -5 1 -1 0 -7 1 -1 0 -6 1 -1 0 -7 1 -1 
0 -6 1 -2 0 -5 3877 3697 100 MP stroke
1 -1 0 -7 1 -1 0 -5 1 -2 0 -6 1 -1 0 -7 
1 -1 0 -5 1 -1 0 -7 1 -1 0 -5 1 -1 0 -7 
1 -1 0 -6 1 -1 0 -5 1 -2 0 -6 1 -1 0 -5 
1 -1 0 -6 1 -2 0 -6 1 -1 0 -5 1 -1 0 -6 
1 -1 0 -5 1 -1 0 -6 1 -1 0 -6 1 -1 0 -5 
1 -1 0 -6 1 -1 0 -5 1 -1 0 -6 1 -1 0 -6 
1 -1 0 -5 1 -1 0 -6 1 -1 0 -4 1 -2 0 -5 
1 -1 0 -6 1 -1 0 -5 1 -1 0 -5 1 -1 0 -5 
1 -1 0 -5 1 -2 0 -5 1 -1 0 -4 1 -2 0 -5 
1 -1 0 -4 1 -1 0 -6 1 -1 0 -5 1 -1 0 -4 
1 -2 0 -5 1 -1 0 -4 1 -1 0 -5 1 -1 0 -6 
1 -1 0 -4 1 -1 0 -5 1 -1 0 -4 1 -1 0 -5 
1 -1 0 -5 1 -1 3827 4015 100 MP stroke
0 -4 1 -1 0 -5 1 -1 0 -4 1 -1 0 -5 1 -1 
0 -5 1 -1 0 -4 1 -1 0 -4 1 -1 0 -4 1 -1 
0 -5 1 -1 0 -5 1 -1 0 -3 1 -1 0 -5 1 -1 
0 -4 1 -1 0 -4 1 -1 0 -5 1 -1 0 -3 1 -1 
0 -5 1 -1 0 -3 1 -1 0 -5 1 -1 0 -4 1 -1 
0 -4 1 -1 0 -4 1 -1 0 -3 1 -1 0 -5 1 -1 
0 -4 1 -1 0 -3 1 -1 0 -4 1 -1 0 -3 1 -1 
0 -4 1 -1 0 -5 1 -1 0 -3 1 -1 0 -4 1 -1 
0 -3 1 -1 0 -4 1 -1 0 -4 1 -1 0 -3 1 -1 
0 -3 1 -1 0 -3 1 -1 0 -4 1 -1 0 -4 1 -1 
0 -3 1 -1 0 -3 1 -1 0 -3 1 -1 0 -4 1 -1 
0 -3 1 -1 0 -3 1 -1 0 -4 1 -1 0 -2 1 -1 
0 -4 1 -1 0 -3 3778 4256 100 MP stroke
1 -1 0 -3 1 -1 0 -3 1 -1 0 -3 1 -1 0 -3 
1 -1 0 -3 1 -1 0 -3 1 -1 0 -3 1 -1 0 -3 
1 -1 0 -3 1 -1 0 -3 1 -1 0 -2 1 -1 0 -3 
1 -1 0 -3 1 -1 0 -3 1 -1 0 -3 1 -1 0 -2 
1 -1 0 -3 1 -1 0 -2 1 -1 0 -3 1 -1 0 -3 
1 -1 0 -2 1 -1 0 -3 1 -1 0 -2 1 -1 0 -2 
1 -1 0 -3 1 -1 0 -2 1 -1 0 -3 1 -1 0 -2 
1 -1 0 -2 1 -1 0 -3 1 -1 0 -2 1 -1 0 -2 
1 -1 0 -2 1 -1 0 -3 1 -1 0 -2 1 -1 0 -2 
1 -1 0 -2 1 -1 0 -2 1 -1 0 -2 1 -1 0 -2 
1 -1 0 -2 1 -1 0 -2 1 -1 0 -2 1 -1 0 -2 
1 -1 0 -2 1 -1 0 -2 1 -1 0 -2 1 -1 0 -2 
1 -1 0 -1 1 -1 3728 4425 100 MP stroke
0 -2 1 -1 0 -2 1 -1 0 -2 1 -1 0 -2 1 -1 
0 -1 1 -1 0 -2 1 -1 0 -1 1 -1 0 -2 1 -1 
0 -2 1 -1 0 -1 1 -1 0 -2 1 -1 0 -1 1 -1 
0 -2 1 -1 0 -1 1 -1 0 -2 1 -1 0 -2 2 -2 
0 -2 1 -1 0 -2 1 -1 0 -1 1 -1 0 -2 2 -2 
0 -2 1 -1 0 -2 2 -2 0 -2 2 -2 0 -2 1 -1 
0 -1 1 -1 0 -1 1 -1 0 -2 2 -2 0 -1 1 -1 
0 -2 2 -2 0 -2 2 -2 0 -1 1 -1 0 -2 2 -2 
0 -1 1 -1 0 -1 2 -2 0 -2 2 -2 0 -1 1 -1 
1 -1 0 -2 2 -2 1 -1 0 -2 2 -2 1 -1 0 -2 
2 -2 0 -1 2 -2 0 -1 2 -2 0 -1 2 -2 0 -1 
2 -2 1 -1 0 -1 2 -2 1 -1 0 -1 2 -2 1 -1 
1 -1 0 -1 2 -2 3655 4570 100 MP stroke
1 -1 1 -1 1 -1 0 -1 2 -2 1 -1 1 -1 1 -1 
1 -1 1 -1 1 -1 1 -1 1 -1 1 -1 1 -1 1 -1 
1 -1 1 -1 1 -1 1 0 1 -1 1 -1 1 -1 1 -1 
1 -1 1 0 1 -1 1 -1 1 -1 1 0 1 -1 1 -1 
1 0 1 -1 1 -1 1 0 1 -1 1 0 1 -1 1 0 
1 -1 1 0 1 -1 1 0 1 -1 1 0 1 -1 1 0 
1 -1 1 0 1 0 1 -1 1 0 1 0 1 -1 1 0 
1 0 1 -1 1 0 1 0 1 0 1 -1 1 0 1 0 
1 0 1 0 1 -1 1 0 1 0 1 0 1 0 1 0 
1 0 1 0 1 0 1 0 1 0 1 0 1 3825 0 -13 
1 -3 0 -16 1 -3 0 -13 1 -3 0 -16 1 -4 0 -16 
1 -3 0 -13 1 -3 0 -16 1 -3 0 -12 1 -4 0 -15 
1 -4 0 -15 1 -3 3566 967 100 MP stroke
0 -13 1 -3 0 -16 1 -3 0 -12 1 -3 0 -16 1 -3 
0 -15 1 -4 0 -12 1 -3 0 -15 1 -3 0 -13 1 -3 
0 -15 1 -3 0 -15 1 -3 0 -13 1 -3 0 -15 1 -3 
0 -12 1 -3 0 -15 1 -3 0 -15 1 -3 0 -12 1 -3 
0 -15 1 -3 0 -12 1 -3 0 -14 1 -3 0 -15 1 -3 
0 -12 1 -3 0 -14 1 -3 0 -12 1 -3 0 -15 1 -2 
0 -15 1 -3 0 -11 1 -3 0 -15 1 -3 0 -11 1 -3 
0 -14 1 -3 0 -14 1 -3 0 -12 1 -3 0 -14 1 -3 
0 -11 1 -3 0 -14 1 -3 0 -14 1 -3 0 -11 1 -3 
0 -14 1 -2 0 -11 1 -3 0 -14 1 -3 0 -14 1 -2 
0 -12 1 -2 0 -14 1 -3 0 -11 1 -2 0 -14 1 -3 
0 -13 1 -3 0 -11 1 -3 0 -13 1 -3 0 -11 1 -2 
0 -14 1 -2 0 -14 3517 1777 100 MP stroke
1 -2 0 -11 1 -3 0 -13 1 -3 0 -10 1 -3 0 -13 
1 -3 0 -13 1 -3 0 -10 1 -3 0 -13 1 -2 0 -11 
1 -2 0 -13 1 -3 0 -13 1 -2 0 -11 1 -2 0 -13 
1 -3 0 -10 1 -3 0 -12 1 -3 0 -13 1 -2 0 -10 
1 -3 0 -12 1 -3 0 -10 1 -2 0 -13 1 -2 0 -13 
1 -2 0 -10 1 -3 0 -12 1 -3 0 -10 1 -2 0 -12 
1 -3 0 -12 1 -3 0 -9 1 -3 0 -12 1 -2 0 -10 
1 -3 0 -12 1 -2 0 -12 1 -3 0 -9 1 -3 0 -11 
1 -3 0 -9 1 -3 0 -12 1 -2 0 -12 1 -2 0 -10 
1 -2 0 -12 1 -2 0 -10 1 -2 0 -12 1 -2 0 -11 
1 -3 0 -9 1 -2 0 -12 1 -2 0 -9 1 -3 0 -11 
1 -2 0 -12 1 -2 0 -9 1 -3 0 -11 1 -2 0 -9 
1 -2 0 -12 1 -2 3467 2452 100 MP stroke
0 -11 1 -2 0 -9 1 -3 0 -11 1 -2 0 -9 1 -2 
0 -11 1 -2 0 -11 1 -2 0 -9 1 -2 0 -11 1 -2 
0 -9 1 -2 0 -11 1 -2 0 -11 1 -2 0 -9 1 -2 
0 -11 1 -2 0 -8 1 -3 0 -10 1 -2 0 -11 1 -2 
0 -8 1 -3 0 -10 1 -2 0 -9 1 -2 0 -10 1 -2 
0 -11 1 -2 0 -8 1 -2 0 -10 1 -2 0 -9 1 -2 
0 -10 1 -2 0 -10 1 -2 0 -8 1 -2 0 -10 1 -2 
0 -8 1 -2 0 -10 1 -2 0 -10 1 -2 0 -8 1 -2 
0 -10 1 -2 0 -8 1 -2 0 -10 1 -2 0 -10 1 -2 
0 -8 1 -1 0 -10 1 -2 0 -8 1 -2 0 -9 1 -2 
0 -10 1 -2 0 -8 1 -1 0 -10 1 -2 0 -7 1 -2 
0 -10 1 -2 0 -9 1 -2 0 -7 1 -2 0 -10 1 -2 
0 -7 1 -2 0 -9 3418 3022 100 MP stroke
1 -2 0 -9 1 -2 0 -7 1 -2 0 -9 1 -2 0 -7 
1 -2 0 -9 1 -2 0 -9 1 -2 0 -7 1 -2 0 -9 
1 -2 0 -9 1 -1 0 -7 1 -2 0 -9 1 -2 0 -7 
1 -2 0 -8 1 -2 0 -9 1 -2 0 -7 1 -1 0 -9 
1 -2 0 -7 1 -1 0 -9 1 -2 0 -8 1 -2 0 -7 
1 -1 0 -9 1 -2 0 -6 1 -2 0 -9 1 -1 0 -9 
1 -1 0 -7 1 -2 0 -8 1 -2 0 -6 1 -2 0 -8 
1 -2 0 -8 1 -2 0 -6 1 -2 0 -8 1 -1 0 -7 
1 -2 0 -8 1 -1 0 -8 1 -2 0 -6 1 -2 0 -8 
1 -1 0 -7 1 -1 0 -8 1 -2 0 -7 1 -2 0 -6 
1 -2 0 -8 1 -1 0 -6 1 -2 0 -7 1 -2 0 -8 
1 -1 0 -6 1 -2 0 -7 1 -2 0 -6 1 -1 0 -8 
1 -1 0 -8 1 -1 3368 3482 100 MP stroke
0 -6 1 -2 0 -7 1 -2 0 -6 1 -1 0 -7 1 -2 
0 -7 1 -2 0 -5 1 -2 0 -7 1 -2 0 -5 1 -2 
0 -7 1 -1 0 -8 1 -1 0 -6 1 -1 0 -7 1 -2 
0 -5 1 -2 0 -7 1 -1 0 -7 1 -1 0 -6 1 -1 
0 -7 1 -2 0 -5 1 -1 0 -7 1 -2 0 -6 1 -2 
0 -5 1 -2 0 -6 1 -2 0 -5 1 -1 0 -7 1 -1 
0 -7 1 -1 0 -6 1 -1 0 -6 1 -2 0 -5 1 -1 
0 -7 1 -1 0 -7 1 -1 0 -5 1 -1 0 -7 1 -1 
0 -5 1 -1 0 -7 1 -1 0 -6 1 -2 0 -5 1 -1 
0 -6 1 -1 0 -5 1 -1 0 -7 1 -1 0 -6 1 -1 
0 -5 1 -1 0 -6 1 -2 0 -5 1 -1 0 -6 1 -1 
0 -6 1 -1 0 -5 1 -1 0 -6 1 -1 0 -5 1 -1 
0 -6 1 -1 0 -6 3319 3852 100 MP stroke
1 -1 0 -5 1 -1 0 -6 1 -1 0 -5 1 -1 0 -5 
1 -2 0 -5 1 -1 0 -5 1 -1 0 -6 1 -1 0 -4 
1 -1 0 -6 1 -1 0 -6 1 -1 0 -4 1 -1 0 -6 
1 -1 0 -4 1 -1 0 -6 1 -1 0 -5 1 -1 0 -5 
1 -1 0 -5 1 -1 0 -4 1 -1 0 -6 1 -1 0 -5 
1 -1 0 -4 1 -1 0 -5 1 -1 0 -4 1 -1 0 -6 
1 -1 0 -5 1 -1 0 -4 1 -1 0 -5 1 -1 0 -4 
1 -1 0 -5 1 -1 0 -5 1 -1 0 -4 1 -1 0 -4 
1 -1 0 -4 1 -1 0 -5 1 -1 0 -5 1 -1 0 -4 
1 -1 0 -4 1 -1 0 -4 1 -1 0 -5 1 -1 0 -4 
1 -1 0 -4 1 -1 0 -4 1 -1 0 -4 1 -1 0 -4 
1 -1 0 -5 1 -1 0 -3 1 -1 0 -5 1 -1 0 -3 
1 -1 0 -4 1 -1 3269 4132 100 MP stroke
0 -5 1 -1 0 -3 1 -1 0 -4 1 -1 0 -3 1 -1 
0 -5 1 -1 0 -4 1 -1 0 -3 1 -1 0 -4 1 -1 
0 -3 1 -1 0 -4 1 -1 0 -4 1 -1 0 -3 1 -1 
0 -4 1 -1 0 -3 1 -1 0 -4 1 -1 0 -4 1 -1 
0 -3 1 -1 0 -3 1 -1 0 -3 1 -1 0 -4 1 -1 
0 -3 1 -1 0 -3 1 -1 0 -4 1 -1 0 -3 1 -1 
0 -3 1 -1 0 -4 1 -1 0 -2 1 -1 0 -4 1 -1 
0 -3 1 -1 0 -3 1 -1 0 -3 1 -1 0 -2 1 -1 
0 -4 1 -1 0 -3 1 -1 0 -2 1 -1 0 -4 1 -1 
0 -2 1 -1 0 -3 1 -1 0 -3 1 -1 0 -3 1 -1 
0 -3 1 -1 0 -2 1 -1 0 -3 1 -1 0 -3 1 -1 
0 -2 1 -1 0 -3 1 -1 0 -2 1 -1 0 -3 1 -1 
0 -3 1 -1 0 -2 3220 4341 100 MP stroke
1 -1 0 -2 1 -1 0 -3 1 -1 0 -2 1 -1 0 -3 
1 -1 0 -2 1 -1 0 -2 1 -1 0 -2 1 -1 0 -3 
1 -1 0 -2 1 -1 0 -2 1 -1 0 -3 1 -1 0 -2 
1 -1 0 -2 1 -1 0 -2 1 -1 0 -2 1 -1 0 -2 
1 -1 0 -2 1 -1 0 -2 1 -1 0 -3 1 -1 0 -1 
1 -1 0 -2 1 -1 0 -2 1 -1 0 -2 1 -1 0 -2 
1 -1 0 -2 1 -1 0 -2 1 -1 0 -1 1 -1 0 -2 
1 -1 0 -2 1 -1 0 -2 1 -1 0 -1 1 -1 0 -2 
1 -1 0 -2 1 -1 0 -2 1 -1 0 -1 1 -1 0 -2 
1 -1 0 -1 1 -1 0 -2 1 -1 0 -1 1 -1 0 -2 
1 -1 0 -2 2 -2 0 -2 1 -1 0 -2 1 -1 0 -1 
1 -1 0 -2 2 -2 0 -2 1 -1 0 -2 2 -2 0 -2 
1 -1 0 -1 1 -1 3167 4489 100 MP stroke
0 -1 1 -1 0 -2 2 -2 0 -2 2 -2 0 -2 1 -1 
0 -1 1 -1 0 -1 1 -1 0 -1 1 -1 0 -1 1 -1 
0 -1 1 -1 0 -1 1 -1 1 -1 0 -2 1 -1 0 -1 
2 -2 0 -2 2 -2 0 -1 1 -1 0 -1 2 -2 0 -2 
2 -2 1 -1 0 -2 2 -2 1 -1 0 -2 2 -2 0 -1 
2 -2 0 -1 2 -2 0 -1 2 -2 0 -1 2 -2 1 -1 
0 -1 2 -2 0 -1 2 -2 1 -1 1 -1 0 -1 2 -2 
1 -1 1 -1 1 -1 0 -1 2 -2 1 -1 1 -1 1 -1 
1 -1 1 -1 1 -1 1 -1 1 -1 1 -1 1 -1 1 -1 
1 -1 1 -1 1 -1 1 -1 1 -1 1 -1 1 -1 1 0 
1 -1 1 -1 1 -1 1 -1 1 0 1 -1 1 -1 1 0 
1 -1 1 -1 1 -1 1 0 1 -1 1 0 1 -1 1 -1 
1 0 1 -1 1 0 3078 4605 100 MP stroke
1 -1 1 0 1 -1 1 0 1 -1 1 0 1 0 1 -1 
1 0 1 -1 1 0 1 0 1 -1 1 0 1 0 1 -1 
1 0 1 0 1 0 1 -1 1 0 1 0 1 0 1 0 
1 -1 1 0 1 0 1 0 1 0 1 0 1 0 1 0 
1 0 1 0 1 0 1 0 1 0 0 3824 0 -3 1 -3 
0 -13 1 -4 0 -16 1 -3 0 -16 1 -3 0 -13 1 -3 
0 -16 1 -3 0 -13 1 -3 0 -16 1 -3 0 -16 1 -3 
0 -13 1 -3 0 -15 1 -4 0 -12 1 -3 0 -16 1 -3 
0 -16 1 -3 0 -12 1 -3 0 -16 1 -3 0 -12 1 -3 
0 -15 1 -3 0 -16 1 -3 0 -12 1 -3 0 -15 1 -3 
0 -12 1 -4 0 -15 1 -3 0 -15 1 -3 0 -12 1 -3 
0 -15 1 -3 0 -12 1 -3 0 -15 1 -3 0 -14 1 -3 
0 -12 1 -3 0 -15 3011 1312 100 MP stroke
1 -3 0 -12 1 -2 0 -15 1 -3 0 -15 1 -3 0 -11 
1 -3 0 -15 1 -2 0 -12 1 -3 0 -14 1 -3 0 -15 
1 -2 0 -12 1 -3 0 -14 1 -3 0 -11 1 -3 0 -14 
1 -3 0 -14 1 -3 0 -11 1 -3 0 -14 1 -3 0 -11 
1 -3 0 -14 1 -3 0 -14 1 -2 0 -11 1 -3 0 -14 
1 -3 0 -11 1 -3 0 -13 1 -3 0 -14 1 -2 0 -11 
1 -3 0 -14 1 -2 0 -11 1 -3 0 -13 1 -3 0 -13 
1 -3 0 -11 1 -3 0 -13 1 -3 0 -10 1 -3 0 -13 
1 -3 0 -13 1 -3 0 -10 1 -3 0 -13 1 -3 0 -10 
1 -3 0 -13 1 -2 0 -13 1 -3 0 -10 1 -3 0 -13 
1 -2 0 -11 1 -2 0 -13 1 -3 0 -12 1 -3 0 -10 
1 -3 0 -12 1 -3 0 -10 1 -2 0 -13 1 -3 0 -12 
1 -3 0 -10 1 -2 2961 2059 100 MP stroke
0 -13 1 -2 0 -10 1 -3 0 -12 1 -2 0 -13 1 -2 
0 -10 1 -2 0 -13 1 -2 0 -10 1 -2 0 -13 1 -2 
0 -12 1 -2 0 -10 1 -3 0 -12 1 -2 0 -10 1 -2 
0 -12 1 -2 0 -12 1 -3 0 -9 1 -2 0 -12 1 -3 
0 -9 1 -2 0 -12 1 -2 0 -12 1 -3 0 -9 1 -2 
0 -12 1 -2 0 -9 1 -3 0 -11 1 -2 0 -12 1 -2 
0 -9 1 -3 0 -11 1 -2 0 -9 1 -3 0 -11 1 -2 
0 -12 1 -2 0 -9 1 -2 0 -11 1 -2 0 -9 1 -3 
0 -11 1 -2 0 -11 1 -3 0 -8 1 -3 0 -11 1 -2 
0 -8 1 -3 0 -11 1 -2 0 -11 1 -2 0 -8 1 -3 
0 -10 1 -3 0 -8 1 -2 0 -11 1 -2 0 -11 1 -2 
0 -8 1 -2 0 -11 1 -2 0 -9 1 -2 0 -10 1 -2 
0 -11 1 -2 0 -8 2912 2697 100 MP stroke
1 -2 0 -11 1 -2 0 -8 1 -2 0 -10 1 -2 0 -11 
1 -2 0 -8 1 -2 0 -10 1 -2 0 -10 1 -2 0 -8 
1 -2 0 -10 1 -2 0 -8 1 -2 0 -10 1 -2 0 -10 
1 -2 0 -8 1 -2 0 -10 1 -2 0 -8 1 -2 0 -10 
1 -1 0 -10 1 -2 0 -8 1 -2 0 -9 1 -2 0 -8 
1 -2 0 -10 1 -2 0 -9 1 -2 0 -8 1 -1 0 -10 
1 -2 0 -7 1 -2 0 -10 1 -2 0 -9 1 -2 0 -7 
1 -2 0 -9 1 -2 0 -8 1 -1 0 -10 1 -1 0 -10 
1 -1 0 -8 1 -2 0 -9 1 -1 0 -8 1 -2 0 -9 
1 -1 0 -9 1 -2 0 -7 1 -2 0 -9 1 -2 0 -7 
1 -2 0 -8 1 -2 0 -9 1 -2 0 -7 1 -1 0 -9 
1 -2 0 -7 1 -2 0 -8 1 -2 0 -9 1 -1 0 -7 
1 -2 0 -8 1 -2 2862 3218 100 MP stroke
0 -7 1 -2 0 -8 1 -2 0 -8 1 -2 0 -6 1 -2 
0 -8 1 -2 0 -7 1 -1 0 -9 1 -1 0 -9 1 -1 
0 -7 1 -1 0 -9 1 -1 0 -7 1 -1 0 -8 1 -2 
0 -8 1 -2 0 -6 1 -2 0 -8 1 -1 0 -7 1 -1 
0 -8 1 -2 0 -8 1 -1 0 -7 1 -1 0 -8 1 -1 
0 -7 1 -1 0 -8 1 -2 0 -7 1 -2 0 -6 1 -1 
0 -8 1 -2 0 -6 1 -1 0 -8 1 -1 0 -8 1 -1 
0 -6 1 -2 0 -7 1 -2 0 -6 1 -1 0 -8 1 -1 
0 -7 1 -2 0 -6 1 -1 0 -7 1 -2 0 -6 1 -1 
0 -7 1 -2 0 -7 1 -1 0 -6 1 -2 0 -7 1 -1 
0 -6 1 -1 0 -7 1 -2 0 -7 1 -1 0 -6 1 -1 
0 -7 1 -1 0 -6 1 -1 0 -7 1 -2 0 -6 1 -2 
0 -5 1 -2 0 -6 2813 3643 100 MP stroke
1 -2 0 -5 1 -2 0 -6 1 -2 0 -6 1 -2 0 -5 
1 -1 0 -7 1 -1 0 -5 1 -2 0 -6 1 -2 0 -6 
1 -1 0 -6 1 -1 0 -6 1 -2 0 -5 1 -1 0 -7 
1 -1 0 -6 1 -1 0 -5 1 -2 0 -6 1 -1 0 -5 
1 -2 0 -6 1 -1 0 -6 1 -1 0 -5 1 -2 0 -6 
1 -1 0 -5 1 -1 0 -6 1 -1 0 -6 1 -2 0 -4 
1 -2 0 -6 1 -1 0 -5 1 -1 0 -6 1 -1 0 -6 
1 -1 0 -5 1 -1 0 -6 1 -1 0 -4 1 -2 0 -5 
1 -2 0 -5 1 -1 0 -5 1 -1 0 -6 1 -1 0 -4 
1 -2 0 -5 1 -1 0 -6 1 -1 0 -4 1 -1 0 -6 
1 -1 0 -5 1 -1 0 -5 1 -1 0 -6 1 -1 0 -4 
1 -1 0 -5 1 -2 0 -4 1 -1 0 -5 1 -1 0 -5 
1 -2 0 -4 1 -1 2763 3973 100 MP stroke
0 -5 1 -1 0 -4 1 -1 0 -5 1 -1 0 -6 1 -1 
0 -4 1 -1 0 -5 1 -1 0 -4 1 -1 0 -5 1 -1 
0 -5 1 -1 0 -4 1 -1 0 -5 1 -1 0 -4 1 -1 
0 -4 1 -1 0 -5 1 -1 0 -4 1 -1 0 -5 1 -1 
0 -4 1 -1 0 -4 1 -1 0 -5 1 -1 0 -4 1 -1 
0 -4 1 -1 0 -4 1 -1 0 -4 1 -1 0 -5 1 -1 
0 -3 1 -1 0 -5 1 -1 0 -4 1 -1 0 -3 1 -1 
0 -5 1 -1 0 -3 1 -1 0 -4 1 -1 0 -5 1 -1 
0 -3 1 -1 0 -4 1 -1 0 -3 1 -1 0 -4 1 -1 
0 -4 1 -1 0 -4 1 -1 0 -4 1 -1 0 -3 1 -1 
0 -4 1 -1 0 -4 1 -1 0 -3 1 -1 0 -3 1 -1 
0 -3 1 -1 0 -4 1 -1 0 -4 1 -1 0 -3 1 -1 
0 -3 1 -1 0 -3 2714 4225 100 MP stroke
1 -1 0 -4 1 -1 0 -3 1 -1 0 -3 1 -1 0 -4 
1 -1 0 -2 1 -1 0 -4 1 -1 0 -3 1 -1 0 -3 
1 -1 0 -3 1 -1 0 -3 1 -1 0 -3 1 -1 0 -4 
1 -1 0 -2 1 -1 0 -3 1 -1 0 -3 1 -1 0 -3 
1 -1 0 -3 1 -1 0 -2 1 -1 0 -3 1 -1 0 -3 
1 -1 0 -3 1 -1 0 -3 1 -1 0 -2 1 -1 0 -3 
1 -1 0 -2 1 -1 0 -3 1 -1 0 -3 1 -1 0 -2 
1 -1 0 -3 1 -1 0 -2 1 -1 0 -3 1 -1 0 -2 
1 -1 0 -2 1 -1 0 -3 1 -1 0 -2 1 -1 0 -2 
1 -1 0 -3 1 -1 0 -2 1 -1 0 -2 1 -1 0 -2 
1 -1 0 -3 1 -1 0 -2 1 -1 0 -2 1 -1 0 -2 
1 -1 0 -2 1 -1 0 -2 1 -1 0 -3 1 -1 0 -1 
1 -1 0 -2 1 -1 2664 4404 100 MP stroke
0 -2 1 -1 0 -2 1 -1 0 -2 1 -1 0 -2 1 -1 
0 -2 1 -1 0 -2 1 -1 0 -2 1 -1 0 -2 1 -1 
0 -1 1 -1 0 -3 2 -2 0 -2 1 -1 0 -2 1 -1 
0 -2 1 -1 0 -1 1 -1 0 -2 1 -1 0 -1 1 -1 
0 -3 2 -2 0 -3 2 -2 0 -2 1 -1 0 -2 1 -1 
0 -1 1 -1 0 -2 2 -2 0 -3 2 -2 0 -2 1 -1 
0 -1 1 -1 0 -2 2 -2 0 -2 1 -1 0 -1 1 -1 
0 -2 2 -2 0 -2 2 -2 0 -2 2 -2 0 -2 2 -2 
0 -2 1 -1 0 -1 2 -2 0 -2 2 -2 0 -2 2 -2 
0 -1 1 -1 0 -1 2 -2 0 -2 2 -2 0 -1 1 -1 
1 -1 0 -2 2 -2 0 -1 2 -2 1 -1 0 -2 2 -2 
0 -1 2 -2 0 -1 2 -2 0 -1 2 -2 1 -1 0 -1 
2 -2 0 -1 2 -2 2590 4562 100 MP stroke
1 -1 0 -1 2 -2 1 -1 1 -1 1 -1 0 -1 2 -2 
1 -1 1 -1 1 -1 1 -1 0 -1 2 -2 1 -1 1 -1 
1 -1 1 -1 1 -1 1 -1 1 -1 1 -1 1 -1 1 0 
1 -1 1 -1 1 -1 1 -1 1 -1 1 -1 1 0 1 -1 
1 -1 1 -1 1 0 1 -1 1 -1 1 0 1 -1 1 -1 
1 0 1 -1 1 -1 1 0 1 -1 1 0 1 -1 1 0 
1 -1 1 0 1 -1 1 0 1 -1 1 0 1 -1 1 0 
1 0 1 -1 1 0 1 0 1 -1 1 0 1 0 1 -1 
1 0 1 0 1 0 1 -1 1 0 1 0 1 0 1 0 
1 -1 1 0 1 0 1 0 1 0 1 0 1 0 1 0 
1 0 1 0 1 0 1 0 1 0 0 3809 0 -10 1 -3 
0 -16 1 -4 0 -12 1 -4 0 -16 1 -3 0 -12 1 -4 
0 -16 1 -3 0 -16 2499 924 100 MP stroke
1 -3 0 -12 1 -3 0 -16 1 -3 0 -13 1 -3 0 -16 
1 -3 0 -15 1 -3 0 -13 1 -3 0 -15 1 -4 0 -12 
1 -3 0 -15 1 -3 0 -16 1 -3 0 -12 1 -3 0 -15 
1 -3 0 -13 1 -3 0 -15 1 -3 0 -15 1 -3 0 -12 
1 -3 0 -15 1 -3 0 -12 1 -3 0 -15 1 -3 0 -15 
1 -3 0 -11 1 -3 0 -15 1 -3 0 -12 1 -3 0 -14 
1 -3 0 -15 1 -3 0 -12 1 -3 0 -14 1 -3 0 -12 
1 -2 0 -15 1 -3 0 -14 1 -3 0 -11 1 -3 0 -15 
1 -2 0 -12 1 -3 0 -14 1 -3 0 -14 1 -3 0 -11 
1 -3 0 -14 1 -3 0 -11 1 -3 0 -14 1 -3 0 -13 
1 -3 0 -11 1 -3 0 -14 1 -3 0 -11 1 -2 0 -14 
1 -3 0 -14 1 -2 0 -11 1 -3 0 -14 1 -2 0 -11 
1 -3 0 -13 1 -3 2449 1728 100 MP stroke
0 -14 1 -2 0 -11 1 -3 0 -13 1 -3 0 -10 1 -3 
0 -13 1 -3 0 -13 1 -3 0 -10 1 -4 0 -13 1 -2 
0 -11 1 -2 0 -14 1 -2 0 -13 1 -3 0 -10 1 -3 
0 -13 1 -2 0 -11 1 -2 0 -13 1 -3 0 -12 1 -3 
0 -10 1 -3 0 -12 1 -3 0 -10 1 -3 0 -12 1 -3 
0 -12 1 -3 0 -10 1 -2 0 -13 1 -2 0 -10 1 -3 
0 -12 1 -3 0 -12 1 -2 0 -10 1 -3 0 -12 1 -2 
0 -10 1 -3 0 -12 1 -2 0 -12 1 -3 0 -10 1 -2 
0 -12 1 -2 0 -10 1 -2 0 -12 1 -3 0 -12 1 -2 
0 -10 1 -2 0 -12 1 -2 0 -10 1 -2 0 -12 1 -2 
0 -12 1 -2 0 -10 1 -2 0 -11 1 -3 0 -9 1 -2 
0 -12 1 -3 0 -11 1 -2 0 -10 1 -2 0 -11 1 -3 
0 -11 1 -2 0 -9 2400 2420 100 MP stroke
1 -3 0 -11 1 -2 0 -9 1 -2 0 -12 1 -2 0 -11 
1 -2 0 -9 1 -2 0 -11 1 -3 0 -8 1 -3 0 -11 
1 -2 0 -11 1 -2 0 -9 1 -2 0 -11 1 -2 0 -9 
1 -2 0 -11 1 -2 0 -11 1 -2 0 -8 1 -2 0 -11 
1 -2 0 -9 1 -2 0 -10 1 -3 0 -10 1 -2 0 -9 
1 -2 0 -10 1 -2 0 -9 1 -2 0 -10 1 -2 0 -11 
1 -2 0 -8 1 -2 0 -10 1 -2 0 -8 1 -2 0 -11 
1 -2 0 -10 1 -2 0 -8 1 -2 0 -10 1 -2 0 -8 
1 -2 0 -10 1 -2 0 -10 1 -2 0 -8 1 -2 0 -10 
1 -2 0 -8 1 -2 0 -9 1 -2 0 -10 1 -2 0 -8 
1 -2 0 -9 1 -2 0 -8 1 -2 0 -10 1 -2 0 -9 
1 -2 0 -8 1 -2 0 -9 1 -2 0 -8 1 -1 0 -10 
1 -2 0 -9 1 -2 2350 2990 100 MP stroke
0 -7 1 -2 0 -10 1 -1 0 -8 1 -2 0 -9 1 -2 
0 -9 1 -2 0 -7 1 -2 0 -9 1 -2 0 -7 1 -2 
0 -9 1 -2 0 -9 1 -2 0 -7 1 -2 0 -8 1 -2 
0 -7 1 -2 0 -9 1 -2 0 -9 1 -1 0 -7 1 -2 
0 -9 1 -2 0 -6 1 -2 0 -9 1 -2 0 -8 1 -2 
0 -7 1 -2 0 -8 1 -2 0 -7 1 -1 0 -9 1 -1 
0 -9 1 -2 0 -6 1 -2 0 -8 1 -2 0 -7 1 -1 
0 -9 1 -1 0 -9 1 -1 0 -7 1 -1 0 -9 1 -1 
0 -7 1 -1 0 -9 1 -1 0 -8 1 -2 0 -6 1 -2 
0 -8 1 -2 0 -6 1 -1 0 -8 1 -2 0 -8 1 -1 
0 -7 1 -1 0 -8 1 -2 0 -6 1 -2 0 -8 1 -1 
0 -8 1 -1 0 -7 1 -1 0 -8 1 -1 0 -6 1 -2 
0 -7 1 -2 0 -8 2301 3461 100 MP stroke
1 -1 0 -6 1 -2 0 -7 1 -2 0 -5 1 -2 0 -7 
1 -2 0 -7 1 -2 0 -6 1 -1 0 -7 1 -2 0 -6 
1 -1 0 -7 1 -2 0 -7 1 -1 0 -6 1 -2 0 -7 
1 -1 0 -6 1 -1 0 -7 1 -2 0 -7 1 -1 0 -6 
1 -1 0 -7 1 -2 0 -5 1 -2 0 -6 1 -2 0 -7 
1 -1 0 -6 1 -1 0 -7 1 -1 0 -5 1 -2 0 -7 
1 -1 0 -7 1 -1 0 -5 1 -2 0 -6 1 -2 0 -5 
1 -1 0 -7 1 -1 0 -7 1 -1 0 -5 1 -1 0 -7 
1 -1 0 -5 1 -2 0 -6 1 -1 0 -7 1 -1 0 -5 
1 -1 0 -7 1 -1 0 -5 1 -1 0 -6 1 -2 0 -6 
1 -1 0 -5 1 -1 0 -7 1 -1 0 -5 1 -1 0 -6 
1 -1 0 -6 1 -1 0 -5 1 -1 0 -6 1 -2 0 -4 
1 -2 0 -6 1 -1 2251 3830 100 MP stroke
0 -6 1 -1 0 -5 1 -1 0 -6 1 -1 0 -4 1 -2 
0 -5 1 -2 0 -5 1 -1 0 -5 1 -1 0 -6 1 -1 
0 -4 1 -2 0 -5 1 -1 0 -6 1 -1 0 -5 1 -1 
0 -5 1 -1 0 -6 1 -1 0 -4 1 -1 0 -6 1 -1 
0 -4 1 -1 0 -6 1 -1 0 -5 1 -1 0 -5 1 -1 
0 -5 1 -1 0 -4 1 -1 0 -5 1 -1 0 -6 1 -1 
0 -4 1 -1 0 -5 1 -1 0 -4 1 -1 0 -5 1 -1 
0 -5 1 -1 0 -4 1 -1 0 -5 1 -1 0 -4 1 -1 
0 -5 1 -1 0 -5 1 -1 0 -4 1 -1 0 -5 1 -1 
0 -4 1 -1 0 -5 1 -1 0 -4 1 -1 0 -4 1 -1 
0 -5 1 -1 0 -3 1 -1 0 -5 1 -1 0 -5 1 -1 
0 -3 1 -1 0 -5 1 -1 0 -3 1 -1 0 -5 1 -1 
0 -4 1 -1 0 -4 2202 4119 100 MP stroke
1 -1 0 -4 1 -1 0 -3 1 -1 0 -5 1 -1 0 -4 
1 -1 0 -3 1 -1 0 -4 1 -1 0 -4 1 -1 0 -4 
1 -1 0 -4 1 -1 0 -3 1 -1 0 -4 1 -1 0 -3 
1 -1 0 -4 1 -1 0 -4 1 -1 0 -3 1 -1 0 -4 
1 -1 0 -3 1 -1 0 -4 1 -1 0 -3 1 -1 0 -3 
1 -1 0 -4 1 -1 0 -3 1 -1 0 -4 1 -1 0 -3 
1 -1 0 -3 1 -1 0 -4 1 -1 0 -2 1 -1 0 -4 
1 -1 0 -3 1 -1 0 -3 1 -1 0 -3 1 -1 0 -3 
1 -1 0 -3 1 -1 0 -3 1 -1 0 -3 1 -1 0 -3 
1 -1 0 -3 1 -1 0 -3 1 -1 0 -3 1 -1 0 -2 
1 -1 0 -4 1 -1 0 -2 1 -1 0 -3 1 -1 0 -3 
1 -1 0 -2 1 -1 0 -3 1 -1 0 -3 1 -1 0 -2 
1 -1 0 -3 1 -1 2152 4329 100 MP stroke
0 -2 1 -1 0 -3 1 -1 0 -2 1 -1 0 -3 1 -1 
0 -3 1 -1 0 -2 1 -1 0 -2 1 -1 0 -2 1 -1 
0 -3 1 -1 0 -3 1 -1 0 -2 1 -1 0 -2 1 -1 
0 -2 1 -1 0 -2 1 -1 0 -3 1 -1 0 -2 1 -1 
0 -2 1 -1 0 -2 1 -1 0 -2 1 -1 0 -2 1 -1 
0 -2 1 -1 0 -2 1 -1 0 -2 1 -1 0 -2 1 -1 
0 -2 1 -1 0 -2 1 -1 0 -2 1 -1 0 -2 1 -1 
0 -2 1 -1 0 -2 1 -1 0 -1 1 -1 0 -2 1 -1 
0 -2 1 -1 0 -1 1 -1 0 -2 1 -1 0 -2 1 -1 
0 -2 1 -1 0 -1 1 -1 0 -2 1 -1 0 -1 1 -1 
0 -2 1 -1 0 -1 1 -1 0 -2 1 -1 0 -1 1 -1 
0 -2 1 -1 0 -1 1 -1 0 -2 1 -1 0 -1 1 -1 
0 -1 1 -1 0 -3 2103 4476 100 MP stroke
2 -2 0 -2 2 -2 0 -2 1 -1 0 -2 2 -2 0 -2 
1 -1 0 -1 1 -1 0 -1 1 -1 0 -2 2 -2 0 -2 
2 -2 0 -2 2 -2 0 -2 2 -2 0 -2 2 -2 0 -2 
2 -2 0 -1 1 -1 0 -1 2 -2 0 -2 2 -2 0 -1 
1 -1 1 -1 0 -2 2 -2 1 -1 0 -2 2 -2 0 -1 
2 -2 1 -1 0 -2 2 -2 0 -1 2 -2 1 -1 0 -1 
2 -2 0 -1 2 -2 1 -1 0 -1 2 -2 1 -1 1 -1 
0 -1 2 -2 1 -1 0 -1 2 -2 1 -1 1 -1 1 -1 
1 -1 1 -1 1 -1 1 -1 1 -1 1 -1 1 -1 1 -1 
1 -1 1 -1 1 -1 1 -1 1 -1 1 -1 1 -1 1 -1 
1 -1 1 0 1 -1 1 -1 1 -1 1 -1 1 0 1 -1 
1 -1 1 -1 1 0 1 -1 1 -1 1 0 1 -1 1 0 
1 -1 1 -1 1 0 2009 4604 100 MP stroke
1 -1 1 0 1 -1 1 0 1 -1 1 0 1 -1 1 0 
1 0 1 -1 1 0 1 -1 1 0 1 0 1 -1 1 0 
1 0 1 0 1 -1 1 0 1 0 1 -1 1 0 1 0 
1 0 1 0 1 0 1 -1 1 0 1 0 1 0 1 0 
1 0 1 0 1 0 1 0 1 0 1 0 1 0 0 3590 
1 -3 0 -12 1 -3 0 -16 1 -3 0 -12 1 -3 0 -15 
1 -3 0 -16 1 -3 0 -12 1 -3 0 -15 1 -3 0 -12 
1 -3 0 -15 1 -3 0 -15 1 -3 0 -12 1 -3 0 -15 
1 -2 0 -12 1 -3 0 -15 1 -3 0 -15 1 -3 0 -11 
1 -3 0 -15 1 -3 0 -11 1 -3 0 -15 1 -3 0 -14 
1 -3 0 -12 1 -3 0 -14 1 -3 0 -11 1 -3 0 -14 
1 -3 0 -15 1 -2 0 -12 1 -3 0 -14 1 -3 0 -11 
1 -3 0 -14 1 -2 1940 1503 100 MP stroke
0 -14 1 -3 0 -11 1 -3 0 -14 1 -3 0 -11 1 -3 
0 -14 1 -2 0 -14 1 -3 0 -11 1 -3 0 -13 1 -3 
0 -11 1 -3 0 -13 1 -3 0 -14 1 -2 0 -11 1 -3 
0 -13 1 -3 0 -11 1 -2 0 -14 1 -2 0 -14 1 -2 
0 -11 1 -3 0 -13 1 -3 0 -10 1 -3 0 -13 1 -3 
0 -13 1 -2 0 -11 1 -2 0 -13 1 -3 0 -10 1 -3 
0 -13 1 -2 0 -13 1 -3 0 -10 1 -3 0 -13 1 -2 
0 -10 1 -3 0 -13 1 -2 0 -13 1 -2 0 -11 1 -2 
0 -13 1 -2 0 -10 1 -3 0 -12 1 -3 0 -12 1 -3 
0 -10 1 -2 0 -13 1 -2 0 -12 1 -3 0 -10 1 -2 
0 -12 1 -3 0 -10 1 -2 0 -12 1 -3 0 -12 1 -2 
0 -10 1 -2 0 -12 1 -3 0 -9 1 -3 0 -12 1 -2 
0 -12 1 -2 0 -10 1891 2225 100 MP stroke
1 -2 0 -12 1 -2 0 -10 1 -2 0 -12 1 -2 0 -12 
1 -2 0 -9 1 -3 0 -11 1 -3 0 -9 1 -2 0 -12 
1 -2 0 -11 1 -3 0 -9 1 -2 0 -12 1 -2 0 -9 
1 -2 0 -11 1 -3 0 -11 1 -2 0 -9 1 -2 0 -12 
1 -2 0 -9 1 -2 0 -11 1 -2 0 -11 1 -3 0 -8 
1 -3 0 -11 1 -2 0 -8 1 -3 0 -11 1 -2 0 -11 
1 -2 0 -8 1 -3 0 -10 1 -3 0 -8 1 -2 0 -11 
1 -2 0 -11 1 -2 0 -8 1 -2 0 -11 1 -2 0 -9 
1 -2 0 -10 1 -2 0 -11 1 -2 0 -8 1 -2 0 -11 
1 -2 0 -8 1 -2 0 -10 1 -2 0 -11 1 -2 0 -8 
1 -2 0 -10 1 -2 0 -8 1 -2 0 -10 1 -2 0 -10 
1 -2 0 -8 1 -2 0 -10 1 -2 0 -8 1 -2 0 -10 
1 -2 0 -10 1 -2 1841 2822 100 MP stroke
0 -8 1 -2 0 -10 1 -2 0 -7 1 -2 0 -10 1 -2 
0 -10 1 -2 0 -7 1 -2 0 -10 1 -2 0 -7 1 -2 
0 -10 1 -2 0 -9 1 -2 0 -8 1 -1 0 -10 1 -2 
0 -7 1 -2 0 -9 1 -2 0 -10 1 -1 0 -8 1 -2 
0 -9 1 -2 0 -7 1 -2 0 -9 1 -2 0 -9 1 -2 
0 -7 1 -2 0 -9 1 -2 0 -7 1 -2 0 -9 1 -1 
0 -9 1 -2 0 -7 1 -2 0 -9 1 -2 0 -7 1 -1 
0 -9 1 -2 0 -9 1 -1 0 -7 1 -2 0 -9 1 -1 
0 -7 1 -2 0 -9 1 -1 0 -9 1 -2 0 -6 1 -2 
0 -9 1 -1 0 -7 1 -2 0 -8 1 -2 0 -8 1 -2 
0 -7 1 -1 0 -9 1 -1 0 -7 1 -1 0 -9 1 -1 
0 -9 1 -1 0 -7 1 -1 0 -8 1 -2 0 -6 1 -2 
0 -8 1 -2 0 -8 1792 3319 100 MP stroke
1 -1 0 -7 1 -1 0 -8 1 -2 0 -6 1 -2 0 -8 
1 -1 0 -8 1 -2 0 -6 1 -1 0 -8 1 -2 0 -6 
1 -1 0 -8 1 -2 0 -7 1 -2 0 -6 1 -2 0 -7 
1 -2 0 -6 1 -1 0 -8 1 -1 0 -8 1 -1 0 -6 
1 -2 0 -7 1 -2 0 -6 1 -1 0 -7 1 -2 0 -7 
1 -2 0 -5 1 -2 0 -7 1 -2 0 -5 1 -2 0 -7 
1 -1 0 -8 1 -1 0 -6 1 -1 0 -7 1 -2 0 -5 
1 -2 0 -7 1 -1 0 -7 1 -2 0 -5 1 -1 0 -7 
1 -2 0 -5 1 -2 0 -7 1 -1 0 -7 1 -1 0 -6 
1 -1 0 -7 1 -1 0 -5 1 -2 0 -6 1 -2 0 -6 
1 -2 0 -5 1 -1 0 -7 1 -1 0 -6 1 -1 0 -6 
1 -2 0 -6 1 -1 0 -6 1 -1 0 -6 1 -2 0 -5 
1 -1 0 -6 1 -2 1742 3713 100 MP stroke
0 -6 1 -1 0 -5 1 -2 0 -6 1 -1 0 -5 1 -1 
0 -7 1 -1 0 -6 1 -1 0 -5 1 -1 0 -7 1 -1 
0 -6 1 -1 0 -5 1 -1 0 -6 1 -1 0 -5 1 -1 
0 -6 1 -2 0 -5 1 -2 0 -4 1 -2 0 -5 1 -2 
0 -4 1 -1 0 -6 1 -1 0 -6 1 -1 0 -5 1 -1 
0 -6 1 -1 0 -5 1 -1 0 -5 1 -1 0 -6 1 -1 
0 -5 1 -1 0 -6 1 -1 0 -4 1 -1 0 -6 1 -1 
0 -5 1 -1 0 -5 1 -1 0 -5 1 -1 0 -5 1 -1 
0 -5 1 -1 0 -6 1 -1 0 -4 1 -1 0 -5 1 -1 
0 -4 1 -2 0 -5 1 -1 0 -5 1 -1 0 -4 1 -1 
0 -5 1 -1 0 -4 1 -1 0 -6 1 -1 0 -5 1 -1 
0 -4 1 -1 0 -5 1 -1 0 -4 1 -1 0 -4 1 -1 
0 -6 1 -1 0 -4 1693 4026 100 MP stroke
1 -1 0 -4 1 -1 0 -4 1 -1 0 -5 1 -1 0 -5 
1 -1 0 -3 1 -1 0 -5 1 -1 0 -4 1 -1 0 -4 
1 -1 0 -5 1 -1 0 -3 1 -1 0 -5 1 -1 0 -3 
1 -1 0 -5 1 -1 0 -4 1 -1 0 -4 1 -1 0 -4 
1 -1 0 -3 1 -1 0 -5 1 -1 0 -4 1 -1 0 -3 
1 -1 0 -4 1 -1 0 -4 1 -1 0 -4 1 -1 0 -4 
1 -1 0 -3 1 -1 0 -4 1 -1 0 -3 1 -1 0 -4 
1 -1 0 -4 1 -1 0 -3 1 -1 0 -4 1 -1 0 -3 
1 -1 0 -4 1 -1 0 -3 1 -1 0 -3 1 -1 0 -4 
1 -1 0 -3 1 -1 0 -4 1 -1 0 -3 1 -1 0 -3 
1 -1 0 -4 1 -1 0 -2 1 -1 0 -4 1 -1 0 -3 
1 -1 0 -3 1 -1 0 -3 1 -1 0 -3 1 -1 0 -3 
1 -1 0 -4 1 -1 1643 4258 100 MP stroke
0 -2 1 -1 0 -4 1 -1 0 -2 1 -1 0 -3 1 -1 
0 -3 1 -1 0 -3 1 -1 0 -3 1 -1 0 -2 1 -1 
0 -3 1 -1 0 -3 1 -1 0 -3 1 -1 0 -3 1 -1 
0 -2 1 -1 0 -3 1 -1 0 -3 1 -1 0 -2 1 -1 
0 -3 1 -1 0 -2 1 -1 0 -3 1 -1 0 -2 1 -1 
0 -2 1 -1 0 -3 1 -1 0 -2 1 -1 0 -3 1 -1 
0 -2 1 -1 0 -2 1 -1 0 -3 1 -1 0 -2 1 -1 
0 -2 1 -1 0 -3 1 -1 0 -1 1 -1 0 -3 1 -1 
0 -2 1 -1 0 -2 1 -1 0 -2 1 -1 0 -2 1 -1 
0 -2 1 -1 0 -2 1 -1 0 -2 1 -1 0 -3 1 -1 
0 -1 1 -1 0 -2 1 -1 0 -2 1 -1 0 -2 1 -1 
0 -2 1 -1 0 -2 1 -1 0 -2 1 -1 0 -1 1 -1 
0 -2 1 -1 0 -2 1594 4424 100 MP stroke
1 -1 0 -1 1 -1 0 -2 1 -1 0 -2 1 -1 0 -1 
1 -1 0 -2 1 -1 0 -2 1 -1 0 -1 1 -1 0 -2 
1 -1 0 -1 1 -1 0 -3 2 -2 0 -2 1 -1 0 -1 
1 -1 0 -2 1 -1 0 -2 2 -2 0 -2 1 -1 0 -1 
1 -1 0 -1 1 -1 0 -2 1 -1 0 -1 1 -1 0 -1 
1 -1 0 -2 2 -2 0 -2 1 -1 0 -1 1 -1 0 -2 
2 -2 0 -2 2 -2 0 -2 2 -2 0 -2 2 -2 0 -2 
2 -2 0 -2 2 -2 0 -2 2 -2 1 -1 0 -2 2 -2 
0 -2 2 -2 0 -1 2 -2 0 -2 2 -2 0 -1 2 -2 
1 -1 0 -2 2 -2 0 -1 2 -2 0 -1 2 -2 0 -1 
2 -2 0 -1 2 -2 1 -1 0 -1 2 -2 0 -1 2 -2 
1 -1 1 -1 0 -1 2 -2 1 -1 1 -1 0 -1 2 -2 
1 -1 1 -1 1 -1 1515 4572 100 MP stroke
1 -1 1 -1 1 -1 0 -1 2 -2 1 -1 1 -1 1 0 
-1 0 2 -2 1 -1 1 0 1 -1 1 -1 1 -1 1 -1 
1 -1 1 -1 1 -1 1 -1 1 0 1 -1 1 -1 1 -1 
1 0 1 -1 1 -1 1 -1 1 0 1 -1 1 -1 1 0 
1 -1 1 -1 1 0 1 -1 1 0 1 -1 1 0 1 -1 
1 -1 1 0 1 0 1 -1 1 0 1 -1 1 0 1 -1 
1 0 1 0 1 -1 1 0 1 -1 1 0 1 0 1 -1 
1 0 1 0 1 0 1 -1 1 0 1 0 1 0 1 -1 
1 0 1 0 1 0 1 0 1 0 1 -1 1 0 1 0 
1 0 1 0 1 0 1 0 1 0 1 0 1 0 1 0 
1 0 1 0 0 2053 0 -4 1 -2 0 -8 1 -2 0 -10 
1 -2 0 -10 1 -2 0 -9 1 -2 0 -10 1 -2 0 -8 
1 -2 0 -10 1 -2 1426 2646 100 MP stroke
0 -10 1 -2 0 -8 1 -2 0 -9 1 -2 0 -8 1 -2 
0 -10 1 -2 0 -10 1 -2 0 -8 1 -2 0 -9 1 -2 
0 -8 1 -2 0 -9 1 -2 0 -10 1 -2 0 -8 1 -1 
0 -10 1 -2 0 -7 1 -2 0 -10 1 -2 0 -9 1 -2 
0 -7 1 -2 0 -10 1 -2 0 -7 1 -2 0 -9 1 -2 
0 -9 1 -2 0 -7 1 -2 0 -9 1 -2 0 -7 1 -2 
0 -9 1 -2 0 -9 1 -2 0 -7 1 -2 0 -9 1 -2 
0 -9 1 -2 0 -7 1 -1 0 -9 1 -2 0 -7 1 -2 
0 -9 1 -1 0 -9 1 -2 0 -7 1 -2 0 -8 1 -2 
0 -7 1 -2 0 -8 1 -2 0 -9 1 -1 0 -7 1 -2 
0 -8 1 -2 0 -7 1 -2 0 -8 1 -2 0 -8 1 -2 
0 -7 1 -1 0 -9 1 -1 0 -7 1 -1 0 -9 1 -1 
0 -9 1 -1 0 -7 1377 3152 100 MP stroke
1 -1 0 -9 1 -1 0 -7 1 -1 0 -9 1 -1 0 -8 
1 -2 0 -6 1 -2 0 -8 1 -1 0 -7 1 -1 0 -8 
1 -2 0 -8 1 -1 0 -7 1 -1 0 -8 1 -2 0 -6 
1 -1 0 -8 1 -2 0 -7 1 -2 0 -6 1 -2 0 -7 
1 -2 0 -6 1 -2 0 -7 1 -2 0 -7 1 -2 0 -6 
1 -1 0 -8 1 -1 0 -6 1 -2 0 -7 1 -2 0 -7 
1 -1 0 -6 1 -2 0 -7 1 -2 0 -5 1 -2 0 -7 
1 -2 0 -7 1 -1 0 -6 1 -2 0 -7 1 -1 0 -6 
1 -1 0 -7 1 -2 0 -7 1 -1 0 -6 1 -1 0 -7 
1 -2 0 -5 1 -2 0 -7 1 -1 0 -7 1 -1 0 -6 
1 -1 0 -7 1 -1 0 -6 1 -1 0 -7 1 -1 0 -7 
1 -2 0 -5 1 -1 0 -7 1 -1 0 -6 1 -1 0 -7 
1 -1 0 -7 1 -1 1327 3559 100 MP stroke
0 -5 1 -1 0 -7 1 -1 0 -6 1 -1 0 -6 1 -2 
0 -6 1 -1 0 -6 1 -1 0 -6 1 -1 0 -6 1 -1 
0 -6 1 -1 0 -7 1 -1 0 -5 1 -1 0 -7 1 -1 
0 -5 1 -1 0 -6 1 -1 0 -7 1 -1 0 -5 1 -1 
0 -6 1 -1 0 -5 1 -1 0 -6 1 -2 0 -6 1 -1 
0 -4 1 -2 0 -6 1 -1 0 -5 1 -1 0 -6 1 -1 
0 -6 1 -1 0 -5 1 -1 0 -5 1 -2 0 -4 1 -1 
0 -6 1 -1 0 -6 1 -1 0 -5 1 -1 0 -6 1 -1 
0 -4 1 -1 0 -6 1 -1 0 -6 1 -1 0 -4 1 -1 
0 -6 1 -1 0 -4 1 -1 0 -6 1 -1 0 -5 1 -1 
0 -5 1 -1 0 -5 1 -1 0 -5 1 -1 0 -5 1 -1 
0 -5 1 -1 0 -5 1 -1 0 -5 1 -1 0 -4 1 -1 
0 -5 1 -1 0 -6 1278 3886 100 MP stroke
1 -1 0 -4 1 -1 0 -5 1 -1 0 -4 1 -1 0 -5 
1 -1 0 -5 1 -1 0 -4 1 -1 0 -5 1 -1 0 -4 
1 -1 0 -5 1 -1 0 -5 1 -1 0 -3 1 -1 0 -5 
1 -1 0 -4 1 -1 0 -5 1 -1 0 -5 1 -1 0 -3 
1 -1 0 -5 1 -1 0 -4 1 -1 0 -4 1 -1 0 -5 
1 -1 0 -3 1 -1 0 -5 1 -1 0 -3 1 -1 0 -5 
1 -1 0 -4 1 -1 0 -4 1 -1 0 -4 1 -1 0 -3 
1 -1 0 -5 1 -1 0 -4 1 -1 0 -3 1 -1 0 -5 
1 -1 0 -3 1 -1 0 -4 1 -1 0 -4 1 -1 0 -3 
1 -1 0 -4 1 -1 0 -4 1 -1 0 -4 1 -1 0 -4 
1 -1 0 -3 1 -1 0 -4 1 -1 0 -3 1 -1 0 -3 
1 -1 0 -4 1 -1 0 -3 1 -1 0 -4 1 -1 0 -4 
1 -1 0 -3 1 -1 1228 4134 100 MP stroke
0 -3 1 -1 0 -3 1 -1 0 -4 1 -1 0 -3 1 -1 
0 -3 1 -1 0 -4 1 -1 0 -2 1 -1 0 -4 1 -1 
0 -3 1 -1 0 -3 1 -1 0 -3 1 -1 0 -3 1 -1 
0 -3 1 -1 0 -4 1 -1 0 -2 1 -1 0 -4 1 -1 
0 -2 1 -1 0 -3 1 -1 0 -3 1 -1 0 -3 1 -1 
0 -3 1 -1 0 -2 1 -1 0 -3 1 -1 0 -3 1 -1 
0 -3 1 -1 0 -3 1 -1 0 -2 1 -1 0 -3 1 -1 
0 -3 1 -1 0 -2 1 -1 0 -3 1 -1 0 -2 1 -1 
0 -3 1 -1 0 -3 1 -1 0 -2 1 -1 0 -3 1 -1 
0 -2 1 -1 0 -2 1 -1 0 -3 1 -1 0 -2 1 -1 
0 -3 1 -1 0 -2 1 -1 0 -2 1 -1 0 -3 1 -1 
0 -2 1 -1 0 -2 1 -1 0 -2 1 -1 0 -2 1 -1 
0 -3 1 -1 0 -2 1179 4320 100 MP stroke
1 -1 0 -2 1 -1 0 -2 1 -1 0 -2 1 -1 0 -2 
1 -1 0 -2 1 -1 0 -2 1 -1 0 -2 1 -1 0 -2 
1 -1 0 -2 1 -1 0 -2 1 -1 0 -2 1 -1 0 -2 
1 -1 0 -2 1 -1 0 -2 1 -1 0 -1 1 -1 0 -2 
1 -1 0 -2 1 -1 0 -2 1 -1 0 -2 1 -1 0 -1 
1 -1 0 -3 2 -2 0 -2 1 -1 0 -2 1 -1 0 -2 
1 -1 0 -1 1 -1 0 -2 1 -1 0 -1 1 -1 0 -3 
2 -2 0 -3 2 -2 0 -2 1 -1 0 -1 1 -1 0 -2 
1 -1 0 -2 2 -2 0 -2 1 -1 0 -2 2 -2 0 -2 
1 -1 0 -1 1 -1 0 -1 1 -1 0 -2 1 -1 0 -1 
1 -1 0 -1 1 -1 0 -2 2 -2 0 -2 1 -1 0 -1 
1 -1 0 -1 1 -1 0 -1 1 -1 0 -2 2 -2 0 -2 
2 -2 0 -2 2 -2 1120 4468 100 MP stroke
0 -2 2 -2 0 -2 2 -2 0 -1 1 -1 0 -1 1 -1 
0 -1 2 -2 0 -2 2 -2 0 -2 2 -2 0 -1 2 -2 
0 -2 2 -2 0 -1 2 -2 1 -1 0 -2 2 -2 1 -1 
0 -2 2 -2 0 -1 2 -2 0 -1 2 -2 0 -1 2 -2 
0 -1 2 -2 1 -1 0 -1 2 -2 0 -1 2 -2 1 -1 
0 -1 2 -2 1 -1 0 -1 2 -2 1 -1 0 -1 2 -2 
1 -1 1 -1 1 -1 0 -1 2 -2 1 -1 1 -1 1 -1 
1 -1 1 -1 0 -1 2 -2 1 -1 1 -1 1 -1 1 -1 
1 -1 1 -1 1 -1 1 -1 1 -1 1 -1 1 -1 1 -1 
1 0 1 -1 1 -1 1 -1 1 -1 1 -1 1 -1 1 -1 
1 0 1 -1 1 -1 1 -1 1 -1 1 0 1 -1 1 -1 
1 -1 1 0 1 -1 1 -1 1 0 1 -1 1 -1 1 0 
1 -1 1 -1 1 0 1023 4588 100 MP stroke
1 -1 1 -1 1 0 1 -1 1 0 1 -1 1 -1 1 0 
1 -1 1 0 1 -1 1 0 1 -1 1 0 1 -1 1 0 
1 -1 1 0 1 -1 1 0 1 0 1 -1 1 0 1 -1 
1 0 1 0 1 -1 1 0 1 -1 1 0 1 0 1 -1 
1 0 1 0 1 -1 1 0 1 0 1 -1 1 0 1 0 
1 -1 1 0 1 0 1 0 1 -1 1 0 1 0 1 0 
1 -1 1 0 1 0 1 0 1 0 1 -1 1 0 1 0 
1 0 1 0 1 -1 1 0 1 0 1 0 1 0 1 0 
1 -1 1 0 1 0 1 0 1 0 1 0 1 0 1 0 
1 -1 1 0 1 0 1 0 1 0 1 0 1 0 1 0 
1 0 1 0 1 0 1 -1 1 0 1 0 1 0 1 0 
1 0 1 0 1 0 1 0 1 0 1 0 1 0 1 0 
1 0 1 0 1 0 924 4614 100 MP stroke
1 0 1 0 1 0 1 0 1 0 1 0 1 0 1 0 
1 0 1 0 1 0 1 0 1 0 1 0 1 0 1 0 
1 0 1 0 1 0 1 0 1 0 1 0 1 0 1 0 
1 0 -1 0 900 4614 27 MP stroke
gr

c8
0 sg
%%IncludeResource: font Helvetica
/Helvetica /ISOLatin1Encoding 120 FMSR

3316 4903 mt 
(Tempo [s]) s
 616 3064 mt  -90 rotate
(Tra\347o da Covari\342ncia) s
90 rotate
2498  294 mt 
(Tra\347o da Covari\342ncia do Erro de Kalman) s

end %%Color Dict

eplot
%%EndObject

epage
end

showpage

%%Trailer
%%EOF
